1495964772699,-0.003,-0.004,0.000,0.000
1495964772714,-0.003,-0.002,0.000,0.000
1495964772737,-0.002,-0.001,0.000,-0.001,0.004,-0.000,0.000
1495964772755,-0.002,0.001,-0.000,0.000
1495964772772,0.001,0.002,0.000,0.000
1495964772790,0.001,-0.001,0.000,-0.000
1495964772805,0.000,0.003,0.000,0.000
1495964772823,0.000,-0.001,0.000,-0.000
1495964772841,-0.005,0.004,-0.000,0.000
1495964772858,-0.005,0.008,-0.000,0.000
1495964772874,0.004,0.007,0.000,0.000
1495964772891,-0.002,0.003,-0.000,0.000
1495964772909,-0.004,0.007,-0.000,0.000
1495964772925,0.002,-0.001,0.000,-0.000
1495964772942,0.001,-0.004,0.000,-0.000
1495964772962,0.001,0.001,0.000,0.000
1495964772977,0.000,0.001,0.000,0.000
1495964772993,-0.001,0.003,-0.000,0.000
1495964773010,-0.001,0.002,-0.000,0.000
1495964773025,-0.003,-0.001,-0.000,-0.000
1495964773043,-0.001,0.002,-0.000,0.000
1495964773060,-0.001,0.001,-0.000,0.000
1495964773078,-0.007,0.002,-0.000,0.000
1495964773094,-0.005,0.002,-0.000,0.000
1495964773109,-0.006,0.004,-0.000,0.000
1495964773126,0.003,0.003,0.000,0.000
1495964773141,0.008,0.002,0.000,0.000
1495964773159,0.002,0.003,0.000,0.000
1495964773177,-0.003,0.000,-0.000,0.000
1495964773194,-0.003,0.002,-0.000,0.000
1495964773210,-0.003,0.002,-0.000,0.000
1495964773225,-0.005,0.004,-0.000,0.000
1495964773243,0.004,0.007,0.000,0.000
1495964773261,-0.001,-0.000,-0.000,-0.000
1495964773278,-0.004,-0.000,-0.000,-0.000
1495964773294,-0.005,-0.002,-0.000,-0.000
1495964773309,0.004,-0.000,0.000,-0.000
1495964773326,0.005,0.003,0.000,0.000
1495964773342,0.003,0.002,0.000,0.000
1495964773359,0.001,0.001,0.000,0.000
1495964773377,-0.005,0.002,-0.000,0.000
1495964773394,-0.003,0.008,-0.000,0.000
1495964773410,-0.002,0.006,-0.000,0.000
1495964773426,0.003,0.001,0.000,0.000
1495964773442,-0.002,0.006,-0.000,0.000
1495964773458,-0.003,0.005,-0.000,0.000
1495964773475,0.001,0.005,0.000,0.000
1495964773493,-0.001,-0.002,-0.000,-0.000
1495964773511,0.002,-0.000,0.000,-0.000
1495964773528,0.001,0.001,0.000,0.000
1495964773544,-0.004,0.001,-0.000,0.000
1495964773559,-0.006,0.001,-0.000,0.000
1495964773576,-0.004,0.005,-0.000,0.000
1495964773609,0.001,0.004,0.000,0.000
1495964773627,-0.000,0.006,-0.000,0.000
1495964773644,-0.004,-0.001,-0.000,-0.000
1495964773660,-0.003,-0.000,-0.000,-0.000
1495964773676,-0.002,-0.001,-0.000,-0.000
1495964773692,-0.000,0.005,-0.000,0.000
1495964773708,0.002,0.004,0.000,0.000
1495964773728,0.000,-0.020,0.000,-0.001
1495964773745,-0.001,-0.007,-0.000,-0.000
1495964773761,-0.008,0.005,-0.000,0.000
1495964773778,-0.005,0.006,-0.000,0.000
1495964773794,-0.005,0.004,-0.000,0.000
1495964773809,0.007,0.000,0.000,0.000
1495964773826,-0.007,-0.047,-0.000,-0.002
1495964773842,-0.001,-0.005,-0.000,-0.000
1495964773859,-0.002,-0.010,-0.000,-0.000
1495964773875,-0.005,-0.009,-0.000,-0.000
1495964773892,-0.002,-0.010,-0.000,-0.000
1495964773928,0.001,-0.009,0.000,-0.000
1495964773945,-0.002,-0.002,-0.000,-0.000
1495964773961,-0.005,-0.008,-0.000,-0.000
1495964773976,-0.006,-0.006,-0.000,-0.000
1495964773993,0.002,-0.008,0.000,-0.000
1495964774009,0.001,-0.010,0.000,-0.000
1495964774024,-0.003,-0.011,-0.000,-0.000
1495964774042,-0.007,-0.010,-0.000,-0.000
1495964774057,-0.002,-0.011,-0.000,-0.000
1495964774093,-0.001,-0.013,0.000,0.000
1495964774110,0.002,-0.011,-0.000,0.000
1495964774128,-0.001,-0.026,0.000,0.001
1495964774143,-0.004,-0.001,0.000,0.000
1495964774159,-0.007,-0.000,-0.000,-0.000
1495964774191,-0.004,-0.010,0.000,0.000
1495964774207,0.002,-0.006,0.000,-0.000
1495964774239,0.003,-0.004,0.000,-0.000
1495964774255,0.001,-0.006,0.000,-0.000
1495964774270,-0.003,-0.005,-0.000,-0.000
1495964774288,-0.001,-0.007,-0.000,-0.000
1495964774305,-0.001,-0.001,-0.000,-0.000
1495964774323,-0.005,-0.003,-0.000,-0.000
1495964774341,0.001,-0.004,0.000,-0.000
1495964774358,-0.002,0.000,-0.000,0.000
1495964774376,-0.006,-0.002,-0.000,-0.000
1495964774378,-0.004,-0.007,-0.000,-0.000
1495964774394,-0.001,-0.003,-0.000,-0.000
1495964774412,0.003,-0.006,0.000,-0.000
1495964774430,0.002,-0.001,0.000,-0.000
1495964774447,0.002,-0.002,0.000,-0.000
1495964774465,-0.005,-0.000,-0.000,-0.000
1495964774482,-0.004,-0.003,-0.000,-0.000
1495964774500,0.002,0.000,0.000,0.000
1495964774518,-0.003,0.001,-0.000,0.000
1495964774533,-0.002,0.002,-0.000,0.000
1495964774549,-0.006,-0.009,-0.000,-0.000
1495964774565,-0.000,-0.001,-0.000,-0.000
1495964774581,0.004,0.006,0.000,0.000
1495964774616,0.001,0.003,0.000,0.000
1495964774634,-0.003,-0.001,-0.000,-0.000
1495964774651,-0.004,-0.005,-0.000,-0.000
1495964774667,-0.001,-0.007,-0.000,-0.000
1495964774683,0.001,-0.001,0.000,-0.000
1495964774699,0.000,0.003,0.000,0.000
1495964774715,-0.001,0.002,-0.000,0.000
1495964774732,-0.004,0.008,-0.000,0.000
1495964774750,-0.001,0.003,-0.000,0.000
1495964774768,-0.001,-0.007,-0.000,-0.000
1495964774783,-0.002,0.003,-0.000,0.000
1495964774799,-0.001,-0.001,-0.000,-0.000
1495964774815,0.002,0.003,0.000,0.000
1495964774831,-0.004,-0.002,-0.000,-0.000
1495964774849,-0.004,0.001,-0.000,0.000
1495964774866,-0.003,-0.004,-0.000,-0.000
1495964774884,-0.003,-0.002,-0.000,-0.000
1495964774899,-0.001,-0.000,-0.000,-0.000
1495964774931,-0.002,0.001,-0.000,0.000
1495964774948,-0.003,-0.007,-0.000,-0.000
1495964774966,-0.002,-0.003,-0.000,-0.000
1495964774983,0.002,0.001,0.000,0.000
1495964775001,0.002,0.001,0.000,0.000
1495964775017,-0.000,0.002,-0.000,0.000
1495964775032,-0.004,0.001,-0.000,0.000
1495964775049,-0.005,0.004,-0.000,0.000
1495964775064,-0.001,-0.001,-0.000,-0.000
1495964775082,0.006,-0.001,0.000,-0.000
1495964775100,-0.002,-0.002,-0.000,-0.000
1495964775117,-0.001,-0.003,-0.000,-0.000
1495964775148,-0.005,-0.002,-0.000,-0.000
1495964775164,-0.007,-0.001,-0.000,-0.000
1495964775182,-0.005,-0.002,-0.000,-0.000
1495964775199,0.002,-0.003,0.000,-0.000
1495964775217,-0.001,-0.005,-0.000,-0.000
1495964775234,-0.004,-0.009,-0.000,-0.000
1495964775250,-0.005,0.001,-0.000,0.000
1495964775266,0.000,0.002,0.000,0.000
1495964775282,0.006,0.003,0.000,0.000
1495964775298,0.003,-0.002,0.000,-0.000
1495964775315,0.002,0.002,0.000,0.000
1495964775333,-0.004,0.001,-0.000,0.000
1495964775349,-0.001,-0.002,-0.000,-0.000
1495964775366,0.002,0.001,0.000,0.000
1495964775382,0.002,0.005,0.000,0.000
1495964775399,-0.002,0.004,-0.000,0.000
1495964775417,-0.007,-0.000,-0.000,-0.000
1495964775435,-0.003,-0.000,-0.000,-0.000
1495964775466,-0.002,0.003,-0.000,0.000
1495964775482,0.004,0.001,0.000,0.000
1495964775498,-0.001,-0.002,-0.000,-0.000
1495964775516,-0.001,-0.001,-0.000,-0.000
1495964775533,-0.000,0.001,-0.000,0.000
1495964775551,-0.002,0.007,-0.000,0.000
1495964775568,0.002,-0.001,0.000,-0.000
1495964775586,-0.000,0.001,-0.000,0.000
1495964775602,-0.003,0.005,-0.000,0.000
1495964775617,-0.003,0.001,-0.000,0.000
1495964775634,-0.006,0.002,-0.000,0.000
1495964775667,-0.004,-0.001,-0.000,-0.000
1495964775685,-0.002,-0.001,-0.000,-0.000
1495964775702,0.003,-0.001,0.000,-0.000
1495964775718,-0.011,-0.023,-0.000,-0.001
1495964775733,-0.015,-0.039,-0.001,-0.002
1495964775750,0.010,-0.034,0.001,-0.002
1495964775766,-0.009,-0.061,-0.000,-0.004
1495964775783,-0.032,-0.033,-0.002,-0.002
1495964775801,-0.021,-0.061,-0.001,-0.004
1495964775818,-0.010,-0.047,-0.001,-0.003
1495964775836,-0.042,-0.084,-0.003,-0.006
1495964775852,0.008,-0.088,0.001,-0.007
1495964775867,-0.005,-0.002,-0.000,-0.000
1495964775884,0.027,0.020,0.002,0.002
1495964775917,0.018,-0.063,0.001,-0.005
1495964775935,0.027,-0.050,0.002,-0.004
1495964775952,0.069,-0.060,0.006,-0.005
1495964775968,-0.002,-0.068,-0.000,-0.006
1495964775983,-0.007,-0.094,-0.001,-0.008
1495964776000,-0.015,-0.015,-0.001,-0.001
1495964776016,0.015,-0.046,0.001,-0.004
1495964776033,-0.010,-0.069,-0.001,-0.007
1495964776051,-0.026,-0.090,-0.002,-0.009
1495964776068,-0.044,-0.024,-0.004,-0.002
1495964776086,-0.046,-0.066,-0.005,-0.007
1495964776102,0.031,-0.015,0.003,-0.002
1495964776134,0.055,0.003,0.006,0.000
1495964776149,-0.008,-0.015,-0.001,-0.002
1495964776167,0.001,-0.047,0.000,-0.005
1495964776185,0.029,0.025,0.003,0.003
1495964776202,0.006,0.028,0.001,0.003
1495964776218,-0.007,0.000,-0.001,0.000
1495964776233,0.011,-0.024,0.001,-0.002
1495964776250,-0.003,-0.002,-0.000,-0.000
1495964776266,0.022,0.021,0.002,0.002
1495964776283,-0.036,-0.013,-0.004,-0.001
1495964776301,-0.020,-0.001,-0.002,-0.000
1495964776318,0.007,0.105,0.001,0.011
1495964776336,-0.026,-0.036,-0.003,-0.004
1495964776352,-0.079,-0.002,-0.008,-0.000
1495964776367,-0.064,-0.023,-0.007,-0.002
1495964776384,0.058,0.007,0.006,0.001
1495964776399,-0.031,-0.048,-0.003,-0.005
1495964776435,0.041,-0.019,0.004,-0.002
1495964776452,0.031,0.059,0.003,0.006
1495964776468,0.015,0.008,0.002,0.001
1495964776483,0.026,0.016,0.003,0.002
1495964776500,0.003,0.029,0.000,0.003
1495964776516,-0.035,-0.017,-0.004,-0.002
1495964776533,0.049,0.022,0.005,0.002
1495964776551,-0.040,-0.003,-0.004,-0.000
1495964776568,-0.014,0.026,-0.001,0.003
1495964776586,-0.060,0.047,-0.006,0.005
1495964776602,0.036,0.040,0.004,0.004
1495964776617,-0.016,0.024,-0.002,0.002
1495964776634,0.010,0.024,0.001,0.002
1495964776649,-0.065,0.062,-0.006,0.006
1495964776682,0.053,0.064,0.005,0.006
1495964776699,0.023,-0.015,0.002,-0.001
1495964776717,-0.012,-0.061,-0.001,-0.006
1495964776734,0.041,-0.004,0.004,-0.000
1495964776752,-0.042,0.068,-0.004,0.006
1495964776768,-0.042,0.125,-0.004,0.011
1495964776783,-0.047,-0.056,-0.005,-0.005
1495964776799,-0.025,0.017,-0.002,0.002
1495964776816,0.032,0.046,0.003,0.004
1495964776834,-0.009,-0.014,-0.001,-0.001
1495964776852,-0.013,0.023,-0.001,0.002
1495964776869,0.008,0.044,0.001,0.004
1495964776885,0.069,0.001,0.006,0.000
1495964776900,0.005,-0.031,0.000,-0.003
1495964776917,-0.054,-0.018,-0.005,-0.002
1495964776933,0.029,0.064,0.003,0.006
1495964776950,0.007,0.000,0.001,0.000
1495964776968,-0.013,0.046,-0.001,0.004
1495964776985,-0.052,0.050,-0.005,0.004
1495964777003,0.021,0.184,0.002,0.016
1495964777034,0.006,0.164,0.001,0.013
1495964777051,0.009,0.090,0.001,0.007
1495964777066,-0.042,-0.003,-0.003,-0.000
1495964777084,0.011,0.106,0.001,0.006
1495964777102,-0.004,0.019,-0.000,0.001
1495964777119,0.001,0.011,0.000,0.001
1495964777135,0.009,0.005,0.000,0.000
1495964777150,0.003,-0.002,0.000,-0.000
1495964777167,-0.001,-0.002,-0.000,-0.000
1495964777183,-0.005,-0.004,-0.000,-0.000
1495964777200,0.000,0.016,0.000,0.001
1495964777218,-0.000,0.001,-0.000,0.000
1495964777235,-0.008,0.002,-0.000,0.000
1495964777253,0.005,0.003,0.000,0.000
1495964777269,0.000,0.003,0.000,0.000
1495964777284,0.005,0.014,0.000,0.001
1495964777301,-0.002,0.009,-0.000,0.000
1495964777316,0.001,0.004,0.000,0.000
1495964777334,-0.002,0.002,-0.000,0.000
1495964777352,-0.001,0.002,-0.000,0.000
1495964777385,-0.001,0.004,-0.000,0.000
1495964777400,0.003,0.003,0.000,0.000
1495964777416,0.000,0.005,0.000,0.000
1495964777432,-0.002,0.005,-0.000,0.000
1495964777449,0.002,0.009,0.000,0.000
1495964777467,0.002,0.003,0.000,0.000
1495964777484,-0.001,0.000,-0.000,0.000
1495964777500,0.000,0.004,0.000,0.000
1495964777518,-0.002,0.005,-0.000,0.000
1495964777535,-0.002,0.003,-0.000,0.000
1495964777553,0.004,0.008,0.000,0.000
1495964777568,0.003,0.006,0.000,0.000
1495964777584,-0.002,0.008,-0.000,0.000
1495964777601,-0.007,0.003,-0.000,0.000
1495964777616,-0.003,-0.002,-0.000,-0.000
1495964777634,0.005,0.006,0.000,0.000
1495964777651,0.000,0.006,0.000,0.000
1495964777669,0.003,0.007,0.000,0.000
1495964777685,-0.007,0.003,-0.000,0.000
1495964777716,-0.005,-0.002,-0.000,-0.000
1495964777731,0.003,0.006,0.000,0.000
1495964777749,0.003,0.008,0.000,0.000
1495964777767,0.008,0.009,0.000,0.000
1495964777784,-0.001,0.004,-0.000,0.000
1495964777802,-0.005,0.005,-0.000,0.000
1495964777819,0.004,-0.000,0.000,-0.000
1495964777835,0.003,-0.002,0.000,-0.000
1495964777851,0.002,0.001,0.000,0.000
1495964777867,-0.003,0.008,-0.000,0.000
1495964777883,-0.009,0.007,-0.000,0.000
1495964777900,-0.006,0.001,-0.000,0.000
1495964777918,0.002,0.002,0.000,0.000
1495964777936,0.009,0.009,0.000,0.000
1495964777951,-0.002,-0.002,-0.000,-0.000
1495964777967,-0.006,0.006,-0.000,0.000
1495964778000,-0.002,0.003,-0.000,0.000
1495964778018,0.004,0.011,0.000,0.000
1495964778035,0.008,0.007,0.000,0.000
1495964778053,-0.001,0.001,-0.000,0.000
1495964778068,-0.008,0.001,-0.000,0.000
1495964778084,-0.003,0.006,-0.000,0.000
1495964778101,0.001,0.008,0.000,0.000
1495964778116,-0.000,-0.000,-0.000,-0.000
1495964778134,0.001,-0.001,0.000,-0.000
1495964778151,-0.001,0.002,-0.000,0.000
1495964778200,-0.001,0.000,-0.000,0.000
1495964778216,-0.002,0.004,-0.000,0.000
1495964778235,0.001,0.006,0.000,0.000
1495964778253,0.003,0.006,0.000,0.000
1495964778271,-0.003,0.001,-0.000,0.000
1495964778288,0.001,-0.001,0.000,-0.000
1495964778306,-0.002,-0.002,-0.000,-0.000
1495964778323,0.000,0.005,0.000,0.000
1495964778341,0.001,0.004,0.000,0.000
1495964778359,0.001,0.004,0.000,0.000
1495964778374,0.000,0.001,0.000,0.000
1495964778390,-0.004,0.008,-0.000,0.000
1495964778407,0.001,0.003,0.000,0.000
1495964778425,0.001,0.005,0.000,0.000
1495964778443,-0.001,0.002,-0.000,0.000
1495964778458,-0.002,0.002,-0.000,0.000
1495964778474,0.000,0.007,0.000,0.000
1495964778490,0.004,0.003,0.000,0.000
1495964778506,-0.000,0.004,-0.000,0.000
1495964778524,-0.004,0.001,-0.000,0.000
1495964778541,-0.004,0.006,-0.000,0.000
1495964778559,0.003,0.007,0.000,0.000
1495964778574,-0.001,0.010,-0.000,0.000
1495964778590,0.001,0.006,0.000,0.000
1495964778607,-0.002,0.005,-0.000,0.000
1495964778622,0.003,0.004,0.000,0.000
1495964778640,0.005,0.005,0.000,0.000
1495964778657,0.003,0.006,0.000,0.000
1495964778675,0.001,0.002,0.000,0.000
1495964778693,-0.004,0.004,-0.000,0.000
1495964778708,-0.004,0.001,-0.000,0.000
1495964778724,0.003,0.004,0.000,0.000
1495964778740,0.005,0.004,0.000,0.000
1495964778756,-0.003,0.000,-0.000,0.000
1495964778774,-0.006,0.004,-0.000,0.000
1495964778791,-0.004,0.003,-0.000,0.000
1495964778809,0.001,0.006,0.000,0.000
1495964778824,0.004,0.005,0.000,0.000
1495964778840,0.003,0.008,0.000,0.000
1495964778857,0.000,-0.001,0.000,-0.000
1495964778872,-0.006,0.009,-0.000,0.000
1495964778890,-0.004,0.007,-0.000,0.000
1495964778907,-0.001,0.003,-0.000,0.000
1495964778925,0.003,0.001,0.000,0.000
1495964778943,-0.001,0.002,-0.000,0.000
1495964778958,-0.005,0.005,-0.000,0.000
1495964778974,-0.004,0.001,-0.000,0.000
1495964778990,0.001,0.003,0.000,0.000
1495964779006,-0.001,-0.000,-0.000,-0.000
1495964779024,0.007,0.004,0.000,0.000
1495964779041,-0.001,0.007,-0.000,0.000
1495964779059,-0.001,0.004,-0.000,0.000
1495964779074,-0.002,0.001,-0.000,0.000
1495964779090,0.002,0.005,0.000,0.000
1495964779107,0.002,0.004,0.000,0.000
1495964779140,-0.005,0.009,-0.000,0.000
1495964779157,-0.009,0.008,-0.000,0.000
1495964779175,-0.008,0.002,-0.000,0.000
1495964779193,0.001,0.004,0.000,0.000
1495964779208,0.004,-0.002,0.000,-0.000
1495964779224,0.001,0.005,0.000,0.000
1495964779240,0.002,0.004,0.000,0.000
1495964779256,-0.005,0.002,-0.000,0.000
1495964779274,-0.003,0.001,-0.000,0.000
1495964779291,0.000,0.002,0.000,0.000
1495964779309,0.004,0.006,0.000,0.000
1495964779324,0.003,0.007,0.000,0.000
1495964779340,-0.002,0.006,-0.000,0.000
1495964779358,-0.002,0.007,0.000,-0.000
1495964779375,-0.003,0.002,0.000,-0.000
1495964779393,-0.001,0.003,0.000,-0.000
1495964779408,-0.002,0.002,0.000,-0.000
1495964779424,0.002,0.005,-0.000,-0.000
1495964779456,-0.007,0.006,0.000,-0.000
1495964779474,-0.005,0.004,0.000,-0.000
1495964779491,0.000,0.003,-0.000,-0.000
1495964779509,0.003,0.004,-0.000,-0.000
1495964779525,0.004,0.004,-0.000,-0.000
1495964779540,-0.003,0.004,0.000,-0.000
1495964779557,-0.007,0.004,0.000,-0.000
1495964779572,-0.001,0.001,0.000,-0.000
1495964779590,0.004,-0.001,-0.000,0.000
1495964779608,0.001,0.000,-0.000,-0.000
1495964779625,0.001,0.000,-0.000,-0.000
1495964779643,-0.003,0.003,0.000,-0.000
1495964779658,-0.003,0.003,0.000,-0.000
1495964779691,0.002,0.004,-0.000,-0.000
1495964779706,0.004,0.005,-0.000,-0.000
1495964779724,0.001,0.004,-0.000,-0.000
1495964779741,-0.000,0.005,0.000,-0.000
1495964779759,-0.005,0.003,0.000,-0.000
1495964779775,0.003,0.007,-0.000,-0.000
1495964779790,0.007,0.009,-0.000,-0.000
1495964779807,0.002,-0.000,-0.000,0.000
1495964779822,-0.007,0.002,0.000,0.000
1495964779840,-0.001,0.005,0.000,0.000
1495964779858,-0.003,0.002,-0.000,0.000
1495964779875,0.003,0.006,0.000,0.000
1495964779893,0.011,0.052,0.001,0.005
1495964779924,-0.002,-0.002,-0.000,-0.000
1495964779941,-0.049,0.008,0.004,-0.001
1495964779956,-0.028,0.018,-0.003,0.001
1495964779974,0.036,0.006,0.002,0.001
1495964779991,0.007,0.007,0.001,0.001
1495964780009,-0.015,0.045,-0.001,0.004
1495964780025,-0.027,0.052,-0.002,0.006
1495964780040,0.026,0.098,0.002,0.012
1495964780057,0.050,0.113,0.005,0.019
1495964780072,0.062,0.091,0.008,0.020
1495964780090,-0.021,0.144,-0.003,0.030
1495964780108,0.000,0.070,0.000,0.012
1495964780125,-0.032,-0.023,-0.004,-0.003
1495964780143,0.024,0.076,0.003,0.010
1495964780190,0.015,0.078,0.002,0.011
1495964780205,-0.048,0.002,-0.006,0.000
1495964780227,-0.060,-0.007,-0.008,-0.001
1495964780244,0.004,0.081,0.000,0.011
1495964780262,0.050,0.031,0.007,0.004
1495964780280,-0.005,-0.081,-0.001,-0.011
1495964780297,0.017,0.021,0.002,0.003
1495964780315,0.014,0.036,0.002,0.005
1495964780332,-0.078,-0.032,-0.011,-0.004
1495964780350,-0.039,-0.006,-0.005,-0.001
1495964780368,0.001,0.041,0.000,0.006
1495964780383,-0.031,0.063,-0.004,0.009
1495964780399,-0.015,-0.087,-0.002,-0.012
1495964780415,0.006,0.003,0.001,0.000
1495964780431,0.011,-0.005,0.001,-0.001
1495964780449,0.020,0.081,0.003,0.011
1495964780466,0.009,-0.011,0.001,-0.002
1495964780484,-0.032,0.053,-0.004,0.007
1495964780499,0.049,0.067,0.007,0.009
1495964780515,0.027,-0.009,0.004,-0.001
1495964780531,0.009,-0.031,0.001,-0.004
1495964780546,-0.008,0.052,-0.001,0.007
1495964780564,-0.042,-0.118,-0.006,-0.017
1495964780581,0.047,0.038,0.006,0.005
1495964780599,-0.027,0.052,-0.004,0.007
1495964780617,-0.039,-0.098,-0.005,-0.014
1495964780634,0.068,-0.035,0.009,-0.005
1495964780650,0.045,-0.192,0.006,-0.026
1495964780665,0.005,-0.138,0.001,-0.017
1495964780682,0.022,0.058,0.003,0.007
1495964780698,0.030,0.065,0.004,0.009
1495964780715,-0.022,0.033,-0.003,0.004
1495964780733,-0.027,-0.001,-0.003,-0.000
1495964780750,0.017,0.048,0.002,0.006
1495964780766,0.001,0.079,0.000,0.011
1495964780782,0.007,0.047,0.001,0.006
1495964780798,-0.016,-0.051,-0.002,-0.007
1495964780814,-0.011,-0.021,-0.001,-0.003
1495964780831,-0.013,0.071,-0.002,0.010
1495964780849,-0.008,0.109,-0.001,0.015
1495964780867,0.017,-0.010,0.002,-0.001
1495964780884,0.057,-0.013,0.008,-0.002
1495964780900,0.025,0.053,0.004,0.007
1495964780915,-0.024,0.057,-0.003,0.008
1495964780948,0.012,-0.057,0.002,-0.008
1495964780965,-0.020,-0.100,-0.003,-0.014
1495964780983,-0.022,-0.069,-0.003,-0.009
1495964781000,0.011,-0.087,0.002,-0.012
1495964781016,-0.007,-0.030,-0.001,-0.004
1495964781032,0.029,0.027,0.004,0.004
1495964781049,0.014,-0.014,0.002,-0.002
1495964781067,0.027,0.032,0.004,0.004
1495964781084,-0.050,-0.017,-0.007,-0.002
1495964781100,0.070,-0.015,0.009,-0.002
1495964781116,0.027,0.013,0.004,0.002
1495964781132,0.030,0.027,0.004,0.004
1495964781148,-0.030,0.008,-0.004,0.001
1495964781165,-0.023,0.045,-0.003,0.006
1495964781183,0.008,0.010,0.001,0.001
1495964781201,0.044,0.100,0.006,0.014
1495964781232,-0.017,-0.047,-0.002,-0.007
1495964781249,-0.003,0.008,-0.000,0.001
1495964781267,0.036,0.075,0.005,0.011
1495964781285,-0.003,-0.079,-0.000,-0.011
1495964781300,-0.076,-0.133,-0.011,-0.018
1495964781318,0.021,0.091,0.003,0.012
1495964781333,0.046,0.106,0.007,0.015
1495964781349,-0.017,-0.055,-0.002,-0.008
1495964781366,-0.013,-0.033,-0.002,-0.005
1495964781381,-0.050,0.012,-0.007,0.002
1495964781399,0.032,0.034,0.004,0.005
1495964781416,0.016,-0.071,0.002,-0.010
1495964781434,0.004,-0.029,0.001,-0.004
1495964781465,-0.001,-0.030,-0.000,-0.004
1495964781483,0.047,-0.018,0.006,-0.002
1495964781500,-0.007,-0.028,-0.001,-0.004
1495964781516,-0.004,-0.026,-0.001,-0.004
1495964781532,-0.037,0.071,-0.005,0.010
1495964781547,0.015,0.008,0.002,0.001
1495964781565,0.041,-0.081,0.006,-0.011
1495964781582,0.045,-0.013,0.006,-0.002
1495964781600,0.066,0.018,0.009,0.002
1495964781618,-0.001,-0.092,-0.000,-0.013
1495964781633,-0.007,-0.092,-0.001,-0.012
1495964781649,0.005,-0.122,0.001,-0.016
1495964781665,0.021,-0.084,0.003,-0.011
1495964781681,0.003,-0.010,0.000,-0.001
1495964781699,-0.005,-0.007,-0.001,-0.001
1495964781716,0.000,-0.002,0.000,-0.000
1495964781734,0.002,0.006,0.000,0.001
1495964781751,0.006,0.001,0.001,0.000
1495964781783,0.003,0.004,0.000,0.000
1495964781799,-0.007,0.001,-0.001,0.000
1495964781815,-0.007,0.003,-0.001,0.000
1495964781832,-0.003,0.003,-0.000,0.000
1495964781850,0.002,-0.000,0.000,-0.000
1495964781868,0.001,-0.003,0.000,-0.000
1495964781883,-0.005,-0.002,-0.001,-0.000
1495964781899,-0.008,-0.003,-0.001,-0.000
1495964781915,0.000,-0.001,0.000,-0.000
1495964781931,0.003,-0.001,0.000,-0.000
1495964781949,0.002,0.006,0.000,0.001
1495964781966,-0.002,0.004,-0.000,0.000
1495964781984,-0.007,-0.001,-0.001,-0.000
1495964782001,-0.009,0.003,-0.001,0.000
1495964782017,0.002,0.004,0.000,0.000
1495964782049,0.003,0.001,0.000,0.000
1495964782065,0.002,-0.001,0.000,-0.000
1495964782082,-0.001,-0.001,-0.000,-0.000
1495964782100,-0.003,-0.001,-0.000,-0.000
1495964782118,0.001,-0.002,0.000,-0.000
1495964782133,-0.002,0.001,-0.000,0.000
1495964782149,0.002,0.001,0.000,0.000
1495964782165,0.000,-0.002,0.000,-0.000
1495964782198,-0.001,0.003,-0.000,0.000
1495964782213,-0.004,0.003,-0.000,0.000
1495964782231,-0.003,0.001,-0.000,0.000
1495964782248,0.002,0.026,0.000,0.003
1495964782266,0.004,0.011,0.001,0.001
1495964782284,0.001,-0.005,0.000,-0.001
1495964782301,-0.004,0.002,-0.000,0.000
1495964782319,-0.003,0.009,-0.000,0.001
1495964782336,-0.003,0.008,-0.000,0.001
1495964782354,-0.039,-0.132,-0.005,-0.017
1495964782370,0.018,0.079,0.002,0.009
1495964782385,-0.029,-0.095,-0.004,-0.012
1495964782401,-0.061,-0.050,-0.007,-0.006
1495964782418,0.003,-0.004,0.000,-0.001
1495964782436,0.003,-0.007,0.000,-0.001
1495964782454,0.004,0.003,0.000,0.000
1495964782471,0.000,0.006,0.000,0.001
1495964782487,-0.004,-0.001,-0.000,-0.000
1495964782502,-0.003,0.001,-0.000,0.000
1495964782519,0.004,-0.002,0.000,-0.000
1495964782535,0.006,0.000,0.001,0.000
1495964782552,0.001,0.002,0.000,0.000
1495964782570,-0.007,0.002,-0.001,0.000
1495964782587,-0.008,0.000,-0.001,0.000
1495964782603,-0.002,0.001,-0.000,0.000
1495964782619,0.003,0.004,0.000,0.000
1495964782636,0.006,-0.003,0.001,-0.000
1495964782654,-0.001,0.001,-0.000,0.000
1495964782687,-0.001,-0.002,-0.000,-0.000
1495964782703,-0.005,-0.001,-0.001,-0.000
1495964782719,-0.000,-0.001,-0.000,-0.000
1495964782735,0.000,-0.003,0.000,-0.000
1495964782752,0.003,-0.002,0.000,-0.000
1495964782770,-0.000,-0.001,-0.000,-0.000
1495964782788,-0.004,0.001,-0.000,0.000
1495964782803,-0.001,0.001,-0.000,0.000
1495964782819,0.002,0.000,0.000,0.000
1495964782835,0.003,0.004,0.000,0.000
1495964782851,0.001,-0.004,0.000,-0.000
1495964782869,0.002,0.000,0.000,0.000
1495964782886,-0.003,-0.002,-0.000,-0.000
1495964782904,-0.000,0.001,-0.000,0.000
1495964782937,-0.004,-0.003,-0.000,-0.000
1495964782953,-0.002,0.001,-0.000,0.000
1495964782969,-0.005,0.003,-0.001,0.000
1495964782985,-0.000,0.005,-0.000,0.001
1495964783002,-0.002,0.004,-0.000,0.000
1495964783020,-0.001,0.002,-0.000,0.000
1495964783038,0.001,0.002,0.000,0.000
1495964783053,0.003,0.002,0.000,0.000
1495964783069,0.001,-0.005,0.000,-0.001
1495964783085,0.002,-0.003,0.000,-0.000
1495964783101,-0.003,-0.003,-0.000,-0.000
1495964783119,0.002,0.002,0.000,0.000
1495964783136,0.000,-0.000,0.000,-0.000
1495964783156,-0.005,0.003,-0.001,0.000
1495964783173,-0.004,0.000,-0.000,0.000
1495964783191,-0.006,0.001,-0.001,0.000
1495964783226,-0.004,0.001,-0.000,0.000
1495964783244,0.003,-0.001,0.000,-0.000
1495964783261,0.002,-0.000,0.000,-0.000
1495964783279,-0.001,-0.000,-0.000,-0.000
1495964783281,-0.002,-0.001,-0.000,-0.000
1495964783298,-0.001,-0.000,-0.000,-0.000
1495964783315,-0.003,0.000,-0.000,0.000
1495964783333,0.006,-0.000,0.001,-0.000
1495964783350,-0.004,0.001,-0.000,0.000
1495964783386,-0.007,0.001,-0.001,0.000
1495964783403,-0.002,0.001,-0.000,0.000
1495964783421,0.000,0.000,0.000,0.000
1495964783438,0.001,0.001,0.000,0.000
1495964783454,0.002,0.001,0.000,0.000
1495964783470,-0.001,0.000,-0.000,0.000
1495964783486,-0.004,-0.001,-0.000,-0.000
1495964783502,-0.001,-0.000,-0.000,-0.000
1495964783519,-0.005,0.001,-0.001,0.000
1495964783537,0.003,0.000,0.000,0.000
1495964783555,0.003,-0.002,0.000,-0.000
1495964783570,-0.001,-0.002,-0.000,-0.000
1495964783586,-0.002,0.002,-0.000,0.000
1495964783602,0.001,0.001,0.000,0.000
1495964783618,0.003,-0.001,0.000,-0.000
1495964783636,-0.003,0.001,-0.000,0.000
1495964783653,-0.005,0.002,-0.001,0.000
1495964783671,-0.003,0.002,-0.000,0.000
1495964783688,-0.001,-0.002,-0.000,-0.000
1495964783704,-0.003,-0.002,-0.000,-0.000
1495964783736,0.001,0.004,0.000,0.000
1495964783752,-0.001,-0.001,-0.000,-0.000
1495964783769,-0.004,-0.000,-0.000,-0.000
1495964783787,-0.005,-0.000,-0.001,-0.000
1495964783805,0.001,0.005,0.000,0.001
1495964783820,-0.002,0.001,-0.000,0.000
1495964783836,-0.001,0.003,-0.000,0.000
1495964783852,-0.002,0.002,-0.000,0.000
1495964783868,-0.007,-0.002,-0.001,-0.000
1495964783886,-0.002,0.003,-0.000,0.000
1495964783921,-0.000,0.001,-0.000,0.000
1495964783938,0.001,-0.002,0.000,-0.000
1495964783954,0.003,-0.000,0.000,-0.000
1495964783970,-0.003,0.001,-0.000,0.000
1495964783986,-0.000,-0.003,-0.000,-0.000
1495964784002,0.001,-0.001,0.000,-0.000
1495964784019,-0.001,-0.002,-0.000,-0.000
1495964784037,0.002,0.000,0.000,0.000
1495964784055,-0.001,-0.000,-0.000,-0.000
1495964784070,-0.007,-0.000,-0.001,-0.000
1495964784086,-0.000,0.002,-0.000,0.000
1495964784102,0.004,-0.004,0.000,-0.000
1495964784118,0.005,0.003,0.001,0.000
1495964784136,0.003,0.005,0.000,0.001
1495964784153,0.001,-0.002,0.000,-0.000
1495964784202,-0.007,0.003,-0.001,0.000
1495964784218,-0.004,-0.008,-0.000,-0.001
1495964784244,-0.004,0.004,-0.000,0.000
1495964784262,-0.006,0.004,-0.001,0.001
1495964784279,0.005,0.001,0.001,0.000
1495964784297,-0.012,0.004,-0.001,0.000
1495964784315,0.003,-0.000,0.000,-0.000
1495964784332,0.001,-0.002,0.000,-0.000
1495964784350,0.014,0.000,0.002,0.000
1495964784367,-0.002,0.002,-0.000,0.000
1495964784383,-0.005,-0.001,-0.001,-0.000
1495964784399,-0.011,-0.003,-0.001,-0.000
1495964784415,-0.002,-0.004,-0.000,-0.000
1495964784431,-0.001,-0.005,-0.000,-0.001
1495964784448,0.002,0.001,0.000,0.000
1495964784466,-0.009,0.003,-0.001,0.000
1495964784484,-0.006,0.002,-0.001,0.000
1495964784499,-0.003,0.003,-0.000,0.000
1495964784515,0.006,-0.001,0.001,-0.000
1495964784530,0.010,0.002,0.001,0.000
1495964784548,0.004,-0.004,0.001,-0.000
1495964784566,-0.007,-0.002,-0.001,-0.000
1495964784583,-0.006,-0.001,-0.001,-0.000
1495964784601,-0.006,-0.001,-0.001,-0.000
1495964784616,-0.003,0.002,-0.000,0.000
1495964784632,0.000,-0.000,0.000,-0.000
1495964784649,0.001,-0.002,0.000,-0.000
