1495955736725,-0.003,-0.001,0.000,0.000
1495955736741,0.001,-0.003,0.000,-0.000
1495955736758,0.002,0.004,0.000,0.000
1495955736775,-0.001,-0.001,-0.000,-0.000
1495955736792,0.000,-0.004,0.000,-0.000
1495955736808,-0.003,-0.001,-0.000,-0.000
1495955736825,-0.002,-0.001,-0.000,-0.000
1495955736842,0.001,0.003,0.000,0.000
1495955736875,0.003,-0.004,0.000,-0.000
1495955736892,0.001,0.001,0.000,0.000
1495955736908,0.002,-0.003,0.000,-0.000
1495955736925,-0.001,-0.003,-0.000,-0.000
1495955736941,0.003,0.001,0.000,0.000
1495955736958,0.006,-0.002,0.000,-0.000
1495955736975,0.004,0.002,0.000,0.000
1495955736991,0.000,0.001,0.000,0.000
1495955737008,-0.002,-0.001,0.000,0.000
1495955737025,-0.004,-0.000,0.001,0.000
1495955737042,0.002,-0.000,-0.001,0.000
1495955737058,-0.000,0.002,0.000,-0.001
1495955737075,0.000,0.000,-0.000,-0.000
1495955737092,-0.002,-0.000,0.001,0.000
1495955737108,-0.003,-0.001,0.001,0.000
1495955737125,0.001,0.001,-0.000,-0.001
1495955737142,0.008,0.001,-0.003,-0.001
1495955737175,0.002,0.000,-0.001,-0.000
1495955737191,-0.001,-0.003,0.001,0.001
1495955737208,-0.002,-0.001,0.001,0.001
1495955737224,-0.005,0.001,0.003,-0.001
1495955737241,0.002,-0.002,-0.002,-0.000
1495955737258,0.003,0.001,0.000,-0.001
1495955737274,0.005,-0.002,-0.002,0.001
1495955737291,0.001,-0.001,-0.000,0.000
1495955737308,-0.004,-0.003,0.001,0.001
1495955737326,-0.000,0.000,0.000,-0.000
1495955737341,0.004,0.001,-0.001,-0.000
1495955737358,0.006,0.001,-0.001,-0.000
1495955737391,-0.000,0.001,0.000,-0.000
1495955737408,-0.002,-0.003,0.001,-0.000
1495955737424,-0.003,-0.004,-0.000,-0.000
1495955737441,0.001,0.000,0.000,0.000
1495955737458,0.004,0.002,0.000,0.001
1495955737475,0.002,0.001,0.000,0.000
1495955737491,-0.002,0.002,-0.001,0.000
1495955737509,-0.003,0.001,0.000,0.001
1495955737524,0.000,-0.001,-0.000,-0.000
1495955737541,0.004,0.002,0.001,-0.000
1495955737558,0.004,-0.001,0.002,-0.000
1495955737575,-0.001,-0.002,-0.002,-0.000
1495955737591,0.000,-0.003,0.000,-0.003
1495955737608,0.000,-0.001,0.000,-0.000
1495955737625,-0.001,-0.004,-0.001,-0.002
1495955737641,-0.001,-0.001,-0.001,-0.001
1495955737658,-0.001,-0.005,-0.002,-0.007
1495955737675,0.001,0.004,0.002,0.007
1495955737708,-0.003,0.001,-0.002,0.000
1495955737725,-0.003,-0.002,-0.004,-0.003
1495955737742,0.002,0.004,0.004,0.005
1495955737758,0.001,0.002,0.001,0.002
1495955737775,0.000,0.004,0.000,0.005
1495955737792,-0.001,0.003,-0.001,0.003
1495955737808,-0.002,0.002,-0.001,0.001
1495955737825,-0.004,-0.002,0.002,-0.001
1495955737842,0.005,-0.002,-0.007,0.003
1495955737858,0.005,-0.001,-0.001,0.001
1495955737875,-0.000,0.003,-0.000,-0.002
1495955737892,-0.006,-0.001,0.001,0.000
1495955737925,-0.000,-0.000,0.000,0.000
1495955737942,-0.000,0.000,0.000,-0.000
1495955737958,0.001,0.001,-0.000,-0.000
1495955737976,0.004,-0.002,-0.001,0.000
1495955737993,-0.004,0.002,0.000,-0.001
1495955738008,-0.002,-0.003,0.001,-0.000
1495955738024,0.002,0.003,-0.000,-0.000
1495955738041,0.003,-0.001,-0.000,0.000
1495955738058,0.001,-0.002,-0.000,0.000
1495955738074,-0.003,-0.002,0.000,0.000
1495955738091,-0.002,-0.006,0.001,0.001
1495955738124,-0.002,0.002,0.001,-0.001
1495955738141,0.004,0.001,-0.002,0.000
1495955738158,0.007,0.000,-0.000,-0.000
1495955738174,0.001,-0.001,-0.000,0.000
1495955738192,-0.003,-0.002,0.001,0.001
1495955738207,-0.002,-0.002,0.001,0.002
1495955738224,-0.003,-0.004,0.003,0.004
1495955738241,0.005,0.001,-0.006,-0.001
1495955738258,0.001,-0.000,0.000,0.000
1495955738274,-0.003,0.001,0.002,-0.001
1495955738291,-0.005,-0.002,0.004,0.001
1495955738308,-0.003,0.026,0.003,-0.020
1495955738324,0.005,0.005,-0.005,-0.002
1495955738341,0.001,-0.010,-0.001,0.008
1495955738358,-0.003,0.004,0.004,-0.001
1495955738374,-0.003,0.001,0.002,-0.001
1495955738391,-0.004,0.003,0.003,-0.003
1495955738409,-0.001,-0.001,0.000,0.001
1495955738441,0.002,-0.000,-0.002,-0.000
1495955738458,0.001,-0.006,-0.001,0.004
1495955738474,-0.001,0.005,0.002,-0.001
1495955738491,-0.004,0.006,0.004,-0.005
1495955738508,-0.002,-0.003,0.001,0.001
1495955738524,-0.002,0.010,0.000,-0.003
1495955738541,0.003,-0.032,-0.000,0.004
1495955738558,-0.011,0.000,0.003,-0.000
1495955738591,-0.018,-0.026,0.002,-0.001
1495955738608,-0.013,-0.024,0.000,-0.001
1495955738624,0.010,-0.119,0.001,-0.015
1495955738641,0.019,-0.018,-0.001,-0.004
1495955738658,0.011,-0.023,0.006,-0.018
1495955738674,0.001,-0.019,0.000,-0.007
1495955738691,-0.043,-0.102,-0.013,-0.032
1495955738708,0.021,0.248,0.007,0.101
1495955738724,0.033,0.041,0.011,0.011
1495955738741,0.008,-0.107,0.003,-0.039
1495955738758,0.001,0.022,0.000,-0.000
1495955738774,0.002,0.069,-0.000,0.012
1495955738791,0.024,0.040,0.004,0.007
1495955738808,0.035,0.186,0.006,0.026
1495955738824,-0.027,0.044,-0.002,0.009
1495955738841,-0.043,-0.022,0.009,0.008
1495955738858,-0.024,-0.025,-0.006,-0.015
1495955738891,0.006,0.010,0.019,0.013
1495955738908,0.029,0.120,-0.177,-0.089
1495955738924,0.068,0.052,-0.239,-0.021
1495955738941,0.020,0.026,-0.105,-0.112
1495955738957,-0.061,-0.091,-0.381,2.307
1495955738974,0.018,0.140,0.051,-0.388
1495955738991,0.047,-0.078,-0.669,-0.554
1495955739008,0.023,0.114,-0.072,-0.173
1495955739024,0.015,0.045,-0.020,0.069
1495955739041,-0.002,-0.059,-0.003,-0.080
1495955739058,-0.048,0.076,-0.138,0.342
1495955739074,-0.029,0.077,-0.153,0.162
1495955739091,-0.006,0.019,-0.031,0.069
1495955739108,0.005,-0.028,0.018,-0.092
1495955739124,0.038,0.063,0.125,0.238
1495955739142,0.001,0.037,0.002,0.076
1495955739160,0.042,-0.210,0.135,-0.649
1495955739192,0.033,0.036,0.162,0.077
1495955739210,0.022,-0.040,-0.165,0.367
1495955739225,0.016,-0.201,0.101,0.051
1495955739242,0.009,-0.019,0.020,-0.073
1495955739259,-0.023,0.015,-0.378,-0.000
1495955739275,-0.014,-0.049,-0.028,-0.176
1495955739292,-0.041,0.016,-1.032,0.060
1495955739309,-0.037,0.149,-0.155,0.106
1495955739325,0.060,0.085,1.400,0.237
1495955739342,0.026,-0.046,0.015,-0.132
1495955739359,-0.017,0.167,-0.047,0.129
1495955739375,-0.000,0.161,-0.001,0.091
1495955739392,-0.009,-0.011,0.012,-0.020
1495955739425,0.011,-0.023,0.007,0.166
1495955739442,-0.024,0.029,-0.024,0.054
1495955739459,0.013,-0.067,0.010,-0.176
1495955739475,-0.023,-0.044,-0.025,-0.020
1495955739492,-0.014,0.055,-0.014,0.051
1495955739509,0.007,-0.036,0.006,-0.037
1495955739525,0.056,0.036,0.049,0.023
1495955739542,0.035,-0.036,0.037,-0.036
1495955739559,0.028,0.011,0.031,0.008
1495955739575,-0.009,0.101,-0.009,0.093
1495955739592,0.008,0.120,0.007,0.138
1495955739608,0.016,0.085,0.015,0.119
1495955739625,0.012,-0.005,0.011,-0.007
1495955739641,-0.002,-0.019,-0.002,-0.017
1495955739660,-0.013,0.169,-0.012,0.153
1495955739675,0.006,0.033,0.006,0.036
1495955739691,0.008,-0.023,0.007,-0.022
1495955739727,0.006,-0.006,0.006,-0.005
1495955739745,-0.002,-0.026,-0.002,-0.024
1495955739758,-0.004,-0.021,-0.004,-0.019
1495955739775,-0.054,-0.080,-0.051,-0.074
1495955739792,0.002,-0.055,0.002,-0.048
1495955739808,0.036,0.013,0.033,0.011
1495955739825,0.042,0.059,0.040,0.054
1495955739842,0.014,0.010,0.013,0.010
1495955739858,-0.056,-0.023,-0.053,-0.022
1495955739892,0.024,0.025,0.021,0.023
1495955739908,0.006,0.123,0.006,0.116
1495955739925,0.006,-0.030,0.005,-0.032
1495955739941,-0.003,0.031,-0.002,0.028
1495955739959,0.018,0.009,0.017,0.009
1495955739975,-0.036,-0.037,-0.034,-0.035
1495955739992,-0.019,-0.034,-0.017,-0.031
1495955740008,-0.034,-0.018,-0.031,-0.017
1495955740025,-0.008,0.009,-0.008,0.008
1495955740042,-0.008,-0.038,-0.008,-0.035
1495955740058,0.011,0.060,0.010,0.052
1495955740075,-0.003,0.020,-0.002,0.019
1495955740092,0.025,0.008,0.023,0.007
1495955740108,0.012,0.031,0.011,0.029
1495955740125,0.020,0.021,0.019,0.020
1495955740143,-0.010,0.036,-0.009,0.034
1495955740158,-0.015,0.019,-0.014,0.018
1495955740175,-0.016,-0.006,-0.014,-0.006
1495955740192,-0.014,0.030,-0.013,0.028
1495955740208,-0.023,-0.012,-0.022,-0.011
1495955740242,-0.018,0.009,-0.016,0.009
1495955740258,0.056,0.060,0.052,0.056
1495955740275,0.018,-0.008,0.017,-0.008
1495955740292,0.013,0.052,0.013,0.048
1495955740308,-0.011,0.056,-0.011,0.055
1495955740325,0.016,-0.011,0.015,-0.011
1495955740342,0.002,0.068,0.001,0.064
1495955740358,-0.014,0.019,-0.014,0.019
1495955740376,-0.057,-0.036,-0.054,-0.035
1495955740393,0.001,-0.015,0.001,-0.014
1495955740408,0.029,0.083,0.028,0.078
1495955740424,0.012,0.033,0.011,0.034
1495955740441,0.048,0.033,0.047,0.033
1495955740458,-0.017,-0.059,-0.017,-0.058
1495955740474,-0.006,-0.014,-0.005,-0.013
1495955740491,-0.015,0.004,-0.015,0.004
1495955740507,0.016,0.000,0.015,0.000
1495955740541,-0.002,-0.010,-0.002,-0.010
1495955740558,-0.019,-0.006,-0.018,-0.005
1495955740575,0.009,-0.075,0.009,-0.072
1495955740591,0.007,-0.025,0.007,-0.023
1495955740608,0.003,0.051,0.003,0.048
1495955740625,0.010,0.046,0.010,0.045
1495955740641,-0.020,-0.020,-0.020,-0.020
1495955740658,-0.006,0.041,-0.005,0.038
1495955740675,0.015,0.073,0.014,0.072
1495955740691,0.001,-0.012,0.001,-0.012
1495955740708,-0.010,-0.043,-0.009,-0.041
1495955740725,0.017,0.060,0.016,0.057
1495955740741,-0.023,0.014,-0.023,0.014
1495955740775,-0.011,-0.029,-0.010,-0.029
1495955740791,0.004,0.014,0.004,0.013
1495955740808,0.034,0.120,0.033,0.118
1495955740825,0.027,-0.065,0.027,-0.068
1495955740841,-0.028,0.098,-0.027,0.091
1495955740858,0.005,0.095,0.005,0.098
1495955740875,0.015,0.139,0.015,0.145
1495955740891,-0.013,0.031,-0.013,0.034
1495955740908,0.001,0.013,0.001,0.013
1495955740925,-0.000,0.008,-0.000,0.008
1495955740941,-0.001,0.005,-0.001,0.005
1495955740958,-0.002,0.012,-0.002,0.012
1495955740975,0.006,0.008,0.006,0.008
1495955740991,-0.001,0.009,-0.001,0.009
1495955741008,-0.001,0.005,-0.001,0.006
1495955741024,-0.003,0.007,-0.003,0.007
1495955741043,-0.005,0.010,-0.005,0.010
1495955741061,0.000,0.006,0.000,0.006
1495955741079,0.007,0.008,0.007,0.009
1495955741097,0.007,0.002,0.007,0.002
1495955741125,0.000,0.004,0.000,0.004
1495955741142,-0.005,0.006,-0.005,0.006
1495955741159,-0.002,0.008,-0.002,0.008
1495955741175,0.005,0.011,0.005,0.012
1495955741191,0.001,0.011,0.001,0.011
1495955741208,-0.000,0.011,-0.000,0.011
1495955741224,-0.002,0.011,-0.002,0.012
1495955741241,-0.001,0.007,-0.001,0.007
1495955741258,-0.004,0.007,-0.004,0.007
1495955741274,-0.001,-0.005,-0.001,-0.005
1495955741308,0.009,-0.018,0.010,-0.018
1495955741325,-0.012,-0.022,-0.013,-0.022
1495955741341,-0.003,0.040,-0.003,0.040
1495955741358,0.003,0.006,0.003,0.006
1495955741374,0.001,0.001,0.001,0.001
1495955741391,0.005,-0.000,0.005,-0.000
1495955741408,0.002,0.001,0.002,0.001
1495955741425,-0.003,-0.003,-0.003,-0.003
1495955741441,-0.002,-0.006,-0.002,-0.006
1495955741458,0.001,-0.004,0.001,-0.004
1495955741475,0.002,-0.005,0.002,-0.005
1495955741491,0.009,-0.004,0.009,-0.004
1495955741508,0.002,-0.003,0.002,-0.003
1495955741525,0.001,-0.002,0.001,-0.002
1495955741541,0.002,0.005,0.002,0.006
1495955741558,-0.001,0.002,-0.001,0.002
1495955741575,-0.002,-0.010,-0.002,-0.010
1495955741591,0.009,0.006,0.009,0.007
1495955741608,0.002,-0.004,0.002,-0.004
1495955741625,-0.003,-0.001,-0.003,-0.001
1495955741658,-0.004,-0.002,-0.004,-0.002
1495955741675,0.006,0.003,0.006,0.003
1495955741691,0.006,-0.001,0.006,-0.001
1495955741708,0.007,-0.002,0.008,-0.002
1495955741725,-0.000,-0.002,-0.000,-0.002
1495955741741,-0.004,-0.002,-0.004,-0.002
1495955741758,0.003,0.000,0.004,0.000
1495955741775,0.006,-0.002,0.006,-0.002
1495955741791,0.006,-0.005,0.007,-0.006
1495955741808,0.003,-0.007,0.004,-0.007
1495955741841,0.000,-0.004,0.000,-0.004
1495955741858,-0.002,-0.005,-0.002,-0.005
1495955741876,0.001,-0.004,0.001,-0.004
1495955741891,0.008,0.001,0.008,0.001
1495955741908,0.000,-0.005,0.000,-0.005
1495955741925,0.001,-0.002,0.001,-0.002
1495955741941,-0.000,-0.005,-0.000,-0.005
1495955741958,0.001,-0.002,0.001,-0.002
1495955741975,0.005,-0.002,0.005,-0.002
1495955741991,0.005,-0.003,0.006,-0.003
1495955742008,0.003,-0.002,0.003,-0.002
1495955742025,-0.002,-0.006,-0.002,-0.006
1495955742041,0.001,-0.005,0.001,-0.005
1495955742058,0.007,-0.009,0.007,-0.009
1495955742075,0.003,-0.000,0.004,-0.000
1495955742091,0.003,0.001,0.003,0.001
1495955742125,-0.003,-0.000,-0.003,-0.000
1495955742141,0.001,-0.002,0.001,-0.002
1495955742158,0.005,-0.002,0.005,-0.002
1495955742175,0.010,-0.001,0.010,-0.001
1495955742191,0.007,-0.005,0.008,-0.005
1495955742208,0.003,-0.004,0.003,-0.004
1495955742225,0.001,-0.004,0.001,-0.004
1495955742242,-0.004,-0.001,-0.004,-0.001
1495955742259,0.004,0.000,0.005,0.000
1495955742276,0.005,-0.001,0.005,-0.001
1495955742292,0.002,-0.002,0.002,-0.002
1495955742309,-0.003,-0.000,-0.003,-0.000
1495955742327,-0.003,-0.005,-0.003,-0.005
1495955742359,-0.000,-0.004,-0.000,-0.004
1495955742376,0.006,-0.000,0.006,-0.000
1495955742392,0.003,-0.003,0.003,-0.003
1495955742409,-0.001,-0.003,-0.001,-0.003
1495955742426,0.000,-0.008,0.000,-0.009
1495955742442,-0.001,-0.001,-0.001,-0.001
1495955742459,0.004,-0.000,0.004,-0.000
1495955742476,0.006,0.003,0.007,0.003
1495955742492,0.003,-0.006,0.003,-0.006
1495955742509,-0.005,-0.002,-0.005,-0.002
1495955742526,0.000,-0.005,0.000,-0.005
1495955742542,0.004,-0.004,0.004,-0.004
1495955742576,0.003,-0.003,0.004,-0.003
1495955742592,0.004,-0.005,0.005,-0.005
1495955742609,0.001,-0.006,0.001,-0.006
1495955742626,-0.001,-0.004,-0.001,-0.004
1495955742642,-0.002,-0.000,-0.002,-0.000
1495955742659,0.010,-0.002,0.010,-0.002
1495955742675,0.005,0.000,0.006,0.000
1495955742692,0.001,-0.001,0.001,-0.001
1495955742709,0.000,-0.001,0.000,-0.001
1495955742726,-0.002,-0.004,-0.002,-0.004
1495955742742,0.006,-0.003,0.006,-0.003
1495955742759,0.007,-0.004,0.007,-0.004
1495955742776,0.003,-0.003,0.003,-0.003
1495955742809,0.000,-0.001,0.000,-0.001
1495955742826,0.002,-0.005,0.002,-0.005
1495955742842,0.001,-0.002,0.001,-0.002
1495955742859,0.005,-0.000,0.005,-0.000
1495955742877,0.004,-0.002,0.004,-0.002
1495955742892,-0.000,-0.005,-0.000,-0.006
1495955742909,0.001,-0.004,0.001,-0.004
1495955742926,-0.001,-0.003,-0.001,-0.003
1495955742942,0.005,-0.005,0.005,-0.005
1495955742959,0.004,-0.002,0.004,-0.002
1495955742976,0.005,-0.004,0.006,-0.004
1495955742992,-0.000,-0.002,-0.000,-0.002
1495955743026,0.000,-0.004,0.000,-0.004
1495955743042,0.001,-0.004,0.001,-0.004
1495955743059,0.005,-0.003,0.006,-0.003
1495955743076,0.006,-0.003,0.007,-0.003
1495955743094,0.003,-0.004,0.003,-0.004
1495955743109,-0.001,-0.004,-0.001,-0.004
1495955743126,0.003,-0.002,0.003,-0.002
1495955743142,0.004,-0.003,0.005,-0.003
1495955743160,0.008,-0.001,0.008,-0.001
1495955743175,0.004,-0.005,0.004,-0.005
1495955743192,-0.001,-0.000,-0.001,-0.000
1495955743226,-0.002,-0.001,-0.002,-0.001
1495955743243,0.010,-0.003,0.010,-0.003
1495955743258,0.006,-0.001,0.006,-0.001
1495955743275,0.004,-0.001,0.004,-0.001
1495955743292,-0.002,-0.008,-0.002,-0.008
1495955743308,-0.002,-0.002,-0.002,-0.002
1495955743325,-0.002,-0.004,-0.002,-0.004
1495955743342,0.007,-0.002,0.007,-0.002
1495955743358,0.004,-0.002,0.004,-0.002
1495955743376,-0.002,-0.004,-0.002,-0.004
1495955743393,-0.004,-0.002,-0.004,-0.002
1495955743409,0.001,-0.002,0.001,-0.002
1495955743425,0.002,-0.002,0.002,-0.002
1495955743442,0.006,-0.001,0.006,-0.001
1495955743459,0.004,-0.001,0.004,-0.001
1495955743492,-0.001,-0.004,-0.001,-0.004
1495955743509,-0.003,-0.003,-0.003,-0.003
1495955743525,0.001,-0.003,0.001,-0.003
1495955743542,0.005,-0.000,0.005,-0.000
1495955743559,0.004,0.003,0.004,0.003
1495955743575,0.003,-0.004,0.003,-0.004
1495955743592,0.001,-0.001,0.001,-0.001
1495955743608,0.001,-0.003,0.001,-0.003
1495955743625,0.005,-0.003,0.005,-0.003
1495955743642,0.008,-0.001,0.009,-0.001
1495955743659,0.001,-0.000,0.001,-0.000
1495955743675,-0.002,-0.005,-0.002,-0.005
1495955743709,-0.002,-0.004,-0.002,-0.004
1495955743725,0.006,-0.002,0.006,-0.002
1495955743742,0.004,-0.000,0.005,-0.000
1495955743759,0.003,-0.004,0.003,-0.004
1495955743775,0.003,-0.002,0.003,-0.002
1495955743792,-0.002,-0.001,-0.002,-0.001
1495955743809,0.003,-0.002,0.003,-0.002
1495955743825,0.005,-0.000,0.005,-0.000
1495955743842,0.003,-0.001,0.003,-0.001
1495955743861,0.003,-0.001,0.003,-0.001
1495955743875,-0.001,-0.000,-0.001,-0.000
1495955743892,-0.002,-0.002,-0.002,-0.002
1495955743925,0.003,-0.003,0.003,-0.003
1495955743942,0.006,0.001,0.006,0.001
1495955743959,0.004,-0.004,0.004,-0.004
1495955743975,0.001,-0.004,0.001,-0.004
1495955743992,-0.004,-0.004,-0.004,-0.004
1495955744009,0.002,0.001,0.002,0.001
1495955744025,0.005,-0.003,0.005,-0.003
1495955744042,0.006,-0.004,0.006,-0.004
1495955744059,0.005,-0.002,0.005,-0.002
1495955744075,-0.001,-0.000,-0.001,-0.000
1495955744109,-0.000,-0.003,-0.000,-0.003
1495955744125,0.003,-0.002,0.003,-0.002
1495955744142,0.005,-0.001,0.005,-0.001
1495955744159,0.006,-0.006,0.006,-0.006
1495955744175,-0.001,-0.001,-0.001,-0.001
1495955744192,0.000,-0.004,0.000,-0.004
1495955744209,0.001,-0.004,0.001,-0.004
1495955744225,0.003,-0.005,0.004,-0.005
1495955744242,0.004,-0.006,0.004,-0.006
1495955744259,0.003,-0.005,0.003,-0.006
1495955744275,0.001,-0.002,0.001,-0.002
1495955744292,0.001,-0.003,0.001,-0.003
1495955744309,0.004,-0.004,0.004,-0.004
1495955744325,0.006,-0.005,0.007,-0.005
1495955744342,0.005,-0.001,0.005,-0.001
1495955744359,-0.003,-0.005,-0.003,-0.005
1495955744392,-0.001,-0.004,-0.001,-0.004
1495955744409,0.004,-0.008,0.004,-0.008
1495955744425,0.006,-0.002,0.006,-0.002
1495955744442,0.008,0.000,0.008,0.000
1495955744459,-0.001,-0.004,-0.001,-0.004
1495955744475,-0.002,-0.003,-0.002,-0.003
1495955744492,0.005,-0.003,0.005,-0.003
1495955744509,0.008,-0.006,0.008,-0.007
1495955744527,0.005,-0.002,0.006,-0.002
1495955744542,0.003,-0.003,0.003,-0.003
1495955744559,-0.002,-0.002,-0.002,-0.002
1495955744575,0.002,-0.003,0.002,-0.003
1495955744609,0.001,-0.003,0.001,-0.003
1495955744625,0.007,-0.001,0.007,-0.001
1495955744642,0.007,-0.001,0.007,-0.001
1495955744659,-0.001,-0.006,-0.001,-0.007
1495955744675,-0.002,0.000,-0.002,0.000
1495955744692,0.002,-0.004,0.002,-0.004
1495955744709,0.007,-0.003,0.007,-0.003
1495955744725,0.006,-0.004,0.006,-0.004
1495955744742,0.005,-0.005,0.005,-0.005
1495955744775,-0.002,-0.002,-0.002,-0.002
1495955744792,0.001,-0.003,0.001,-0.003
1495955744809,0.006,-0.001,0.006,-0.001
1495955744825,0.003,-0.002,0.003,-0.002
1495955744842,0.003,-0.005,0.003,-0.005
1495955744859,-0.001,-0.003,-0.001,-0.003
1495955744875,-0.005,-0.007,-0.005,-0.007
1495955744892,0.002,-0.002,0.002,-0.002
1495955744909,0.003,-0.001,0.004,-0.001
1495955744925,0.003,-0.000,0.003,-0.000
1495955744942,0.001,-0.001,0.001,-0.001
1495955744959,-0.004,0.004,-0.004,0.004
1495955744992,0.001,-0.007,0.001,-0.007
1495955745009,0.003,-0.000,0.003,-0.000
1495955745025,0.009,0.002,0.009,0.002
1495955745043,0.005,-0.004,0.005,-0.004
1495955745058,0.002,-0.003,0.002,-0.003
1495955745075,-0.003,-0.002,-0.003,-0.002
1495955745092,0.002,-0.004,0.002,-0.004
1495955745109,0.003,-0.002,0.003,-0.002
1495955745125,0.008,-0.000,0.008,-0.000
1495955745143,-0.001,-0.003,-0.001,-0.003
1495955745159,-0.002,-0.001,-0.002,-0.001
1495955745175,0.001,-0.001,0.001,-0.001
1495955745209,0.005,-0.002,0.005,-0.002
1495955745225,0.006,0.000,0.007,0.000
1495955745242,0.003,-0.002,0.003,-0.002
1495955745259,0.001,-0.005,0.001,-0.006
1495955745278,0.002,-0.009,0.002,-0.009
1495955745292,-0.002,-0.001,-0.002,-0.001
1495955745309,0.002,-0.005,0.002,-0.005
1495955745326,0.009,0.000,0.009,0.000
1495955745342,0.003,-0.005,0.003,-0.006
1495955745359,0.007,0.002,0.007,0.002
1495955745376,-0.004,-0.003,-0.004,-0.003
1495955745392,0.008,-0.001,0.008,-0.001
1495955745409,0.000,-0.003,0.000,-0.003
1495955745426,0.009,-0.000,0.009,-0.000
1495955745442,0.001,-0.007,0.001,-0.007
1495955745459,0.003,-0.004,0.003,-0.004
1495955745492,-0.001,-0.007,-0.001,-0.007
1495955745510,0.010,-0.000,0.010,-0.000
1495955745528,0.006,-0.003,0.006,-0.003
1495955745542,-0.001,-0.000,-0.001,-0.000
1495955745559,-0.005,-0.005,-0.005,-0.005
1495955745575,-0.001,-0.004,-0.001,-0.004
1495955745592,0.006,-0.003,0.006,-0.003
1495955745608,0.011,-0.002,0.011,-0.002
1495955745625,0.001,-0.001,0.001,-0.001
1495955745643,-0.002,-0.004,-0.002,-0.004
1495955745675,-0.003,-0.008,-0.003,-0.008
1495955745692,0.003,-0.006,0.003,-0.006
1495955745709,0.005,-0.001,0.006,-0.001
1495955745725,0.005,-0.002,0.006,-0.002
1495955745742,0.003,-0.001,0.003,-0.001
1495955745759,-0.000,-0.000,-0.000,-0.000
1495955745775,-0.004,-0.005,-0.004,-0.005
1495955745792,0.004,-0.003,0.005,-0.003
1495955745809,0.002,-0.001,0.002,-0.001
1495955745825,0.004,-0.001,0.005,-0.001
1495955745842,0.002,-0.005,0.002,-0.006
1495955745859,-0.000,-0.001,-0.000,-0.001
1495955745892,0.000,-0.005,0.000,-0.005
1495955745909,0.003,-0.003,0.003,-0.003
