1495973860038,-0.002,-0.005,0.000,0.000
1495973860053,-0.005,-0.004,-0.000,-0.001
1495973860069,-0.006,-0.003,-0.003,-0.002
1495973860086,-0.008,-0.003,-0.009,-0.005
1495973860101,-0.006,-0.003,-0.013,-0.005
1495973860119,-0.007,0.002,-0.020,0.003
1495973860136,-0.005,0.002,-0.011,0.003
1495973860154,-0.004,0.003,-0.007,0.005
1495973860172,0.007,0.001,0.013,0.003
1495973860203,0.004,-0.004,0.007,-0.008
1495973860219,0.002,-0.002,0.004,-0.004
1495973860235,-0.004,-0.007,-0.007,-0.011
1495973860253,-0.004,-0.006,-0.006,-0.011
1495973860270,-0.003,-0.003,-0.005,-0.005
1495973860288,-0.000,0.002,-0.000,0.003
1495973860303,-0.004,-0.000,-0.007,-0.000
1495973860319,-0.011,-0.003,-0.023,-0.007
1495973860336,-0.010,-0.002,-0.022,-0.003
1495973860351,-0.007,0.001,-0.016,0.002
1495973860369,-0.001,0.002,-0.002,0.004
1495973860386,0.001,0.001,0.003,0.002
1495973860404,-0.004,-0.002,-0.009,-0.004
1495973860422,-0.004,-0.003,-0.011,-0.009
1495973860437,-0.001,-0.003,-0.002,-0.008
1495973860469,0.002,0.001,0.004,0.004
1495973860485,-0.003,-0.000,-0.007,-0.001
1495973860502,-0.009,0.004,-0.025,0.009
1495973860517,-0.014,-0.000,-0.037,-0.000
1495973860535,-0.013,0.001,-0.037,0.003
1495973860552,-0.008,-0.004,-0.023,-0.012
1495973860568,-0.004,-0.001,-0.012,-0.003
1495973860586,-0.004,-0.002,-0.013,-0.006
1495973860603,-0.004,-0.004,-0.012,-0.013
1495973860621,0.000,-0.004,0.000,-0.013
1495973860638,0.005,-0.004,0.015,-0.013
1495973860654,0.005,-0.002,0.017,-0.005
1495973860670,0.004,0.002,0.014,0.007
1495973860702,-0.008,0.002,-0.026,0.008
1495973860719,-0.011,0.000,-0.035,0.001
1495973860737,-0.013,0.002,-0.042,0.005
1495973860755,-0.006,-0.005,-0.022,-0.016
1495973860770,-0.005,-0.001,-0.018,-0.004
1495973860786,-0.011,-0.004,-0.038,-0.014
1495973860802,-0.008,-0.002,-0.031,-0.008
1495973860818,-0.003,0.002,-0.011,0.008
1495973860836,0.004,-0.001,0.014,-0.004
1495973860853,0.007,0.001,0.027,0.005
1495973860871,0.003,0.001,0.009,0.005
1495973860886,-0.003,0.005,-0.013,0.017
1495973860902,-0.006,-0.000,-0.022,-0.001
1495973860918,-0.008,0.001,-0.030,0.005
1495973860935,-0.005,-0.002,-0.018,-0.008
1495973860953,-0.006,-0.003,-0.022,-0.013
1495973860970,-0.006,-0.000,-0.023,-0.001
1495973860988,-0.005,-0.003,-0.018,-0.011
1495973861021,-0.005,0.003,-0.018,0.012
1495973861037,-0.005,-0.003,-0.019,-0.010
1495973861052,-0.001,0.000,-0.004,0.001
1495973861069,-0.003,-0.002,-0.011,-0.006
1495973861085,-0.003,-0.002,-0.012,-0.008
1495973861102,-0.002,0.004,-0.009,0.018
1495973861120,-0.006,-0.003,-0.026,-0.014
1495973861137,-0.002,-0.001,-0.009,-0.003
1495973861155,-0.003,-0.002,-0.014,-0.008
1495973861186,-0.006,-0.006,-0.026,-0.024
1495973861203,-0.009,-0.003,-0.039,-0.015
1495973861218,-0.008,0.003,-0.034,0.011
1495973861236,-0.001,0.001,-0.003,0.006
1495973861254,-0.006,0.003,-0.025,0.012
1495973861271,0.003,0.004,0.012,0.017
1495973861287,-0.000,-0.004,-0.001,-0.018
1495973861302,-0.003,-0.002,-0.012,-0.009
1495973861319,0.001,-0.000,0.002,-0.001
1495973861335,0.002,0.002,0.008,0.010
1495973861351,-0.003,-0.006,-0.015,-0.025
1495973861367,-0.005,-0.003,-0.021,-0.012
1495973861402,-0.003,0.001,-0.013,0.004
1495973861420,-0.006,-0.003,-0.025,-0.012
1495973861438,-0.004,-0.000,-0.020,-0.000
1495973861456,-0.001,-0.000,-0.006,-0.000
1495973861471,0.001,0.002,0.003,0.011
1495973861490,-0.008,-0.001,-0.038,-0.006
1495973861508,-0.004,-0.002,-0.019,-0.008
1495973861523,-0.003,0.004,-0.015,0.018
1495973861541,-0.000,-0.002,-0.001,-0.009
1495973861559,0.000,-0.006,0.001,-0.027
1495973861577,0.002,-0.000,0.011,-0.001
1495973861593,-0.008,0.002,-0.037,0.009
1495973861610,-0.008,-0.001,-0.041,-0.005
1495973861628,-0.004,-0.000,-0.021,-0.001
1495973861645,-0.000,0.001,-0.001,0.007
1495973861663,-0.001,-0.004,-0.007,-0.018
1495973861682,-0.003,0.002,-0.014,0.009
1495973861699,-0.010,-0.000,-0.047,-0.000
1495973861717,-0.007,-0.003,-0.035,-0.015
1495973861734,0.002,-0.001,0.009,-0.006
1495973861752,0.004,-0.002,0.020,-0.010
1495973861770,-0.002,0.001,-0.011,0.005
1495973861787,-0.008,0.002,-0.038,0.011
1495973861805,-0.006,0.004,-0.028,0.020
1495973861820,-0.003,0.003,-0.016,0.016
1495973861836,-0.002,-0.002,-0.011,-0.009
1495973861853,-0.006,-0.002,-0.031,-0.008
1495973861886,-0.006,-0.007,-0.028,-0.035
1495973861903,-0.008,-0.001,-0.040,-0.005
1495973861921,0.000,-0.002,0.002,-0.009
1495973861937,-0.001,-0.001,-0.007,-0.005
1495973861952,0.003,0.001,0.014,0.006
1495973861968,-0.000,0.003,-0.002,0.015
1495973861985,-0.002,0.003,-0.011,0.015
1495973862003,-0.001,0.006,-0.005,0.030
1495973862021,-0.004,0.006,-0.023,0.031
1495973862036,-0.002,-0.002,-0.010,-0.010
1495973862052,-0.006,-0.005,-0.030,-0.027
1495973862085,-0.003,0.000,-0.014,0.002
1495973862103,-0.000,-0.006,-0.001,-0.034
1495973862120,-0.001,-0.002,-0.007,-0.009
1495973862138,0.003,0.003,0.014,0.014
1495973862153,-0.002,-0.000,-0.013,-0.002
1495973862169,-0.006,0.001,-0.033,0.006
1495973862187,-0.001,-0.002,-0.006,-0.009
1495973862204,0.002,-0.003,0.008,-0.016
1495973862222,0.002,0.004,0.012,0.023
1495973862237,-0.004,-0.002,-0.019,-0.012
1495973862253,-0.005,-0.003,-0.025,-0.015
1495973862270,-0.008,-0.004,-0.042,-0.023
1495973862285,-0.004,0.000,-0.022,0.001
1495973862301,-0.002,-0.003,-0.013,-0.016
1495973862336,0.001,-0.001,0.006,-0.004
1495973862354,-0.001,0.002,-0.005,0.012
1495973862371,0.000,0.007,0.002,0.036
1495973862387,-0.007,0.001,-0.036,0.006
1495973862402,0.002,-0.002,0.010,-0.008
1495973862420,0.003,-0.003,0.016,-0.015
1495973862438,0.000,-0.001,0.000,-0.006
1495973862453,-0.005,0.000,-0.026,0.001
1495973862469,-0.008,0.002,-0.044,0.013
1495973862484,-0.006,0.000,-0.031,0.001
1495973862502,-0.003,-0.003,-0.017,-0.014
1495973862520,-0.000,-0.001,-0.001,-0.004
1495973862538,0.000,0.002,0.000,0.011
1495973862556,-0.002,0.005,-0.012,0.026
1495973862571,-0.004,-0.000,-0.024,-0.000
1495973862589,-0.000,-0.001,-0.001,-0.006
1495973862624,0.004,-0.002,0.022,-0.010
1495973862643,0.001,-0.005,0.007,-0.030
1495973862660,-0.004,-0.003,-0.021,-0.020
1495973862676,-0.009,-0.002,-0.052,-0.011
1495973862694,-0.009,-0.001,-0.050,-0.006
1495973862711,-0.004,0.003,-0.021,0.016
1495973862729,0.004,0.003,0.021,0.016
1495973862746,0.007,-0.043,0.042,-0.245
1495973862765,-0.003,0.012,-0.018,0.073
1495973862814,-0.004,0.003,-0.025,0.016
1495973862829,0.000,0.009,0.002,0.052
1495973862848,-0.006,0.144,-0.032,0.832
1495973862867,0.002,-0.026,0.012,-0.132
1495973862884,-0.001,0.004,-0.008,0.020
1495973862902,-0.005,0.004,-0.025,0.021
1495973862919,-0.004,-0.005,-0.020,-0.028
1495973862937,-0.002,0.003,-0.008,0.014
1495973862955,-0.004,-0.000,-0.021,-0.002
1495973862970,0.001,-0.001,0.003,-0.005
1495973862986,-0.003,-0.008,-0.014,-0.040
1495973863003,-0.008,0.002,-0.043,0.010
1495973863021,-0.006,-0.000,-0.029,-0.000
1495973863037,-0.002,0.003,-0.010,0.016
1495973863052,-0.001,-0.002,-0.004,-0.008
1495973863069,-0.003,-0.002,-0.014,-0.008
1495973863084,-0.000,0.001,-0.002,0.005
1495973863102,-0.002,0.001,-0.011,0.004
1495973863120,-0.002,-0.001,-0.013,-0.006
1495973863135,-0.006,0.002,-0.034,0.009
1495973863153,-0.003,0.002,-0.017,0.010
1495973863170,-0.001,0.001,-0.006,0.008
1495973863188,-0.005,0.000,-0.025,0.001
1495973863204,-0.003,0.001,-0.017,0.008
1495973863219,0.000,0.004,0.002,0.019
1495973863236,0.001,-0.000,0.007,-0.000
1495973863251,0.003,0.002,0.015,0.010
1495973863269,-0.001,0.001,-0.004,0.005
1495973863287,-0.001,0.002,-0.006,0.010
1495973863304,0.001,0.001,0.007,0.004
1495973863320,-0.021,-0.147,-0.111,-0.786
1495973863335,0.023,0.068,0.129,0.430
1495973863352,0.001,-0.053,0.003,-0.270
1495973863368,-0.004,-0.180,-0.024,-1.093
1495973863385,0.004,-0.183,0.021,-1.297
1495973863403,0.030,0.030,0.176,0.253
1495973863420,0.038,-0.114,0.238,-0.730
1495973863438,0.084,-0.107,0.567,-0.784
1495973863454,0.017,-0.110,0.111,-0.821
1495973863469,0.017,-0.073,0.117,-0.553
1495973863486,-0.001,-0.020,-0.006,-0.155
1495973863501,0.034,-0.056,0.253,-0.419
1495973863520,0.011,-0.022,0.083,-0.169
1495973863538,-0.003,-0.062,-0.023,-0.474
1495973863569,-0.031,-0.086,-0.237,-0.674
1495973863586,-0.018,-0.036,-0.142,-0.293
1495973863604,0.010,0.024,0.081,0.195
1495973863622,0.009,-0.104,0.075,-0.834
1495973863637,0.062,0.004,0.502,0.035
1495973863653,0.129,0.053,1.010,0.432
1495973863670,0.058,-0.011,0.449,-0.090
1495973863688,0.012,-0.062,0.090,-0.486
1495973863704,0.001,-0.021,0.010,-0.162
1495973863719,-0.029,-0.019,-0.214,-0.145
1495973863736,0.042,0.021,0.329,0.163
1495973863752,0.010,-0.040,0.078,-0.306
1495973863786,-0.007,0.026,-0.054,0.206
1495973863803,-0.007,-0.026,-0.052,-0.195
1495973863821,-0.073,-0.025,-0.567,-0.199
1495973863836,-0.031,0.115,-0.246,0.905
1495973863852,0.006,0.085,0.049,0.638
1495973863868,-0.026,-0.023,-0.208,-0.179
1495973863885,0.007,0.005,0.056,0.041
1495973863903,-0.027,0.013,-0.207,0.102
1495973863918,-0.046,-0.001,-0.361,-0.008
1495973863936,-0.097,-0.018,-0.764,-0.138
1495973863954,-0.055,0.045,-0.450,0.358
1495973863971,-0.016,0.146,-0.129,1.148
1495973863987,0.034,0.189,0.282,1.449
1495973864002,0.028,0.009,0.223,0.065
1495973864019,0.032,-0.018,0.246,-0.131
1495973864052,-0.020,0.019,-0.137,0.134
1495973864068,-0.041,0.045,-0.291,0.307
1495973864085,-0.072,0.025,-0.512,0.172
1495973864103,-0.065,0.146,-0.477,1.007
1495973864121,-0.064,0.081,-0.468,0.531
1495973864138,-0.014,0.108,-0.106,0.738
1495973864154,0.022,0.212,0.156,1.391
1495973864169,0.092,0.357,0.623,2.180
1495973864186,-0.017,0.039,-0.103,0.214
1495973864202,0.006,-0.001,0.033,-0.003
1495973864218,0.007,0.004,0.013,0.008
1495973864234,-0.004,0.000,-0.006,0.000
1495973864251,-0.008,-0.008,-0.012,-0.012
1495973864269,0.000,-0.003,0.000,-0.004
1495973864305,0.003,-0.002,0.005,-0.003
1495973864323,-0.005,-0.004,-0.007,-0.007
1495973864338,-0.005,-0.006,-0.008,-0.010
1495973864356,-0.003,-0.005,-0.005,-0.008
1495973864374,-0.005,0.003,-0.008,0.005
1495973864391,-0.003,0.001,-0.005,0.002
1495973864409,-0.002,-0.002,-0.003,-0.003
1495973864426,0.001,-0.001,0.001,-0.002
1495973864444,-0.002,-0.000,-0.003,-0.000
1495973864462,-0.006,-0.003,-0.010,-0.005
1495973864479,-0.006,-0.002,-0.010,-0.004
1495973864498,-0.004,-0.004,-0.006,-0.006
1495973864516,0.004,-0.000,0.007,-0.000
1495973864534,0.003,-0.002,0.005,-0.004
1495973864550,-0.001,-0.005,-0.001,-0.009
1495973864567,-0.004,0.001,-0.006,0.002
1495973864585,0.003,0.003,0.005,0.005
1495973864602,-0.000,0.003,-0.001,0.005
1495973864620,-0.001,-0.005,-0.001,-0.008
1495973864638,-0.001,-0.003,-0.001,-0.005
1495973864653,-0.004,-0.006,-0.007,-0.010
1495973864669,0.002,0.002,0.004,0.004
1495973864685,0.005,0.001,0.008,0.002
1495973864701,-0.002,0.001,-0.003,0.001
1495973864719,-0.008,-0.003,-0.014,-0.004
1495973864737,-0.003,0.001,-0.005,0.003
1495973864755,0.001,0.003,0.002,0.005
1495973864770,0.006,0.001,0.012,0.003
1495973864803,0.002,0.001,0.004,0.002
1495973864818,-0.003,0.006,-0.006,0.010
1495973864841,-0.002,0.000,-0.004,0.000
1495973864858,-0.004,-0.001,-0.007,-0.002
1495973864876,0.001,0.001,0.002,0.002
1495973864894,-0.002,-0.002,-0.004,-0.004
1495973864911,0.004,-0.002,0.007,-0.003
1495973864929,0.001,0.002,0.002,0.004
1495973864944,-0.003,-0.001,-0.006,-0.002
1495973864962,-0.003,-0.001,-0.006,-0.002
1495973864978,-0.005,-0.004,-0.008,-0.007
1495973864995,0.001,-0.001,0.002,-0.001
1495973865013,-0.004,-0.002,-0.007,-0.003
1495973865030,-0.002,0.002,-0.004,0.003
1495973865048,-0.003,0.001,-0.006,0.001
1495973865064,-0.000,-0.003,-0.001,-0.005
1495973865079,-0.001,-0.003,-0.002,-0.005
1495973865096,-0.004,-0.004,-0.007,-0.007
1495973865111,-0.005,0.002,-0.009,0.004
1495973865129,-0.003,-0.001,-0.005,-0.002
1495973865147,0.001,0.000,0.002,0.000
1495973865165,0.003,0.008,0.007,0.016
1495973865183,-0.001,0.007,-0.001,0.014
1495973865216,-0.003,0.010,-0.006,0.019
1495973865234,-0.002,0.012,-0.005,0.022
1495973865251,-0.000,0.008,-0.001,0.015
1495973865269,0.003,0.011,0.006,0.019
1495973865286,0.002,0.016,0.004,0.028
1495973865304,0.003,0.017,0.006,0.028
1495973865322,-0.005,-0.006,-0.009,-0.009
1495973865339,-0.007,0.116,-0.012,0.185
1495973865341,-0.019,0.059,-0.030,0.086
1495973865358,-0.000,0.107,-0.000,0.148
1495973865393,0.080,0.911,0.085,0.929
1495973865411,-0.063,0.104,-0.058,0.230
1495973865428,-0.071,0.160,0.126,0.732
1495973865446,-0.175,-0.042,-0.806,-0.323
1495973865461,0.142,-0.014,0.661,-0.000
1495973865479,0.093,0.009,0.479,0.035
1495973865497,0.117,0.134,0.589,0.661
1495973865514,-0.005,0.150,-0.026,0.871
1495973865530,-0.046,0.136,-0.247,0.867
1495973865546,-0.051,0.052,-0.288,0.342
1495973865562,-0.027,-0.019,-0.159,-0.119
1495973865579,0.029,-0.041,0.183,-0.259
1495973865594,0.046,0.043,0.299,0.266
1495973865612,0.026,0.098,0.170,0.628
1495973865629,0.023,0.012,0.144,0.078
1495973865645,-0.007,0.018,-0.046,0.120
1495973865663,-0.029,-0.060,-0.197,-0.411
1495973865680,0.000,0.026,0.000,0.170
1495973865698,-0.008,-0.041,-0.054,-0.279
1495973865713,0.030,-0.037,0.198,-0.241
1495973865745,-0.017,0.060,-0.112,0.394
1495973865762,-0.052,-0.001,-0.338,-0.004
1495973865780,0.030,0.005,0.192,0.035
1495973865797,0.023,0.045,0.152,0.296
1495973865815,0.007,0.060,0.046,0.403
1495973865831,-0.063,0.017,-0.421,0.114
1495973865846,-0.029,-0.027,-0.194,-0.186
1495973865863,0.067,0.077,0.455,0.516
1495973865878,0.005,-0.042,0.038,-0.287
1495973865896,-0.019,0.114,-0.132,0.775
1495973865914,0.003,0.075,0.019,0.543
1495973865931,0.009,-0.008,0.059,-0.055
1495973865949,0.001,0.011,0.007,0.078
1495973865966,-0.013,-0.018,-0.092,-0.134
1495973865984,-0.016,0.049,-0.116,0.357
1495973866002,0.016,-0.000,0.117,-0.002
1495973866019,0.001,0.073,0.009,0.526
1495973866037,-0.074,-0.027,-0.542,-0.205
1495973866054,0.045,-0.041,0.321,-0.296
1495973866072,-0.039,0.055,-0.288,0.397
1495973866090,-0.001,-0.091,-0.005,-0.676
1495973866108,0.055,-0.007,0.400,-0.048
1495973866126,0.034,0.059,0.255,0.421
1495973866143,-0.003,-0.001,-0.023,-0.006
1495973866161,-0.021,-0.008,-0.149,-0.058
1495973866179,0.009,0.029,0.066,0.216
1495973866196,0.047,-0.105,0.349,-0.778
1495973866212,0.048,-0.071,0.360,-0.504
1495973866229,0.023,-0.123,0.170,-0.886
1495973866247,0.006,-0.052,0.045,-0.367
1495973866265,0.020,-0.009,0.142,-0.064
1495973866282,-0.001,-0.110,-0.010,-0.765
1495973866298,-0.021,-0.163,-0.147,-1.089
1495973866331,-0.026,-0.167,-0.178,-1.083
1495973866349,-0.006,0.008,-0.042,0.046
1495973866364,-0.004,0.014,-0.022,0.085
1495973866380,-0.000,0.019,-0.001,0.107
1495973866396,0.002,0.018,0.013,0.105
1495973866413,-0.004,0.019,-0.023,0.111
1495973866431,-0.006,0.021,-0.033,0.121
1495973866448,-0.002,0.027,-0.012,0.154
1495973866464,-0.001,0.011,-0.004,0.067
1495973866479,-0.004,0.084,-0.024,0.490
1495973866496,-0.004,0.018,-0.022,0.113
1495973866529,0.013,0.156,0.076,0.939
1495973866547,-0.005,-0.026,-0.032,-0.167
1495973866565,-0.001,0.002,-0.009,0.013
1495973866583,-0.002,0.007,-0.014,0.047
1495973866601,-0.003,0.016,-0.020,0.100
1495973866618,-0.010,0.020,-0.065,0.128
1495973866636,-0.002,0.019,-0.010,0.121
1495973866653,-0.003,0.014,-0.017,0.091
1495973866671,0.002,0.016,0.015,0.103
1495973866689,-0.001,0.012,-0.008,0.079
1495973866706,-0.003,0.016,-0.020,0.105
1495973866708,-0.005,0.016,-0.031,0.104
1495973866724,-0.003,0.014,-0.022,0.093
1495973866742,-0.003,0.016,-0.017,0.106
1495973866760,-0.004,0.013,-0.025,0.089
1495973866795,-0.008,0.011,-0.056,0.071
1495973866813,-0.002,0.016,-0.013,0.104
1495973866830,-0.004,0.017,-0.027,0.111
1495973866848,0.000,0.018,0.002,0.121
1495973866866,0.003,0.015,0.023,0.102
1495973866883,-0.005,0.015,-0.031,0.099
1495973866901,-0.011,0.013,-0.077,0.086
1495973866918,-0.006,0.007,-0.038,0.050
1495973866936,-0.003,0.020,-0.021,0.136
1495973866954,0.007,0.016,0.049,0.107
1495973866971,-0.001,0.016,-0.008,0.112
1495973866989,-0.006,0.013,-0.042,0.093
1495973867006,-0.005,0.015,-0.033,0.105
1495973867025,-0.010,0.016,-0.069,0.110
1495973867043,-0.003,0.016,-0.022,0.114
1495973867060,-0.001,0.016,-0.005,0.111
1495973867078,-0.004,0.016,-0.025,0.109
1495973867095,-0.005,0.017,-0.037,0.122
1495973867113,-0.005,0.015,-0.036,0.109
1495973867131,-0.007,0.013,-0.048,0.091
1495973867148,0.000,0.017,0.000,0.123
1495973867164,-0.000,0.015,-0.001,0.108
1495973867179,-0.005,0.018,-0.033,0.125
1495973867197,-0.009,0.018,-0.062,0.131
1495973867215,-0.007,0.018,-0.048,0.130
1495973867232,-0.006,0.016,-0.042,0.118
1495973867248,-0.003,0.015,-0.021,0.109
1495973867265,0.000,0.011,0.000,0.083
1495973867281,-0.001,0.015,-0.008,0.112
1495973867313,-0.003,0.009,-0.019,0.067
1495973867330,-0.003,0.010,-0.023,0.076
1495973867347,0.000,0.014,0.002,0.100
1495973867365,-0.003,0.013,-0.023,0.098
1495973867381,-0.010,0.017,-0.073,0.127
1495973867396,-0.012,0.022,-0.086,0.162
1495973867412,-0.002,0.017,-0.014,0.128
1495973867427,-0.002,0.014,-0.012,0.103
1495973867445,-0.000,0.012,-0.001,0.091
1495973867463,-0.000,0.009,-0.003,0.065
1495973867480,-0.001,0.015,-0.007,0.111
1495973867513,-0.001,0.014,-0.005,0.108
1495973867531,0.001,0.016,0.008,0.117
1495973867549,0.004,0.015,0.028,0.110
1495973867564,-0.007,0.013,-0.049,0.100
1495973867580,-0.008,0.015,-0.060,0.117
1495973867596,-0.011,0.010,-0.081,0.078
1495973867612,-0.008,0.014,-0.061,0.104
1495973867630,-0.004,0.009,-0.031,0.067
1495973867647,-0.004,0.013,-0.027,0.100
1495973867665,-0.004,0.011,-0.029,0.086
1495973867682,-0.004,0.014,-0.031,0.106
1495973867698,-0.006,0.019,-0.048,0.148
1495973867714,-0.001,0.020,-0.011,0.152
1495973867746,-0.001,0.014,-0.007,0.107
1495973867763,-0.004,0.010,-0.030,0.081
1495973867781,-0.006,0.012,-0.049,0.094
1495973867799,-0.009,0.011,-0.069,0.083
1495973867814,-0.003,0.015,-0.026,0.117
1495973867830,-0.001,0.015,-0.009,0.116
1495973867846,-0.001,0.010,-0.011,0.076
1495973867862,-0.006,0.012,-0.047,0.091
1495973867880,-0.004,0.017,-0.028,0.135
1495973867897,-0.007,0.016,-0.057,0.122
1495973867915,-0.005,0.014,-0.036,0.113
1495973867932,0.001,0.014,0.004,0.113
1495973867948,-0.002,0.011,-0.015,0.086
1495973867980,-0.001,0.008,-0.009,0.063
1495973867996,-0.004,0.017,-0.034,0.131
1495973868013,-0.008,0.012,-0.063,0.095
1495973868029,-0.002,0.010,-0.015,0.081
1495973868047,-0.005,0.014,-0.040,0.110
1495973868064,-0.005,0.013,-0.040,0.101
1495973868082,-0.011,0.014,-0.089,0.115
1495973868097,-0.004,0.015,-0.031,0.121
1495973868113,-0.004,0.016,-0.029,0.129
1495973868130,0.002,0.014,0.012,0.111
1495973868145,-0.001,0.015,-0.009,0.123
1495973868163,-0.001,0.017,-0.007,0.134
1495973868180,-0.008,0.013,-0.064,0.102
1495973868216,-0.004,0.012,-0.029,0.095
1495973868231,-0.002,0.011,-0.017,0.093
1495973868247,-0.006,0.008,-0.049,0.061
1495973868263,-0.004,0.014,-0.031,0.117
1495973868279,-0.006,0.018,-0.049,0.149
1495973868297,-0.007,0.013,-0.059,0.103
1495973868314,-0.005,0.013,-0.041,0.109
1495973868332,-0.003,0.010,-0.025,0.084
1495973868347,-0.000,0.011,-0.001,0.088
1495973868363,-0.001,0.015,-0.011,0.122
1495973868396,-0.005,0.013,-0.038,0.104
1495973868408,-0.004,0.014,-0.034,0.116
1495973868427,0.001,0.015,0.007,0.121
1495973868444,-0.006,0.010,-0.046,0.084
1495973868462,-0.003,0.013,-0.022,0.107
1495973868480,-0.007,0.010,-0.058,0.081
1495973868497,-0.008,0.012,-0.062,0.103
1495973868515,-0.001,0.017,-0.010,0.144
1495973868532,-0.006,0.014,-0.048,0.120
1495973868548,-0.003,0.014,-0.022,0.120
1495973868564,-0.008,0.013,-0.065,0.112
1495973868580,-0.005,0.010,-0.040,0.085
1495973868596,0.001,0.019,0.005,0.163
1495973868613,0.002,0.012,0.013,0.102
1495973868631,-0.002,0.013,-0.018,0.106
1495973868649,-0.008,0.008,-0.067,0.068
1495973868664,-0.007,0.014,-0.059,0.117
1495973868680,-0.008,0.014,-0.063,0.115
1495973868697,-0.008,0.015,-0.071,0.126
1495973868715,-0.003,0.011,-0.026,0.095
1495973868748,-0.004,0.015,-0.030,0.128
1495973868764,-0.002,0.014,-0.014,0.118
1495973868780,-0.001,0.015,-0.012,0.124
1495973868813,-0.001,0.015,-0.008,0.129
1495973868844,0.000,0.014,0.003,0.121
1495973868861,-0.002,0.017,-0.018,0.142
1495973868863,-0.006,0.014,-0.047,0.117
1495973868879,-0.010,0.013,-0.087,0.113
1495973868897,-0.005,0.015,-0.039,0.128
1495973868914,-0.001,0.014,-0.008,0.117
1495973868932,0.001,0.012,0.007,0.101
1495973868949,-0.005,0.012,-0.046,0.105
1495973868967,-0.004,0.018,-0.037,0.158
1495973868985,-0.006,0.011,-0.050,0.093
1495973869002,-0.003,0.011,-0.027,0.099
1495973869020,-0.001,0.016,-0.008,0.138
1495973869035,-0.001,0.015,-0.008,0.127
1495973869053,-0.004,0.009,-0.031,0.083
1495973869069,-0.009,0.017,-0.078,0.149
1495973869084,-0.004,0.017,-0.036,0.149
1495973869101,-0.004,0.015,-0.034,0.130
1495973869116,-0.001,0.016,-0.012,0.143
1495973869134,-0.005,0.016,-0.042,0.143
1495973869152,-0.007,0.015,-0.057,0.135
1495973869169,-0.007,0.013,-0.060,0.112
1495973869185,-0.004,0.014,-0.038,0.127
1495973869218,-0.001,0.012,-0.008,0.103
1495973869236,-0.004,0.014,-0.032,0.127
1495973869253,-0.000,0.018,-0.004,0.160
1495973869269,-0.006,0.016,-0.056,0.143
1495973869284,-0.007,0.018,-0.062,0.156
1495973869301,-0.002,0.011,-0.015,0.102
1495973869317,-0.001,0.010,-0.006,0.093
1495973869334,-0.006,0.012,-0.052,0.111
1495973869352,-0.006,0.012,-0.056,0.105
1495973869369,-0.005,0.012,-0.041,0.105
1495973869385,0.002,0.017,0.016,0.151
1495973869401,-0.003,0.011,-0.024,0.096
1495973869417,-0.006,0.011,-0.050,0.096
1495973869450,-0.005,0.014,-0.048,0.127
1495973869468,-0.006,0.019,-0.050,0.174
1495973869486,-0.002,0.013,-0.019,0.121
1495973869503,-0.002,0.015,-0.019,0.136
1495973869519,-0.002,0.016,-0.019,0.141
1495973869534,-0.007,0.014,-0.063,0.128
1495973869551,-0.005,0.012,-0.041,0.113
1495973869567,-0.005,0.014,-0.042,0.128
1495973869584,-0.001,0.008,-0.013,0.073
1495973869602,0.001,0.016,0.007,0.149
1495973869619,-0.000,0.015,-0.004,0.138
1495973869651,-0.010,0.012,-0.095,0.113
1495973869668,-0.008,0.017,-0.071,0.156
1495973869686,-0.003,0.016,-0.031,0.147
1495973869703,-0.001,0.018,-0.006,0.166
1495973869721,-0.002,0.016,-0.017,0.146
1495973869739,-0.003,0.022,-0.029,0.207
1495973869756,-0.006,0.011,-0.058,0.101
1495973869774,-0.004,0.015,-0.033,0.142
1495973869791,-0.007,0.013,-0.067,0.119
1495973869809,-0.006,0.011,-0.058,0.101
1495973869827,-0.003,0.014,-0.029,0.131
1495973869844,-0.005,0.015,-0.042,0.140
1495973869863,-0.007,0.015,-0.065,0.143
1495973869880,-0.003,0.016,-0.024,0.152
1495973869898,-0.004,0.015,-0.040,0.141
1495973869916,-0.000,0.013,-0.004,0.125
1495973869933,-0.001,0.017,-0.013,0.155
1495973869951,-0.005,0.015,-0.050,0.141
1495973869968,-0.009,0.015,-0.084,0.137
1495973869986,-0.002,0.012,-0.020,0.112
1495973870004,-0.002,0.011,-0.018,0.103
1495973870019,-0.003,0.017,-0.025,0.156
1495973870035,-0.005,0.010,-0.048,0.096
1495973870051,-0.003,0.017,-0.029,0.161
1495973870067,-0.002,0.015,-0.022,0.145
1495973870100,-0.004,0.017,-0.034,0.159
1495973870118,-0.003,0.015,-0.032,0.141
1495973870135,-0.008,0.015,-0.080,0.141
1495973870153,-0.006,0.015,-0.053,0.139
1495973870169,-0.006,0.012,-0.053,0.113
1495973870184,0.001,0.014,0.005,0.132
1495973870201,-0.000,0.015,-0.002,0.139
1495973870216,-0.004,0.017,-0.039,0.160
1495973870234,-0.004,0.014,-0.034,0.137
1495973870252,-0.003,0.018,-0.030,0.172
1495973870269,-0.003,0.017,-0.030,0.166
