1489576176118,-0.0029,-0.0044,-1.0037
1489576176135,-0.0016,-0.0017,-1.0015
1489576176168,0.0042,0.0020,-1.0018
1489576176184,0.0035,0.0042,-0.9979
1489576176218,-0.0002,0.0005,-0.9952
1489576176251,-0.0014,0.0042,-1.0042
1489576176268,0.0027,0.0010,-1.0003
1489576176301,0.0013,0.0024,-0.9974
1489576176318,0.0057,0.0017,-1.0001
1489576176354,0.0018,0.0020,-0.9979
1489576176368,0.0015,0.0054,-0.9971
1489576176401,0.0025,0.0051,-0.9969
1489576176435,-0.0009,-0.0037,-1.0015
1489576176451,0.0057,0.0002,-0.9962
1489576176485,0.0057,0.0029,-1.0008
1489576176501,-0.0026,0.0007,-1.0023
1489576176535,0.0003,0.0002,-1.0086
1489576176551,0.0047,-0.0007,-0.9986
1489576176585,0.0045,0.0000,-1.0020
1489576176601,0.0040,0.0020,-0.9988
1489576176635,0.0018,0.0017,-0.9979
1489576176651,0.0081,0.0046,-0.9974
1489576176685,0.0037,-0.0024,-0.9996
1489576176718,0.0037,-0.0010,-0.9991
1489576176735,0.0067,0.0034,-0.9984
1489576176768,0.0047,0.0027,-0.9962
1489576176784,-0.0002,-0.0002,-0.9998
1489576176818,0.0023,-0.0034,-1.0084
1489576176851,0.0030,0.0039,-1.0005
1489576176868,0.0020,0.0037,-1.0042
1489576176901,0.0008,0.0029,-0.9981
1489576176918,0.0018,0.0022,-1.0001
1489576176952,0.0042,0.0017,-1.0001
1489576176968,0.0037,0.0012,-0.9986
1489576177001,-0.0029,-0.0007,-1.0040
1489576177018,0.0001,0.0020,-0.9962
1489576177051,0.0018,0.0046,-1.0037
1489576177085,0.0008,0.0029,-1.0032
1489576177101,0.0025,0.0020,-1.0008
1489576177118,0.0054,0.0024,-1.0025
1489576177151,0.0015,0.0034,-1.0067
1489576177185,0.0015,-0.0039,-1.0018
1489576177201,-0.0007,0.0000,-0.9991
1489576177235,0.0042,0.0024,-1.0035
1489576177252,0.0045,0.0029,-1.0023
1489576177285,0.0027,-0.0029,-0.9962
1489576177318,0.0020,0.0002,-0.9962
1489576177334,0.0040,0.0027,-1.0069
1489576177351,0.0047,0.0015,-0.9998
1489576177385,-0.0078,0.0000,-1.0018
1489576177418,0.0023,0.0015,-1.0045
1489576177435,0.0020,0.0017,-1.0018
1489576177468,0.0003,0.0029,-0.9996
1489576177485,0.0032,0.0017,-1.0003
1489576177518,0.0067,0.0015,-1.0023
1489576177551,0.0047,-0.0010,-1.0025
1489576177568,0.0020,0.0044,-1.0030
1489576177602,0.0020,-0.0024,-1.0008
1489576177618,0.0035,0.0007,-1.0042
1489576177651,0.0076,0.0002,-1.0003
1489576177685,0.0001,0.0000,-1.0027
1489576177701,0.0054,-0.0020,-0.9991
1489576177718,0.0027,-0.0034,-1.0059
1489576177752,0.0013,0.0007,-0.9993
1489576177786,-0.0004,0.0012,-1.0074
1489576177802,0.0020,0.0032,-1.0001
1489576177836,0.0030,0.0000,-1.0035
1489576177853,0.0023,0.0017,-0.9974
1489576177886,0.0013,-0.0017,-1.0015
1489576177902,0.0037,0.0017,-0.9979
1489576177936,0.0057,0.0017,-0.9993
1489576177952,0.0005,0.0005,-1.0010
1489576177986,0.0018,0.0024,-0.9979
1489576178019,0.0035,0.0015,-0.9984
1489576178036,0.0059,-0.0002,-1.0005
1489576178069,0.0047,0.0032,-0.9991
1489576178086,0.0010,0.0005,-0.9988
1489576178119,0.0020,0.0022,-0.9979
1489576178136,0.0037,0.0000,-0.9988
1489576178169,0.0037,-0.0032,-1.0018
1489576178186,0.0023,0.0024,-1.0018
1489576178219,0.0025,0.0039,-0.9981
1489576178252,0.0069,0.0005,-0.9976
1489576178269,0.0032,0.0000,-1.0023
1489576178302,0.0015,0.0015,-1.0008
1489576178319,0.0001,0.0039,-0.9979
1489576178352,-0.0002,0.0002,-0.9991
1489576178369,-0.0034,0.0046,-0.9964
1489576178402,0.0023,0.0029,-0.9993
1489576178436,0.0067,-0.0012,-0.9991
1489576178453,0.0001,-0.0010,-0.9910
1489576178486,0.0003,0.0005,-1.0052
1489576178503,0.0054,0.0012,-1.0001
1489576178536,0.0042,0.0020,-1.0110
1489576178552,0.0032,-0.0007,-0.9976
1489576178586,0.0008,-0.0017,-1.0047
1489576178602,0.0035,0.0046,-0.9976
1489576178636,0.0049,0.0024,-0.9969
1489576178670,0.0032,-0.0005,-1.0049
1489576178686,0.0015,-0.0015,-1.0020
1489576178719,0.0054,0.0010,-0.9964
1489576178736,0.0005,0.0012,-0.9986
1489576178769,0.0037,-0.0015,-1.0020
1489576178786,0.0018,0.0042,-0.9996
1489576178819,0.0005,0.0022,-0.9986
1489576178836,0.0003,0.0042,-1.0018
1489576178869,0.0005,-0.0020,-1.0054
1489576178902,0.0023,0.0015,-1.0013
1489576178919,0.0040,0.0068,-1.0049
1489576178936,0.0010,0.0005,-0.9962
1489576178970,0.0045,-0.0029,-1.0023
1489576179002,0.0030,0.0005,-0.9984
1489576179020,0.0069,0.0010,-0.9927
1489576179052,-0.0016,0.0020,-0.9940
1489576179086,0.0035,-0.0002,-0.9974
1489576179102,0.0013,0.0037,-0.9962
1489576179136,0.0032,0.0020,-1.0010
1489576179153,-0.0007,0.0005,-1.0018
1489576179186,0.0054,-0.0015,-0.9984
1489576179203,-0.0016,0.0061,-0.9991
1489576179236,0.0032,-0.0005,-0.9986
1489576179269,-0.0056,0.0015,-1.0010
1489576179286,0.0035,-0.0012,-0.9974
1489576179303,0.0035,0.0046,-1.0042
1489576179336,0.0047,0.0015,-0.9962
1489576179369,-0.0007,0.0010,-1.0054
1489576179386,0.0005,0.0012,-0.9969
1489576179419,0.0052,-0.0007,-1.0013
1489576179436,0.0015,0.0049,-0.9944
1489576179469,0.0027,-0.0012,-0.9981
1489576179503,0.0071,0.0002,-0.9986
1489576179519,0.0045,0.0000,-1.0045
1489576179553,-0.0004,0.0024,-0.9988
1489576179569,0.0010,0.0015,-1.0025
1489576179603,0.0013,0.0010,-0.9952
1489576179619,0.0013,0.0010,-0.9959
1489576179653,-0.0009,0.0022,-0.9991
1489576179686,0.0020,-0.0032,-0.9971
1489576179702,0.0035,0.0039,-1.0013
1489576179719,0.0015,-0.0034,-1.0032
1489576179753,0.0035,0.0007,-0.9974
1489576179806,0.0045,0.0000,-1.0015
1489576179822,0.0071,0.0002,-1.0020
1489576179839,-0.0014,0.0007,-1.0010
1489576179856,0.0001,-0.0007,-0.9996
1489576179872,-0.0007,0.0039,-1.0001
1489576179906,0.0049,-0.0002,-1.0010
1489576179939,0.0040,0.0000,-1.0027
1489576179972,0.0032,-0.0022,-0.9984
1489576179989,0.0052,0.0056,-1.0005
1489576180005,0.0023,0.0022,-0.9981
1489576180040,0.0005,0.0034,-1.0057
1489576180072,0.0015,0.0022,-1.0037
1489576180089,0.0020,0.0020,-0.9952
1489576180106,0.0040,0.0000,-1.0008
1489576180139,-0.0004,0.0015,-0.9998
1489576180172,0.0018,0.0037,-1.0045
1489576180189,0.0045,0.0027,-1.0003
1489576180223,0.0047,0.0020,-0.9969
1489576180239,0.0015,0.0005,-0.9996
1489576180272,-0.0004,0.0005,-0.9996
1489576180306,0.0025,0.0002,-0.9996
1489576180322,0.0027,-0.0010,-0.9959
1489576180355,0.0003,0.0007,-1.0067
1489576180372,0.0045,-0.0010,-0.9986
1489576180406,0.0015,0.0005,-1.0018
1489576180422,0.0008,-0.0020,-1.0008
1489576180456,0.0018,0.0020,-0.9998
1489576180489,0.0062,0.0005,-1.0008
1489576180506,0.0037,0.0046,-1.0081
1489576180539,0.0010,-0.0042,-0.9996
1489576180556,0.0042,0.0007,-1.0035
1489576180591,0.0018,0.0034,-1.0059
1489576180606,0.0005,0.0051,-1.0008
1489576180639,0.0003,0.0037,-1.0013
1489576180672,0.0013,0.0042,-1.0030
1489576180689,0.0047,0.0027,-1.0027
1489576180722,0.0025,0.0010,-0.9981
1489576180739,-0.0058,0.0032,-0.9976
1489576180772,0.0069,0.0032,-1.0005
1489576180789,0.0049,0.0010,-0.9954
1489576180822,0.0035,-0.0010,-1.0071
1489576180839,0.0018,0.0017,-1.0018
1489576180873,0.0037,0.0015,-1.0042
1489576180906,0.0032,0.0000,-1.0008
1489576180922,0.0035,-0.0015,-1.0020
1489576180956,0.0023,0.0005,-0.9935
1489576180972,0.0025,0.0039,-1.0003
1489576181006,0.0037,0.0005,-1.0008
1489576181022,-0.0012,0.0017,-1.0030
1489576181055,0.0030,0.0015,-0.9981
1489576181072,0.0074,0.0017,-0.9969
1489576181106,0.0018,-0.0007,-0.9971
1489576181139,0.0010,-0.0007,-0.9971
1489576181172,0.0042,0.0039,-1.0010
1489576181189,0.0035,0.0056,-1.0008
1489576181206,0.0035,-0.0020,-1.0005
1489576181239,-0.0016,-0.0032,-0.9964
1489576181256,0.0001,0.0039,-1.0015
1489576181290,-0.0012,0.0005,-1.0018
1489576181306,-0.0048,0.0024,-1.0059
1489576181339,0.0001,0.0027,-1.0020
1489576181373,0.0045,0.0029,-1.0027
1489576181389,0.0037,-0.0015,-1.0091
1489576181422,-0.0002,-0.0029,-0.9976
1489576181456,0.0020,0.0034,-1.0003
1489576181472,0.0025,0.0015,-1.0001
1489576181506,0.0020,0.0020,-0.9984
1489576181523,0.0003,-0.0005,-0.9962
1489576181556,0.0010,0.0029,-0.9966
1489576181572,0.0064,0.0037,-0.9959
1489576181606,-0.0002,0.0010,-1.0008
1489576181622,-0.0009,-0.0007,-1.0049
1489576181656,-0.0002,-0.0017,-1.0013
1489576181672,0.0037,-0.0010,-1.0015
1489576181706,0.0062,0.0007,-1.0027
1489576181739,0.0008,0.0005,-0.9969
1489576181757,0.0037,0.0032,-1.0020
1489576181808,0.0015,0.0037,-0.9962
1489576181824,-0.0026,-0.0002,-0.9979
1489576181841,-0.0012,0.0054,-0.9952
1489576181858,0.0042,0.0027,-1.0069
1489576181891,0.0032,0.0037,-0.9944
1489576181907,0.0001,0.0012,-0.9991
1489576181941,-0.0016,0.0002,-1.0003
1489576181974,0.0054,0.0015,-1.0023
1489576181992,-0.0009,0.0000,-1.0074
1489576182008,-0.0024,0.0017,-1.0035
1489576182041,0.0025,0.0044,-1.0047
1489576182074,0.0035,0.0027,-1.0015
1489576182091,0.0025,0.0002,-1.0076
1489576182124,-0.0016,-0.0015,-1.0032
1489576182141,0.0013,0.0068,-1.0059
1489576182174,0.0030,0.0054,-0.9998
1489576182208,0.0015,0.0000,-1.0049
1489576182224,-0.0012,0.0002,-1.0059
1489576182257,0.0001,0.0042,-1.0005
1489576182274,0.0052,0.0049,-0.9986
1489576182311,0.0054,0.0027,-1.0059
1489576182341,-0.0019,0.0002,-0.9996
1489576182358,0.0020,-0.0015,-1.0081
1489576182374,0.0018,-0.0002,-0.9974
1489576182408,-0.0009,0.0010,-1.0086
1489576182441,0.0052,0.0042,-1.0013
1489576182457,0.0025,0.0005,-1.0108
1489576182491,0.0008,-0.0002,-1.0054
1489576182507,0.0001,0.0044,-1.0018
1489576182541,0.0047,-0.0012,-1.0054
1489576182574,0.0040,0.0037,-1.0037
1489576182591,0.0001,0.0002,-1.0018
1489576182608,-0.0007,0.0022,-1.0054
1489576182641,0.0064,-0.0007,-1.0010
1489576182674,-0.0029,0.0012,-1.0027
1489576182691,0.0027,-0.0007,-1.0064
1489576182724,-0.0024,-0.0005,-1.0008
1489576182741,0.0005,0.0000,-1.0071
1489576182774,0.0005,0.0027,-1.0110
1489576182808,0.0001,0.0000,-1.0020
1489576182824,0.0015,-0.0024,-1.0018
1489576182858,0.0103,0.0027,-1.0037
1489576182874,0.0005,0.0024,-1.0081
1489576182908,0.0001,-0.0002,-1.0018
1489576182941,0.0023,0.0020,-1.0052
1489576182957,0.0042,0.0017,-1.0074
1489576182974,-0.0009,0.0024,-1.0093
1489576183008,-0.0034,0.0020,-1.0027
1489576183041,0.0025,-0.0029,-1.0003
1489576183058,0.0037,0.0007,-1.0025
1489576183091,0.0010,-0.0005,-1.0032
1489576183107,0.0008,0.0042,-1.0032
1489576183141,0.0030,0.0024,-1.0064
1489576183158,0.0040,0.0010,-1.0023
1489576183191,0.0008,-0.0012,-1.0001
1489576183224,0.0008,0.0027,-1.0040
1489576183241,0.0064,0.0049,-1.0023
1489576183274,0.0032,0.0002,-1.0076
1489576183291,0.0042,0.0002,-1.0032
1489576183324,0.0030,-0.0015,-1.0023
1489576183341,0.0049,0.0059,-1.0015
1489576183374,-0.0014,0.0002,-1.0049
1489576183408,-0.0009,0.0012,-1.0079
1489576183424,0.0035,0.0007,-1.0030
1489576183458,0.0040,0.0012,-1.0010
1489576183475,-0.0031,0.0000,-1.0118
1489576183508,0.0018,-0.0015,-1.0076
1489576183541,0.0057,0.0032,-1.0057
1489576183558,0.0032,-0.0022,-1.0071
1489576183574,0.0001,0.0015,-1.0010
1489576183608,0.0005,0.0027,-1.0008
1489576183641,0.0008,0.0010,-0.9971
1489576183658,0.0030,0.0042,-0.9991
1489576183691,0.0003,0.0002,-1.0037
1489576183707,-0.0007,0.0037,-1.0015
1489576183741,0.0015,0.0010,-1.0069
1489576183774,0.0010,-0.0010,-1.0005
1489576183801,-0.0009,0.0017,-1.0049
1489576183818,0.0047,0.0017,-0.9998
1489576183851,0.0057,0.0017,-1.0071
1489576183868,0.0003,0.0012,-1.0025
1489576183901,-0.0024,0.0022,-1.0013
1489576183918,0.0032,0.0027,-1.0037
1489576183951,0.0008,0.0029,-1.0030
1489576183968,0.0045,0.0017,-0.9991
1489576184001,0.0027,0.0015,-1.0049
1489576184018,0.0037,0.0044,-1.0025
1489576184051,0.0001,0.0029,-1.0045
1489576184085,0.0005,-0.0029,-0.9986
1489576184101,0.0052,0.0017,-1.0018
1489576184135,0.0059,-0.0005,-0.9998
1489576184151,0.0018,0.0010,-1.0032
1489576184185,-0.0019,0.0012,-1.0015
1489576184218,0.0018,0.0022,-1.0025
1489576184234,0.0062,0.0022,-0.9996
1489576184268,0.0005,0.0000,-1.0062
1489576184284,0.0025,-0.0002,-0.9986
1489576184318,0.0049,0.0002,-1.0032
1489576184334,0.0013,-0.0032,-1.0059
1489576184368,0.0013,-0.0020,-1.0030
1489576184384,0.0030,0.0015,-0.9942
1489576184418,0.0049,0.0061,-0.9942
1489576184451,0.0030,0.0032,-1.0069
1489576184468,-0.0004,0.0015,-1.0047
1489576184501,0.0032,-0.0005,-1.0086
1489576184518,0.0005,-0.0002,-1.0035
1489576184552,0.0005,0.0000,-1.0047
1489576184568,0.0020,0.0007,-0.9998
1489576184601,0.0003,0.0012,-1.0042
1489576184618,0.0005,0.0012,-1.0049
1489576184651,0.0008,0.0010,-1.0008
1489576184685,0.0042,-0.0015,-1.0001
1489576184701,0.0049,0.0020,-1.0064
1489576184734,0.0057,0.0022,-1.0037
1489576184751,-0.0029,0.0034,-1.0023
1489576184785,-0.0004,0.0002,-1.0045
1489576184801,0.0013,0.0005,-1.0010
1489576184835,0.0067,0.0002,-1.0040
1489576184868,0.0062,0.0010,-1.0027
1489576184884,0.0025,0.0034,-1.0027
1489576184918,0.0018,0.0007,-1.0027
1489576184934,-0.0016,0.0005,-1.0008
1489576184968,0.0008,0.0010,-1.0032
1489576184984,0.0023,-0.0032,-1.0032
1489576185018,0.0020,0.0007,-0.9996
1489576185051,0.0003,0.0015,-1.0081
1489576185068,0.0005,0.0012,-1.0047
1489576185101,0.0045,0.0034,-1.0035
1489576185118,0.0025,0.0054,-0.9993
1489576185151,-0.0002,0.0010,-0.9996
1489576185168,-0.0009,0.0007,-1.0035
1489576185201,0.0062,0.0034,-1.0098
1489576185218,0.0027,0.0007,-1.0042
1489576185251,0.0003,-0.0020,-1.0040
1489576185285,0.0032,0.0010,-1.0091
1489576185301,0.0037,0.0005,-1.0023
1489576185335,0.0015,-0.0010,-1.0010
1489576185351,-0.0004,0.0002,-1.0025
1489576185385,0.0023,-0.0015,-0.9984
1489576185401,0.0013,0.0076,-0.9993
1489576185435,-0.0009,-0.0002,-1.0040
1489576185468,0.0020,0.0012,-1.0049
1489576185484,0.0045,0.0015,-1.0018
1489576185518,0.0003,0.0073,-1.0106
1489576185534,-0.0034,0.0010,-1.0062
1489576185568,0.0018,0.0010,-0.9981
1489576185584,0.0010,0.0027,-0.9988
1489576185618,0.0023,0.0002,-1.0045
1489576185651,0.0010,0.0000,-1.0052
1489576185668,0.0015,0.0002,-1.0042
1489576185701,0.0062,0.0005,-1.0023
1489576185718,0.0003,-0.0051,-1.0035
1489576185752,-0.0007,0.0020,-1.0037
1489576185805,0.0008,0.0027,-1.0089
1489576185822,0.0079,0.0132,-1.0091
1489576185839,0.0020,-0.0396,-0.9241
1489576185855,-0.0097,-0.1162,-0.8262
1489576185872,0.0018,0.0117,-1.0079
1489576185905,0.0074,0.0093,-1.0081
1489576185939,0.0018,0.0000,-0.9898
1489576185955,-0.0012,0.0076,-1.0052
1489576185989,0.0015,0.0059,-0.9988
1489576186006,0.0020,0.0095,-1.0003
1489576186039,-0.0036,0.0105,-1.0074
1489576186056,-0.0783,-0.1943,-1.0230
1489576186088,-0.0668,-0.2095,-1.0384
1489576186122,-0.0204,-0.1709,-0.9993
1489576186138,0.0887,0.0188,-1.0267
1489576186172,0.1107,-0.1638,-1.0179
1489576186188,0.1483,-0.1077,-1.0142
1489576186222,0.1031,-0.0850,-1.0596
1489576186238,0.0062,-0.1563,-1.0530
1489576186272,-0.0021,-0.3281,-0.7386
1489576186288,-0.0229,-0.1296,-1.0181
1489576186322,0.0789,-0.0500,-0.9683
1489576186355,-0.0370,-0.1641,-0.8492
1489576186372,-0.0275,-0.0049,-1.1089
1489576186405,-0.0803,-0.1450,-1.0201
1489576186422,0.0452,0.0698,-1.0340
1489576186456,-0.0873,-0.1091,-0.9368
1489576186472,-0.0583,-0.0632,-1.0103
1489576186505,-0.0146,-0.0581,-1.0579
1489576186522,0.0455,0.0088,-1.0203
1489576186555,-0.0043,0.0562,-1.0733
1489576186589,-0.0632,0.0762,-1.0435
1489576186605,0.0220,-0.0750,-0.9683
1489576186639,0.0152,0.1736,-1.0941
1489576186655,-0.0558,-0.0496,-0.8360
1489576186689,0.0430,0.1624,-1.2647
1489576186706,0.0655,-0.1687,-0.9227
1489576186739,-0.0082,0.0752,-1.0276
1489576186772,-0.0434,0.1072,-0.9964
1489576186805,0.0633,-0.0522,-1.0206
1489576186826,0.0745,0.2043,-0.9769
1489576186839,-0.0544,0.0559,-0.9905
1489576186872,-0.0370,-0.0518,-1.0206
1489576186889,0.0584,0.1523,-1.0967
1489576186922,-0.0080,-0.0225,-1.0081
1489576186955,-0.0038,-0.0247,-0.9444
1489576186972,0.0496,0.0176,-1.0452
1489576187005,0.0269,0.0037,-0.9986
1489576187022,0.0142,0.0791,-1.1946
1489576187055,-0.0060,0.0200,-1.0098
1489576187089,0.0377,-0.2432,-0.8572
1489576187105,-0.1005,-0.1155,-0.8597
1489576187139,-0.0510,-0.0627,-1.0601
1489576187156,0.0025,-0.0667,-0.9446
1489576187189,0.0067,0.0442,-0.9063
1489576187205,0.0367,0.0703,-1.0228
1489576187239,-0.0327,-0.0313,-0.9671
1489576187255,0.0333,0.0391,-1.0374
1489576187289,-0.0146,-0.0205,-0.9468
1489576187306,-0.0114,0.0366,-1.0291
1489576187339,-0.0151,0.0447,-1.0491
1489576187372,0.0027,0.0593,-0.9925
1489576187389,-0.0234,0.0525,-0.9786
1489576187422,0.0806,0.0586,-1.0059
1489576187439,0.0587,0.0742,-1.0167
1489576187472,0.0037,0.0527,-0.9935
1489576187505,0.0069,0.0586,-1.0086
1489576187522,0.0150,0.0002,-0.9966
1489576187555,0.0057,-0.0151,-0.9957
1489576187589,-0.0012,-0.0144,-1.0411
1489576187605,-0.0163,-0.0442,-0.9984
1489576187622,-0.0134,-0.0566,-0.9490
1489576187656,0.0218,-0.0088,-1.0130
1489576187672,0.0062,-0.0176,-0.9932
1489576187706,-0.0065,0.0010,-1.0425
1489576187739,0.0086,-0.0247,-0.9798
1489576187756,0.0052,0.0007,-1.0067
1489576187805,0.0001,-0.0139,-0.9993
1489576187822,0.0032,-0.0088,-1.0020
1489576187839,0.0106,-0.0090,-1.0025
1489576187872,0.0064,-0.0107,-1.0071
1489576187889,-0.0002,-0.0120,-0.9969
1489576187922,0.0035,-0.0073,-1.0054
1489576187955,0.0049,-0.0051,-0.9969
1489576187972,0.0086,-0.0112,-1.0037
1489576187988,0.0052,-0.0120,-1.0025
1489576188022,0.0081,-0.0103,-1.0015
1489576188039,0.0054,-0.0068,-1.0025
1489576188089,-0.0002,-0.0022,-0.9998
1489576188105,0.0106,-0.0054,-1.0003
1489576188122,0.0010,-0.0098,-1.0037
1489576188139,0.0020,-0.0144,-0.9979
1489576188172,0.0089,-0.0051,-1.0015
1489576188205,0.0013,-0.0037,-0.9991
1489576188239,-0.0058,-0.0039,-1.0008
1489576188255,-0.0031,-0.0139,-1.0010
1489576188289,0.0074,-0.0120,-1.0003
1489576188305,0.0093,-0.0107,-0.9991
1489576188339,-0.0014,-0.0093,-1.0040
1489576188355,0.0049,-0.0083,-0.9984
1489576188389,0.0076,-0.0059,-0.9988
1489576188406,-0.0038,-0.0071,-1.0057
1489576188439,0.0067,-0.0100,-1.0057
1489576188472,0.0145,-0.0120,-1.0076
1489576188488,0.0091,-0.0083,-0.9964
1489576188505,0.0003,-0.0081,-0.9974
1489576188539,-0.0080,-0.0049,-1.0076
1489576188573,0.0076,-0.0046,-1.0064
1489576188605,0.0125,-0.0037,-1.0062
1489576188622,0.0025,-0.0117,-1.0032
1489576188638,0.0010,-0.0127,-0.9988
1489576188672,0.0064,-0.0039,-1.0035
1489576188705,0.0025,-0.0044,-1.0035
1489576188722,0.0023,-0.0046,-1.0027
1489576188755,0.0135,-0.0073,-1.0008
1489576188772,0.0074,-0.0115,-1.0023
1489576188805,-0.0053,-0.0093,-1.0035
1489576188823,0.0001,-0.0081,-1.0081
1489576188855,0.0106,-0.0073,-0.9998
1489576188872,0.0076,-0.0110,-1.0037
1489576188905,0.0018,-0.0120,-0.9996
1489576188939,0.0067,-0.0059,-1.0001
1489576188955,0.0062,-0.0056,-1.0074
1489576188989,0.0020,-0.0078,-1.0020
1489576189005,0.0054,-0.0122,-1.0076
1489576189039,0.0162,-0.0085,-1.0057
1489576189072,0.0084,-0.0117,-1.0101
1489576189090,-0.0024,-0.0117,-1.0167
1489576189122,0.0040,-0.0078,-0.9957
1489576189139,0.0154,0.0022,-0.9991
1489576189172,0.0076,-0.0073,-1.0054
1489576189206,0.0049,-0.0090,-1.0067
1489576189222,0.0049,-0.0066,-1.0003
1489576189238,0.0045,-0.0037,-1.0079
1489576189272,-0.0002,-0.0078,-1.0093
1489576189306,0.0042,-0.0049,-1.0052
1489576189322,0.0098,-0.0054,-1.0049
1489576189355,0.0091,-0.0083,-0.9988
1489576189372,0.0042,-0.0095,-1.0081
1489576189405,0.0035,-0.0063,-1.0052
1489576189439,0.0074,-0.0063,-1.0142
1489576189455,0.0042,-0.0078,-1.0059
1489576189489,-0.0014,-0.0095,-1.0045
1489576189505,0.0054,-0.0078,-1.0025
1489576189539,0.0040,-0.0076,-1.0079
1489576189556,0.0020,-0.0051,-1.0084
1489576189589,0.0079,-0.0044,-1.0047
1489576189605,0.0118,-0.0107,-1.0089
1489576189639,0.0089,-0.0046,-1.0025
1489576189672,0.0030,-0.0066,-1.0086
1489576189689,0.0049,-0.0068,-1.0159
1489576189722,0.0106,-0.0076,-1.0089
1489576189739,0.0037,-0.0063,-0.9966
1489576189772,-0.0014,-0.0090,-1.0045
1489576189800,0.0071,-0.0068,-0.9998
1489576189816,0.0062,-0.0039,-1.0062
1489576189850,0.0008,-0.0073,-1.0142
1489576189867,0.0005,-0.0110,-1.0030
1489576189900,0.0096,-0.0051,-1.0067
1489576189933,0.0071,-0.0066,-1.0047
1489576189950,-0.0007,-0.0103,-1.0062
1489576189983,-0.0007,-0.0068,-0.9998
1489576190000,0.0057,-0.0078,-1.0027
1489576190033,0.0062,-0.0039,-1.0045
1489576190049,0.0025,-0.0117,-1.0047
1489576190083,0.0032,-0.0095,-1.0069
1489576190116,0.0096,-0.0068,-1.0015
1489576190133,0.0059,-0.0090,-1.0059
1489576190166,0.0027,-0.0095,-1.0049
1489576190183,0.0096,-0.0061,-1.0089
1489576190216,0.0096,-0.0027,-1.0062
1489576190250,0.0027,-0.0078,-1.0096
1489576190266,0.0025,-0.0059,-1.0052
1489576190300,0.0076,-0.0090,-1.0093
1489576190316,0.0052,-0.0059,-1.0040
1489576190350,0.0025,-0.0103,-1.0079
1489576190367,0.0035,-0.0051,-1.0040
1489576190400,0.0081,-0.0051,-1.0037
1489576190417,0.0084,-0.0037,-1.0037
1489576190450,0.0025,-0.0112,-0.9988
1489576190483,0.0027,-0.0090,-1.0081
1489576190500,0.0101,-0.0061,-1.0032
1489576190533,0.0067,-0.0056,-1.0027
1489576190566,0.0047,-0.0103,-1.0059
1489576190583,0.0064,-0.0076,-1.0084
1489576190600,0.0045,-0.0054,-0.9971
1489576190633,0.0049,-0.0090,-0.9996
1489576190666,0.0052,-0.0059,-1.0023
1489576190683,0.0071,-0.0051,-1.0037
1489576190716,0.0045,-0.0125,-1.0001
1489576190733,0.0069,-0.0093,-1.0071
1489576190766,0.0010,-0.0073,-1.0030
1489576190783,0.0067,-0.0073,-1.0032
1489576190816,0.0081,-0.0063,-1.0020
1489576190850,0.0047,-0.0081,-1.0023
1489576190867,0.0040,-0.0085,-1.0096
1489576190900,0.0052,-0.0081,-1.0052
1489576190917,0.0069,-0.0076,-1.0035
1489576190950,0.0032,-0.0117,-1.0042
1489576190967,0.0059,-0.0078,-1.0067
1489576191000,0.0064,-0.0071,-1.0052
1489576191033,0.0067,-0.0076,-1.0040
1489576191050,0.0030,-0.0095,-1.0069
1489576191085,0.0040,-0.0083,-1.0045
1489576191100,0.0118,-0.0063,-1.0074
1489576191133,0.0001,-0.0088,-1.0035
1489576191150,0.0027,-0.0066,-1.0069
1489576191183,0.0067,-0.0054,-1.0118
1489576191200,0.0064,-0.0078,-1.0010
1489576191233,0.0032,-0.0073,-1.0089
1489576191267,0.0010,-0.0054,-1.0049
1489576191283,0.0067,-0.0056,-1.0023
1489576191317,0.0032,-0.0090,-1.0091
1489576191335,0.0005,-0.0063,-1.0074
1489576191367,0.0018,-0.0022,-1.0132
1489576191400,0.0108,-0.0071,-1.0010
1489576191417,0.0042,-0.0139,-0.9991
1489576191433,0.0015,-0.0076,-1.0096
1489576191467,0.0013,-0.0088,-1.0008
1489576191500,0.0091,-0.0020,-0.9981
1489576191516,0.0045,-0.0063,-1.0069
1489576191550,0.0032,-0.0034,-1.0054
1489576191566,0.0020,-0.0117,-1.0023
1489576191600,0.0049,-0.0051,-1.0076
1489576191633,0.0045,-0.0061,-1.0076
1489576191650,0.0071,-0.0081,-1.0001
1489576191683,0.0089,-0.0085,-1.0010
1489576191700,0.0084,-0.0066,-1.0076
1489576191733,0.0067,-0.0105,-1.0074
1489576191766,0.0040,-0.0110,-1.0054
1489576191783,0.0076,-0.0061,-1.0135
1489576191800,0.0059,-0.0063,-1.0008
1489576191834,-0.0014,-0.0095,-0.9896
1489576191867,-0.0004,-0.0095,-1.0025
1489576191883,0.0067,-0.0032,-1.0084
1489576191917,0.0064,-0.0049,-1.0067
1489576191933,0.0101,-0.0098,-0.9993
1489576191967,0.0074,-0.0015,-1.0113
1489576192000,0.0106,0.0051,-1.0013
1489576192016,-0.0009,0.0295,-1.0052
1489576192033,0.0274,0.0623,-0.9920
1489576192070,0.0242,0.1101,-1.0115
1489576192100,-0.0048,0.0649,-0.9691
1489576192133,-0.0390,0.1348,-1.0040
1489576192150,-0.0182,0.1367,-0.9898
1489576192166,0.0289,0.0762,-0.9991
1489576192200,-0.0099,0.0342,-0.9410
1489576192233,0.0347,0.0659,-1.0176
1489576192250,0.0186,0.0930,-0.9534
1489576192284,0.0572,-0.0520,-1.0040
1489576192317,0.0223,0.0869,-0.9940
1489576192333,-0.0114,0.0977,-0.9312
1489576192367,0.0989,-0.1560,-0.9488
1489576192383,0.0281,-0.0444,-0.8931
1489576192400,0.0513,0.0034,-1.0101
1489576192433,-0.0121,-0.0078,-1.0320
1489576192467,0.0018,0.0159,-0.8851
1489576192484,0.0399,0.0095,-0.9915
1489576192517,0.0098,0.0039,-0.9808
1489576192533,0.0091,0.0400,-1.0547
1489576192567,0.0201,0.0935,-1.0167
1489576192600,0.0269,0.0073,-0.9097
1489576192617,-0.0026,-0.0171,-1.0240
1489576192650,0.0135,0.0586,-0.9986
1489576192667,0.0301,0.0925,-1.0467
1489576192700,0.0225,-0.0386,-1.0294
1489576192717,0.0069,-0.0537,-0.9879
1489576192750,0.0020,-0.0386,-1.0250
1489576192767,0.0084,0.1345,-0.8494
1489576192800,-0.0209,0.0571,-1.0284
1489576192833,-0.0136,0.1040,-0.8751
1489576192854,0.0775,0.1631,-0.7776
1489576192883,0.0159,-0.1096,-1.0062
1489576192917,0.0316,-0.1125,-0.9512
1489576192933,0.0252,-0.0054,-1.0557
1489576192967,0.0106,-0.0095,-1.0076
1489576192983,0.0279,0.0994,-1.0306
1489576193017,0.0013,0.0161,-0.9920
1489576193034,0.0469,0.1238,-0.9888
1489576193067,0.0311,0.1033,-0.8912
1489576193083,0.0347,-0.0063,-0.9329
1489576193117,-0.0058,-0.1013,-0.9695
1489576193133,0.0233,-0.0085,-0.9808
1489576193167,-0.0576,-0.0215,-1.0298
1489576193200,-0.0444,-0.0559,-1.0875
1489576193217,-0.0146,-0.0996,-1.0547
1489576193250,0.0150,0.0781,-0.9647
1489576193267,-0.0424,-0.0513,-0.9205
1489576193300,0.0291,-0.0508,-0.9705
1489576193317,-0.0070,-0.1746,-0.9869
1489576193350,-0.0014,-0.0339,-1.0342
1489576193367,0.0091,0.0415,-1.0926
1489576193400,0.0196,-0.0024,-1.0181
1489576193433,-0.0546,-0.1406,-1.0110
1489576193450,0.0469,0.0361,-1.0008
1489576193483,0.0040,-0.0259,-0.9512
1489576193500,0.0235,-0.0056,-0.9671
1489576193533,0.0294,-0.0068,-0.9297
1489576193567,0.0826,-0.0090,-0.9886
1489576193584,0.0565,0.0298,-0.9493
1489576193617,0.0010,-0.0801,-0.9788
1489576193633,-0.0344,-0.1182,-1.0281
1489576193667,0.0023,-0.0710,-0.9991
1489576193683,-0.0202,-0.0815,-1.0118
1489576193717,-0.0063,-0.0322,-1.0174
1489576193750,0.0047,0.0120,-1.0132
1489576193783,0.0054,0.0137,-1.0128
1489576193807,0.0049,0.0142,-1.0103
1489576193824,0.0052,0.0149,-1.0081
1489576193840,0.0081,0.0107,-1.0015
1489576193874,0.0076,-0.0081,-0.9813
1489576193907,0.0054,-0.0063,-0.9852
1489576193924,0.0059,0.0044,-0.9976
1489576193957,0.0079,0.0037,-1.0257
1489576193974,0.0032,0.0049,-1.0169
1489576194007,0.0032,-0.0027,-1.0027
1489576194024,0.0008,-0.0015,-1.0081
1489576194057,0.0071,-0.0054,-0.9937
1489576194073,0.0067,-0.0071,-1.0015
1489576194107,0.0062,-0.0063,-1.0054
1489576194140,0.0069,0.0022,-1.0108
1489576194157,0.0045,-0.0144,-0.9705
1489576194190,0.0003,0.0068,-1.0057
1489576194207,-0.0021,0.0044,-1.0108
1489576194240,0.0074,0.0024,-1.0069
1489576194274,-0.0029,0.0029,-1.0013
1489576194290,-0.0002,-0.0007,-0.9959
1489576194307,0.0010,0.0010,-0.9959
1489576194340,0.0035,0.0027,-0.9984
1489576194374,0.0096,0.0024,-0.9971
1489576194390,0.0040,0.0066,-0.9962
1489576194424,0.0047,0.0054,-0.9935
1489576194440,-0.0021,0.0044,-1.0098
1489576194474,0.0005,0.0020,-1.0137
1489576194507,0.0023,-0.0017,-1.0074
1489576194524,0.0106,0.0017,-1.0093
1489576194557,0.0064,0.0098,-1.0047
1489576194574,-0.0007,0.0063,-1.0010
1489576194607,0.0035,0.0034,-1.0030
1489576194624,0.0032,0.0039,-0.9996
1489576194657,0.0081,0.0022,-0.9974
1489576194674,0.0035,0.0029,-1.0013
1489576194707,-0.0019,-0.0024,-1.0045
1489576194740,-0.0014,0.0042,-1.0018
1489576194757,0.0027,0.0034,-0.9979
1489576194790,-0.0002,0.0046,-1.0052
1489576194807,0.0030,0.0010,-1.0103
1489576194841,0.0091,0.0061,-0.9947
1489576194874,0.0132,0.0103,-0.9971
1489576194890,0.0001,0.0046,-0.9952
1489576194907,0.0001,0.0034,-1.0059
1489576194940,0.0089,0.0049,-1.0059
1489576194974,0.0030,0.0042,-0.9969
1489576194990,0.0018,-0.0007,-1.0042
1489576195024,0.0030,0.0088,-1.0001
1489576195040,0.0042,0.0110,-1.0018
1489576195074,-0.0024,-0.0015,-1.0067
1489576195107,0.0054,0.0000,-0.9988
1489576195123,0.0074,0.0034,-1.0020
1489576195141,0.0145,0.0015,-0.9976
1489576195174,0.0018,0.0034,-1.0059
1489576195207,-0.0012,0.0034,-1.0032
1489576195242,0.0062,0.0029,-1.0059
1489576195258,0.0049,0.0061,-1.0042
1489576195275,0.0020,-0.0027,-1.0049
1489576195308,0.0045,0.0027,-0.9998
1489576195342,0.0062,0.0051,-1.0081
1489576195358,-0.0004,0.0012,-1.0020
1489576195391,0.0037,-0.0010,-1.0025
1489576195408,0.0069,0.0027,-1.0035
1489576195442,0.0067,0.0095,-1.0020
1489576195475,0.0023,0.0037,-1.0089
1489576195491,0.0030,0.0002,-1.0045
1489576195508,0.0089,0.0071,-0.9984
1489576195542,0.0037,0.0046,-1.0086
1489576195575,-0.0034,-0.0015,-1.0023
1489576195608,0.0059,0.0049,-1.0054
1489576195625,0.0076,0.0081,-1.0035
1489576195641,0.0049,0.0034,-1.0081
1489576195675,0.0032,0.0037,-1.0049
1489576195708,0.0042,0.0037,-1.0005
1489576195725,0.0079,0.0066,-1.0047
1489576195758,0.0013,0.0012,-1.0027
1489576195799,0.0001,0.0022,-1.0013
1489576195815,0.0089,0.0032,-1.0128
1489576195832,0.0049,0.0027,-0.9979
1489576195866,0.0013,0.0029,-0.9986
1489576195882,0.0045,-0.0002,-1.0074
1489576195915,0.0020,0.0044,-0.9991
1489576195932,0.0074,0.0020,-1.0025
1489576195966,0.0027,0.0034,-1.0030
1489576195982,0.0049,0.0081,-1.0059
1489576196016,0.0069,0.0083,-1.0079
1489576196049,-0.0009,0.0022,-0.9988
1489576196065,0.0052,0.0007,-1.0003
1489576196099,0.0059,0.0010,-1.0081
1489576196115,0.0079,0.0039,-0.9991
1489576196149,0.0013,0.0029,-1.0086
1489576196182,0.0047,0.0037,-1.0057
1489576196199,0.0079,0.0024,-1.0145
1489576196232,0.0064,0.0056,-0.9988
1489576196249,0.0023,0.0029,-1.0042
1489576196282,0.0037,0.0005,-1.0096
1489576196299,0.0062,0.0042,-1.0086
1489576196332,0.0067,0.0042,-1.0086
1489576196349,0.0037,0.0000,-1.0076
1489576196382,0.0059,0.0046,-1.0013
1489576196399,0.0030,0.0029,-1.0008
1489576196432,0.0040,0.0024,-1.0052
1489576196465,0.0071,0.0027,-1.0049
1489576196482,0.0025,0.0039,-1.0027
1489576196516,0.0054,0.0037,-1.0089
1489576196532,0.0052,0.0027,-1.0030
1489576196566,0.0027,0.0015,-1.0030
1489576196582,0.0062,0.0061,-1.0128
1489576196616,0.0025,0.0012,-1.0076
1489576196649,0.0032,0.0007,-1.0101
1489576196665,0.0062,0.0051,-1.0081
1489576196699,0.0032,0.0076,-0.9971
1489576196715,0.0035,0.0017,-1.0040
1489576196749,0.0010,-0.0015,-1.0032
1489576196782,0.0037,0.0049,-1.0005
1489576196799,0.0054,-0.0066,-1.0123
1489576196832,0.0049,-0.0059,-0.9964
1489576196849,0.0157,0.0100,-1.0098
1489576196882,0.0281,-0.0046,-0.9813
1489576196899,-0.0253,0.0076,-1.0162
1489576196932,-0.0036,0.0063,-0.9944
1489576196949,-0.0007,0.0276,-1.0518
1489576196982,-0.0449,-0.1653,-0.9188
1489576197016,0.0379,-0.5491,-1.1671
1489576197032,0.2354,-0.5225,-0.8533
1489576197065,0.1712,-0.3459,-1.1299
1489576197082,0.1834,-0.4319,-1.1028
1489576197117,0.1358,-0.3245,-0.9188
1489576197132,0.0401,-0.4285,-0.9422
1489576197166,0.0511,-0.8264,-0.8079
1489576197182,-0.0090,-0.0554,-1.2022
1489576197216,0.0577,-0.3179,-0.8638
1489576197249,-0.0192,0.1257,-1.0086
1489576197265,-0.0905,-0.0115,-1.1612
1489576197299,-0.3476,0.0969,-0.8787
1489576197315,0.0599,0.0291,-0.9446
1489576197349,-0.0551,0.1360,-0.8702
1489576197382,-0.0659,0.1755,-1.0652
1489576197399,0.1016,0.3523,-0.8152
1489576197432,-0.2040,0.3071,-0.9446
1489576197449,-0.0580,0.3999,-1.0421
1489576197482,0.1666,0.1438,-1.0618
1489576197499,0.1046,0.2297,-0.8997
1489576197532,0.0079,0.2798,-0.9869
1489576197549,0.1295,0.1233,-0.9857
1489576197582,0.0543,-0.0088,-0.9891
1489576197616,-0.0056,-0.0681,-0.9886
1489576197632,-0.0161,-0.0679,-0.9617
1489576197666,-0.0180,0.0869,-1.2156
1489576197682,-0.0932,0.0288,-1.1297
1489576197716,0.0140,-0.0354,-0.9349
1489576197749,0.0198,-0.0151,-1.1378
1489576197766,0.0079,-0.0698,-1.0091
1489576197804,0.0132,-0.0781,-0.9564
1489576197820,0.0132,-0.0657,-1.0308
1489576197837,0.0052,-0.0476,-1.0086
1489576197870,0.0035,-0.0474,-1.0235
1489576197904,-0.0078,-0.0620,-0.9988
1489576197920,-0.0051,-0.0688,-1.0037
1489576197954,0.0071,-0.0566,-0.9947
1489576197970,-0.0092,-0.0637,-1.0081
1489576198004,-0.0097,-0.0513,-1.0220
1489576198020,0.0096,-0.0403,-1.0081
1489576198054,0.0098,-0.0530,-1.0032
1489576198071,-0.0019,-0.0640,-1.0071
1489576198104,0.0025,-0.0496,-1.0040
1489576198137,0.0005,-0.0486,-1.0115
1489576198154,-0.0019,-0.0564,-0.9969
1489576198187,-0.0019,-0.0535,-1.0098
1489576198204,0.0003,-0.0623,-0.9971
1489576198237,-0.0029,-0.0554,-1.0145
1489576198270,0.0032,-0.0508,-1.0145
1489576198287,-0.0009,-0.0620,-0.9883
1489576198305,0.0093,-0.0544,-1.0108
1489576198337,0.0040,-0.0508,-1.0010
1489576198370,-0.0080,-0.0542,-1.0020
1489576198387,-0.0029,-0.0557,-1.0103
1489576198420,0.0037,-0.0566,-1.0130
1489576198437,0.0025,-0.0549,-1.0076
1489576198470,-0.0034,-0.0579,-1.0018
1489576198504,0.0032,-0.0532,-1.0086
1489576198520,0.0071,-0.0530,-1.0040
1489576198554,0.0010,-0.0486,-1.0059
1489576198570,0.0010,-0.0498,-1.0081
1489576198604,0.0025,-0.0513,-1.0049
1489576198637,0.0013,-0.0491,-1.0052
1489576198654,-0.0024,-0.0547,-1.0049
1489576198671,0.0027,-0.0535,-1.0047
1489576198704,0.0045,-0.0513,-1.0047
1489576198737,-0.0075,-0.0547,-1.0047
1489576198753,-0.0012,-0.0505,-1.0005
1489576198787,0.0059,-0.0527,-1.0023
1489576198804,0.0020,-0.0535,-1.0040
1489576198837,0.0008,-0.0544,-1.0110
1489576198877,-0.0021,-0.0503,-1.0096
1489576198888,0.0008,-0.0474,-1.0096
1489576198921,-0.0012,-0.0527,-1.0052
1489576198937,-0.0016,-0.0532,-1.0120
1489576198971,0.0074,-0.0481,-1.0152
1489576199004,0.0010,-0.0498,-1.0030
1489576199020,0.0020,-0.0515,-1.0108
1489576199037,0.0042,-0.0510,-1.0062
1489576199087,0.0032,-0.0515,-1.0159
1489576199104,-0.0051,-0.0574,-1.0081
1489576199121,-0.0012,-0.0510,-1.0079
1489576199154,0.0071,-0.0544,-1.0062
1489576199171,-0.0136,0.0747,-1.2986
1489576199204,-0.0202,0.0437,-1.1436
1489576199237,-0.0300,0.0435,-1.1934
1489576199254,0.0174,-0.0669,-0.9691
1489576199287,0.0010,-0.0566,-0.9737
1489576199304,-0.0004,-0.0439,-1.0245
1489576199337,0.0054,-0.0637,-0.9764
1489576199371,0.0079,-0.0488,-1.0213
1489576199387,-0.0031,-0.0525,-1.0096
1489576199404,-0.0016,-0.0476,-1.0132
1489576199437,0.0025,-0.0437,-1.0079
1489576199471,0.0008,-0.0508,-1.0062
1489576199487,0.0015,-0.0520,-1.0074
1489576199521,0.0018,-0.0537,-1.0071
1489576199537,0.0020,-0.0496,-1.0025
1489576199571,-0.0024,-0.0505,-1.0145
1489576199604,-0.0021,-0.0493,-1.0123
1489576199620,0.0037,-0.0513,-0.9993
1489576199654,0.0052,-0.0510,-1.0120
1489576199670,0.0032,-0.0474,-1.0071
1489576199704,0.0015,-0.0483,-0.9998
1489576199720,0.0030,-0.0469,-1.0054
1489576199754,-0.0043,-0.0193,-1.0880
1489576199807,0.0042,-0.0598,-0.9595
1489576199824,-0.0051,-0.0352,-0.9849
1489576199841,-0.0222,0.0334,-1.1292
1489576199857,-0.0229,0.0081,-1.1168
1489576199891,0.0211,-0.0488,-1.0054
1489576199907,-0.0060,-0.0825,-0.8817
1489576199941,0.0035,-0.0454,-0.9683
1489576199957,-0.0075,0.0020,-1.0701
1489576199991,-0.0920,-0.0244,-0.9996
1489576200007,0.0264,0.0793,-1.0826
1489576200041,0.0660,-0.0166,-0.9442
1489576200057,0.0486,0.2493,-0.9058
1489576200091,-0.0532,0.0876,-1.0108
1489576200124,-0.0541,0.1135,-1.0430
1489576200141,-0.1201,0.3438,-0.9456
1489576200174,0.0689,0.3245,-1.2032
1489576200190,-0.0412,0.3943,-0.9866
1489576200224,0.0237,0.3225,-0.8455
1489576200257,0.0628,0.0110,-1.1971
1489576200274,0.0792,0.1396,-1.0286
1489576200290,0.1282,0.0264,-0.9517
1489576200324,0.1085,0.1567,-0.8843
1489576200357,0.0740,-0.0955,-1.0281
1489576200374,0.0284,0.1091,-0.9698
1489576200407,-0.0134,0.1160,-1.1024
1489576200424,-0.0478,0.0972,-1.0264
1489576200457,-0.0392,-0.1621,-1.1519
1489576200491,0.0704,0.1028,-1.2171
1489576200507,0.0259,0.1194,-1.0345
1489576200541,0.0013,-0.1992,-1.1243
1489576200557,-0.0119,-0.3118,-0.9547
1489576200591,0.0804,0.0850,-0.8214
1489576200624,0.0655,-0.3557,-0.9695
1489576200641,-0.0602,-0.2834,-1.0281
1489576200657,0.1068,-0.1917,-1.0062
1489576200691,-0.0422,-0.1187,-1.0374
1489576200710,-0.0510,-0.1416,-1.0435
1489576200741,0.0435,-0.0449,-1.0543
1489576200774,-0.0561,-0.3416,-0.9315
1489576200791,0.0298,-0.2810,-0.9105
1489576200824,-0.0065,-0.2898,-1.0294
1489576200857,0.0142,-0.0310,-0.9542
1489576200874,-0.0024,0.0022,-1.0145
1489576200891,0.0032,0.0078,-1.0108
1489576200924,0.0057,-0.0002,-1.0064
1489576200957,0.0049,0.0002,-0.9998
1489576200974,0.0020,0.0020,-1.0057
1489576201007,0.0064,-0.0120,-0.9695
1489576201024,0.0062,-0.0364,-0.9520
1489576201057,0.0045,-0.0098,-0.9837
1489576201091,0.0113,0.0327,-1.0596
1489576201107,0.0059,-0.0029,-0.9896
1489576201124,0.0015,0.0002,-1.0081
1489576201157,0.0064,-0.0049,-1.0069
1489576201191,0.0057,-0.0100,-0.9891
1489576201224,0.0008,-0.0354,-0.9505
1489576201241,0.0025,-0.0122,-0.9942
1489576201258,0.0035,-0.0063,-1.0042
1489576201291,0.0013,-0.0020,-1.0086
1489576201324,0.0032,-0.0020,-1.0005
1489576201341,0.0023,-0.0020,-1.0074
1489576201374,0.0032,-0.0061,-1.0027
1489576201407,0.0045,-0.0027,-1.0057
1489576201424,0.0037,0.0022,-0.9998
1489576201457,0.0037,-0.0081,-1.0001
1489576201474,0.0015,-0.0020,-1.0052
1489576201507,0.0062,-0.0044,-1.0025
1489576201524,0.0010,-0.0061,-1.0025
1489576201557,0.0047,-0.0020,-0.9988
1489576201574,-0.0014,-0.0059,-1.0103
1489576201607,0.0027,-0.0039,-1.0013
1489576201624,0.0045,-0.0022,-0.9998
1489576201657,0.0018,-0.0037,-1.0030
1489576201691,0.0013,-0.0049,-1.0069
1489576201707,0.0076,-0.0024,-1.0059
1489576201741,0.0013,-0.0034,-0.9976
1489576201758,-0.0019,-0.0034,-1.0062
1489576201791,0.0059,-0.0017,-1.0042
1489576201824,0.0057,0.0000,-1.0035
1489576201841,-0.0004,-0.0015,-1.0057
1489576201857,-0.0014,-0.0059,-1.0081
1489576201891,0.0032,-0.0002,-1.0015
1489576201924,0.0059,-0.0010,-1.0008
1489576201941,-0.0002,-0.0024,-1.0035
1489576201974,0.0020,-0.0039,-1.0069
1489576201991,-0.0019,-0.0002,-1.0027
1489576202024,0.0040,-0.0022,-1.0018
1489576202057,-0.0002,0.0007,-1.0086
1489576202074,0.0037,-0.0073,-1.0093
1489576202091,0.0062,-0.0007,-0.9959
1489576202124,0.0005,-0.0061,-1.0057
1489576202157,0.0010,-0.0039,-0.9986
1489576202174,0.0054,-0.0022,-1.0071
1489576202207,0.0071,-0.0002,-1.0064
1489576202224,0.0032,-0.0054,-1.0062
1489576202257,0.0035,-0.0039,-1.0079
1489576202291,0.0076,-0.0044,-0.9991
1489576202307,0.0020,-0.0022,-1.0091
1489576202341,0.0027,-0.0046,-1.0035
1489576202357,0.0003,-0.0044,-1.0008
1489576202391,0.0057,-0.0015,-1.0013
1489576202424,0.0010,-0.0022,-1.0047
1489576202441,0.0062,-0.0059,-1.0032
1489576202457,0.0040,-0.0068,-1.0045
1489576202491,0.0045,-0.0024,-1.0045
1489576202524,0.0001,-0.0049,-1.0018
1489576202541,0.0001,-0.0037,-1.0030
1489576202574,0.0035,-0.0076,-1.0023
1489576202591,0.0025,-0.0022,-1.0069
1489576202624,0.0020,-0.0034,-1.0013
1489576202657,0.0008,-0.0039,-1.0015
1489576202674,-0.0009,-0.0017,-0.9908
1489576202707,0.0030,0.0015,-1.0147
1489576202724,0.0018,-0.0005,-0.9993
1489576202758,-0.0026,-0.0103,-0.9944
1489576202774,0.0042,-0.0046,-1.0062
1489576202808,0.0023,-0.0068,-1.0045
1489576202824,0.0030,-0.0032,-1.0040
1489576202858,0.0032,-0.0010,-1.0062
1489576202891,0.0037,-0.0046,-1.0049
1489576202907,0.0015,-0.0032,-1.0150
1489576202941,0.0015,-0.0110,-0.9976
1489576202957,0.0035,-0.0115,-1.0008
1489576202991,0.0071,0.0007,-1.0098
1489576203024,0.0015,0.0000,-1.0047
1489576203041,0.0013,-0.0054,-1.0040
1489576203057,0.0032,-0.0142,-1.0059
1489576203091,0.0032,-0.0095,-1.0130
1489576203124,0.0225,-0.0166,-1.0093
1489576203141,0.0237,-0.0403,-0.9586
1489576203174,-0.0016,0.0051,-1.0059
1489576203191,-0.0002,0.0015,-1.0008
1489576203224,-0.0197,-0.0061,-1.0457
1489576203241,-0.0139,-0.0227,-1.0049
1489576203274,0.0811,-0.0276,-1.0115
1489576203308,0.1453,-0.0698,-1.2496
1489576203324,-0.0942,-0.0955,-1.2593
1489576203358,0.1292,-0.1104,-0.9485
1489576203374,0.1402,-0.3169,-1.1182
1489576203408,0.2108,-0.1152,-1.2444
1489576203441,0.0552,-0.2126,-1.0591
1489576203458,-0.0107,-0.1260,-1.1570
1489576203491,0.0052,-0.1111,-1.0816
1489576203507,0.0772,0.0229,-1.1033
1489576203541,0.0057,-0.0095,-1.1307
1489576203557,-0.0185,-0.0623,-0.8826
1489576203591,-0.1015,-0.0027,-1.0709
1489576203624,-0.0434,-0.0671,-1.0557
1489576203641,-0.1096,-0.1082,-0.8990
1489576203674,-0.0663,0.1272,-1.0797
1489576203691,-0.0656,0.1592,-1.1526
1489576203724,0.0311,0.2432,-1.0489
1489576203741,0.1546,0.0491,-0.9085
1489576203774,0.0042,0.1406,-1.2488
1489576203791,0.0064,-0.1108,-0.9803
1489576203824,0.0145,0.0562,-0.9976
1489576203858,0.1622,-0.2407,-0.9236
1489576203874,0.0938,0.0081,-1.0362
1489576203908,-0.1288,0.1401,-0.9417
1489576203924,-0.1054,0.0457,-0.9786
1489576203958,-0.0158,-0.0972,-0.9488
1489576203974,-0.0099,0.0269,-0.9395
1489576204008,-0.0832,0.1882,-1.0909
1489576204041,-0.0366,0.1245,-0.9554
1489576204057,-0.0073,0.0447,-0.9127
1489576204091,0.0101,0.0508,-1.0035
1489576204107,0.0635,0.2661,-0.9888
1489576204141,0.1004,0.2024,-1.0074
1489576204157,0.0833,0.1101,-0.9859
1489576204191,0.0318,0.0327,-1.0008
1489576204224,0.0069,-0.0088,-1.0018
1489576204241,-0.0034,-0.0173,-1.0118
1489576204274,-0.0129,-0.0195,-1.0001
1489576204291,-0.0229,-0.0032,-1.0184
1489576204324,0.0084,-0.0349,-0.9937
1489576204341,0.0074,-0.0239,-0.9976
1489576204374,0.0110,-0.0168,-0.9910
1489576204408,0.0035,-0.0142,-1.0018
1489576204424,-0.0046,-0.0142,-0.9976
1489576204458,0.0032,-0.0129,-1.0142
1489576204474,0.0040,-0.0132,-1.0110
1489576204508,0.0001,-0.0181,-1.0025
1489576204524,0.0054,-0.0166,-0.9993
1489576204558,0.0059,-0.0139,-1.0086
1489576204574,-0.0004,-0.0137,-1.0018
1489576204608,0.0079,-0.0090,-1.0079
1489576204641,0.0027,-0.0129,-1.0030
1489576204657,0.0001,-0.0144,-1.0032
1489576204691,0.0025,-0.0181,-0.9976
1489576204707,0.0030,-0.0186,-1.0059
1489576204741,0.0106,-0.0190,-0.9949
1489576204774,0.0074,-0.0105,-0.9964
1489576204791,-0.0012,-0.0110,-1.0042
1489576204807,0.0013,-0.0142,-1.0030
1489576204841,0.0067,-0.0125,-0.9974
1489576204874,0.0054,-0.0215,-1.0010
1489576204908,0.0008,-0.0186,-1.0032
1489576204924,0.0047,-0.0146,-1.0054
1489576204941,0.0023,-0.0103,-0.9998
1489576204974,0.0020,-0.0103,-0.9991
1489576205008,-0.0004,-0.0142,-1.0076
1489576205024,0.0037,-0.0156,-0.9996
1489576205058,0.0064,-0.0142,-1.0001
1489576205074,0.0030,-0.0134,-1.0069
1489576205108,-0.0024,-0.0125,-1.0010
1489576205141,0.0047,-0.0168,-1.0091
1489576205158,0.0089,-0.0144,-1.0013
1489576205191,0.0010,-0.0171,-1.0030
1489576205207,0.0015,-0.0176,-1.0064
1489576205241,0.0047,-0.0159,-1.0059
1489576205258,0.0059,-0.0095,-0.9991
1489576205291,0.0005,-0.0203,-1.0023
1489576205307,-0.0014,-0.0112,-1.0064
1489576205341,0.0040,-0.0146,-1.0040
1489576205374,0.0018,-0.0110,-1.0064
1489576205391,-0.0004,-0.0117,-1.0003
1489576205424,0.0020,-0.0142,-1.0030
1489576205441,0.0054,-0.0193,-0.9944
1489576205474,0.0003,-0.0183,-1.0023
1489576205508,0.0020,-0.0127,-0.9984
1489576205524,0.0018,-0.0149,-1.0064
1489576205541,0.0057,-0.0129,-1.0059
1489576205574,0.0042,-0.0142,-1.0032
1489576205608,0.0003,-0.0168,-1.0086
1489576205624,0.0035,-0.0142,-1.0079
1489576205659,0.0052,-0.0149,-0.9993
1489576205674,0.0005,-0.0149,-1.0010
1489576205708,0.0042,-0.0127,-1.0005
1489576205741,0.0069,-0.0137,-0.9915
1489576205758,0.0179,-0.0105,-0.9971
1489576205806,-0.0002,-0.0034,-1.0152
1489576205823,0.0049,-0.0063,-1.0081
1489576205840,-0.0048,-0.0103,-1.0140
1489576205857,-0.0014,-0.0371,-0.9693
1489576205890,0.0003,-0.0164,-0.9964
1489576205907,-0.0002,-0.0090,-1.0040
1489576205940,0.0059,-0.0105,-1.0081
1489576205973,0.0025,-0.0095,-1.0003
1489576205990,0.0020,-0.0164,-0.9937
1489576206023,0.0059,-0.0134,-0.9947
1489576206056,0.0067,-0.0132,-0.9988
1489576206073,-0.0007,-0.0120,-1.0062
1489576206106,0.0008,-0.0164,-1.0071
1489576206123,0.0098,-0.0110,-1.0023
1489576206140,0.0069,-0.0129,-1.0035
1489576206173,0.0023,-0.0142,-1.0023
1489576206206,0.0010,-0.0139,-0.9966
1489576206240,0.0045,-0.0127,-0.9969
1489576206256,-0.0007,-0.0156,-0.9988
1489576206273,-0.0026,-0.0110,-1.0067
1489576206306,0.0047,-0.0085,-1.0167
1489576206340,0.0035,-0.0149,-1.0018
1489576206356,0.0047,-0.0186,-0.9810
1489576206390,0.0013,-0.0098,-0.9998
1489576206406,0.0042,-0.0146,-0.9981
1489576206440,0.0027,-0.0212,-0.9918
1489576206473,0.0074,-0.0115,-1.0015
1489576206490,-0.0021,-0.0132,-1.0027
1489576206506,0.0032,-0.0291,-0.9698
1489576206540,0.0054,-0.0078,-1.0128
1489576206573,-0.0024,-0.0166,-1.0062
1489576206590,0.0052,-0.0022,-1.0125
1489576206623,0.0091,-0.0127,-0.9886
1489576206640,0.0067,-0.0046,-1.0045
1489576206673,0.0027,-0.0073,-1.0172
1489576206706,0.0052,-0.0042,-1.0096
1489576206723,-0.0031,-0.0540,-0.9944
1489576206756,0.0076,-0.0188,-1.0071
1489576206773,0.0035,-0.0061,-1.0101
1489576206806,0.0008,-0.0054,-1.0032
1489576206823,0.0030,-0.0037,-0.9881
1489576206856,0.0062,0.0046,-0.9944
1489576206873,0.0091,0.2200,-0.9796
1489576206923,0.0054,0.3347,-0.9193
1489576206940,-0.1093,0.3706,-0.9688
1489576206956,-0.1437,0.0830,-1.2947
1489576206990,0.0076,0.2932,-0.9761
1489576207006,0.0572,0.2983,-0.9659
1489576207040,0.0579,0.3179,-0.9380
1489576207073,0.0130,0.0925,-1.0670
1489576207090,0.0264,0.0103,-1.0203
1489576207123,0.0164,0.0928,-0.9385
1489576207140,0.0269,0.0637,-1.0086
1489576207173,0.0298,0.0322,-0.9935
1489576207190,-0.0036,0.0344,-1.0569
1489576207223,-0.1130,-0.2537,-1.0589
1489576207256,-0.0383,-0.0063,-1.0682
1489576207273,0.0584,0.0046,-0.9224
1489576207306,0.1382,0.3093,-0.7825
1489576207323,-0.0839,-0.0952,-0.9485
1489576207356,-0.1061,-0.0955,-1.1602
1489576207373,0.1170,0.1375,-1.0501
1489576207406,0.0172,-0.0120,-1.0074
1489576207424,-0.0121,0.0305,-0.9749
1489576207456,-0.0117,-0.1897,-1.0609
1489576207490,0.0694,-0.1960,-1.0638
1489576207523,0.1138,-0.2144,-0.9288
1489576207540,0.0560,-0.2935,-0.9405
1489576207556,-0.0104,-0.2034,-1.0623
1489576207590,-0.0336,-0.1814,-1.0357
1489576207623,0.0037,-0.2124,-1.0215
1489576207640,0.0279,0.1404,-0.9925
1489576207673,0.0257,0.1743,-1.0157
1489576207690,0.0235,0.4304,-0.9615
1489576207723,-0.0427,0.0149,-1.0347
1489576207740,-0.0334,0.3323,-0.9490
1489576207773,0.0020,0.1243,-0.9656
1489576207807,0.0911,-0.0674,-0.9070
1489576207823,0.0941,0.0828,-0.9258
1489576207857,0.0198,-0.2917,-1.0543
1489576207873,-0.0519,-0.3035,-1.0440
1489576207907,-0.0224,-0.3110,-0.9847
1489576207923,-0.0331,-0.1289,-0.9920
1489576207956,-0.0134,-0.0122,-1.0042
1489576207990,0.0032,0.0068,-1.0069
1489576208006,0.0123,0.0146,-1.0015
1489576208023,0.0047,0.0146,-1.0042
1489576208056,0.0052,0.0068,-1.0047
1489576208090,0.0015,0.0125,-1.0025
1489576208106,-0.0036,0.0244,-1.0198
1489576208140,-0.0024,0.0156,-1.0184
1489576208156,0.0030,0.0188,-1.0196
1489576208190,0.0089,-0.0156,-0.9734
1489576208223,-0.0031,0.0320,-1.0223
1489576208240,-0.0019,0.0076,-1.0042
1489576208273,0.0037,0.0042,-0.9930
1489576208290,0.0089,0.0061,-0.9964
1489576208323,0.0062,0.0044,-0.9954
1489576208356,0.0010,0.0020,-1.0042
1489576208373,0.0020,0.0010,-1.0003
1489576208390,0.0052,0.0029,-0.9930
1489576208423,-0.0004,0.0027,-0.9984
1489576208456,0.0079,0.0020,-0.9976
1489576208473,0.0084,0.0037,-0.9930
1489576208507,0.0071,0.0027,-0.9925
1489576208523,-0.0007,0.0022,-1.0003
1489576208557,0.0047,0.0010,-0.9991
1489576208590,0.0103,0.0066,-0.9957
1489576208606,0.0005,0.0012,-1.0020
1489576208623,-0.0016,0.0044,-0.9976
1489576208657,0.0025,0.0037,-0.9971
1489576208690,0.0098,0.0081,-0.9991
1489576208723,0.0018,0.0015,-1.0005
1489576208740,0.0015,0.0002,-0.9991
1489576208756,0.0025,-0.0005,-1.0010
1489576208790,0.0035,0.0068,-1.0032
1489576208823,0.0032,0.0022,-1.0025
1489576208840,-0.0016,0.0002,-0.9984
1489576208873,0.0003,0.0059,-1.0081
1489576208890,0.0069,0.0049,-1.0067
1489576208923,0.0032,0.0056,-0.9957
1489576208957,0.0084,0.0034,-0.9925
1489576208973,0.0008,0.0034,-1.0032
1489576208990,0.0025,0.0029,-0.9981
1489576209023,0.0037,-0.0029,-1.0062
1489576209057,0.0032,0.0032,-0.9984
1489576209073,0.0020,0.0046,-1.0032
1489576209107,0.0032,0.0010,-1.0069
1489576209123,0.0008,0.0022,-1.0047
1489576209157,0.0052,0.0020,-0.9979
1489576209190,0.0027,-0.0002,-1.0023
1489576209206,0.0079,0.0027,-1.0037
1489576209223,0.0015,0.0049,-1.0023
1489576209257,0.0067,0.0037,-1.0067
1489576209290,0.0076,0.0044,-1.0054
1489576209323,0.0015,0.0042,-1.0020
1489576209340,0.0027,0.0002,-1.0042
1489576209356,0.0049,0.0000,-1.0035
1489576209390,0.0113,0.0044,-0.9966
1489576209423,0.0106,0.0068,-1.0047
1489576209442,0.0001,0.0010,-0.9969
1489576209473,0.0037,0.0042,-1.0030
1489576209490,0.0015,0.0054,-1.0023
1489576209523,-0.0009,0.0046,-0.9974
1489576209557,0.0035,0.0042,-1.0023
1489576209573,0.0096,0.0015,-1.0003
1489576209607,0.0010,0.0034,-0.9979
1489576209623,0.0042,0.0012,-0.9952
1489576209657,0.0071,0.0012,-1.0001
1489576209673,0.0037,0.0049,-1.0018
1489576209706,0.0015,0.0002,-1.0015
1489576209723,0.0027,0.0027,-1.0052
1489576209757,0.0032,0.0015,-0.9976
1489576209801,0.0067,0.0027,-0.9964
1489576209817,0.0032,0.0071,-1.0074
1489576209834,0.0042,0.0029,-1.0023
1489576209867,-0.0002,0.0049,-1.0025
1489576209884,0.0081,-0.0002,-1.0023
1489576209917,-0.0007,0.0010,-0.9998
1489576209951,0.0035,0.0034,-0.9986
1489576209967,0.0001,0.0076,-1.0020
1489576210001,-0.0002,0.0059,-1.0010
1489576210017,0.0049,0.0012,-1.0049
1489576210034,0.0054,0.0042,-0.9959
1489576210067,0.0076,0.0073,-0.9944
1489576210101,0.0037,0.0010,-0.9993
1489576210118,0.0027,0.0010,-1.0008
1489576210151,0.0023,0.0000,-1.0032
1489576210168,0.0020,0.0051,-1.0010
