1495955817663,-0.001
1495955817681,0.002,0.001,-0.000,-0.000
1495955817697,0.002,0.004,0.000,0.000
1495955817713,0.001,-0.001,0.000,-0.000
1495955817730,-0.004,-0.008,-0.000,-0.000
1495955817747,-0.003,0.002,-0.000,0.000
1495955817763,0.002,0.000,0.000,-0.000
1495955817780,0.001,0.002,-0.000,0.000
1495955817797,-0.001,0.003,0.000,-0.000
1495955817813,-0.002,0.001,0.000,-0.000
1495955817830,-0.004,-0.001,0.000,0.000
1495955817846,0.001,0.003,-0.000,-0.000
1495955817863,0.003,0.000,-0.000,-0.000
1495955817880,0.003,0.000,-0.000,-0.000
1495955817896,0.002,0.004,0.000,0.000
1495955817915,-0.005,-0.001,-0.000,-0.000
1495955817946,-0.004,-0.004,-0.000,-0.000
1495955817949,0.000,-0.003,0.000,-0.000
1495955817982,0.001,0.002,0.000,-0.000
1495955817999,0.001,0.001,-0.000,-0.000
1495955818015,-0.002,0.002,0.000,-0.000
1495955818032,-0.006,-0.001,0.000,0.000
1495955818049,-0.003,0.002,0.000,-0.000
1495955818065,0.005,-0.002,-0.000,0.000
1495955818082,0.003,0.000,-0.000,-0.000
1495955818099,0.001,0.001,-0.000,-0.000
1495955818115,-0.002,-0.003,0.000,0.000
1495955818132,-0.002,0.002,0.000,-0.000
1495955818149,0.000,0.001,-0.000,-0.000
1495955818165,0.001,-0.002,-0.000,0.000
1495955818199,-0.001,-0.001,0.000,0.000
1495955818215,-0.001,-0.002,0.000,0.000
1495955818232,-0.001,-0.000,0.000,0.000
1495955818249,-0.005,0.001,0.000,-0.000
1495955818265,-0.004,-0.001,0.000,0.000
1495955818282,0.003,0.002,-0.000,-0.000
1495955818299,0.000,0.005,-0.000,-0.000
1495955818315,-0.003,-0.001,0.000,0.000
1495955818332,-0.000,0.002,0.000,-0.000
1495955818349,0.001,0.002,-0.000,-0.000
1495955818365,0.002,0.001,-0.000,-0.000
1495955818382,-0.002,-0.002,0.000,0.000
1495955818399,-0.002,-0.004,0.000,0.000
1495955818432,-0.002,-0.003,0.000,0.000
1495955818449,-0.002,0.001,0.000,-0.000
1495955818466,0.004,0.001,-0.000,0.000
1495955818482,0.001,0.002,-0.000,-0.000
1495955818499,-0.000,-0.002,0.000,0.000
1495955818515,0.001,-0.001,-0.000,0.000
1495955818532,-0.001,0.001,0.000,-0.000
1495955818549,-0.001,0.001,0.000,-0.000
1495955818565,0.004,-0.002,-0.000,0.000
1495955818582,0.002,0.002,-0.000,-0.000
1495955818599,-0.004,-0.001,0.000,0.000
1495955818615,-0.003,-0.000,0.000,0.000
1495955818649,-0.001,0.000,0.000,-0.000
1495955818665,-0.003,0.004,0.000,-0.000
1495955818682,-0.001,-0.001,0.000,-0.000
1495955818699,-0.002,0.001,0.000,-0.000
1495955818715,-0.003,0.003,0.000,0.000
1495955818732,-0.004,-0.000,0.000,-0.000
1495955818749,0.003,0.003,-0.000,-0.000
1495955818766,-0.000,0.001,-0.000,0.000
1495955818782,-0.001,-0.004,-0.000,-0.000
1495955818799,-0.004,-0.000,0.000,0.000
1495955818815,-0.004,0.000,-0.000,0.000
1495955818832,0.004,-0.001,0.000,-0.000
1495955818849,-0.001,0.000,-0.000,0.000
1495955818865,0.003,0.007,0.000,0.000
1495955818899,-0.002,-0.003,-0.000,-0.000
1495955818915,-0.002,-0.001,0.000,0.000
1495955818932,-0.004,-0.000,-0.000,0.000
1495955818949,0.003,0.004,0.000,-0.000
1495955818965,0.004,-0.012,0.000,-0.000
1495955818982,0.003,-0.005,0.000,-0.000
1495955818999,0.001,0.017,-0.000,0.000
1495955819016,-0.004,-0.032,-0.000,-0.000
1495955819032,-0.002,-0.014,-0.000,-0.000
1495955819049,0.188,-0.194,0.003,0.001
1495955819065,-0.005,-0.062,-0.000,0.002
1495955819082,0.007,0.046,-0.002,0.007
1495955819099,-0.000,-0.014,-0.000,-0.001
1495955819116,-0.005,-0.018,-0.000,0.007
1495955819132,0.005,0.002,0.000,0.000
1495955819149,0.005,0.012,0.000,0.001
1495955819166,0.000,0.016,0.000,0.001
1495955819182,-0.003,0.001,-0.000,0.000
1495955819199,-0.002,0.002,-0.000,0.000
1495955819216,-0.002,-0.006,-0.000,-0.000
1495955819249,-0.002,0.002,-0.000,0.000
1495955819266,0.001,0.006,0.000,0.000
1495955819284,0.003,0.004,0.000,0.000
1495955819299,-0.005,0.004,-0.000,0.000
1495955819316,-0.004,0.001,-0.000,0.000
1495955819333,0.000,0.002,0.000,0.000
1495955819349,0.004,0.006,0.000,0.000
1495955819366,0.000,0.001,0.000,0.000
1495955819383,-0.003,0.006,-0.000,0.000
1495955819399,-0.006,0.000,-0.000,0.000
1495955819416,-0.003,-0.001,-0.000,-0.000
1495955819433,0.000,-0.005,0.000,-0.000
1495955819449,0.002,0.000,0.000,0.000
1495955819466,-0.004,0.003,-0.000,0.000
1495955819483,-0.002,0.014,-0.000,0.001
1495955819499,-0.003,0.003,-0.000,0.000
1495955819517,-0.001,0.006,-0.000,0.000
1495955819533,0.001,0.019,0.000,0.001
1495955819565,0.003,0.012,0.000,0.001
1495955819582,-0.001,0.008,-0.000,0.001
1495955819599,-0.005,0.006,-0.000,0.000
1495955819615,-0.005,0.005,-0.000,0.000
1495955819632,-0.001,0.003,-0.000,0.000
1495955819649,0.002,0.007,0.000,0.001
1495955819665,-0.002,0.011,-0.000,0.001
1495955819682,-0.004,0.011,-0.000,0.001
1495955819699,-0.004,0.007,-0.000,0.001
1495955819715,-0.001,0.012,-0.000,0.001
1495955819732,0.000,0.008,0.000,0.001
1495955819748,-0.004,0.012,-0.000,0.001
1495955819782,-0.001,0.004,-0.000,0.000
1495955819799,-0.003,0.009,-0.000,0.001
1495955819815,-0.006,0.005,-0.000,0.000
1495955819832,0.001,0.007,0.000,0.001
1495955819849,0.003,-0.050,0.000,-0.004
1495955819865,-0.006,-0.010,-0.000,-0.001
1495955819882,0.005,-0.001,0.000,-0.000
1495955819899,-0.016,-0.125,-0.001,-0.009
1495955819915,-0.007,-0.081,-0.001,-0.005
1495955819932,-0.005,-0.148,-0.000,-0.010
1495955819949,0.017,-0.030,0.001,-0.002
1495955819965,-0.014,-0.015,-0.001,-0.001
1495955819983,0.007,0.001,-0.000,-0.000
1495955820015,0.018,-0.013,-0.002,0.002
1495955820032,-0.009,-0.055,0.002,0.003
1495955820049,0.032,-0.057,0.001,0.009
1495955820065,-0.002,0.050,0.000,-0.011
1495955820082,0.012,-0.044,-0.005,-0.003
1495955820099,-0.038,0.026,0.006,-0.013
1495955820115,0.047,0.010,-0.001,-0.001
1495955820132,0.015,0.105,0.005,-0.094
1495955820149,0.035,0.264,-0.000,-0.028
1495955820165,0.026,0.063,-0.001,-0.030
1495955820182,-0.015,0.096,0.001,-0.044
1495955820199,-0.017,-0.039,0.002,0.008
1495955820215,-0.010,-0.046,0.001,0.004
1495955820232,0.001,0.040,-0.000,-0.004
1495955820249,-0.013,-0.065,0.001,0.006
1495955820282,0.002,-0.024,-0.000,0.002
1495955820299,-0.043,0.004,0.004,-0.000
1495955820315,0.011,-0.001,-0.001,0.000
1495955820332,-0.028,-0.094,0.003,0.009
1495955820349,0.037,0.100,-0.003,-0.009
1495955820365,-0.034,0.012,0.003,-0.001
1495955820382,-0.008,-0.059,0.001,0.006
1495955820399,-0.005,0.077,0.000,-0.007
1495955820415,-0.040,-0.065,0.004,0.006
1495955820449,0.043,0.066,-0.004,-0.006
1495955820465,0.022,0.028,-0.002,-0.003
1495955820482,-0.003,0.105,0.000,-0.010
1495955820499,-0.037,-0.105,0.004,0.010
1495955820515,0.004,0.025,-0.000,-0.002
1495955820532,0.011,0.184,-0.001,-0.018
1495955820549,0.001,-0.095,-0.000,0.010
1495955820565,-0.003,-0.160,0.000,0.014
1495955820582,0.000,0.008,-0.000,-0.001
1495955820599,0.049,-0.007,-0.005,0.001
1495955820615,-0.018,0.049,0.002,-0.005
1495955820632,0.035,0.104,-0.003,-0.010
1495955820665,0.010,0.081,-0.001,-0.008
1495955820682,0.030,0.152,-0.003,-0.015
1495955820699,-0.008,-0.035,0.001,0.004
1495955820715,0.012,0.031,-0.001,-0.003
1495955820732,-0.002,0.025,0.000,-0.002
1495955820749,-0.039,-0.003,0.004,0.000
1495955820765,-0.016,-0.071,0.001,0.007
1495955820782,-0.012,-0.049,0.001,0.004
1495955820799,-0.002,0.035,0.000,-0.003
1495955820815,0.012,-0.114,-0.001,0.011
1495955820849,-0.031,0.008,0.003,-0.001
1495955820865,-0.023,0.070,0.002,-0.007
1495955820882,-0.011,-0.064,0.001,0.006
1495955820899,-0.005,0.095,0.001,-0.009
1495955820916,0.018,-0.023,-0.002,0.002
1495955820932,-0.030,-0.141,0.003,0.013
1495955820949,-0.010,0.012,0.001,-0.001
1495955820965,-0.002,-0.067,0.000,0.006
1495955820982,-0.009,0.021,0.001,-0.002
1495955820999,-0.027,0.082,0.003,-0.008
1495955821017,-0.011,0.194,0.001,-0.019
1495955821035,0.010,-0.122,-0.001,0.013
1495955821049,-0.016,-0.067,0.002,0.006
1495955821066,0.029,0.094,-0.003,-0.009
1495955821082,-0.018,0.029,0.002,-0.003
1495955821099,-0.037,-0.061,0.003,0.006
1495955821133,0.016,0.146,-0.001,-0.013
1495955821149,0.025,-0.019,-0.002,0.002
1495955821166,-0.016,-0.059,0.002,0.006
1495955821182,0.076,0.103,-0.007,-0.009
1495955821199,-0.032,0.047,0.003,-0.005
1495955821216,-0.014,-0.035,0.001,0.003
1495955821233,-0.012,-0.203,0.001,0.019
1495955821249,-0.020,-0.056,0.002,0.005
1495955821266,-0.050,-0.040,0.005,0.004
1495955821282,-0.021,-0.026,0.002,0.002
1495955821299,0.012,-0.001,-0.001,0.000
1495955821316,0.007,0.102,-0.001,-0.010
1495955821349,0.010,-0.101,-0.001,0.010
1495955821366,-0.000,0.097,0.000,-0.009
1495955821382,0.028,0.044,-0.003,-0.004
1495955821399,-0.010,0.047,0.001,-0.005
1495955821416,-0.033,-0.010,0.003,0.001
1495955821432,0.012,-0.026,-0.001,0.002
1495955821449,0.010,0.051,-0.001,-0.005
1495955821482,-0.048,0.054,0.005,-0.005
1495955821483,-0.030,-0.053,0.003,0.005
1495955821499,-0.006,0.027,0.001,-0.002
1495955821516,-0.023,0.004,0.002,-0.000
1495955821549,0.020,0.016,-0.002,-0.002
1495955821566,-0.040,-0.046,0.004,0.004
1495955821582,-0.022,0.048,0.002,-0.004
1495955821599,0.033,0.007,-0.003,-0.001
1495955821616,0.044,0.040,-0.004,-0.004
1495955821632,-0.027,0.011,0.003,-0.001
1495955821649,-0.019,0.022,0.002,-0.002
1495955821667,0.027,0.017,-0.002,-0.002
1495955821682,-0.023,-0.062,0.002,0.006
1495955821699,0.017,0.047,-0.002,-0.004
1495955821733,-0.036,-0.022,0.003,0.002
1495955821749,0.023,0.063,-0.002,-0.006
1495955821766,0.048,0.079,-0.005,-0.008
1495955821783,-0.030,0.005,0.003,-0.001
1495955821799,-0.002,-0.074,0.000,0.007
1495955821816,0.049,0.087,-0.005,-0.008
1495955821833,0.015,0.059,-0.001,-0.006
1495955821849,-0.006,0.099,0.001,-0.010
1495955821866,-0.041,-0.009,0.004,0.001
1495955821883,0.041,0.158,-0.004,-0.015
1495955821899,-0.011,0.101,0.001,-0.010
1495955821916,-0.003,0.058,0.000,-0.006
1495955821933,-0.009,0.033,0.001,-0.003
1495955821966,-0.002,0.011,0.000,-0.001
1495955821983,0.000,0.016,-0.000,-0.002
1495955821999,0.001,0.011,-0.000,-0.001
1495955822016,0.002,0.008,-0.000,-0.001
1495955822032,-0.003,0.013,0.000,-0.001
1495955822049,-0.002,0.009,0.000,-0.001
1495955822065,-0.001,0.010,0.000,-0.001
1495955822082,0.003,0.015,-0.000,-0.001
1495955822099,-0.001,0.015,0.000,-0.001
1495955822115,-0.001,0.009,0.000,-0.001
1495955822132,-0.004,0.007,0.000,-0.001
1495955822149,-0.004,0.006,0.000,-0.001
1495955822166,0.001,0.012,-0.000,-0.001
1495955822199,0.001,0.009,-0.000,-0.001
1495955822215,0.000,0.005,-0.000,-0.000
1495955822232,-0.002,0.011,0.000,-0.001
1495955822249,-0.006,0.009,0.001,-0.001
1495955822265,0.001,0.010,-0.000,-0.001
1495955822282,0.000,0.009,-0.000,-0.001
1495955822299,0.006,0.012,-0.001,-0.001
1495955822316,-0.002,0.012,0.000,-0.001
1495955822332,-0.003,0.009,0.000,-0.001
1495955822349,0.000,0.002,-0.000,-0.000
1495955822365,0.001,0.007,-0.000,-0.001
1495955822382,-0.003,0.012,0.000,-0.001
1495955822416,0.006,0.009,-0.001,-0.001
1495955822432,0.001,0.006,-0.000,-0.001
1495955822449,-0.005,0.014,0.000,-0.001
1495955822466,0.001,0.008,-0.000,-0.001
1495955822482,-0.000,0.006,0.000,-0.001
1495955822499,0.011,-0.020,-0.001,0.002
1495955822515,0.028,-0.043,-0.003,0.004
1495955822532,-0.006,0.025,0.001,-0.002
1495955822549,0.019,0.051,-0.002,-0.005
1495955822565,0.008,-0.014,-0.001,0.001
1495955822582,0.013,0.008,-0.001,-0.001
1495955822599,0.003,-0.014,-0.000,0.001
1495955822616,0.003,0.018,-0.000,-0.002
1495955822649,-0.003,-0.005,0.000,0.000
1495955822666,0.001,-0.002,-0.000,0.000
1495955822682,0.006,0.001,-0.001,-0.000
1495955822699,0.005,0.008,-0.000,-0.001
1495955822716,-0.000,0.001,0.000,-0.000
1495955822732,-0.003,0.003,0.000,-0.000
1495955822749,-0.004,0.001,0.000,-0.000
1495955822766,0.004,-0.000,-0.000,0.000
1495955822782,0.006,0.000,-0.001,-0.000
1495955822799,0.006,-0.000,-0.001,0.000
1495955822815,-0.001,-0.002,0.000,0.000
1495955822832,-0.008,-0.004,0.001,0.000
1495955822866,0.003,-0.003,-0.000,0.000
1495955822882,0.004,0.001,-0.000,-0.000
1495955822900,0.008,0.001,-0.001,-0.000
1495955822915,-0.001,-0.000,0.000,0.000
1495955822932,-0.004,-0.003,0.000,0.000
1495955822948,-0.003,-0.003,0.000,0.000
1495955822966,0.002,-0.002,-0.000,0.000
1495955822982,0.007,0.004,-0.001,-0.000
1495955822999,0.003,-0.003,-0.000,0.000
1495955823015,-0.003,-0.002,0.000,0.000
1495955823032,-0.003,-0.003,0.000,0.000
1495955823049,0.002,-0.001,-0.000,0.000
1495955823082,0.008,0.003,-0.001,-0.000
1495955823099,0.004,-0.001,-0.000,0.000
1495955823116,0.001,-0.006,-0.000,0.001
1495955823132,-0.002,-0.006,0.000,0.001
1495955823149,-0.003,-0.001,0.000,0.000
1495955823166,0.002,-0.002,-0.000,0.000
1495955823182,0.003,-0.001,-0.000,0.000
1495955823199,0.001,0.000,-0.000,-0.000
1495955823216,-0.003,-0.003,0.000,0.000
1495955823232,0.001,0.001,-0.000,-0.000
1495955823249,0.005,0.001,-0.000,-0.000
1495955823266,0.001,-0.002,-0.000,0.000
1495955823282,0.008,0.007,-0.001,-0.001
1495955823316,0.001,-0.001,-0.000,0.000
1495955823332,-0.001,-0.001,0.000,0.000
1495955823349,0.002,-0.003,-0.000,0.000
1495955823365,0.007,-0.000,-0.001,0.000
1495955823382,0.004,-0.002,-0.000,0.000
1495955823399,0.000,-0.001,-0.000,0.000
1495955823416,-0.003,-0.002,0.000,0.000
1495955823432,-0.002,0.000,0.000,-0.000
1495955823449,0.000,0.001,-0.000,-0.000
1495955823466,0.003,-0.001,-0.000,0.000
1495955823482,0.007,-0.002,-0.001,0.000
1495955823499,-0.000,-0.003,0.000,0.000
1495955823515,-0.002,0.001,0.000,-0.000
1495955823549,0.001,0.000,-0.000,-0.000
1495955823566,0.004,-0.001,-0.000,0.000
1495955823582,0.000,0.001,-0.000,-0.000
1495955823599,0.001,-0.003,-0.000,0.000
1495955823615,0.000,-0.001,-0.000,0.000
1495955823632,-0.002,-0.002,0.000,0.000
1495955823649,0.000,-0.002,-0.000,0.000
1495955823667,0.001,0.002,-0.000,-0.000
1495955823684,0.008,-0.000,-0.001,0.000
1495955823699,-0.004,-0.002,0.000,0.000
1495955823716,-0.002,-0.001,0.000,0.000
1495955823733,-0.001,-0.005,0.000,0.000
1495955823766,0.004,-0.000,-0.000,0.000
1495955823783,0.002,0.001,-0.000,-0.000
1495955823799,0.003,-0.002,-0.000,0.000
1495955823816,-0.003,0.004,0.000,-0.000
1495955823833,-0.002,-0.003,0.000,0.000
1495955823849,0.001,-0.003,-0.000,0.000
1495955823866,0.003,-0.005,-0.000,0.000
1495955823883,0.003,-0.002,-0.000,0.000
1495955823899,-0.003,-0.001,0.000,0.000
1495955823916,-0.002,-0.004,0.000,0.000
1495955823933,0.001,-0.001,-0.000,0.000
1495955823949,0.001,0.006,-0.000,-0.001
1495955823966,0.005,0.004,-0.000,-0.000
1495955823999,0.002,0.003,-0.000,-0.000
1495955824016,-0.001,-0.002,0.000,0.000
1495955824033,-0.003,-0.003,0.000,0.000
1495955824049,0.001,-0.003,-0.000,0.000
1495955824066,0.003,0.002,-0.000,-0.000
1495955824083,-0.001,0.002,0.000,-0.000
1495955824099,0.002,-0.004,-0.000,0.000
1495955824116,-0.002,-0.002,0.000,0.000
1495955824133,0.003,-0.003,-0.000,0.000
1495955824149,0.006,0.003,-0.001,-0.000
1495955824166,0.008,0.000,-0.001,-0.000
1495955824183,-0.001,0.002,0.000,-0.000
1495955824201,-0.003,-0.006,0.000,0.001
1495955824233,-0.002,-0.005,0.000,0.000
1495955824250,0.000,-0.000,-0.000,0.000
1495955824266,0.005,0.002,-0.000,-0.000
1495955824283,0.002,-0.001,-0.000,0.000
1495955824300,-0.004,0.001,0.000,-0.000
1495955824316,-0.001,0.002,0.000,-0.000
1495955824333,0.003,0.003,-0.000,-0.000
1495955824350,-0.000,0.001,0.000,-0.000
1495955824366,0.006,0.002,-0.001,-0.000
1495955824383,0.000,-0.000,-0.000,0.000
1495955824400,-0.002,-0.002,0.000,0.000
1495955824416,-0.005,-0.002,0.000,0.000
1495955824433,0.009,0.001,-0.001,-0.000
1495955824450,0.009,0.002,-0.001,-0.000
1495955824466,0.001,0.005,-0.000,-0.000
1495955824483,-0.015,-0.002,0.001,0.000
1495955824517,0.004,-0.000,-0.000,0.000
1495955824533,-0.001,-0.002,0.000,0.000
1495955824550,0.006,0.008,-0.001,-0.001
1495955824566,-0.006,-0.001,0.001,0.000
1495955824583,-0.000,-0.006,0.000,0.001
1495955824600,-0.010,-0.004,0.001,0.000
1495955824616,0.008,-0.003,-0.001,0.000
1495955824633,0.003,0.002,-0.000,-0.000
1495955824650,0.011,0.002,-0.001,-0.000
1495955824666,-0.001,0.002,0.000,-0.000
1495955824683,-0.002,0.002,0.000,-0.000
1495955824699,-0.006,-0.002,0.001,0.000
1495955824733,0.004,-0.001,-0.000,0.000
1495955824750,0.001,-0.003,-0.000,0.000
1495955824766,0.005,-0.002,-0.000,0.000
1495955824783,0.003,-0.005,-0.000,0.000
1495955824800,0.003,-0.001,-0.000,0.000
1495955824816,-0.005,-0.005,0.000,0.000
1495955824833,-0.003,-0.001,0.000,0.000
1495955824850,-0.002,-0.002,0.000,0.000
1495955824866,0.003,-0.003,-0.000,0.000
1495955824883,0.005,0.003,-0.000,-0.000
1495955824901,0.002,0.001,-0.000,-0.000
1495955824933,-0.003,0.001,0.000,-0.000
1495955824950,-0.000,-0.000,0.000,0.000
1495955824966,0.002,-0.008,-0.000,0.001
1495955824983,0.001,-0.008,-0.000,0.001
1495955825000,0.001,-0.003,-0.000,0.000
1495955825016,0.001,-0.007,-0.000,0.001
1495955825033,0.000,0.000,-0.000,-0.000
1495955825050,0.002,0.002,-0.000,-0.000
1495955825066,-0.003,0.003,0.000,-0.000
1495955825083,-0.001,-0.001,0.000,0.000
1495955825100,-0.001,-0.001,0.000,0.000
1495955825117,0.006,-0.003,-0.001,0.000
1495955825133,0.009,-0.006,-0.001,0.001
