1495956436469,-0.004,0.010,-0.000,0.000
1495956436486,0.004,0.005,-0.000,-0.000
1495956436503,0.003,0.008,0.000,0.000
1495956436520,0.006,0.006,0.000,0.000
1495956436536,0.004,0.003,0.000,0.000
1495956436553,0.002,0.005,0.000,0.000
1495956436569,-0.002,0.003,-0.000,0.000
1495956436586,0.005,-0.001,0.000,-0.000
1495956436603,0.004,0.004,0.000,0.000
1495956436619,0.000,0.008,0.000,0.000
1495956436636,-0.003,0.005,-0.000,0.000
1495956436653,-0.003,0.005,-0.000,0.000
1495956436670,-0.003,0.005,-0.000,0.000
1495956436686,0.003,0.007,0.000,0.000
1495956436703,0.004,0.008,0.000,0.000
1495956436720,0.001,0.005,0.000,0.000
1495956436736,0.001,0.005,0.000,0.000
1495956436753,0.002,0.008,0.000,0.000
1495956436771,0.003,0.004,0.000,0.000
1495956436788,0.006,0.006,0.000,0.000
1495956436806,0.001,0.008,0.000,0.000
1495956436824,-0.002,0.009,-0.000,0.000
1495956436839,-0.006,0.001,-0.000,0.000
1495956436853,-0.004,0.003,-0.000,0.000
1495956436870,0.000,0.008,0.000,0.000
1495956436886,0.003,0.009,0.000,0.000
1495956436903,0.005,0.009,0.000,0.000
1495956436920,0.002,0.006,0.000,0.000
1495956436936,-0.004,0.005,-0.000,0.000
1495956436953,0.004,0.002,0.000,0.000
1495956436970,0.003,0.005,0.000,0.000
1495956437003,0.007,0.005,0.000,0.000
1495956437020,0.006,0.013,0.000,0.000
1495956437036,0.000,0.005,0.000,0.000
1495956437053,-0.004,0.007,-0.000,0.000
1495956437086,-0.002,-0.000,-0.000,-0.000
1495956437086,0.006,0.009,0.000,0.000
1495956437104,0.005,0.006,0.000,0.000
1495956437120,0.000,0.006,0.000,0.000
1495956437153,0.000,0.002,0.000,0.000
1495956437154,-0.003,0.007,-0.000,0.000
1495956437171,0.002,0.010,0.000,0.000
1495956437187,-0.000,0.009,-0.000,0.000
1495956437204,0.002,0.009,0.000,0.000
1495956437221,-0.003,0.011,-0.000,0.000
1495956437237,-0.001,0.009,-0.000,0.000
1495956437254,0.001,0.010,0.000,0.000
1495956437271,-0.000,0.013,-0.000,0.000
1495956437287,0.001,0.022,0.000,0.000
1495956437304,-0.002,0.009,-0.000,0.000
1495956437321,0.001,0.011,0.000,0.000
1495956437337,0.000,0.013,0.000,0.000
1495956437370,0.002,0.009,0.000,0.000
1495956437387,0.003,0.012,0.000,0.000
1495956437404,0.002,0.017,0.000,0.000
1495956437422,-0.002,0.015,-0.000,0.000
1495956437437,-0.004,0.009,-0.000,0.000
1495956437454,-0.000,0.015,-0.000,0.000
1495956437470,0.005,0.012,0.000,0.000
1495956437487,0.007,0.017,0.000,0.000
1495956437504,-0.001,0.009,-0.000,0.000
1495956437520,-0.008,0.008,-0.000,0.000
1495956437537,0.001,0.006,0.000,0.000
1495956437554,0.009,0.013,0.000,0.000
1495956437570,0.015,0.017,0.000,0.000
1495956437587,0.011,0.018,0.000,0.000
1495956437605,0.000,0.019,0.000,0.000
1495956437621,-0.009,0.008,-0.000,0.000
1495956437637,-0.011,0.013,-0.000,0.000
1495956437654,0.034,0.007,0.000,0.000
1495956437671,0.025,0.023,0.000,0.000
1495956437688,0.021,-0.114,0.000,-0.001
1495956437704,-0.018,0.184,-0.000,0.001
1495956437738,0.026,0.046,0.000,0.000
1495956437754,0.007,-0.006,0.000,-0.000
1495956437771,0.004,0.073,0.000,0.000
1495956437788,0.001,-0.006,0.000,-0.000
1495956437804,-0.021,-0.043,-0.000,-0.000
1495956437821,-0.045,-0.033,-0.000,-0.000
1495956437838,0.012,0.044,0.000,0.000
1495956437854,0.021,0.048,0.000,0.000
1495956437871,0.017,-0.023,0.000,-0.000
1495956437888,-0.012,-0.009,-0.000,-0.000
1495956437904,0.021,0.026,0.000,0.000
1495956437921,0.015,0.030,0.000,0.000
1495956437938,0.039,0.093,0.000,0.001
1495956437954,0.027,0.087,0.000,0.001
1495956437971,0.011,0.021,0.000,0.000
1495956437988,-0.013,-0.081,-0.000,-0.001
1495956438004,-0.040,-0.019,-0.000,-0.000
1495956438021,-0.002,0.002,-0.000,0.000
1495956438054,-0.039,-0.069,-0.000,-0.001
1495956438071,-0.019,0.005,-0.000,0.000
1495956438088,-0.003,-0.033,-0.000,-0.000
1495956438104,0.015,0.006,0.000,0.000
1495956438121,-0.021,-0.068,-0.000,-0.000
1495956438138,-0.016,-0.027,-0.000,-0.000
1495956438154,-0.022,-0.049,-0.000,-0.000
1495956438171,-0.003,-0.004,-0.000,-0.000
1495956438188,-0.030,-0.006,-0.000,-0.000
1495956438204,-0.001,0.049,-0.000,0.000
1495956438221,0.048,0.093,0.000,0.001
1495956438238,0.029,-0.011,0.000,-0.000
1495956438271,0.024,0.012,0.000,0.000
1495956438288,0.002,0.030,0.000,0.000
1495956438304,-0.011,-0.014,-0.000,-0.000
1495956438321,0.000,0.001,0.000,0.000
1495956438337,-0.004,0.002,-0.000,0.000
1495956438354,0.010,-0.014,0.000,-0.000
1495956438371,0.023,-0.006,0.000,-0.000
1495956438387,0.032,-0.023,0.000,-0.000
1495956438404,-0.001,-0.009,-0.000,-0.000
1495956438421,0.012,0.000,0.000,0.000
1495956438437,0.001,0.020,0.000,0.000
1495956438454,0.007,-0.036,0.000,-0.000
1495956438471,0.030,0.006,0.000,0.000
1495956438487,0.010,0.003,0.000,0.000
1495956438504,0.020,0.067,0.000,0.000
1495956438521,-0.008,-0.022,-0.000,-0.000
1495956438538,-0.002,0.050,-0.000,0.000
1495956438556,-0.028,0.059,-0.000,0.000
1495956438573,-0.010,0.019,-0.000,0.000
1495956438590,-0.018,0.040,-0.000,0.000
1495956438621,-0.002,-0.015,-0.000,-0.000
1495956438637,-0.004,0.038,-0.000,0.000
1495956438654,-0.017,0.043,-0.000,0.000
1495956438670,-0.002,0.018,-0.000,0.000
1495956438687,-0.006,0.004,-0.000,0.000
1495956438704,-0.005,0.033,-0.000,0.000
1495956438721,0.009,0.066,0.000,0.001
1495956438737,0.011,0.014,0.000,0.000
1495956438754,0.014,0.068,0.000,0.001
1495956438771,0.023,-0.011,0.000,-0.000
1495956438787,-0.011,-0.001,-0.000,-0.000
1495956438804,-0.015,0.024,-0.000,0.000
1495956438820,-0.001,0.051,-0.000,0.000
1495956438837,-0.025,0.020,-0.000,0.000
1495956438871,0.026,0.036,0.000,0.000
1495956438887,-0.014,0.045,-0.000,0.000
1495956438904,0.014,0.079,0.000,0.001
1495956438920,0.015,0.033,0.000,0.000
1495956438937,0.024,0.084,0.000,0.001
1495956438954,-0.001,-0.001,-0.000,-0.000
1495956438971,0.013,0.057,0.000,0.000
1495956438987,-0.013,0.030,-0.000,0.000
1495956439004,0.010,0.011,0.000,0.000
1495956439021,0.012,-0.003,0.000,-0.000
1495956439037,0.017,0.057,0.000,0.001
1495956439054,-0.003,0.044,-0.000,0.000
1495956439071,0.014,0.002,0.000,0.000
1495956439087,0.005,0.063,0.000,0.001
1495956439104,-0.004,0.059,-0.000,0.001
1495956439121,0.003,0.054,0.000,0.001
1495956439137,-0.020,-0.003,-0.000,-0.000
1495956439154,-0.017,0.037,-0.000,0.000
1495956439187,-0.000,0.013,-0.000,0.000
1495956439204,-0.001,0.024,-0.000,0.000
1495956439221,0.007,0.090,0.000,0.001
1495956439237,0.020,0.033,0.000,0.000
1495956439254,0.010,0.031,0.000,0.000
1495956439271,0.021,0.005,0.000,0.000
1495956439287,0.016,0.046,0.000,0.000
1495956439304,-0.002,0.017,-0.000,0.000
1495956439320,-0.009,0.037,-0.000,0.000
1495956439337,0.006,0.059,0.000,0.001
1495956439354,-0.011,-0.027,-0.000,-0.000
1495956439371,-0.004,0.034,-0.000,0.000
1495956439387,-0.015,0.043,-0.000,0.000
1495956439407,0.002,0.031,0.000,0.000
1495956439420,0.023,0.049,0.000,0.000
1495956439437,0.012,0.019,0.000,0.000
1495956439454,-0.025,-0.025,-0.000,-0.000
1495956439487,-0.002,0.017,-0.000,0.000
1495956439504,0.003,0.045,0.000,0.000
1495956439521,-0.018,0.026,-0.000,0.000
1495956439537,-0.005,0.026,-0.000,0.000
1495956439554,0.009,0.048,0.000,0.000
1495956439571,0.025,0.057,0.000,0.001
1495956439587,-0.003,0.002,-0.000,0.000
1495956439604,-0.013,-0.010,-0.000,-0.000
1495956439621,0.043,0.061,0.000,0.001
1495956439637,0.016,0.069,0.000,0.001
1495956439654,0.019,0.091,0.000,0.001
1495956439671,0.001,0.096,0.000,0.001
1495956439687,-0.026,-0.017,-0.000,-0.000
1495956439704,-0.013,0.053,-0.000,0.001
1495956439721,0.005,0.090,0.000,0.001
1495956439737,0.010,0.033,0.000,0.000
1495956439754,0.006,0.016,0.000,0.000
1495956439771,-0.002,0.021,-0.000,0.000
1495956439787,-0.002,0.016,-0.000,0.000
1495956439804,0.001,0.014,0.000,0.000
1495956439820,0.005,0.013,0.000,0.000
1495956439854,0.004,0.015,0.000,0.000
1495956439871,0.002,0.015,0.000,0.000
1495956439887,0.001,0.013,0.000,0.000
1495956439904,0.001,0.014,0.000,0.000
1495956439921,0.001,0.018,0.000,0.000
1495956439937,0.004,0.017,0.000,0.000
1495956439954,0.001,0.015,0.000,0.000
1495956439971,0.000,0.018,0.000,0.000
1495956439987,-0.002,0.011,-0.000,0.000
1495956440004,0.002,0.009,0.000,0.000
1495956440021,0.003,0.011,0.000,0.000
1495956440037,0.004,0.018,0.000,0.000
1495956440054,0.010,0.019,0.000,0.000
1495956440071,0.000,0.009,0.000,0.000
1495956440087,-0.004,0.015,-0.000,0.000
1495956440104,0.004,0.014,0.000,0.000
1495956440121,0.003,0.020,0.000,0.000
1495956440137,0.006,0.015,0.000,0.000
1495956440154,0.003,0.016,0.000,0.000
1495956440171,-0.005,0.017,-0.000,0.000
1495956440187,-0.001,0.012,-0.000,0.000
1495956440204,0.004,0.016,0.000,0.000
1495956440221,0.004,0.015,0.000,0.000
1495956440237,0.002,0.013,0.000,0.000
1495956440254,0.001,0.012,0.000,0.000
1495956440271,0.000,0.016,0.000,0.000
1495956440304,-0.004,0.015,-0.000,0.000
1495956440321,-0.002,0.015,-0.000,0.000
1495956440337,-0.025,0.003,-0.000,0.000
1495956440354,-0.002,0.015,-0.000,0.000
1495956440371,0.006,0.012,0.000,0.000
1495956440391,0.020,0.019,0.000,0.000
1495956440404,0.003,-0.002,0.000,-0.000
1495956440421,0.003,0.005,0.000,0.000
1495956440437,0.004,0.014,0.000,0.000
1495956440454,0.006,0.007,0.000,0.000
1495956440471,-0.000,0.002,-0.000,0.000
1495956440487,-0.002,0.014,-0.000,0.000
1495956440504,0.003,0.013,0.000,0.000
1495956440521,0.007,0.019,0.000,0.000
1495956440537,0.006,0.012,0.000,0.000
1495956440554,0.001,0.013,0.000,0.000
1495956440571,-0.000,0.028,-0.000,0.000
1495956440587,-0.004,-0.036,-0.000,-0.000
1495956440604,0.004,0.004,0.000,0.000
1495956440622,0.002,0.002,0.000,0.000
1495956440638,-0.011,0.007,-0.000,0.000
1495956440655,-0.002,0.002,-0.000,0.000
1495956440688,-0.001,0.001,-0.000,0.000
1495956440705,0.002,0.001,0.000,0.000
1495956440720,0.005,0.005,0.000,0.000
1495956440737,0.008,0.006,0.000,0.000
1495956440754,-0.003,-0.001,-0.000,-0.000
1495956440770,0.000,-0.002,0.000,-0.000
1495956440787,-0.000,-0.002,-0.000,-0.000
1495956440804,0.004,0.005,0.000,0.000
1495956440820,0.006,0.003,0.000,0.000
1495956440837,0.001,0.007,0.000,0.000
1495956440854,-0.004,-0.010,-0.000,-0.000
1495956440871,-0.010,-0.007,-0.000,-0.000
1495956440887,0.006,-0.004,0.000,-0.000
1495956440904,0.001,0.012,0.000,0.000
1495956440937,0.011,0.016,0.000,0.000
1495956440954,0.003,0.008,0.000,0.000
1495956440971,0.002,0.011,0.000,0.000
1495956440987,0.001,0.013,0.000,0.000
1495956441004,0.003,0.014,0.000,0.000
1495956441020,0.008,0.015,0.000,0.000
1495956441037,0.002,0.015,0.000,0.000
1495956441054,-0.002,0.012,-0.000,0.000
1495956441071,0.000,0.011,0.000,0.000
1495956441087,-0.002,0.008,-0.000,0.000
1495956441104,0.008,0.015,0.000,0.000
1495956441121,0.007,0.011,0.000,0.000
1495956441137,0.003,0.015,0.000,0.000
1495956441154,0.004,0.014,0.000,0.000
1495956441171,0.001,0.012,0.000,0.000
1495956441187,0.001,0.015,0.000,0.000
1495956441204,0.005,0.013,0.000,0.000
1495956441221,0.008,0.013,0.000,0.000
1495956441237,0.006,0.010,0.000,0.000
1495956441254,0.001,0.014,0.000,0.000
1495956441272,0.002,0.015,0.000,0.000
1495956441290,0.002,0.012,0.000,0.000
1495956441305,0.002,0.013,0.000,0.000
1495956441321,0.005,0.011,0.000,0.000
1495956441338,0.007,0.015,0.000,0.000
1495956441355,0.002,0.011,0.000,0.000
1495956441371,0.005,0.011,0.000,0.000
1495956441388,0.006,0.014,0.000,0.000
1495956441405,0.001,0.017,0.000,0.000
1495956441421,0.002,0.015,0.000,0.000
1495956441439,0.004,0.013,0.000,0.000
1495956441454,0.003,0.006,0.000,0.000
1495956441471,0.000,0.013,0.000,0.000
1495956441487,0.005,0.012,0.000,0.000
1495956441504,0.007,0.010,0.000,0.000
1495956441521,0.006,0.014,0.000,0.000
1495956441537,0.002,0.011,0.000,0.000
1495956441554,0.002,0.013,0.000,0.000
1495956441571,0.003,0.010,0.000,0.000
1495956441587,0.006,0.016,0.000,0.000
1495956441604,0.008,0.012,0.000,0.000
1495956441621,0.004,0.011,0.000,0.000
1495956441638,-0.002,0.009,-0.000,0.000
1495956441671,0.001,0.007,0.000,0.000
1495956441689,0.002,0.010,0.000,0.000
1495956441704,0.000,0.012,0.000,0.000
1495956441721,0.007,0.013,0.000,0.000
1495956441738,0.003,0.015,0.000,0.000
1495956441754,-0.001,0.013,-0.000,0.000
1495956441771,-0.003,0.013,-0.000,0.000
1495956441788,0.003,0.010,0.000,0.000
1495956441805,0.008,0.010,0.000,0.000
1495956441823,0.003,0.012,0.000,0.000
1495956441837,0.000,0.008,0.000,0.000
1495956441854,-0.002,0.012,-0.000,0.000
1495956441871,0.003,0.012,0.000,0.000
1495956441888,0.008,0.011,0.000,0.000
1495956441904,0.008,0.014,0.000,0.000
1495956441921,0.006,0.011,0.000,0.000
1495956441939,-0.003,0.010,-0.000,0.000
1495956441956,-0.001,0.012,-0.000,0.000
1495956441971,0.003,0.016,0.000,0.000
1495956441988,0.005,0.014,0.000,0.000
1495956442004,0.005,0.012,0.000,0.000
1495956442021,0.002,0.013,0.000,0.000
1495956442038,0.001,0.008,0.000,0.000
1495956442054,0.002,0.011,0.000,0.000
1495956442071,0.004,0.010,0.000,0.000
1495956442104,0.007,0.016,0.000,0.000
1495956442121,0.006,0.015,0.000,0.000
1495956442137,-0.003,0.013,-0.000,0.000
1495956442154,-0.001,0.013,-0.000,0.000
1495956442171,0.003,0.011,0.000,0.000
1495956442187,0.004,0.014,0.000,0.000
1495956442204,0.004,0.011,0.000,0.000
1495956442221,0.003,0.014,0.000,0.000
1495956442238,0.000,0.008,0.000,0.000
1495956442254,0.003,0.009,0.000,0.000
1495956442287,0.004,0.013,0.000,0.000
1495956442288,0.004,0.011,0.000,0.000
1495956442304,0.006,0.014,0.000,0.000
1495956442321,0.001,0.013,0.000,0.000
1495956442337,0.001,0.016,0.000,0.000
1495956442354,0.003,0.013,0.000,0.000
1495956442371,0.002,0.016,0.000,0.000
1495956442387,0.007,0.014,0.000,0.000
1495956442404,0.007,0.010,0.000,0.000
1495956442421,0.001,0.013,0.000,0.000
1495956442437,-0.002,0.013,-0.000,0.000
1495956442454,0.002,0.010,0.000,0.000
1495956442471,0.002,0.015,0.000,0.000
1495956442487,0.007,0.010,0.000,0.000
1495956442504,0.006,0.015,0.000,0.000
1495956442521,0.003,0.010,0.000,0.000
1495956442537,0.001,0.009,0.000,0.000
1495956442571,0.001,0.012,0.000,0.000
1495956442588,0.007,0.011,0.000,0.000
1495956442605,0.005,0.009,0.000,0.000
1495956442621,0.005,0.013,0.000,0.000
1495956442638,-0.001,0.010,-0.000,0.000
1495956442654,0.004,0.010,0.000,0.000
1495956442671,0.005,0.011,0.000,0.000
1495956442689,0.009,0.013,0.000,0.000
1495956442705,0.004,0.014,0.000,0.000
1495956442721,0.006,0.015,0.000,0.000
1495956442738,0.002,0.009,0.000,0.000
1495956442755,-0.000,0.012,-0.000,0.000
1495956442771,0.001,0.012,0.000,0.000
1495956442788,0.003,0.015,0.000,0.000
1495956442805,0.005,0.015,0.000,0.000
1495956442822,0.000,0.009,0.000,0.000
1495956442837,0.000,0.011,0.000,0.000
1495956442854,0.006,0.014,0.000,0.000
1495956442871,0.009,0.016,0.000,0.000
1495956442888,0.003,0.013,0.000,0.000
1495956442904,0.003,0.012,0.000,0.000
1495956442921,-0.002,0.008,-0.000,0.000
1495956442937,0.001,0.012,0.000,0.000
1495956442954,0.003,0.009,0.000,0.000
1495956442972,0.002,0.010,0.000,0.000
1495956442988,0.004,0.013,0.000,0.000
1495956443005,0.004,0.012,0.000,0.000
1495956443021,0.000,0.014,0.000,0.000
1495956443038,0.003,0.014,0.000,0.000
1495956443055,0.005,0.013,0.000,0.000
1495956443071,0.010,0.014,0.000,0.000
1495956443088,0.011,0.016,0.000,0.000
1495956443104,-0.003,0.014,-0.000,0.000
1495956443121,0.001,0.012,0.000,0.000
1495956443155,0.001,0.010,0.000,0.000
1495956443171,0.017,0.012,0.000,0.000
1495956443188,0.011,0.010,0.000,0.000
1495956443205,0.009,0.010,0.000,0.000
1495956443221,-0.008,0.015,-0.000,0.000
1495956443238,-0.011,0.013,-0.000,0.000
1495956443255,-0.009,0.014,-0.000,0.000
1495956443271,0.011,0.013,0.000,0.000
1495956443288,0.010,0.019,0.000,0.000
1495956443305,0.008,0.015,0.000,0.000
1495956443321,-0.002,0.012,-0.000,0.000
1495956443338,-0.008,0.008,-0.000,0.000
1495956443372,0.011,0.011,0.000,0.000
1495956443372,0.013,0.015,0.000,0.000
1495956443390,0.015,0.020,0.000,0.000
1495956443406,0.003,0.014,0.000,0.000
1495956443423,-0.006,0.010,-0.000,0.000
1495956443439,-0.010,0.010,-0.000,0.000
1495956443456,0.004,0.011,0.000,0.000
1495956443473,0.006,0.011,0.000,0.000
1495956443489,0.010,0.013,0.000,0.000
1495956443506,0.007,0.008,0.000,0.000
1495956443523,0.009,0.013,0.000,0.000
1495956443540,0.008,0.013,0.000,0.000
1495956443556,0.007,0.010,0.000,0.000
1495956443573,0.009,0.011,0.000,0.000
1495956443589,0.005,0.008,0.000,0.000
1495956443623,0.003,0.013,0.000,0.000
1495956443639,0.005,0.011,0.000,0.000
1495956443656,-0.003,0.010,-0.000,0.000
1495956443673,-0.001,0.015,-0.000,0.000
1495956443689,-0.002,0.015,-0.000,0.000
1495956443706,-0.005,0.012,-0.000,0.000
1495956443723,0.001,0.010,0.000,0.000
1495956443739,0.004,0.010,0.000,0.000
1495956443756,0.009,0.015,0.000,0.000
1495956443773,0.007,0.017,0.000,0.000
1495956443789,0.001,0.013,0.000,0.000
1495956443807,-0.001,0.014,-0.000,0.000
