1495975693387,0.001,0.000,0.000,0.006
1495975693405,0.002,0.000,0.000,0.006
1495975693423,0.003,0.000,0.000,0.018
1495975693440,0.003,0.000,0.000,0.018
1495975693442,0.002,0.000,0.000,0.015
1495975693459,0.001,0.000,0.000,0.010
1495975693476,-0.001,-0.000,-0.000,-0.013
1495975693494,0.002,0.000,0.000,0.015
1495975693510,-0.003,-0.001,-0.000,-0.031
1495975693527,-0.005,-0.001,-0.000,-0.018
1495975693543,-0.002,-0.001,-0.000,-0.017
1495975693560,-0.001,-0.000,-0.000,-0.005
1495975693576,0.003,0.000,0.000,0.019
1495975693594,0.002,-0.000,0.000,0.010
1495975693609,-0.000,-0.000,-0.000,-0.001
1495975693628,0.003,0.000,0.000,0.014
1495975693645,-0.005,0.002,0.000,-0.043
1495975693661,0.004,-0.001,0.000,0.018
1495975693679,0.006,-0.000,0.000,0.023
1495975693696,0.003,-0.000,0.000,0.026
1495975693714,0.002,-0.000,0.000,0.030
1495975693731,-0.002,0.000,-0.000,-0.039
1495975693749,-0.004,-0.000,-0.000,-0.005
1495975693765,0.005,-0.000,0.000,0.047
1495975693780,-0.000,0.000,-0.000,-0.006
1495975693797,0.001,0.000,0.000,0.007
1495975693813,0.002,-0.000,0.000,0.016
1495975693831,0.001,-0.000,0.000,0.012
1495975693847,-0.001,-0.000,-0.000,-0.010
1495975693863,0.001,0.000,0.000,0.007
1495975693879,0.003,0.000,0.000,0.033
1495975693896,-0.002,-0.000,-0.000,-0.020
1495975693915,0.003,0.000,0.000,0.023
1495975693934,-0.002,-0.000,-0.000,-0.023
1495975693951,0.004,0.000,0.000,0.031
1495975693969,-0.002,-0.000,-0.000,-0.024
1495975693987,-0.000,-0.000,-0.000,-0.001
1495975694005,0.003,0.000,0.000,0.024
1495975694022,-0.001,-0.000,-0.000,-0.010
1495975694039,-0.004,-0.000,-0.000,-0.036
1495975694055,-0.003,-0.000,-0.000,-0.021
1495975694072,-0.003,-0.000,-0.000,-0.023
1495975694090,0.002,0.000,0.000,0.017
1495975694092,0.004,-0.000,0.000,0.043
1495975694109,0.003,-0.001,0.000,0.051
1495975694127,-0.003,0.000,-0.000,-0.045
1495975694145,0.000,0.000,0.000,0.000
1495975694160,-0.000,0.000,-0.000,-0.002
1495975694178,0.001,-0.000,0.000,0.005
1495975694197,0.002,-0.000,0.000,0.015
1495975694214,0.002,-0.000,0.000,0.016
1495975694230,-0.003,0.000,-0.000,-0.031
1495975694247,-0.000,0.000,-0.000,-0.003
1495975694265,-0.001,0.000,-0.000,-0.011
1495975694281,0.003,-0.000,0.000,0.023
1495975694296,0.003,-0.000,0.000,0.039
1495975694313,0.003,-0.000,0.000,0.032
1495975694330,0.003,-0.000,0.000,0.031
1495975694346,-0.003,0.000,-0.000,-0.036
1495975694363,0.002,-0.000,0.000,0.016
1495975694378,0.003,-0.000,0.000,0.026
1495975694396,0.002,-0.000,0.000,0.025
1495975694413,0.002,-0.000,0.000,0.022
1495975694431,-0.000,-0.000,-0.000,-0.002
1495975694449,-0.001,-0.000,-0.000,-0.009
1495975694464,-0.000,-0.000,-0.000,-0.002
1495975694480,-0.001,-0.000,-0.000,-0.007
1495975694498,0.003,0.000,0.000,0.029
1495975694516,0.005,0.000,0.001,0.058
1495975694532,-0.002,-0.000,-0.000,-0.022
1495975694549,-0.003,-0.000,-0.000,-0.024
1495975694565,-0.000,-0.000,-0.000,-0.002
1495975694581,0.003,0.000,0.000,0.027
1495975694599,0.005,0.000,0.000,0.050
1495975694615,0.000,0.000,0.000,0.003
1495975694632,-0.002,-0.000,-0.000,-0.019
1495975694648,-0.000,-0.000,-0.000,-0.004
1495975694663,-0.001,-0.000,-0.000,-0.014
1495975694681,0.008,0.001,0.001,0.072
1495975694699,0.002,0.000,0.000,0.017
1495975694714,-0.001,-0.000,-0.000,-0.007
1495975694730,-0.003,-0.000,-0.000,-0.025
1495975694745,0.002,0.000,0.000,0.021
1495975694761,0.001,0.000,0.000,0.011
1495975694810,0.006,0.001,0.001,0.057
1495975694825,0.004,0.000,0.000,0.041
1495975694842,0.001,0.000,0.000,0.014
1495975694875,-0.003,-0.000,-0.000,-0.029
1495975694876,0.000,0.000,0.000,0.001
1495975694893,0.003,0.000,0.000,0.034
1495975694909,0.002,0.000,0.000,0.021
1495975694927,0.000,0.000,0.000,0.001
1495975694945,0.001,0.000,0.000,0.008
1495975694962,0.001,0.000,0.000,0.008
1495975694980,-0.002,-0.000,-0.000,-0.019
1495975694997,-0.000,-0.000,-0.000,-0.004
1495975695015,-0.000,-0.000,-0.000,-0.004
1495975695031,0.003,0.000,0.000,0.027
1495975695047,-0.001,-0.000,-0.000,-0.007
1495975695063,-0.001,-0.000,-0.000,-0.009
1495975695080,0.000,0.000,0.000,0.001
1495975695098,0.002,0.000,0.000,0.017
1495975695116,0.003,0.001,0.000,0.033
1495975695131,0.006,0.001,0.001,0.064
1495975695148,-0.002,-0.000,-0.000,-0.020
1495975695163,0.001,0.000,0.000,0.005
1495975695179,-0.005,-0.001,-0.001,-0.053
1495975695197,0.001,0.000,0.000,0.005
1495975695212,0.006,0.001,0.001,0.056
1495975695230,0.003,0.001,0.000,0.037
1495975695247,-0.002,-0.000,-0.000,-0.017
1495975695265,-0.002,-0.000,-0.000,-0.023
1495975695283,-0.002,-0.000,-0.000,-0.020
1495975695298,-0.001,-0.000,-0.000,-0.011
1495975695314,0.003,0.001,0.000,0.031
1495975695329,0.004,0.001,0.000,0.038
1495975695345,0.004,0.001,0.000,0.039
1495975695363,-0.004,-0.001,-0.000,-0.037
1495975695380,-0.002,-0.000,-0.000,-0.020
1495975695399,0.002,0.000,0.000,0.017
1495975695416,0.001,0.000,0.000,0.013
1495975695432,0.008,0.002,0.001,0.081
1495975695448,0.003,0.001,0.000,0.035
1495975695464,-0.003,-0.001,-0.000,-0.035
1495975695480,-0.003,-0.001,-0.000,-0.025
1495975695497,0.004,0.001,0.000,0.038
1495975695516,0.005,0.001,0.001,0.048
1495975695534,0.004,0.001,0.000,0.039
1495975695551,-0.003,-0.001,-0.000,-0.032
1495975695570,-0.002,-0.001,-0.000,-0.020
1495975695586,0.000,0.000,0.000,0.003
1495975695602,0.002,0.000,0.000,0.020
1495975695620,0.004,0.001,0.000,0.040
1495975695637,0.007,0.002,0.001,0.071
1495975695656,0.001,0.000,0.000,0.011
1495975695674,-0.002,-0.001,-0.000,-0.024
1495975695692,0.002,0.001,0.000,0.022
1495975695694,0.003,0.001,0.000,0.032
1495975695710,0.004,0.001,0.001,0.045
1495975695727,0.003,0.001,0.000,0.036
1495975695745,0.002,0.001,0.000,0.020
1495975695762,-0.003,-0.001,-0.000,-0.031
1495975695780,-0.001,-0.000,-0.000,-0.011
1495975695798,0.001,0.000,0.000,0.010
1495975695815,0.004,0.001,0.001,0.039
1495975695831,0.001,0.000,0.000,0.008
1495975695847,0.003,0.001,0.000,0.030
1495975695863,-0.002,-0.001,-0.000,-0.017
1495975695881,0.001,0.000,0.000,0.008
1495975695898,0.003,0.001,0.000,0.025
1495975695915,0.006,0.002,0.001,0.059
1495975695932,0.002,0.001,0.000,0.018
1495975695950,0.004,0.001,0.001,0.040
1495975695966,0.000,0.000,0.000,0.001
1495975695981,-0.005,-0.002,-0.001,-0.047
1495975695998,0.002,0.001,0.000,0.021
1495975696013,0.009,0.003,0.001,0.093
1495975696031,0.003,0.001,0.000,0.034
1495975696047,0.002,0.001,0.000,0.023
1495975696064,-0.003,-0.001,-0.000,-0.034
1495975696080,-0.001,-0.000,-0.000,-0.006
1495975696097,0.003,0.001,0.000,0.027
1495975696115,0.002,0.001,0.000,0.020
1495975696133,0.002,0.001,0.000,0.018
1495975696148,0.001,0.000,0.000,0.013
1495975696164,0.003,0.001,0.000,0.027
1495975696179,-0.001,-0.001,-0.000,-0.014
1495975696197,-0.004,-0.001,-0.001,-0.037
1495975696215,0.002,0.001,0.000,0.019
1495975696233,0.004,0.001,0.001,0.037
1495975696252,0.001,0.000,0.000,0.010
1495975696269,0.004,0.001,0.001,0.037
1495975696287,-0.001,-0.000,-0.000,-0.012
1495975696305,-0.004,-0.002,-0.001,-0.040
1495975696322,0.004,0.001,0.001,0.036
1495975696340,-0.004,-0.002,-0.001,-0.039
1495975696357,-0.004,-0.002,-0.001,-0.039
1495975696376,0.001,0.000,0.000,0.005
1495975696377,-0.002,-0.001,-0.000,-0.023
1495975696394,-0.003,-0.001,-0.000,-0.025
1495975696410,0.001,0.000,0.000,0.012
1495975696428,0.002,0.001,0.000,0.015
1495975696445,0.003,0.001,0.000,0.030
1495975696463,-0.003,-0.001,-0.000,-0.031
1495975696481,-0.000,-0.000,-0.000,-0.004
1495975696499,0.002,0.001,0.000,0.015
1495975696517,0.001,0.000,0.000,0.013
1495975696532,-0.002,-0.001,-0.000,-0.024
1495975696548,-0.002,-0.001,-0.000,-0.016
1495975696567,0.000,0.000,0.000,0.001
1495975696585,0.001,0.000,0.000,0.005
1495975696603,0.000,0.000,0.000,0.003
1495975696621,0.005,0.002,0.001,0.049
1495975696639,-0.002,-0.001,-0.000,-0.022
1495975696658,0.003,0.001,0.000,0.029
1495975696675,0.000,0.000,0.000,0.001
1495975696692,-0.002,-0.001,-0.000,-0.021
1495975696709,0.005,0.002,0.001,0.046
1495975696725,0.003,0.001,0.000,0.025
1495975696727,-0.000,-0.000,-0.000,-0.002
1495975696744,0.002,0.001,0.000,0.017
1495975696777,-0.004,-0.002,-0.001,-0.038
1495975696778,-0.001,-0.000,-0.000,-0.011
1495975696794,0.004,0.002,0.001,0.041
1495975696811,0.002,0.001,0.000,0.020
1495975696829,0.001,0.000,0.000,0.005
1495975696844,0.001,0.000,0.000,0.010
1495975696862,0.002,0.001,0.000,0.022
1495975696879,-0.001,-0.000,-0.000,-0.012
1495975696897,0.005,0.002,0.001,0.046
1495975696915,0.003,0.001,0.000,0.030
1495975696932,0.001,0.001,0.000,0.013
1495975696950,-0.000,-0.000,-0.000,-0.002
1495975696965,-0.002,-0.001,-0.000,-0.019
1495975696982,-0.005,-0.002,-0.001,-0.045
1495975696999,0.001,0.000,0.000,0.010
1495975697016,-0.001,-0.000,-0.000,-0.007
1495975697032,0.002,0.001,0.000,0.020
1495975697050,0.002,0.001,0.000,0.018
1495975697065,0.000,0.000,0.000,0.003
1495975697083,0.003,0.001,0.001,0.034
1495975697098,0.001,0.000,0.000,0.008
1495975697116,0.006,0.002,0.001,0.056
1495975697134,0.003,0.001,0.000,0.025
1495975697151,0.000,0.000,0.000,0.001
1495975697167,-0.003,-0.001,-0.000,-0.028
1495975697182,-0.002,-0.001,-0.000,-0.021
1495975697199,0.005,0.002,0.001,0.050
1495975697215,0.006,0.003,0.001,0.060
1495975697232,0.001,0.000,0.000,0.008
1495975697250,0.001,0.001,0.000,0.013
1495975697268,-0.003,-0.001,-0.000,-0.026
1495975697286,-0.004,-0.002,-0.001,-0.040
1495975697305,0.006,0.003,0.001,0.059
1495975697322,0.001,0.000,0.000,0.010
1495975697340,0.001,0.000,0.000,0.010
1495975697357,-0.002,-0.001,-0.000,-0.021
1495975697376,-0.002,-0.001,-0.000,-0.018
1495975697394,-0.002,-0.001,-0.000,-0.021
1495975697394,-0.000,-0.000,-0.000,-0.002
1495975697409,0.006,0.003,0.001,0.061
1495975697431,0.004,0.002,0.001,0.038
1495975697448,0.001,0.000,0.000,0.010
1495975697466,-0.001,-0.001,-0.000,-0.011
1495975697484,-0.002,-0.001,-0.000,-0.019
1495975697502,-0.000,-0.000,-0.000,-0.002
1495975697520,0.003,0.001,0.000,0.032
1495975697537,-0.001,-0.000,-0.000,-0.009
1495975697555,0.001,0.001,0.000,0.013
1495975697573,-0.001,-0.001,-0.000,-0.014
1495975697590,-0.002,-0.001,-0.000,-0.016
1495975697608,0.001,0.000,0.000,0.010
1495975697625,0.005,0.002,0.001,0.046
1495975697644,0.005,0.002,0.001,0.050
1495975697646,0.000,0.000,0.000,0.003
1495975697663,-0.003,-0.001,-0.000,-0.028
1495975697680,-0.000,-0.000,-0.000,-0.002
1495975697698,0.004,0.002,0.001,0.037
1495975697715,0.001,0.000,0.000,0.005
1495975697733,0.003,0.002,0.000,0.032
1495975697751,0.001,0.000,0.000,0.005
1495975697768,0.002,0.001,0.000,0.020
1495975697786,-0.001,-0.001,-0.000,-0.012
1495975697801,-0.001,-0.001,-0.000,-0.014
1495975697817,-0.000,-0.000,-0.000,-0.002
1495975697833,0.004,0.002,0.001,0.044
1495975697850,-0.002,-0.001,-0.000,-0.024
1495975697868,-0.006,-0.003,-0.001,-0.059
1495975697885,-0.003,-0.001,-0.000,-0.030
1495975697903,0.004,0.002,0.001,0.036
1495975697919,0.005,0.002,0.001,0.047
1495975697934,0.002,0.001,0.000,0.020
1495975697951,0.000,0.000,0.000,0.001
1495975697966,-0.003,-0.001,-0.000,-0.031
1495975697982,0.001,0.000,0.000,0.005
1495975698000,0.002,0.001,0.000,0.017
1495975698017,0.005,0.002,0.001,0.049
1495975698035,0.000,0.000,0.000,0.003
1495975698052,-0.001,-0.001,-0.000,-0.011
1495975698068,-0.001,-0.001,-0.000,-0.014
1495975698084,0.002,0.001,0.000,0.015
1495975698101,-0.000,-0.000,-0.000,-0.002
1495975698119,0.002,0.001,0.000,0.020
1495975698136,0.003,0.001,0.000,0.025
1495975698152,-0.000,-0.000,-0.000,-0.004
1495975698168,0.000,0.000,0.000,0.003
1495975698184,-0.001,-0.001,-0.000,-0.014
1495975698200,0.002,0.001,0.000,0.022
1495975698217,0.007,0.003,0.001,0.066
1495975698235,0.005,0.002,0.001,0.050
1495975698253,0.000,0.000,0.000,0.003
1495975698268,-0.006,-0.003,-0.001,-0.057
1495975698284,-0.002,-0.001,-0.000,-0.018
1495975698301,-0.002,-0.001,-0.000,-0.021
1495975698319,0.002,0.001,0.000,0.022
1495975698337,0.002,0.001,0.000,0.022
1495975698352,-0.001,-0.001,-0.000,-0.014
1495975698368,-0.003,-0.001,-0.000,-0.028
1495975698384,0.002,0.001,0.000,0.020
1495975698401,-0.001,-0.000,-0.000,-0.009
1495975698419,0.002,0.001,0.000,0.015
1495975698434,0.003,0.001,0.000,0.027
1495975698451,-0.002,-0.001,-0.000,-0.016
1495975698466,-0.001,-0.000,-0.000,-0.007
1495975698484,0.001,0.000,0.000,0.005
1495975698503,0.002,0.001,0.000,0.022
1495975698520,-0.003,-0.002,-0.000,-0.031
1495975698538,0.001,0.000,0.000,0.005
1495975698556,0.001,0.000,0.000,0.005
1495975698574,0.001,0.001,0.000,0.013
1495975698592,-0.001,-0.001,-0.000,-0.014
1495975698609,-0.001,-0.000,-0.000,-0.009
1495975698627,0.003,0.001,0.000,0.029
1495975698644,0.002,0.001,0.000,0.018
1495975698646,0.002,0.001,0.000,0.022
1495975698663,-0.002,-0.001,-0.000,-0.019
1495975698681,0.001,0.001,0.000,0.010
1495975698698,-0.000,-0.000,-0.000,-0.002
1495975698716,0.004,0.002,0.001,0.041
1495975698733,0.000,0.000,0.000,0.003
1495975698751,-0.002,-0.001,-0.000,-0.021
1495975698800,0.001,0.000,0.000,0.005
1495975698815,0.001,0.001,0.000,0.013
1495975698839,0.002,0.001,0.000,0.017
1495975698857,-0.002,-0.001,-0.000,-0.021
1495975698874,0.005,0.002,0.001,0.046
1495975698892,0.001,0.000,0.000,0.005
1495975698909,-0.004,-0.002,-0.001,-0.043
1495975698928,-0.002,-0.001,-0.000,-0.023
1495975698946,0.003,0.002,0.000,0.029
1495975698963,0.003,0.001,0.000,0.025
1495975698979,0.002,0.001,0.000,0.020
1495975698994,0.001,0.001,0.000,0.013
1495975699011,0.001,0.000,0.000,0.005
1495975699027,-0.001,-0.000,-0.000,-0.009
1495975699044,0.002,0.001,0.000,0.017
1495975699063,0.004,0.002,0.001,0.039
1495975699080,-0.002,-0.001,-0.000,-0.016
1495975699098,0.002,0.001,0.000,0.017
1495975699117,-0.005,-0.003,-0.001,-0.053
1495975699134,-0.003,-0.002,-0.000,-0.030
1495975699152,0.002,0.001,0.000,0.022
1495975699169,0.001,0.000,0.000,0.008
1495975699187,0.006,0.003,0.001,0.056
1495975699205,0.002,0.001,0.000,0.015
1495975699207,-0.006,-0.003,-0.001,-0.055
1495975699223,0.001,0.000,0.000,0.005
1495975699241,-0.001,-0.000,-0.000,-0.009
1495975699258,0.002,0.001,0.000,0.020
1495975699276,-0.000,-0.000,-0.000,-0.002
1495975699294,0.001,0.001,0.000,0.013
1495975699311,-0.003,-0.002,-0.000,-0.028
1495975699329,-0.002,-0.001,-0.000,-0.023
1495975699344,-0.001,-0.001,-0.000,-0.014
1495975699360,0.003,0.002,0.001,0.032
1495975699376,0.001,0.001,0.000,0.013
1495975699393,0.000,0.000,0.000,0.003
1495975699411,-0.001,-0.000,-0.000,-0.009
1495975699428,0.001,0.001,0.000,0.010
1495975699446,0.005,0.002,0.001,0.046
1495975699462,0.005,0.003,0.001,0.049
1495975699477,0.003,0.002,0.001,0.032
1495975699493,-0.003,-0.001,-0.000,-0.026
1495975699508,-0.000,-0.000,-0.000,-0.002
1495975699526,-0.002,-0.001,-0.000,-0.016
1495975699544,0.003,0.002,0.000,0.029
1495975699560,0.007,0.004,0.001,0.066
1495975699578,0.005,0.003,0.001,0.052
1495975699593,-0.000,-0.000,-0.000,-0.002
1495975699611,-0.005,-0.003,-0.001,-0.045
1495975699629,-0.002,-0.001,-0.000,-0.018
1495975699646,0.005,0.003,0.001,0.048
1495975699662,0.001,0.001,0.000,0.010
1495975699677,0.001,0.001,0.000,0.010
1495975699694,-0.002,-0.001,-0.000,-0.021
1495975699710,-0.003,-0.002,-0.001,-0.033
1495975699727,-0.002,-0.001,-0.000,-0.016
1495975699746,0.001,0.001,0.000,0.013
1495975699763,0.004,0.002,0.001,0.042
1495975699781,0.001,0.001,0.000,0.010
1495975699799,-0.001,-0.001,-0.000,-0.011
1495975699816,-0.003,-0.002,-0.000,-0.028
1495975699834,0.001,0.000,0.000,0.005
1495975699851,-0.000,-0.000,-0.000,-0.004
1495975699869,0.000,0.000,0.000,0.001
1495975699887,-0.002,-0.001,-0.000,-0.023
1495975699904,-0.000,-0.000,-0.000,-0.004
1495975699906,0.001,0.000,0.000,0.008
1495975699924,0.002,0.001,0.000,0.015
1495975699942,0.002,0.001,0.000,0.022
1495975699960,0.007,0.004,0.001,0.068
1495975699976,0.002,0.001,0.000,0.015
1495975699993,-0.001,-0.001,-0.000,-0.011
1495975700012,0.003,0.001,0.000,0.025
1495975700029,-0.004,-0.002,-0.001,-0.038
1495975700045,-0.001,-0.001,-0.000,-0.014
1495975700061,0.001,0.001,0.000,0.013
1495975700078,0.003,0.001,0.000,0.025
1495975700096,0.002,0.001,0.000,0.022
1495975700111,0.001,0.001,0.000,0.013
1495975700127,0.001,0.000,0.000,0.008
1495975700143,0.001,0.001,0.000,0.010
1495975700159,0.003,0.002,0.001,0.032
1495975700175,0.003,0.002,0.001,0.032
1495975700192,-0.001,-0.001,-0.000,-0.012
1495975700210,0.004,0.002,0.001,0.036
1495975700226,0.004,0.002,0.001,0.037
1495975700244,0.001,0.000,0.000,0.008
1495975700262,0.001,0.001,0.000,0.010
1495975700277,0.002,0.001,0.000,0.017
1495975700295,0.002,0.001,0.000,0.015
1495975700314,-0.004,-0.002,-0.001,-0.040
1495975700331,-0.004,-0.002,-0.001,-0.037
1495975700349,-0.002,-0.001,-0.000,-0.021
1495975700366,0.007,0.004,0.001,0.065
1495975700384,0.002,0.001,0.000,0.018
1495975700402,-0.001,-0.001,-0.000,-0.009
1495975700417,-0.002,-0.001,-0.000,-0.019
1495975700435,-0.001,-0.000,-0.000,-0.007
1495975700454,0.000,0.000,0.000,0.003
1495975700472,0.004,0.002,0.001,0.037
1495975700488,0.004,0.002,0.001,0.037
1495975700490,0.002,0.001,0.000,0.015
1495975700507,-0.002,-0.001,-0.000,-0.024
1495975700525,-0.004,-0.003,-0.001,-0.042
1495975700540,0.004,0.003,0.001,0.043
1495975700558,0.003,0.002,0.001,0.032
1495975700577,0.002,0.001,0.000,0.018
1495975700594,-0.002,-0.001,-0.000,-0.021
1495975700610,-0.001,-0.001,-0.000,-0.011
1495975700628,-0.005,-0.003,-0.001,-0.047
1495975700646,0.002,0.001,0.000,0.015
1495975700662,0.005,0.003,0.001,0.051
1495975700677,0.002,0.001,0.000,0.020
1495975700693,0.002,0.001,0.000,0.015
1495975700709,0.003,0.001,0.000,0.025
1495975700725,-0.005,-0.003,-0.001,-0.045
1495975700743,0.005,0.003,0.001,0.050
1495975700761,0.004,0.003,0.001,0.042
1495975700810,0.001,0.000,0.000,0.008
1495975700826,-0.001,-0.001,-0.000,-0.014
1495975700843,0.002,0.001,0.000,0.020
1495975700861,-0.000,-0.000,-0.000,-0.004
1495975700878,0.002,0.001,0.000,0.017
1495975700897,0.005,0.003,0.001,0.049
1495975700915,0.002,0.001,0.000,0.018
1495975700930,0.001,0.001,0.000,0.010
1495975700949,-0.003,-0.002,-0.000,-0.026
1495975700966,-0.002,-0.001,-0.000,-0.021
1495975700982,0.001,0.001,0.000,0.010
1495975700998,0.002,0.001,0.000,0.017
1495975701014,0.004,0.003,0.001,0.044
1495975701032,-0.001,-0.000,-0.000,-0.007
1495975701047,-0.003,-0.002,-0.000,-0.026
1495975701065,-0.001,-0.000,-0.000,-0.007
1495975701084,-0.003,-0.002,-0.000,-0.026
1495975701101,0.008,0.005,0.001,0.077
1495975701119,0.002,0.001,0.000,0.020
1495975701136,-0.004,-0.002,-0.001,-0.036
1495975701154,-0.004,-0.002,-0.001,-0.037
1495975701172,-0.001,-0.000,-0.000,-0.007
1495975701189,-0.001,-0.001,-0.000,-0.011
1495975701208,0.003,0.002,0.001,0.034
1495975701226,0.002,0.001,0.000,0.020
1495975701228,-0.001,-0.000,-0.000,-0.007
1495975701244,-0.004,-0.002,-0.001,-0.038
1495975701261,0.000,0.000,0.000,0.003
1495975701294,-0.000,-0.000,-0.000,-0.004
1495975701295,0.007,0.004,0.001,0.070
1495975701311,0.000,0.000,0.000,0.001
1495975701327,-0.002,-0.001,-0.000,-0.023
1495975701346,0.000,0.000,0.000,0.003
1495975701363,-0.002,-0.001,-0.000,-0.019
1495975701382,-0.001,-0.001,-0.000,-0.011
1495975701399,0.003,0.002,0.001,0.032
1495975701417,0.001,0.000,0.000,0.005
1495975701435,-0.001,-0.001,-0.000,-0.014
1495975701450,-0.000,-0.000,-0.000,-0.004
1495975701466,0.003,0.002,0.000,0.027
1495975701482,0.003,0.002,0.001,0.034
1495975701498,0.004,0.002,0.001,0.037
1495975701515,-0.003,-0.002,-0.000,-0.026
1495975701530,-0.005,-0.003,-0.001,-0.045
1495975701548,-0.001,-0.001,-0.000,-0.009
1495975701566,0.003,0.002,0.000,0.025
1495975701584,0.003,0.002,0.001,0.030
1495975701600,0.004,0.002,0.001,0.037
1495975701615,0.003,0.002,0.001,0.032
1495975701631,0.000,0.000,0.000,0.001
1495975701648,0.000,0.000,0.000,0.001
1495975701666,0.004,0.003,0.001,0.039
1495975701684,0.004,0.003,0.001,0.042
1495975701701,0.003,0.002,0.000,0.027
1495975701717,0.000,0.000,0.000,0.003
1495975701732,-0.005,-0.003,-0.001,-0.047
1495975701749,0.000,0.000,0.000,0.003
1495975701766,-0.001,-0.000,-0.000,-0.007
1495975701783,0.003,0.002,0.000,0.027
1495975701799,-0.003,-0.002,-0.000,-0.028
1495975701816,-0.001,-0.001,-0.000,-0.009
1495975701834,0.001,0.001,0.000,0.010
1495975701852,0.003,0.002,0.001,0.029
1495975701867,0.000,0.000,0.000,0.001
1495975701883,0.002,0.001,0.000,0.022
1495975701899,0.001,0.001,0.000,0.008
1495975701915,0.001,0.001,0.000,0.010
1495975701933,0.001,0.001,0.000,0.008
1495975701950,-0.004,-0.003,-0.001,-0.040
1495975701968,-0.001,-0.001,-0.000,-0.009
1495975701983,0.003,0.002,0.001,0.032
1495975701999,0.004,0.003,0.001,0.042
1495975702015,0.003,0.002,0.001,0.032
1495975702032,-0.005,-0.003,-0.001,-0.045
1495975702050,-0.004,-0.002,-0.001,-0.037
1495975702067,-0.006,-0.004,-0.001,-0.054
1495975702085,0.004,0.002,0.001,0.036
1495975702101,0.004,0.003,0.001,0.044
1495975702116,-0.004,-0.002,-0.001,-0.036
1495975702135,-0.000,-0.000,-0.000,-0.004
1495975702152,0.000,0.000,0.000,0.003
1495975702170,0.004,0.003,0.001,0.039
1495975702189,0.010,0.007,0.002,0.100
1495975702206,0.009,0.006,0.002,0.089
1495975702224,0.004,0.003,0.001,0.042
1495975702242,-0.003,-0.002,-0.001,-0.031
1495975702260,-0.006,-0.004,-0.001,-0.057
1495975702276,-0.006,-0.004,-0.001,-0.061
1495975702293,-0.001,-0.001,-0.000,-0.009
1495975702295,0.002,0.001,0.000,0.017
1495975702312,0.002,0.001,0.000,0.015
1495975702329,0.000,0.000,0.000,0.001
1495975702345,-0.001,-0.000,-0.000,-0.007
1495975702363,0.003,0.002,0.000,0.025
1495975702381,0.005,0.003,0.001,0.051
1495975702399,0.009,0.006,0.002,0.088
1495975702416,0.002,0.001,0.000,0.015
1495975702434,-0.001,-0.001,-0.000,-0.009
1495975702452,-0.005,-0.003,-0.001,-0.050
1495975702467,0.002,0.002,0.000,0.022
1495975702483,-0.001,-0.001,-0.000,-0.011
1495975702499,0.001,0.000,0.000,0.005
1495975702515,-0.001,-0.001,-0.000,-0.014
1495975702532,0.003,0.002,0.001,0.034
1495975702547,-0.000,-0.000,-0.000,-0.002
1495975702566,0.002,0.001,0.000,0.017
1495975702583,0.005,0.003,0.001,0.046
1495975702601,0.003,0.002,0.000,0.027
1495975702619,-0.000,-0.000,-0.000,-0.004
1495975702634,-0.001,-0.000,-0.000,-0.007
1495975702650,0.001,0.001,0.000,0.010
1495975702667,0.001,0.000,0.000,0.005
1495975702685,0.003,0.002,0.000,0.027
1495975702701,0.002,0.001,0.000,0.020
1495975702716,0.004,0.003,0.001,0.039
1495975702733,-0.001,-0.000,-0.000,-0.007
1495975702748,-0.003,-0.002,-0.001,-0.033
1495975702766,0.004,0.003,0.001,0.039
1495975702784,0.002,0.002,0.000,0.022
1495975702817,0.003,0.002,0.001,0.032
1495975702832,0.002,0.001,0.000,0.020
1495975702858,-0.002,-0.002,-0.000,-0.024
1495975702876,-0.003,-0.002,-0.000,-0.028
1495975702893,0.001,0.001,0.000,0.008
1495975702909,0.006,0.004,0.001,0.056
1495975702926,0.005,0.003,0.001,0.049
1495975702944,0.000,0.000,0.000,0.003
1495975702962,-0.000,-0.000,-0.000,-0.004
1495975702979,0.001,0.000,0.000,0.005
1495975702997,0.003,0.002,0.001,0.029
1495975703014,0.004,0.003,0.001,0.037
1495975703030,-0.000,-0.000,-0.000,-0.002
1495975703046,-0.001,-0.001,-0.000,-0.009
1495975703062,-0.002,-0.002,-0.000,-0.023
1495975703078,0.002,0.001,0.000,0.017
1495975703094,0.001,0.000,0.000,0.005
1495975703110,0.005,0.003,0.001,0.049
1495975703128,0.006,0.004,0.001,0.059
1495975703145,0.002,0.001,0.000,0.020
1495975703163,0.002,0.002,0.000,0.022
1495975703180,-0.002,-0.001,-0.000,-0.016
1495975703198,-0.002,-0.001,-0.000,-0.019
1495975703214,0.003,0.002,0.001,0.029
1495975703229,0.005,0.004,0.001,0.049
1495975703246,0.004,0.003,0.001,0.037
1495975703261,0.001,0.001,0.000,0.010
1495975703279,-0.000,-0.000,-0.000,-0.004
1495975703297,0.002,0.001,0.000,0.015
1495975703314,0.003,0.002,0.000,0.025
1495975703332,0.005,0.003,0.001,0.046
1495975703347,0.003,0.002,0.000,0.027
1495975703365,0.001,0.000,0.000,0.005
1495975703381,-0.006,-0.005,-0.001,-0.062
1495975703396,0.001,0.000,0.000,0.005
1495975703413,0.003,0.002,0.000,0.027
1495975703428,0.003,0.002,0.000,0.027
1495975703446,0.001,0.000,0.000,0.005
1495975703465,-0.000,-0.000,-0.000,-0.002
1495975703482,-0.001,-0.001,-0.000,-0.009
1495975703500,0.005,0.004,0.001,0.053
1495975703517,0.004,0.003,0.001,0.044
1495975703535,0.001,0.001,0.000,0.010
1495975703554,0.005,0.003,0.001,0.046
1495975703570,-0.003,-0.002,-0.001,-0.028
1495975703586,-0.004,-0.003,-0.001,-0.040
1495975703603,-0.003,-0.002,-0.001,-0.028
1495975703622,-0.001,-0.001,-0.000,-0.011
1495975703640,-0.007,-0.005,-0.001,-0.064
1495975703642,-0.022,-0.016,-0.004,-0.215
1495975703658,-0.043,-0.031,-0.007,-0.407
1495975703676,-0.002,-0.001,-0.000,-0.015
1495975703693,0.022,0.015,0.004,0.219
1495975703711,0.067,0.046,0.012,0.689
1495975703730,0.048,0.037,0.010,0.552
1495975703747,-0.003,-0.002,-0.001,-0.035
1495975703765,-0.054,-0.040,-0.010,-0.524
1495975703780,-0.028,-0.020,-0.005,-0.254
1495975703796,-0.074,-0.054,-0.013,-0.699
1495975703813,-0.081,-0.053,-0.013,-0.697
1495975703828,-0.037,-0.023,-0.006,-0.324
1495975703846,0.012,0.006,0.002,0.106
1495975703863,0.033,0.016,0.005,0.336
1495975703881,0.064,0.031,0.011,0.700
1495975703899,0.025,0.014,0.005,0.300
1495975703914,-0.189,-0.106,-0.033,-2.057
1495975703930,0.039,0.016,0.004,0.223
1495975703947,0.038,0.019,0.006,0.384
1495975703965,0.057,0.021,0.009,0.655
1495975703981,0.025,0.012,0.005,0.313
1495975703996,0.042,0.020,0.007,0.468
1495975704013,0.048,0.025,0.008,0.539
1495975704028,0.009,0.005,0.002,0.100
1495975704047,0.005,0.003,0.001,0.047
1495975704065,0.012,0.007,0.002,0.122
1495975704080,-0.022,-0.013,-0.004,-0.225
1495975704096,-0.068,-0.037,-0.011,-0.643
1495975704112,0.018,0.009,0.003,0.159
1495975704128,0.012,0.006,0.002,0.116
1495975704146,0.009,0.004,0.001,0.087
1495975704163,0.002,0.001,0.000,0.023
1495975704181,0.021,0.011,0.003,0.203
1495975704198,0.009,0.005,0.002,0.096
1495975704214,0.036,0.019,0.006,0.358
1495975704230,0.012,0.007,0.002,0.126
1495975704246,0.009,0.005,0.002,0.094
1495975704262,-0.012,-0.007,-0.002,-0.124
1495975704279,-0.036,-0.020,-0.006,-0.343
1495975704297,-0.084,-0.046,-0.013,-0.778
1495975704315,-0.042,-0.021,-0.006,-0.360
1495975704330,0.010,0.005,0.002,0.091
1495975704346,-0.020,-0.009,-0.003,-0.200
1495975704361,-0.027,-0.011,-0.004,-0.255
1495975704379,0.035,0.015,0.005,0.327
1495975704397,-0.012,-0.005,-0.002,-0.123
1495975704414,-0.013,-0.005,-0.002,-0.122
1495975704432,0.011,0.004,0.002,0.101
1495975704447,0.096,0.040,0.015,0.972
1495975704463,0.063,0.031,0.011,0.769
1495975704480,-0.000,-0.000,-0.000,-0.002
1495975704495,0.008,0.004,0.001,0.082
1495975704513,-0.008,-0.004,-0.001,-0.077
1495975704530,-0.011,-0.005,-0.002,-0.104
1495975704548,0.030,0.015,0.005,0.291
1495975704564,0.014,0.007,0.002,0.142
1495975704579,0.040,0.021,0.007,0.405
1495975704595,0.051,0.028,0.009,0.534
1495975704610,0.008,0.005,0.001,0.084
1495975704628,0.012,0.007,0.002,0.115
1495975704646,0.009,0.005,0.002,0.088
1495975704664,0.006,0.004,0.001,0.061
1495975704682,-0.004,-0.002,-0.001,-0.036
1495975704697,-0.004,-0.002,-0.001,-0.040
1495975704713,-0.002,-0.001,-0.000,-0.019
1495975704730,-0.007,-0.004,-0.001,-0.069
1495975704745,-0.002,-0.001,-0.000,-0.018
1495975704763,0.002,0.001,0.000,0.020
1495975704812,-0.003,-0.002,-0.000,-0.028
1495975704827,-0.001,-0.000,-0.000,-0.007
1495975704849,0.007,0.004,0.001,0.073
1495975704866,0.007,0.004,0.001,0.066
1495975704884,0.003,0.002,0.000,0.027
1495975704902,-0.001,-0.001,-0.000,-0.009
1495975704919,0.003,0.002,0.001,0.032
1495975704937,0.005,0.003,0.001,0.046
1495975704954,0.011,0.007,0.002,0.112
1495975704972,0.006,0.004,0.001,0.064
1495975704988,-0.000,-0.000,-0.000,-0.004
1495975705003,-0.007,-0.004,-0.001,-0.069
1495975705020,-0.003,-0.002,-0.000,-0.028
1495975705035,0.000,0.000,0.000,0.001
1495975705052,0.003,0.002,0.001,0.034
1495975705068,0.006,0.003,0.001,0.056
1495975705085,0.004,0.002,0.001,0.037
1495975705103,0.003,0.002,0.001,0.032
1495975705120,0.003,0.002,0.001,0.030
1495975705138,0.002,0.001,0.000,0.022
1495975705154,0.003,0.002,0.001,0.030
1495975705169,0.004,0.003,0.001,0.042
1495975705185,0.006,0.004,0.001,0.061
1495975705202,0.008,0.005,0.001,0.083
1495975705221,0.002,0.001,0.000,0.015
1495975705239,-0.006,-0.004,-0.001,-0.060
1495975705254,0.002,0.001,0.000,0.022
1495975705270,0.003,0.002,0.001,0.032
1495975705286,0.001,0.000,0.000,0.005
1495975705302,0.001,0.001,0.000,0.013
1495975705320,-0.000,-0.000,-0.000,-0.004
1495975705335,0.002,0.001,0.000,0.022
1495975705353,0.008,0.005,0.001,0.080
1495975705370,0.006,0.004,0.001,0.056
1495975705386,0.004,0.003,0.001,0.042
1495975705404,0.000,0.000,0.000,0.003
1495975705421,0.004,0.002,0.001,0.039
1495975705439,-0.004,-0.002,-0.001,-0.038
1495975705454,-0.000,-0.000,-0.000,-0.004
1495975705472,0.005,0.003,0.001,0.046
1495975705488,0.006,0.004,0.001,0.059
1495975705503,-0.003,-0.002,-0.000,-0.026
1495975705521,-0.001,-0.001,-0.000,-0.011
1495975705538,-0.003,-0.002,-0.000,-0.026
1495975705554,0.004,0.003,0.001,0.039
1495975705570,0.007,0.005,0.001,0.073
1495975705586,0.004,0.003,0.001,0.044
1495975705602,-0.002,-0.001,-0.000,-0.016
1495975705619,-0.000,-0.000,-0.000,-0.002
1495975705637,0.003,0.002,0.000,0.027
1495975705655,0.005,0.003,0.001,0.054
1495975705672,0.003,0.002,0.001,0.034
1495975705688,0.001,0.001,0.000,0.010
1495975705703,-0.003,-0.002,-0.001,-0.031
1495975705720,-0.005,-0.003,-0.001,-0.045
1495975705736,0.001,0.000,0.000,0.005
1495975705753,0.006,0.004,0.001,0.056
1495975705769,-0.000,-0.000,-0.000,-0.004
1495975705786,0.001,0.001,0.000,0.010
1495975705804,0.003,0.002,0.001,0.032
1495975705822,0.004,0.002,0.001,0.037
1495975705837,0.004,0.003,0.001,0.044
1495975705853,0.008,0.005,0.001,0.075
1495975705871,0.006,0.004,0.001,0.056
1495975705889,0.002,0.001,0.000,0.020
1495975705907,0.001,0.001,0.000,0.008
1495975705924,-0.002,-0.001,-0.000,-0.019
1495975705942,0.000,0.000,0.000,0.003
1495975705957,0.001,0.001,0.000,0.008
1495975705975,-0.001,-0.000,-0.000,-0.007
1495975705994,-0.000,-0.000,-0.000,-0.004
1495975706011,0.011,0.007,0.002,0.104
1495975706028,0.003,0.002,0.001,0.030
1495975706045,0.000,0.000,0.000,0.003
1495975706062,0.003,0.002,0.000,0.025
1495975706080,0.003,0.002,0.001,0.034
1495975706095,0.008,0.005,0.001,0.078
1495975706113,0.001,0.001,0.000,0.008
1495975706131,-0.002,-0.001,-0.000,-0.021
1495975706132,-0.002,-0.001,-0.000,-0.019
1495975706165,0.005,0.003,0.001,0.046
1495975706167,0.005,0.003,0.001,0.049
1495975706183,-0.004,-0.003,-0.001,-0.040
1495975706201,-0.002,-0.001,-0.000,-0.021
1495975706218,0.004,0.003,0.001,0.039
1495975706236,0.006,0.004,0.001,0.063
1495975706255,-0.009,-0.006,-0.002,-0.094
1495975706272,-0.025,-0.017,-0.004,-0.242
1495975706288,0.051,0.034,0.009,0.490
1495975706303,-0.080,-0.055,-0.015,-0.829
1495975706321,0.005,0.003,0.001,0.044
1495975706339,-0.057,-0.038,-0.010,-0.564
1495975706356,0.126,0.077,0.021,1.157
1495975706372,0.163,0.112,0.031,1.794
1495975706387,0.021,0.016,0.004,0.251
1495975706404,-0.153,-0.110,-0.028,-1.556
1495975706420,-0.158,-0.103,-0.025,-1.343
1495975706437,-0.065,-0.043,-0.011,-0.575
1495975706455,-0.059,-0.036,-0.010,-0.553
1495975706472,0.075,0.041,0.012,0.695
1495975706488,0.009,0.005,0.002,0.094
1495975706504,-0.026,-0.014,-0.004,-0.258
1495975706520,0.047,0.025,0.008,0.447
1495975706536,-0.001,-0.001,-0.000,-0.009
1495975706553,0.084,0.046,0.014,0.828
1495975706571,-0.009,-0.005,-0.002,-0.094
1495975706587,0.015,0.009,0.003,0.150
1495975706605,-0.020,-0.012,-0.003,-0.200
1495975706623,0.100,0.059,0.017,0.964
1495975706638,-0.012,-0.008,-0.002,-0.129
1495975706654,-0.156,-0.094,-0.026,-1.508
1495975706671,0.280,0.158,0.043,2.364
1495975706686,0.041,0.028,0.008,0.480
1495975706703,-0.013,-0.009,-0.002,-0.142
1495975706718,-0.103,-0.068,-0.018,-0.998
1495975706736,-0.047,-0.030,-0.008,-0.422
1495975706755,-0.003,-0.002,-0.001,-0.030
1495975706803,0.003,0.002,0.000,0.027
1495975706819,-0.040,-0.025,-0.007,-0.395
1495975706843,0.033,0.019,0.005,0.307
1495975706860,0.034,0.021,0.006,0.347
1495975706878,0.043,0.027,0.008,0.442
1495975706895,0.052,0.033,0.009,0.531
1495975706913,0.010,0.007,0.002,0.105
1495975706932,-0.053,-0.035,-0.009,-0.531
1495975706949,0.006,0.004,0.001,0.060
1495975706965,0.065,0.043,0.012,0.648
1495975706980,0.018,0.012,0.003,0.184
1495975706998,-0.036,-0.024,-0.006,-0.357
1495975707016,0.021,0.014,0.004,0.199
1495975707031,0.009,0.006,0.002,0.089
1495975707047,-0.049,-0.033,-0.009,-0.484
1495975707062,-0.029,-0.019,-0.005,-0.274
1495975707079,-0.017,-0.011,-0.003,-0.164
1495975707095,0.007,0.005,0.001,0.072
1495975707112,-0.012,-0.008,-0.002,-0.118
1495975707130,0.053,0.034,0.009,0.519
1495975707147,0.034,0.022,0.006,0.351
1495975707167,-0.007,-0.004,-0.001,-0.069
1495975707185,0.012,0.008,0.002,0.120
1495975707202,0.009,0.006,0.002,0.088
1495975707220,0.018,0.012,0.003,0.180
1495975707235,0.008,0.005,0.001,0.076
1495975707253,-0.008,-0.006,-0.002,-0.084
1495975707272,0.015,0.010,0.003,0.151
1495975707289,0.027,0.018,0.005,0.268
1495975707307,0.038,0.026,0.007,0.382
1495975707325,-0.013,-0.009,-0.002,-0.136
1495975707326,0.008,0.005,0.001,0.077
1495975707343,-0.016,-0.011,-0.003,-0.157
1495975707360,0.025,0.017,0.004,0.240
1495975707377,-0.004,-0.003,-0.001,-0.043
1495975707395,-0.030,-0.021,-0.005,-0.296
1495975707412,-0.026,-0.018,-0.005,-0.246
1495975707428,0.002,0.001,0.000,0.017
1495975707446,-0.009,-0.007,-0.002,-0.093
1495975707461,-0.001,-0.001,-0.000,-0.014
1495975707479,0.003,0.002,0.000,0.025
1495975707496,0.004,0.003,0.001,0.044
1495975707514,-0.001,-0.000,-0.000,-0.007
1495975707532,-0.003,-0.002,-0.000,-0.026
1495975707549,-0.006,-0.004,-0.001,-0.062
1495975707567,-0.002,-0.001,-0.000,-0.021
1495975707582,0.004,0.003,0.001,0.044
1495975707598,0.001,0.001,0.000,0.008
1495975707616,-0.003,-0.002,-0.001,-0.033
1495975707633,0.001,0.000,0.000,0.005
1495975707649,-0.003,-0.002,-0.001,-0.033
1495975707664,0.003,0.002,0.001,0.034
1495975707682,0.004,0.003,0.001,0.039
1495975707700,0.004,0.003,0.001,0.042
1495975707715,-0.002,-0.001,-0.000,-0.016
1495975707731,-0.002,-0.002,-0.000,-0.023
1495975707746,0.000,0.000,0.000,0.003
1495975707764,-0.002,-0.001,-0.000,-0.021
1495975707782,-0.002,-0.001,-0.000,-0.016
1495975707799,0.002,0.001,0.000,0.017
1495975707817,-0.001,-0.001,-0.000,-0.009
1495975707832,0.003,0.002,0.000,0.027
1495975707848,0.001,0.000,0.000,0.005
1495975707865,0.001,0.001,0.000,0.008
1495975707880,-0.002,-0.001,-0.000,-0.019
1495975707898,-0.008,-0.005,-0.001,-0.074
1495975707915,0.006,0.004,0.001,0.056
1495975707933,0.002,0.002,0.000,0.022
1495975707949,-0.001,-0.000,-0.000,-0.007
1495975707964,-0.001,-0.000,-0.000,-0.007
1495975707980,0.000,0.000,0.000,0.001
1495975707995,0.001,0.001,0.000,0.013
1495975708013,-0.000,-0.000,-0.000,-0.004
1495975708031,-0.006,-0.004,-0.001,-0.059
1495975708048,-0.004,-0.003,-0.001,-0.042
1495975708066,-0.005,-0.003,-0.001,-0.047
1495975708083,0.002,0.001,0.000,0.020
1495975708099,0.003,0.002,0.001,0.034
1495975708117,0.003,0.002,0.001,0.034
1495975708132,0.001,0.001,0.000,0.010
1495975708150,-0.003,-0.002,-0.001,-0.033
1495975708165,-0.000,-0.000,-0.000,-0.002
1495975708181,0.002,0.001,0.000,0.020
1495975708198,0.004,0.003,0.001,0.037
1495975708213,0.002,0.001,0.000,0.017
1495975708231,-0.001,-0.000,-0.000,-0.007
1495975708248,-0.006,-0.004,-0.001,-0.062
1495975708266,-0.004,-0.003,-0.001,-0.042
1495975708284,0.005,0.003,0.001,0.046
1495975708299,0.002,0.001,0.000,0.015
1495975708315,0.003,0.002,0.000,0.025
1495975708332,-0.001,-0.001,-0.000,-0.014
1495975708350,0.001,0.000,0.000,0.005
1495975708366,-0.000,-0.000,-0.000,-0.004
1495975708381,0.002,0.001,0.000,0.015
1495975708398,0.004,0.003,0.001,0.037
1495975708413,0.001,0.001,0.000,0.010
1495975708431,-0.006,-0.004,-0.001,-0.057
1495975708449,-0.003,-0.002,-0.001,-0.033
1495975708466,0.001,0.001,0.000,0.008
1495975708484,0.000,0.000,0.000,0.001
1495975708499,0.005,0.004,0.001,0.051
1495975708515,-0.002,-0.001,-0.000,-0.021
1495975708532,-0.004,-0.003,-0.001,-0.040
1495975708547,0.003,0.002,0.000,0.027
1495975708565,0.002,0.002,0.000,0.022
1495975708582,0.004,0.003,0.001,0.039
1495975708600,0.004,0.003,0.001,0.042
1495975708616,0.003,0.002,0.001,0.032
1495975708631,-0.001,-0.001,-0.000,-0.014
1495975708648,0.001,0.001,0.000,0.013
1495975708663,-0.001,-0.001,-0.000,-0.014
1495975708680,-0.001,-0.001,-0.000,-0.014
1495975708697,0.001,0.001,0.000,0.010
1495975708715,-0.002,-0.001,-0.000,-0.019
1495975708732,-0.002,-0.001,-0.000,-0.016
1495975708747,-0.002,-0.001,-0.000,-0.016
1495975708765,0.000,0.000,0.000,0.003
1495975708814,-0.003,-0.002,-0.000,-0.026
1495975708829,-0.001,-0.001,-0.000,-0.009
1495975708857,0.004,0.003,0.001,0.037
1495975708875,0.002,0.001,0.000,0.020
1495975708892,0.006,0.004,0.001,0.061
1495975708910,-0.004,-0.003,-0.001,-0.038
1495975708927,0.000,0.000,0.000,0.001
1495975708945,0.001,0.001,0.000,0.010
1495975708963,-0.004,-0.003,-0.001,-0.040
1495975708980,-0.002,-0.001,-0.000,-0.019
1495975708996,-0.001,-0.000,-0.000,-0.007
1495975709011,-0.005,-0.003,-0.001,-0.045
1495975709028,-0.004,-0.002,-0.001,-0.035
1495975709044,0.001,0.000,0.000,0.005
1495975709061,0.003,0.002,0.000,0.025
1495975709079,0.002,0.001,0.000,0.015
1495975709096,-0.001,-0.000,-0.000,-0.007
1495975709114,-0.001,-0.001,-0.000,-0.009
1495975709130,0.003,0.002,0.000,0.027
1495975709145,0.006,0.004,0.001,0.061
1495975709162,0.000,0.000,0.000,0.003
1495975709177,0.000,0.000,0.000,0.003
1495975709195,-0.003,-0.002,-0.001,-0.028
1495975709213,0.001,0.000,0.000,0.005
1495975709230,0.001,0.001,0.000,0.010
1495975709246,-0.004,-0.002,-0.001,-0.035
1495975709261,0.000,0.000,0.000,0.003
1495975709280,-0.001,-0.001,-0.000,-0.011
1495975709298,-0.002,-0.001,-0.000,-0.016
1495975709315,0.002,0.001,0.000,0.020
1495975709333,0.001,0.000,0.000,0.005
1495975709350,0.000,0.000,0.000,0.001
1495975709368,-0.001,-0.001,-0.000,-0.014
1495975709386,-0.003,-0.002,-0.001,-0.031
1495975709403,-0.000,-0.000,-0.000,-0.004
1495975709422,-0.001,-0.001,-0.000,-0.011
1495975709424,0.003,0.002,0.001,0.034
1495975709440,0.003,0.002,0.000,0.025
1495975709458,0.002,0.002,0.000,0.022
1495975709476,-0.006,-0.004,-0.001,-0.055
1495975709493,-0.001,-0.001,-0.000,-0.014
1495975709509,-0.001,-0.001,-0.000,-0.014
1495975709526,-0.000,-0.000,-0.000,-0.002
1495975709544,0.000,0.000,0.000,0.001
1495975709562,-0.007,-0.005,-0.001,-0.067
1495975709579,0.001,0.001,0.000,0.008
1495975709597,-0.007,-0.004,-0.001,-0.064
1495975709614,-0.002,-0.002,-0.000,-0.023
1495975709630,0.006,0.004,0.001,0.058
1495975709646,-0.001,-0.001,-0.000,-0.009
1495975709663,-0.001,-0.001,-0.000,-0.011
1495975709681,-0.002,-0.001,-0.000,-0.021
1495975709696,-0.001,-0.001,-0.000,-0.011
1495975709712,-0.002,-0.002,-0.000,-0.023
1495975709729,-0.001,-0.001,-0.000,-0.011
1495975709744,-0.001,-0.001,-0.000,-0.009
1495975709762,0.001,0.000,0.000,0.005
1495975709779,-0.005,-0.003,-0.001,-0.045
1495975709797,-0.002,-0.001,-0.000,-0.019
1495975709813,0.002,0.001,0.000,0.020
1495975709829,-0.000,-0.000,-0.000,-0.004
1495975709847,-0.003,-0.002,-0.001,-0.031
1495975709862,-0.002,-0.002,-0.000,-0.023
1495975709878,-0.004,-0.002,-0.001,-0.035
1495975709894,-0.003,-0.002,-0.000,-0.026
1495975709911,0.002,0.001,0.000,0.017
1495975709929,0.001,0.001,0.000,0.010
1495975709946,-0.001,-0.001,-0.000,-0.009
1495975709964,0.002,0.001,0.000,0.020
1495975709980,-0.002,-0.001,-0.000,-0.016
