1495974245242,0.006,0.000,0.000,0.000
1495974245258,-0.001,-0.004,-0.000,-0.000
1495974245276,-0.000,0.002,-0.000,0.000
1495974245293,-0.003,0.001,-0.000,0.000
1495974245311,0.001,0.000,0.000,0.000
1495974245328,-0.001,0.001,-0.000,0.000
1495974245346,0.000,-0.002,0.000,-0.000
1495974245364,0.000,-0.002,0.000,-0.000
1495974245382,-0.003,0.002,-0.000,0.000
1495974245400,-0.002,0.005,-0.000,0.001
1495974245415,0.001,0.002,0.000,0.000
1495974245433,0.002,0.002,0.000,0.000
1495974245449,0.000,-0.005,0.000,-0.001
1495974245464,0.001,0.000,0.000,0.000
1495974245481,-0.002,-0.000,-0.000,-0.000
1495974245498,-0.001,0.003,-0.000,0.000
1495974245514,-0.001,0.004,-0.000,0.000
1495974245530,-0.000,-0.003,-0.000,-0.000
1495974245545,-0.000,0.002,-0.000,0.000
1495974245563,-0.003,0.004,-0.000,0.000
1495974245580,-0.002,-0.001,-0.000,-0.000
1495974245599,0.001,-0.001,0.000,-0.000
1495974245617,0.005,0.004,0.000,0.000
1495974245632,0.004,-0.002,0.000,-0.000
1495974245650,-0.004,-0.002,-0.000,-0.000
1495974245665,-0.002,0.000,-0.000,0.000
1495974245681,-0.001,0.000,-0.000,0.000
1495974245698,0.003,-0.004,0.000,-0.000
1495974245713,0.002,0.003,0.000,0.000
1495974245731,-0.003,0.004,-0.000,0.000
1495974245748,-0.002,0.001,-0.000,0.000
1495974245766,-0.004,0.000,-0.000,0.000
1495974245782,-0.002,-0.002,-0.000,-0.000
1495974245797,-0.002,0.005,-0.000,0.000
1495974245815,0.007,0.001,0.000,0.000
1495974245832,-0.003,0.003,-0.000,0.000
1495974245848,-0.002,-0.000,-0.000,-0.000
1495974245864,0.003,0.002,0.000,0.000
1495974245880,0.001,0.004,0.000,0.000
1495974245896,0.001,0.001,0.000,0.000
1495974245913,-0.002,-0.001,-0.000,-0.000
1495974245931,-0.006,-0.000,-0.000,-0.000
1495974245949,-0.005,-0.001,-0.000,-0.000
1495974245966,-0.004,0.001,-0.000,0.000
1495974245982,0.002,-0.001,0.000,-0.000
1495974245997,0.003,0.000,0.000,0.000
1495974246014,-0.003,-0.001,-0.000,-0.000
1495974246030,-0.002,0.003,-0.000,0.000
1495974246047,-0.002,0.000,-0.000,0.000
1495974246065,-0.000,-0.001,-0.000,-0.000
1495974246082,0.004,0.000,0.000,0.000
1495974246100,-0.003,-0.001,-0.000,-0.000
1495974246116,-0.004,0.001,-0.000,0.000
1495974246131,-0.003,0.002,-0.000,0.000
1495974246148,0.004,0.002,0.000,0.000
1495974246163,0.000,-0.001,0.000,-0.000
1495974246181,0.002,-0.005,0.000,-0.000
1495974246199,-0.002,-0.002,-0.000,-0.000
1495974246216,-0.005,-0.001,-0.000,-0.000
1495974246232,-0.005,-0.001,-0.000,-0.000
1495974246247,0.000,-0.004,0.000,-0.000
1495974246264,0.003,-0.000,0.000,-0.000
1495974246281,0.001,-0.001,0.000,-0.000
1495974246297,-0.002,0.002,-0.000,0.000
1495974246313,-0.002,0.000,-0.000,0.000
1495974246328,0.003,-0.002,0.000,-0.000
1495974246346,0.001,-0.000,0.000,-0.000
1495974246364,-0.002,0.000,-0.000,0.000
1495974246379,-0.002,0.001,-0.000,0.000
1495974246397,-0.001,0.001,-0.000,0.000
1495974246412,-0.001,0.000,-0.000,0.000
1495974246430,0.002,-0.001,0.000,-0.000
1495974246448,0.002,-0.002,0.000,-0.000
1495974246465,0.003,0.000,0.000,0.000
1495974246483,-0.004,-0.002,-0.001,-0.000
1495974246498,-0.004,0.003,-0.001,0.000
1495974246514,0.000,0.001,0.000,0.000
1495974246531,0.006,0.000,0.001,0.000
1495974246546,0.001,-0.001,0.000,-0.000
1495974246564,-0.002,0.003,-0.000,0.000
1495974246581,-0.007,-0.003,-0.001,-0.000
1495974246599,-0.003,0.005,-0.000,0.000
1495974246617,0.001,0.005,0.000,0.001
1495974246632,0.005,0.003,0.001,0.000
1495974246648,-0.000,0.005,-0.000,0.001
1495974246664,-0.004,0.001,-0.000,0.000
1495974246680,-0.002,-0.005,-0.000,-0.000
1495974246698,0.002,0.002,0.000,0.000
1495974246715,0.003,0.002,0.000,0.000
1495974246733,-0.000,0.003,-0.000,0.000
1495974246749,-0.003,0.001,-0.000,0.000
1495974246764,-0.006,0.001,0.000,0.000
1495974246812,-0.003,-0.001,0.000,0.000
1495974246828,0.005,0.008,-0.000,-0.000
1495974246860,0.001,0.001,0.000,0.000
1495974246875,0.002,0.003,-0.000,0.000
1495974246891,0.002,0.000,0.000,0.000
1495974246909,0.002,-0.003,0.000,-0.000
1495974246926,0.001,0.003,0.000,0.000
1495974246944,0.006,0.003,0.000,0.000
1495974246961,0.001,-0.001,0.000,-0.000
1495974246979,-0.000,0.003,-0.000,0.000
1495974246997,-0.007,0.002,-0.001,0.000
1495974246999,-0.003,0.004,-0.000,0.001
1495974247014,0.003,0.000,0.000,0.000
1495974247032,0.001,0.000,0.000,0.000
1495974247049,0.005,0.002,0.001,0.000
1495974247067,0.001,0.001,0.000,0.000
1495974247085,-0.004,-0.000,-0.001,-0.000
1495974247100,0.002,0.001,0.000,0.000
1495974247118,0.001,0.002,0.000,0.000
1495974247135,0.003,0.006,0.001,0.001
1495974247153,-0.003,-0.003,-0.001,-0.001
1495974247171,-0.002,0.001,-0.000,0.000
1495974247188,-0.001,0.004,-0.000,0.001
1495974247204,0.002,-0.001,0.000,-0.000
1495974247219,0.001,-0.001,0.000,-0.000
1495974247236,0.005,-0.005,0.002,-0.001
1495974247252,0.006,-0.004,0.002,-0.001
1495974247269,-0.000,-0.001,-0.000,-0.000
1495974247287,-0.007,0.002,-0.002,0.001
1495974247302,-0.001,0.003,-0.000,0.001
1495974247319,0.000,0.004,0.000,0.001
1495974247335,0.002,-0.001,0.001,-0.000
1495974247352,0.002,-0.000,0.000,-0.000
1495974247370,0.000,-0.002,0.000,-0.001
1495974247387,-0.003,-0.007,-0.001,-0.002
1495974247405,-0.011,-0.005,-0.003,-0.001
1495974247421,0.008,-0.004,0.002,-0.001
1495974247436,-0.001,0.005,-0.000,0.001
1495974247453,-0.001,0.000,-0.000,0.000
1495974247468,-0.003,0.004,-0.000,0.000
1495974247486,-0.001,0.004,-0.000,0.000
1495974247504,0.004,-0.002,0.000,-0.000
1495974247521,0.008,-0.003,0.000,-0.000
1495974247537,-0.001,-0.004,-0.000,-0.000
1495974247552,0.000,0.000,0.000,0.000
1495974247569,-0.065,-0.271,-0.004,-0.014
1495974247585,-0.070,-0.351,-0.007,-0.054
1495974247602,0.143,0.309,0.113,0.097
1495974247620,0.088,0.260,0.004,0.093
1495974247635,0.002,0.039,0.001,0.044
1495974247653,-0.007,-0.176,-0.003,-0.390
1495974247671,-0.011,-0.114,-0.005,-0.021
1495974247688,-0.039,-0.302,-0.019,-0.141
1495974247704,0.013,-0.137,0.023,-0.188
1495974247719,0.047,-0.115,0.051,-0.378
1495974247736,0.072,-0.050,0.101,-0.137
1495974247752,0.072,0.054,0.058,0.218
1495974247769,0.014,0.089,0.015,0.075
1495974247787,0.021,-0.030,0.026,-0.035
1495974247802,-0.065,-0.033,-0.071,-0.037
1495974247819,0.011,-0.149,0.012,-0.164
1495974247835,0.046,-0.040,0.049,-0.052
1495974247852,-0.034,-0.071,-0.036,-0.086
1495974247870,0.012,-0.031,0.014,-0.039
1495974247887,0.017,0.076,0.020,0.095
1495974247905,0.039,0.070,0.048,0.081
1495974247921,0.023,-0.055,0.028,-0.064
1495974247936,-0.019,-0.078,-0.022,-0.093
1495974247953,0.017,-0.026,0.020,-0.032
1495974247968,0.044,0.094,0.050,0.114
1495974247986,0.017,-0.013,0.020,-0.014
1495974248004,-0.002,-0.082,-0.003,-0.096
1495974248021,-0.018,-0.077,-0.020,-0.093
1495974248037,-0.052,-0.114,-0.059,-0.142
1495974248052,-0.013,-0.050,-0.016,-0.066
1495974248068,0.047,0.093,0.058,0.120
1495974248084,0.036,0.123,0.044,0.147
1495974248101,-0.001,0.036,-0.001,0.042
1495974248119,-0.005,-0.008,-0.007,-0.009
1495974248136,-0.025,-0.055,-0.029,-0.063
1495974248154,-0.017,-0.015,-0.019,-0.018
1495974248172,-0.024,-0.038,-0.028,-0.045
1495974248189,-0.036,0.068,-0.043,0.082
1495974248205,0.056,0.115,0.068,0.130
1495974248220,-0.005,0.019,-0.006,0.022
1495974248236,-0.034,-0.077,-0.040,-0.087
1495974248254,0.028,-0.046,0.031,-0.055
1495974248271,0.046,0.008,0.050,0.010
1495974248289,-0.007,0.006,-0.008,0.007
1495974248306,-0.031,-0.017,-0.036,-0.019
1495974248322,-0.015,-0.026,-0.018,-0.031
1495974248338,0.014,-0.077,0.017,-0.091
1495974248354,0.050,-0.005,0.057,-0.007
1495974248370,0.018,0.063,0.020,0.075
1495974248387,0.033,-0.009,0.039,-0.010
1495974248405,0.013,0.005,0.015,0.006
1495974248423,-0.044,-0.010,-0.051,-0.012
1495974248438,-0.044,-0.078,-0.052,-0.089
1495974248454,-0.001,-0.004,-0.001,-0.004
1495974248471,0.032,0.083,0.038,0.099
1495974248489,0.035,0.104,0.042,0.119
1495974248507,-0.032,0.044,-0.038,0.049
1495974248522,-0.063,0.045,-0.074,0.049
1495974248538,-0.027,0.192,-0.031,0.202
1495974248554,0.005,0.077,0.006,0.074
1495974248570,0.026,0.061,0.028,0.062
1495974248588,-0.018,0.064,-0.018,0.060
1495974248605,-0.025,0.075,-0.024,0.063
1495974248623,-0.027,0.115,-0.024,0.092
1495974248638,0.011,0.084,0.010,0.062
1495974248654,0.010,0.053,0.008,0.038
1495974248671,-0.001,-0.008,-0.001,-0.005
1495974248686,0.001,-0.018,0.001,-0.010
1495974248705,0.004,-0.010,0.002,-0.005
1495974248722,0.013,-0.005,0.007,-0.003
1495974248754,0.006,0.001,0.003,0.001
1495974248769,-0.004,0.011,-0.002,0.006
1495974248802,0.000,0.025,0.000,0.013
1495974248818,0.008,0.027,0.004,0.013
1495974248842,0.006,0.022,0.003,0.011
1495974248859,0.001,0.028,0.001,0.012
1495974248877,-0.003,0.022,-0.001,0.009
1495974248894,-0.002,0.013,-0.001,0.005
1495974248912,0.003,0.014,0.001,0.004
1495974248930,0.004,0.015,0.001,0.005
1495974248947,0.004,0.021,0.001,0.006
1495974248965,0.003,0.023,0.001,0.006
1495974248980,-0.005,0.028,-0.001,0.005
1495974248996,-0.004,0.032,-0.001,0.004
1495974249014,0.005,0.029,0.001,0.003
1495974249031,0.003,0.025,0.000,0.001
1495974249049,0.008,0.024,-0.001,-0.002
1495974249064,0.001,0.026,-0.000,-0.007
1495974249080,-0.003,0.029,0.002,-0.010
1495974249097,-0.000,0.020,0.000,0.000
1495974249112,0.008,0.016,0.003,0.009
1495974249129,0.008,0.024,0.004,0.015
1495974249144,0.001,0.025,0.000,0.021
1495974249162,-0.005,0.029,-0.003,0.025
1495974249180,-0.003,0.028,-0.002,0.025
1495974249197,-0.005,0.035,-0.004,0.030
1495974249215,-0.001,0.014,-0.000,0.012
1495974249230,0.003,0.027,0.003,0.023
1495974249246,0.002,0.022,0.001,0.021
1495974249262,0.004,0.019,0.003,0.018
1495974249277,0.002,0.018,0.002,0.018
1495974249295,0.005,0.015,0.005,0.015
1495974249312,0.003,0.021,0.003,0.021
1495974249330,-0.001,0.023,-0.001,0.024
1495974249348,-0.004,0.025,-0.004,0.027
1495974249365,-0.003,0.024,-0.003,0.026
1495974249381,0.004,0.029,0.005,0.031
1495974249396,0.005,0.028,0.005,0.032
1495974249413,0.007,0.021,0.008,0.025
1495974249429,-0.000,0.025,-0.000,0.029
1495974249446,0.003,0.027,0.003,0.032
1495974249464,0.004,0.021,0.005,0.026
1495974249481,0.002,0.020,0.003,0.024
1495974249497,0.009,0.020,0.011,0.024
1495974249513,0.005,0.022,0.007,0.028
1495974249530,-0.004,0.024,-0.005,0.031
1495974249548,-0.008,0.024,-0.010,0.031
1495974249565,0.007,0.025,0.008,0.033
1495974249581,0.008,0.024,0.010,0.032
1495974249597,0.011,0.025,0.014,0.034
1495974249613,0.000,0.021,0.001,0.029
1495974249629,0.002,0.027,0.003,0.038
1495974249646,-0.005,0.024,-0.006,0.034
1495974249664,0.006,0.026,0.009,0.036
1495974249682,0.006,0.027,0.008,0.038
1495974249697,-0.001,0.025,-0.001,0.036
1495974249713,-0.001,0.026,-0.001,0.038
1495974249745,0.001,0.027,0.001,0.040
1495974249763,0.001,0.025,0.001,0.036
1495974249780,0.003,0.024,0.004,0.036
1495974249798,0.006,0.018,0.009,0.027
1495974249815,-0.002,0.019,-0.003,0.029
1495974249831,-0.007,0.024,-0.011,0.036
1495974249847,0.001,0.016,0.002,0.024
1495974249863,0.005,0.025,0.007,0.038
1495974249879,0.005,0.026,0.008,0.040
1495974249896,0.003,0.022,0.005,0.034
1495974249914,0.004,0.026,0.006,0.041
1495974249932,0.000,0.019,0.001,0.029
1495974249947,-0.001,0.024,-0.001,0.038
1495974249963,-0.002,0.021,-0.002,0.034
1495974249980,0.004,0.015,0.006,0.025
1495974249998,0.004,0.019,0.007,0.031
1495974250016,0.003,0.021,0.005,0.033
1495974250031,0.001,0.020,0.001,0.032
1495974250047,0.001,0.022,0.002,0.036
1495974250063,0.005,0.022,0.009,0.037
1495974250079,0.005,0.025,0.007,0.041
1495974250097,0.001,0.019,0.002,0.032
1495974250114,0.000,0.030,0.000,0.049
1495974250132,-0.001,0.025,-0.001,0.043
1495974250147,-0.002,0.025,-0.003,0.042
1495974250163,0.001,0.028,0.001,0.047
1495974250195,0.008,0.018,0.014,0.031
1495974250213,-0.001,0.022,-0.001,0.039
1495974250230,0.000,0.025,0.000,0.044
1495974250248,0.001,0.020,0.002,0.034
1495974250266,0.004,0.020,0.007,0.034
1495974250281,0.007,0.024,0.012,0.042
1495974250297,0.002,0.020,0.004,0.035
1495974250313,0.004,0.030,0.008,0.052
1495974250329,0.003,0.025,0.006,0.044
1495974250347,0.003,0.023,0.006,0.041
1495974250364,0.004,0.029,0.007,0.052
1495974250382,0.008,0.029,0.014,0.051
1495974250397,0.045,0.225,0.080,0.408
1495974250413,0.017,0.113,0.031,0.222
1495974250430,-0.007,0.132,-0.013,0.255
1495974250445,-0.019,0.133,-0.036,0.263
1495974250463,-0.038,0.027,-0.072,0.053
1495974250480,-0.007,-0.019,-0.013,-0.038
1495974250498,0.013,0.115,0.025,0.223
1495974250516,0.006,0.222,0.011,0.446
1495974250531,-0.040,0.171,-0.078,0.358
1495974250547,-0.057,0.037,-0.111,0.078
1495974250564,-0.033,0.058,-0.065,0.119
1495974250582,0.053,0.006,0.108,0.013
1495974250598,0.025,0.045,0.051,0.092
1495974250613,0.031,0.028,0.064,0.058
1495974250645,0.049,0.119,0.102,0.247
1495974250663,-0.003,0.070,-0.007,0.150
1495974250681,0.019,0.013,0.041,0.028
1495974250698,0.012,-0.018,0.026,-0.038
1495974250716,-0.003,0.041,-0.005,0.086
1495974250733,-0.008,0.030,-0.018,0.065
1495974250751,-0.005,0.033,-0.010,0.071
1495974250800,0.018,0.088,0.039,0.188
1495974250815,-0.044,0.066,-0.094,0.144
1495974250833,0.008,0.093,0.017,0.203
1495974250851,0.011,0.015,0.025,0.033
1495974250868,0.032,-0.007,0.069,-0.015
1495974250886,0.010,0.024,0.022,0.053
1495974250904,-0.020,0.025,-0.043,0.054
1495974250922,0.007,0.052,0.016,0.113
1495974250938,-0.057,0.046,-0.125,0.102
1495974250955,-0.037,0.017,-0.080,0.037
1495974250973,0.015,0.014,0.033,0.031
1495974250990,0.018,0.036,0.041,0.080
1495974251006,0.019,-0.047,0.041,-0.104
1495974251022,0.029,-0.005,0.064,-0.012
1495974251038,0.045,0.081,0.099,0.178
1495974251054,-0.011,0.047,-0.025,0.106
1495974251071,-0.004,0.025,-0.009,0.056
1495974251089,0.005,0.025,0.011,0.055
1495974251107,-0.002,0.019,-0.005,0.043
1495974251124,-0.013,0.024,-0.030,0.054
1495974251140,0.014,0.002,0.031,0.004
1495974251155,0.030,0.022,0.067,0.050
1495974251172,0.035,0.127,0.079,0.287
1495974251188,-0.012,-0.010,-0.027,-0.024
1495974251205,0.065,-0.017,0.147,-0.038
1495974251223,0.066,0.114,0.151,0.257
1495974251240,0.024,0.025,0.054,0.057
1495974251256,-0.024,-0.008,-0.055,-0.019
1495974251272,-0.039,0.047,-0.090,0.108
1495974251288,-0.036,-0.037,-0.084,-0.086
1495974251304,0.035,-0.044,0.081,-0.101
1495974251321,0.055,0.010,0.127,0.024
1495974251339,-0.010,-0.034,-0.023,-0.079
1495974251357,-0.040,0.022,-0.091,0.051
1495974251374,-0.021,-0.005,-0.048,-0.012
1495974251390,-0.015,-0.011,-0.035,-0.026
1495974251405,0.005,-0.014,0.012,-0.031
1495974251422,-0.038,-0.039,-0.088,-0.089
1495974251438,-0.001,-0.117,-0.002,-0.267
1495974251455,0.027,-0.097,0.061,-0.216
1495974251473,0.034,-0.141,0.077,-0.315
1495974251490,0.015,-0.115,0.034,-0.254
1495974251506,0.021,0.008,0.048,0.018
1495974251522,-0.001,0.031,-0.002,0.069
1495974251538,0.002,0.026,0.005,0.059
1495974251554,0.005,0.027,0.012,0.061
1495974251571,0.002,0.029,0.004,0.066
1495974251589,-0.002,0.033,-0.004,0.075
1495974251607,-0.003,0.031,-0.007,0.070
1495974251624,-0.001,0.026,-0.003,0.059
1495974251640,0.004,0.026,0.009,0.059
1495974251672,0.004,0.027,0.010,0.061
1495974251689,0.003,0.025,0.007,0.056
1495974251706,0.000,0.025,0.001,0.057
1495974251724,0.002,0.024,0.005,0.055
1495974251739,0.002,0.024,0.004,0.054
1495974251755,0.004,0.028,0.008,0.064
1495974251772,0.006,0.022,0.014,0.051
1495974251787,-0.001,0.022,-0.003,0.050
1495974251805,-0.001,0.024,-0.002,0.054
1495974251822,0.000,0.038,0.001,0.087
1495974251840,0.004,0.031,0.008,0.072
1495974251858,0.003,0.022,0.008,0.052
1495974251873,0.001,0.015,0.002,0.034
1495974251889,-0.004,0.045,-0.010,0.105
1495974251905,-0.000,0.028,-0.000,0.065
1495974251921,0.004,0.026,0.009,0.059
1495974251939,0.007,0.029,0.016,0.066
1495974251956,0.005,0.025,0.011,0.059
1495974251974,-0.000,0.023,-0.000,0.055
1495974251989,-0.004,0.026,-0.010,0.062
1495974252005,-0.001,0.028,-0.002,0.065
1495974252022,0.008,0.025,0.018,0.059
1495974252037,0.007,0.026,0.016,0.061
1495974252055,0.002,0.029,0.004,0.067
1495974252072,-0.003,0.020,-0.006,0.047
1495974252090,-0.004,0.021,-0.010,0.050
1495974252108,-0.001,0.027,-0.002,0.063
1495974252139,0.002,0.024,0.004,0.057
1495974252155,0.001,0.024,0.002,0.057
1495974252171,0.001,0.031,0.002,0.074
1495974252189,-0.001,0.026,-0.002,0.061
1495974252206,-0.003,0.026,-0.006,0.061
1495974252224,0.004,0.028,0.009,0.067
1495974252239,0.006,0.029,0.014,0.069
1495974252255,0.003,0.027,0.008,0.065
1495974252272,-0.002,0.025,-0.004,0.061
1495974252287,-0.001,0.021,-0.003,0.051
1495974252305,0.002,0.030,0.005,0.071
1495974252322,0.003,0.021,0.006,0.051
1495974252340,-0.001,0.021,-0.002,0.052
1495974252358,-0.002,0.021,-0.005,0.051
1495974252373,-0.000,0.027,-0.001,0.065
1495974252389,-0.001,0.024,-0.001,0.058
1495974252421,0.002,0.027,0.004,0.064
1495974252439,0.004,0.023,0.010,0.057
1495974252454,0.002,0.024,0.005,0.058
1495974252472,-0.002,0.028,-0.004,0.067
1495974252487,-0.002,0.028,-0.004,0.067
1495974252505,-0.000,0.028,-0.000,0.067
1495974252523,0.000,0.022,0.001,0.053
1495974252540,0.004,0.023,0.009,0.057
1495974252558,0.004,0.026,0.011,0.064
1495974252573,0.002,0.024,0.005,0.059
1495974252589,-0.001,0.024,-0.003,0.060
1495974252606,0.001,0.029,0.003,0.070
1495974252621,-0.001,0.029,-0.003,0.070
1495974252639,0.002,0.024,0.006,0.060
1495974252656,0.002,0.026,0.005,0.063
1495974252674,-0.003,0.025,-0.007,0.061
1495974252690,-0.000,0.024,-0.001,0.060
1495974252705,0.001,0.024,0.002,0.059
1495974252722,0.001,0.022,0.002,0.054
1495974252737,0.002,0.025,0.004,0.062
1495974252755,0.001,0.025,0.002,0.061
1495974252773,-0.001,0.026,-0.003,0.065
1495974252806,-0.001,0.029,-0.001,0.071
1495974252821,-0.000,0.023,-0.001,0.058
1495974252849,0.003,0.022,0.007,0.054
1495974252867,0.001,0.028,0.002,0.068
1495974252884,-0.006,0.025,-0.015,0.062
1495974252903,0.000,0.025,0.000,0.062
1495974252920,0.001,0.023,0.003,0.058
1495974252936,0.004,0.025,0.010,0.063
1495974252954,0.001,0.023,0.003,0.058
1495974252971,-0.001,0.024,-0.003,0.060
1495974252989,-0.004,0.025,-0.010,0.062
1495974253004,-0.005,0.026,-0.014,0.065
1495974253020,0.005,0.029,0.011,0.073
1495974253038,0.006,0.021,0.016,0.053
1495974253055,0.001,0.025,0.002,0.064
1495974253071,-0.003,0.023,-0.007,0.057
1495974253086,-0.005,0.024,-0.013,0.061
1495974253102,-0.001,0.025,-0.003,0.063
1495974253120,0.001,0.026,0.002,0.066
1495974253137,-0.003,0.019,-0.008,0.049
1495974253155,-0.001,0.023,-0.003,0.058
1495974253172,-0.003,0.023,-0.008,0.057
1495974253190,-0.003,0.023,-0.009,0.059
1495974253208,-0.002,0.025,-0.004,0.064
1495974253225,0.003,0.023,0.008,0.057
1495974253243,0.004,0.024,0.010,0.060
1495974253260,-0.001,0.027,-0.003,0.067
1495974253278,-0.004,0.026,-0.011,0.067
1495974253296,-0.000,0.025,-0.001,0.065
1495974253313,-0.001,0.026,-0.002,0.066
1495974253331,0.004,0.031,0.009,0.078
1495974253364,-0.001,0.023,-0.003,0.058
1495974253366,-0.003,0.028,-0.006,0.071
1495974253382,-0.001,0.026,-0.002,0.065
1495974253399,0.003,0.025,0.009,0.064
1495974253417,0.002,0.024,0.005,0.061
1495974253434,0.001,0.027,0.003,0.069
1495974253452,0.003,0.022,0.009,0.056
1495974253470,-0.002,0.021,-0.005,0.054
1495974253487,-0.007,0.018,-0.018,0.045
1495974253505,0.002,0.021,0.005,0.054
1495974253520,0.000,0.021,0.000,0.055
1495974253536,-0.002,0.024,-0.004,0.061
1495974253552,-0.003,0.027,-0.008,0.069
1495974253569,-0.001,0.026,-0.002,0.067
1495974253587,-0.002,0.024,-0.004,0.062
1495974253604,0.004,0.022,0.009,0.057
1495974253622,-0.003,0.020,-0.008,0.051
1495974253638,-0.006,0.025,-0.016,0.066
1495974253670,-0.001,0.022,-0.002,0.058
1495974253688,-0.001,0.024,-0.003,0.063
