1495974842177,-0.004,-0.000,-0.000,-0.000
1495974842194,-0.006,0.001,-0.001,0.000
1495974842210,-0.000,0.002,-0.000,0.000
1495974842227,0.001,0.001,0.000,0.000
1495974842246,-0.004,0.003,-0.000,0.000
1495974842264,-0.002,-0.001,-0.000,-0.000
1495974842279,-0.003,0.000,-0.000,0.000
1495974842295,-0.006,-0.000,-0.001,-0.000
1495974842311,0.002,0.005,0.000,0.001
1495974842345,0.003,-0.003,0.000,-0.000
1495974842363,-0.003,-0.003,-0.000,-0.000
1495974842381,-0.004,0.001,-0.000,0.000
1495974842398,-0.005,-0.001,-0.001,-0.000
1495974842416,0.001,0.001,0.000,0.000
1495974842434,0.001,0.001,0.000,0.000
1495974842451,0.002,0.001,0.000,0.000
1495974842470,-0.001,-0.000,-0.000,-0.000
1495974842487,-0.005,-0.003,-0.001,-0.000
1495974842503,-0.002,0.001,-0.000,0.000
1495974842521,-0.002,-0.001,-0.000,-0.000
1495974842538,-0.000,-0.002,-0.000,-0.000
1495974842540,-0.004,-0.004,-0.000,-0.001
1495974842557,-0.005,-0.002,-0.001,-0.000
1495974842574,-0.006,-0.002,-0.001,-0.000
1495974842593,-0.004,-0.001,-0.001,-0.000
1495974842611,-0.001,0.002,-0.000,0.000
1495974842644,-0.000,0.001,-0.000,0.000
1495974842661,-0.006,0.005,-0.001,0.001
1495974842679,-0.007,-0.000,-0.001,-0.000
1495974842697,0.002,0.000,0.000,0.000
1495974842712,0.002,0.000,0.000,0.000
1495974842728,-0.001,-0.001,-0.000,-0.000
1495974842745,-0.001,-0.001,-0.000,-0.000
1495974842763,-0.005,0.004,-0.001,0.001
1495974842781,-0.008,-0.001,-0.001,-0.000
1495974842796,0.002,0.000,0.000,0.000
1495974842812,0.002,-0.003,0.000,-0.001
1495974842828,0.003,0.001,0.001,0.000
1495974842862,-0.003,-0.005,-0.001,-0.001
1495974842879,-0.003,0.002,-0.001,0.000
1495974842897,-0.003,-0.001,-0.001,-0.000
1495974842912,-0.000,-0.001,-0.000,-0.000
1495974842928,-0.003,-0.004,-0.001,-0.001
1495974842945,0.002,-0.001,0.000,-0.000
1495974842960,-0.001,0.001,-0.000,0.000
1495974842976,-0.001,-0.001,-0.000,-0.000
1495974842993,-0.002,-0.002,-0.000,-0.000
1495974843013,-0.001,0.001,-0.000,0.000
1495974843031,-0.000,0.001,-0.000,0.000
1495974843046,0.000,-0.003,0.000,-0.001
1495974843062,-0.002,-0.001,-0.000,-0.000
1495974843079,-0.005,-0.002,-0.001,-0.001
1495974843095,0.003,0.000,0.001,0.000
1495974843111,0.002,-0.002,0.000,-0.000
1495974843126,-0.005,-0.002,-0.001,-0.000
1495974843161,-0.006,-0.000,-0.001,-0.000
1495974843179,-0.003,0.003,-0.001,0.001
1495974843195,0.001,0.001,0.000,0.000
1495974843211,-0.001,0.001,-0.000,0.000
1495974843227,-0.001,-0.000,-0.000,-0.000
1495974843245,-0.005,0.000,-0.001,0.000
1495974843263,-0.006,-0.004,-0.002,-0.001
1495974843279,-0.002,-0.001,-0.000,-0.000
1495974843294,-0.002,0.002,-0.001,0.001
1495974843310,0.001,-0.000,0.000,-0.000
1495974843327,0.001,-0.003,0.000,-0.001
1495974843343,-0.001,-0.003,-0.000,-0.001
1495974843361,-0.004,0.000,-0.001,0.000
1495974843394,-0.005,0.002,-0.001,0.000
1495974843411,-0.001,0.003,-0.000,0.001
1495974843429,-0.003,-0.001,-0.001,-0.000
1495974843447,-0.002,-0.002,-0.001,-0.000
1495974843462,-0.001,-0.002,-0.000,-0.001
1495974843478,-0.002,0.004,-0.000,0.001
1495974843493,0.003,-0.005,0.001,-0.001
1495974843511,0.002,0.001,0.001,0.000
1495974843529,-0.001,-0.005,-0.000,-0.001
1495974843546,-0.002,0.001,-0.001,0.000
1495974843562,-0.003,0.002,-0.001,0.001
1495974843577,-0.001,0.003,-0.000,0.001
1495974843609,-0.001,0.003,-0.000,0.001
1495974843626,-0.007,-0.004,-0.002,-0.001
1495974843644,-0.010,-0.004,-0.003,-0.001
1495974843662,-0.005,-0.004,-0.002,-0.001
1495974843680,-0.003,-0.002,-0.001,-0.001
1495974843696,-0.004,0.002,-0.001,0.001
1495974843711,-0.006,-0.005,-0.002,-0.002
1495974843728,0.001,-0.001,0.000,-0.000
1495974843743,0.000,0.002,0.000,0.001
1495974843761,0.009,0.003,0.003,0.001
1495974843779,0.007,0.004,0.002,0.001
1495974843796,0.009,-0.000,0.003,-0.000
1495974843814,-0.004,-0.001,-0.001,-0.000
1495974843829,-0.007,-0.002,-0.002,-0.001
1495974843862,-0.009,-0.003,-0.003,-0.001
1495974843877,-0.000,0.000,-0.000,0.000
1495974843895,-0.002,-0.001,-0.000,-0.000
1495974843912,-0.001,-0.001,-0.000,-0.000
1495974843930,-0.005,0.004,-0.002,0.001
1495974843946,-0.003,0.000,-0.001,0.000
1495974843961,0.002,-0.003,0.001,-0.001
1495974843979,0.008,-0.005,0.003,-0.002
1495974843996,0.006,0.000,0.002,0.000
1495974844014,0.005,0.001,0.002,0.000
1495974844030,0.001,-0.002,0.000,-0.001
1495974844045,-0.005,-0.001,-0.001,-0.000
1495974844062,-0.008,0.002,-0.003,0.000
1495974844077,-0.005,0.003,-0.001,0.001
1495974844093,-0.003,-0.001,-0.001,-0.000
1495974844111,-0.003,-0.002,-0.001,-0.001
1495974844128,0.003,-0.001,0.001,-0.000
1495974844163,-0.001,0.001,-0.000,0.000
1495974844181,0.000,0.002,0.000,0.001
1495974844197,0.004,-0.003,0.001,-0.001
1495974844214,0.002,-0.006,0.001,-0.002
1495974844232,0.006,-0.001,0.002,-0.000
1495974844247,0.003,-0.000,0.001,-0.000
1495974844265,-0.001,-0.002,-0.000,-0.001
1495974844283,-0.003,-0.003,-0.001,-0.001
1495974844300,0.000,0.003,0.000,0.001
1495974844318,-0.003,-0.003,-0.001,-0.001
1495974844335,-0.000,-0.001,-0.000,-0.000
1495974844353,-0.002,0.002,-0.001,0.001
1495974844369,0.002,-0.004,0.001,-0.001
1495974844386,0.001,-0.002,0.000,-0.001
1495974844404,0.003,0.003,0.001,0.001
1495974844421,0.004,0.001,0.001,0.000
1495974844441,0.000,-0.003,0.000,-0.001
1495974844459,0.001,0.001,0.000,0.000
1495974844476,0.001,0.004,0.000,0.001
1495974844495,0.003,0.002,0.001,0.001
1495974844512,0.001,-0.000,0.000,-0.000
1495974844534,-0.005,-0.003,-0.002,-0.001
1495974844552,-0.009,-0.001,-0.003,-0.000
1495974844569,-0.008,0.001,-0.003,0.000
1495974844588,0.000,0.000,0.000,0.000
1495974844605,-0.002,0.002,-0.001,0.001
1495974844621,0.000,-0.001,0.000,-0.000
1495974844639,-0.003,-0.002,-0.001,-0.001
1495974844657,0.001,0.005,0.000,0.002
1495974844675,0.005,0.002,0.002,0.001
1495974844692,0.007,0.001,0.002,0.000
1495974844710,0.005,0.001,0.002,0.000
1495974844728,-0.001,-0.003,-0.000,-0.001
1495974844745,-0.002,-0.003,-0.001,-0.001
1495974844764,-0.011,-0.000,-0.004,-0.000
1495974844812,-0.004,0.003,-0.001,0.001
1495974844827,-0.006,-0.001,-0.002,-0.000
1495974844855,-0.004,-0.002,-0.001,-0.001
1495974844872,0.000,-0.002,0.000,-0.001
1495974844890,0.001,-0.002,0.000,-0.001
1495974844908,0.007,0.003,0.003,0.001
1495974844925,0.006,0.001,0.002,0.000
1495974844943,0.003,0.004,0.001,0.001
1495974844960,0.002,-0.000,0.001,-0.000
1495974844978,-0.006,-0.004,-0.002,-0.001
1495974844994,-0.002,-0.003,-0.001,-0.001
1495974845009,-0.000,-0.001,-0.000,-0.000
1495974845026,-0.002,-0.000,-0.001,-0.000
1495974845041,-0.006,0.002,-0.002,0.001
1495974845059,-0.005,0.000,-0.002,0.000
1495974845077,-0.003,-0.001,-0.001,-0.000
1495974845094,0.005,0.002,0.002,0.001
1495974845110,0.003,-0.004,0.001,-0.001
1495974845125,0.006,-0.002,0.002,-0.001
1495974845141,-0.000,-0.003,-0.000,-0.001
1495974845159,-0.002,0.003,-0.001,0.001
1495974845176,0.001,-0.000,0.000,-0.000
1495974845194,0.002,-0.000,0.001,-0.000
1495974845211,0.000,-0.003,0.000,-0.001
1495974845227,-0.003,-0.002,-0.001,-0.001
1495974845243,-0.005,-0.001,-0.002,-0.000
1495974845258,-0.003,0.004,-0.001,0.001
1495974845276,0.004,-0.000,0.001,-0.000
1495974845293,0.005,0.003,0.002,0.001
1495974845311,0.005,0.001,0.002,0.000
1495974845329,-0.000,0.005,-0.000,0.002
1495974845344,-0.001,0.001,-0.000,0.000
1495974845360,0.000,0.004,0.000,0.001
1495974845376,0.002,-0.001,0.001,-0.000
1495974845392,0.002,-0.003,0.001,-0.001
1495974845410,-0.000,-0.002,-0.000,-0.001
1495974845427,-0.004,0.002,-0.001,0.001
1495974845445,-0.001,-0.003,-0.000,-0.001
1495974845460,0.004,0.002,0.001,0.001
1495974845476,0.002,0.004,0.001,0.001
1495974845494,0.003,-0.002,0.001,-0.001
1495974845511,0.000,-0.000,0.000,-0.000
1495974845529,-0.001,-0.000,-0.000,-0.000
1495974845544,0.000,-0.001,0.000,-0.000
1495974845560,0.003,-0.002,0.001,-0.001
1495974845577,0.004,-0.003,0.001,-0.001
1495974845592,0.003,0.001,0.001,0.000
1495974845610,-0.004,0.001,-0.001,0.000
1495974845627,-0.003,-0.001,-0.001,-0.000
1495974845643,-0.005,-0.001,-0.002,-0.000
1495974845660,0.001,0.004,0.000,0.001
1495974845693,-0.001,0.002,-0.000,0.001
1495974845710,-0.002,0.004,-0.001,0.001
1495974845728,-0.002,-0.004,-0.001,-0.001
1495974845744,0.001,-0.000,0.000,-0.000
1495974845759,0.001,0.001,0.000,0.000
1495974845777,0.008,-0.001,0.003,-0.000
1495974845794,0.002,-0.000,0.001,-0.000
1495974845812,0.002,0.001,0.001,0.000
1495974845828,-0.004,-0.001,-0.001,-0.000
1495974845843,-0.006,-0.002,-0.002,-0.001
1495974845860,-0.004,0.001,-0.001,0.000
1495974845875,-0.002,-0.004,-0.001,-0.001
1495974845893,0.000,0.001,0.000,0.000
1495974845909,-0.003,-0.000,-0.001,-0.000
1495974845926,0.002,0.003,0.001,0.001
1495974845944,0.003,0.000,0.001,0.000
1495974845979,0.004,-0.003,0.001,-0.001
1495974845995,0.005,0.001,0.002,0.000
1495974846010,-0.004,-0.000,-0.001,-0.000
1495974846027,0.000,0.003,0.000,0.001
1495974846042,0.001,0.004,0.000,0.001
1495974846060,-0.003,0.005,-0.001,0.002
1495974846078,-0.005,-0.003,-0.002,-0.001
1495974846095,-0.007,0.001,-0.002,0.000
1495974846111,-0.007,-0.004,-0.002,-0.001
1495974846126,-0.006,0.001,-0.002,0.000
1495974846143,0.001,0.000,0.000,0.000
1495974846159,0.005,0.002,0.002,0.001
1495974846176,0.006,0.000,0.002,0.000
1495974846194,0.003,-0.001,0.001,-0.000
1495974846211,-0.005,0.002,-0.002,0.001
1495974846227,-0.005,0.000,-0.002,0.000
1495974846243,0.004,0.001,0.001,0.000
1495974846258,-0.002,-0.001,-0.001,-0.000
1495974846276,-0.002,-0.004,-0.001,-0.001
1495974846311,-0.008,-0.002,-0.003,-0.001
1495974846329,-0.005,-0.004,-0.002,-0.001
1495974846344,0.000,0.003,0.000,0.001
1495974846360,0.004,-0.006,0.002,-0.002
1495974846376,0.004,0.002,0.001,0.001
1495974846392,-0.004,0.004,-0.001,0.001
1495974846410,-0.004,0.001,-0.002,0.000
1495974846427,-0.000,0.002,-0.000,0.001
1495974846445,0.003,-0.001,0.001,-0.000
1495974846460,0.002,0.000,0.001,0.000
1495974846476,-0.005,-0.003,-0.002,-0.001
1495974846509,-0.006,-0.001,-0.002,-0.000
1495974846527,-0.003,-0.001,-0.001,-0.000
1495974846544,-0.002,0.001,-0.001,0.000
1495974846562,-0.000,-0.002,-0.000,-0.001
1495974846578,-0.001,-0.004,-0.000,-0.001
1495974846593,-0.002,0.003,-0.001,0.001
1495974846610,-0.000,0.001,-0.000,0.000
1495974846625,0.001,-0.002,0.000,-0.001
1495974846643,0.003,0.002,0.001,0.001
1495974846659,0.004,-0.000,0.002,-0.000
1495974846676,-0.002,-0.000,-0.001,-0.000
1495974846694,-0.002,-0.000,-0.001,-0.000
1495974846711,-0.003,0.001,-0.001,0.000
1495974846727,0.001,0.001,0.000,0.000
1495974846743,0.001,0.002,0.000,0.001
1495974846758,0.003,0.003,0.001,0.001
1495974846807,-0.002,-0.001,-0.001,-0.000
1495974846823,-0.003,0.001,-0.001,0.000
1495974846848,-0.000,-0.001,-0.000,-0.000
1495974846866,0.005,-0.001,0.002,-0.000
1495974846883,0.005,0.001,0.002,0.000
1495974846901,-0.000,0.003,-0.000,0.001
1495974846919,0.000,0.001,0.000,0.000
1495974846934,-0.006,-0.003,-0.002,-0.001
1495974846952,-0.000,-0.002,-0.000,-0.001
1495974846969,-0.001,-0.000,-0.000,-0.000
1495974846987,0.001,-0.003,0.000,-0.001
1495974847005,-0.004,0.000,-0.001,0.000
1495974847020,-0.004,0.003,-0.001,0.001
1495974847036,-0.001,0.000,-0.000,0.000
1495974847052,0.001,-0.001,0.000,-0.000
1495974847068,-0.000,0.002,-0.000,0.001
1495974847086,0.001,0.002,0.000,0.001
1495974847104,-0.006,0.000,-0.002,0.000
1495974847122,-0.002,0.004,-0.001,0.001
1495974847137,-0.002,0.001,-0.001,0.000
1495974847155,0.003,0.001,0.001,0.000
1495974847171,-0.000,0.003,-0.000,0.001
1495974847186,-0.003,-0.000,-0.001,-0.000
1495974847203,-0.004,-0.005,-0.001,-0.002
1495974847218,-0.002,-0.001,-0.001,-0.000
1495974847236,-0.000,-0.001,-0.000,-0.000
1495974847254,0.002,-0.004,0.001,-0.001
1495974847271,-0.002,-0.002,-0.001,-0.001
1495974847287,-0.006,-0.001,-0.002,-0.001
1495974847302,-0.000,-0.001,-0.000,-0.000
1495974847319,-0.002,-0.001,-0.001,-0.001
1495974847335,0.003,0.001,0.001,0.000
1495974847352,0.003,0.001,0.001,0.000
1495974847371,-0.002,-0.000,-0.001,-0.000
1495974847388,-0.003,-0.001,-0.001,-0.000
1495974847404,-0.007,0.001,-0.003,0.000
1495974847420,0.005,0.002,0.002,0.001
1495974847436,0.002,0.002,0.001,0.001
1495974847452,0.001,0.002,0.000,0.001
1495974847469,-0.003,-0.002,-0.001,-0.001
1495974847487,-0.008,-0.001,-0.003,-0.000
1495974847505,0.002,0.005,0.001,0.002
1495974847536,0.001,0.002,0.000,0.001
1495974847553,-0.001,0.002,-0.000,0.001
1495974847569,-0.004,0.001,-0.002,0.000
1495974847586,-0.004,0.001,-0.002,0.000
1495974847601,-0.003,0.002,-0.001,0.001
1495974847619,-0.002,-0.005,-0.001,-0.002
1495974847637,-0.001,-0.003,-0.000,-0.001
1495974847655,-0.001,0.002,-0.000,0.001
1495974847671,0.001,-0.001,0.001,-0.000
1495974847686,-0.002,0.001,-0.001,0.000
1495974847704,0.002,0.004,0.001,0.001
1495974847721,0.003,0.000,0.001,0.000
1495974847737,0.002,0.002,0.001,0.001
1495974847753,-0.000,-0.000,-0.000,-0.000
1495974847785,-0.006,-0.002,-0.002,-0.001
1495974847802,-0.003,-0.001,-0.001,-0.000
1495974847820,-0.002,-0.002,-0.001,-0.001
1495974847838,0.005,0.001,0.002,0.000
1495974847855,-0.002,0.001,-0.001,0.000
1495974847871,0.001,0.002,0.000,0.001
1495974847886,-0.001,0.001,-0.000,0.000
1495974847903,-0.002,0.003,-0.001,0.001
1495974847919,0.004,0.003,0.001,0.001
1495974847936,-0.002,0.005,-0.001,0.002
1495974847954,-0.001,-0.002,-0.000,-0.001
1495974847971,-0.000,0.001,-0.000,0.000
1495974847987,-0.002,0.001,-0.001,0.000
1495974848003,0.006,0.007,0.002,0.003
1495974848020,-0.002,-0.000,-0.001,-0.000
1495974848038,-0.000,0.001,-0.000,0.001
1495974848053,-0.007,-0.002,-0.003,-0.001
1495974848085,-0.003,0.001,-0.001,0.000
1495974848102,-0.004,0.005,-0.002,0.002
1495974848120,0.001,-0.000,0.001,-0.000
1495974848137,0.006,-0.001,0.002,-0.001
1495974848155,-0.001,0.001,-0.000,0.000
1495974848171,-0.003,-0.002,-0.001,-0.001
1495974848186,-0.003,-0.001,-0.001,-0.000
1495974848203,-0.002,-0.000,-0.001,-0.000
1495974848218,0.005,0.004,0.002,0.001
1495974848236,-0.003,0.001,-0.001,0.000
1495974848254,-0.002,0.005,-0.001,0.002
1495974848271,-0.002,0.003,-0.001,0.001
1495974848287,-0.004,-0.003,-0.002,-0.001
1495974848319,0.005,-0.001,0.002,-0.000
1495974848335,0.003,-0.005,0.001,-0.002
1495974848351,-0.002,-0.004,-0.001,-0.001
1495974848367,-0.005,0.001,-0.002,0.000
1495974848384,0.002,0.001,0.001,0.000
1495974848402,0.002,0.002,0.001,0.001
1495974848420,0.004,0.006,0.002,0.002
1495974848437,-0.003,-0.001,-0.001,-0.001
1495974848455,-0.003,0.000,-0.001,0.000
1495974848470,-0.006,-0.002,-0.002,-0.001
1495974848486,-0.004,0.004,-0.001,0.001
1495974848503,0.003,-0.001,0.001,-0.000
1495974848518,0.003,-0.000,0.001,-0.000
1495974848536,-0.005,0.001,-0.002,0.000
1495974848553,-0.003,-0.003,-0.001,-0.001
1495974848589,-0.001,-0.001,-0.001,-0.000
1495974848604,0.001,0.002,0.000,0.001
1495974848620,0.003,0.004,0.001,0.002
1495974848636,0.002,-0.002,0.001,-0.001
1495974848652,-0.001,-0.001,-0.000,-0.000
1495974848670,-0.001,0.002,-0.000,0.001
1495974848687,-0.004,-0.005,-0.001,-0.002
1495974848705,-0.002,0.003,-0.001,0.001
1495974848720,0.002,0.004,0.001,0.001
1495974848736,0.005,-0.000,0.002,-0.000
1495974848753,-0.003,0.002,-0.001,0.001
1495974848800,-0.002,-0.000,-0.001,-0.000
1495974848816,-0.000,0.000,-0.000,0.000
1495974848839,0.003,0.005,0.001,0.002
1495974848856,-0.002,-0.001,-0.001,-0.000
1495974848874,-0.003,-0.001,-0.001,-0.000
1495974848891,0.003,0.001,0.001,0.000
1495974848909,-0.003,-0.000,-0.001,-0.000
1495974848927,0.005,0.001,0.002,0.001
1495974848944,0.003,0.000,0.001,0.000
1495974848962,0.001,0.003,0.000,0.001
1495974848977,0.001,-0.001,0.000,-0.001
1495974848993,-0.004,-0.001,-0.002,-0.000
1495974849010,0.001,-0.001,0.000,-0.000
1495974849025,0.004,0.000,0.001,0.000
1495974849043,-0.000,0.005,-0.000,0.002
1495974849060,-0.002,-0.003,-0.001,-0.001
1495974849078,-0.005,0.000,-0.002,0.000
1495974849096,-0.000,-0.002,-0.000,-0.001
1495974849111,0.004,0.003,0.002,0.001
1495974849127,-0.001,-0.002,-0.000,-0.001
1495974849143,0.001,-0.000,0.000,-0.000
1495974849159,-0.005,0.001,-0.002,0.000
1495974849177,-0.004,-0.002,-0.001,-0.001
1495974849195,0.001,0.003,0.000,0.001
1495974849213,0.004,-0.001,0.001,-0.000
1495974849228,0.003,-0.000,0.001,-0.000
1495974849246,-0.003,-0.003,-0.001,-0.001
1495974849264,-0.003,0.001,-0.001,0.000
1495974849281,0.004,-0.000,0.002,-0.000
1495974849300,0.004,0.002,0.001,0.001
1495974849317,-0.002,-0.001,-0.001,-0.000
1495974849335,0.001,-0.000,0.000,-0.000
1495974849353,-0.003,-0.004,-0.001,-0.001
1495974849370,-0.001,0.002,-0.001,0.001
1495974849372,-0.001,-0.000,-0.001,-0.000
1495974849389,0.003,0.000,0.001,0.000
1495974849406,-0.000,-0.002,-0.000,-0.001
1495974849424,-0.000,-0.003,-0.000,-0.001
1495974849459,-0.004,-0.002,-0.001,-0.001
1495974849477,-0.001,-0.001,-0.000,-0.000
1495974849494,0.003,-0.002,0.001,-0.001
1495974849512,0.003,-0.002,0.001,-0.001
1495974849528,0.001,-0.001,0.001,-0.000
1495974849543,-0.004,0.001,-0.002,0.000
1495974849560,0.001,0.001,0.000,0.000
1495974849575,0.001,-0.001,0.000,-0.000
1495974849593,0.001,0.002,0.000,0.001
1495974849611,-0.001,0.001,-0.000,0.000
1495974849628,-0.002,-0.002,-0.001,-0.001
1495974849644,-0.005,-0.001,-0.002,-0.000
1495974849659,0.002,0.001,0.001,0.000
1495974849675,-0.001,-0.001,-0.000,-0.000
1495974849693,0.004,0.003,0.001,0.001
1495974849710,-0.002,-0.000,-0.001,-0.000
1495974849728,0.001,0.002,0.000,0.001
1495974849745,-0.004,0.002,-0.001,0.001
1495974849761,0.003,-0.000,0.001,-0.000
1495974849777,0.002,-0.002,0.001,-0.001
1495974849793,0.002,-0.000,0.001,-0.000
1495974849826,-0.001,0.000,-0.001,0.000
1495974849844,-0.003,0.002,-0.001,0.001
1495974849862,-0.001,0.001,-0.000,0.000
1495974849879,-0.004,-0.001,-0.002,-0.000
1495974849897,0.002,-0.003,0.001,-0.001
1495974849914,0.000,0.002,0.000,0.001
1495974849932,-0.001,0.002,-0.000,0.001
1495974849950,-0.002,0.001,-0.001,0.000
1495974849967,0.005,-0.001,0.002,-0.001
1495974849985,-0.000,0.000,-0.000,0.000
1495974850003,0.000,-0.001,0.000,-0.000
1495974850022,-0.002,-0.002,-0.001,-0.001
1495974850040,-0.009,-0.000,-0.003,-0.000
1495974850057,-0.002,0.000,-0.001,0.000
1495974850075,0.002,0.001,0.001,0.000
1495974850092,0.000,0.000,0.000,0.000
1495974850111,-0.000,-0.002,-0.000,-0.001
1495974850129,-0.003,0.001,-0.001,0.000
1495974850144,-0.005,-0.001,-0.002,-0.000
1495974850160,0.000,0.001,0.000,0.000
1495974850176,0.002,-0.000,0.001,-0.000
1495974850192,0.000,-0.002,0.000,-0.001
1495974850210,-0.002,-0.001,-0.001,-0.000
1495974850228,-0.001,-0.001,-0.000,-0.001
1495974850245,-0.003,0.004,-0.001,0.001
1495974850260,-0.002,0.002,-0.001,0.001
1495974850293,0.002,0.001,0.001,0.000
1495974850310,0.001,-0.001,0.001,-0.001
1495974850329,-0.002,0.004,-0.001,0.002
1495974850346,-0.001,0.001,-0.000,0.000
1495974850364,0.000,0.003,0.000,0.001
1495974850382,0.002,0.000,0.001,0.000
1495974850399,0.000,-0.001,0.000,-0.001
1495974850417,-0.002,-0.003,-0.001,-0.001
1495974850434,0.002,-0.000,0.001,-0.000
1495974850453,-0.003,0.001,-0.001,0.000
1495974850455,0.003,0.004,0.001,0.002
1495974850472,0.002,0.003,0.001,0.001
1495974850507,0.001,-0.001,0.001,-0.000
1495974850524,-0.003,-0.000,-0.001,-0.000
1495974850542,-0.001,0.001,-0.001,0.000
1495974850558,-0.001,0.002,-0.000,0.001
1495974850575,0.003,-0.000,0.001,-0.000
1495974850593,0.002,0.001,0.001,0.000
1495974850608,0.003,-0.004,0.001,-0.001
1495974850626,0.002,0.001,0.001,0.000
1495974850644,-0.000,-0.001,-0.000,-0.000
1495974850661,-0.002,0.000,-0.001,0.000
1495974850679,0.004,0.002,0.001,0.001
1495974850694,0.005,0.001,0.002,0.000
1495974850710,-0.000,-0.001,-0.000,-0.000
1495974850728,-0.002,0.003,-0.001,0.001
1495974850745,-0.004,0.002,-0.001,0.001
1495974850761,0.003,0.003,0.001,0.001
1495974850809,0.002,-0.000,0.001,-0.000
1495974850824,-0.000,0.002,-0.000,0.001
1495974850843,-0.003,0.003,-0.001,0.001
1495974850860,-0.005,-0.000,-0.002,-0.000
1495974850878,-0.002,0.002,-0.001,0.001
1495974850896,-0.001,0.001,-0.000,0.001
1495974850914,0.002,0.001,0.001,0.000
1495974850932,-0.001,-0.001,-0.000,-0.001
1495974850947,-0.002,-0.001,-0.001,-0.000
1495974850963,0.002,-0.002,0.001,-0.001
1495974850979,0.001,-0.002,0.000,-0.001
1495974850996,0.004,-0.005,0.002,-0.002
1495974851014,0.001,0.003,0.000,0.001
1495974851031,0.000,0.001,0.000,0.000
1495974851049,-0.007,-0.001,-0.003,-0.001
1495974851065,0.000,-0.001,0.000,-0.001
1495974851080,0.000,-0.001,0.000,-0.000
1495974851098,0.000,-0.001,0.000,-0.001
1495974851115,0.001,0.003,0.000,0.001
1495974851133,0.002,0.001,0.001,0.000
1495974851149,-0.002,0.001,-0.001,0.001
1495974851164,0.001,0.002,0.000,0.001
1495974851183,0.005,0.001,0.002,0.000
1495974851200,-0.003,0.002,-0.001,0.001
1495974851218,-0.002,-0.001,-0.001,-0.000
1495974851236,-0.002,-0.000,-0.001,-0.000
1495974851254,0.001,0.001,0.000,0.001
1495974851272,0.001,-0.001,0.000,-0.000
1495974851287,-0.001,-0.000,-0.000,-0.000
1495974851305,-0.000,0.002,-0.000,0.001
1495974851323,-0.005,-0.005,-0.002,-0.002
1495974851340,-0.003,-0.002,-0.001,-0.001
1495974851358,0.004,0.002,0.002,0.001
1495974851376,-0.003,0.001,-0.001,0.000
1495974851394,0.000,0.002,0.000,0.001
1495974851412,-0.004,0.000,-0.002,0.000
1495974851429,-0.003,-0.001,-0.001,-0.001
1495974851447,0.000,-0.005,0.000,-0.002
1495974851465,-0.001,-0.000,-0.001,-0.000
1495974851483,0.004,-0.003,0.001,-0.001
1495974851501,-0.004,-0.001,-0.002,-0.000
1495974851518,-0.000,0.005,-0.000,0.002
1495974851536,-0.002,0.002,-0.001,0.001
1495974851553,-0.003,0.000,-0.001,0.000
1495974851571,0.001,0.001,0.001,0.000
1495974851590,-0.002,-0.001,-0.001,-0.000
1495974851607,-0.000,0.002,-0.000,0.001
1495974851609,-0.002,-0.003,-0.001,-0.001
1495974851626,0.001,-0.000,0.000,-0.000
1495974851661,-0.000,-0.003,-0.000,-0.001
1495974851679,-0.000,0.002,-0.000,0.001
1495974851696,-0.005,-0.001,-0.002,-0.000
1495974851714,-0.001,0.004,-0.001,0.002
1495974851731,-0.001,0.002,-0.001,0.001
1495974851749,0.001,0.001,0.000,0.000
1495974851765,0.002,-0.001,0.001,-0.000
1495974851780,-0.002,0.000,-0.001,0.000
1495974851796,-0.000,0.001,-0.000,0.001
1495974851813,-0.002,0.003,-0.001,0.001
1495974851831,0.000,0.001,0.000,0.001
1495974851849,0.003,0.001,0.001,0.001
1495974851866,0.001,0.002,0.000,0.001
1495974851882,-0.003,0.001,-0.001,0.000
1495974851897,-0.004,0.001,-0.002,0.000
1495974851915,-0.003,0.000,-0.001,0.000
1495974851933,-0.002,-0.001,-0.001,-0.001
1495974851948,0.005,-0.002,0.002,-0.001
1495974851964,-0.001,0.001,-0.000,0.000
1495974851996,-0.004,0.000,-0.001,0.000
1495974852014,-0.001,0.000,-0.000,0.000
1495974852031,0.003,0.003,0.001,0.001
1495974852049,0.005,-0.005,0.002,-0.002
1495974852066,-0.002,-0.000,-0.001,-0.000
1495974852082,-0.005,0.001,-0.002,0.000
1495974852098,-0.005,-0.005,-0.002,-0.002
1495974852114,-0.001,0.000,-0.000,0.000
1495974852130,-0.003,-0.002,-0.001,-0.001
1495974852147,-0.000,0.003,-0.000,0.001
1495974852165,0.003,-0.004,0.001,-0.001
1495974852183,-0.005,-0.002,-0.002,-0.001
1495974852198,-0.005,-0.001,-0.002,-0.000
1495974852214,-0.002,0.005,-0.001,0.002
1495974852246,0.000,0.003,0.000,0.001
1495974852264,0.004,0.001,0.002,0.000
1495974852281,-0.003,0.002,-0.001,0.001
1495974852299,0.000,0.001,0.000,0.000
1495974852316,-0.002,0.002,-0.001,0.001
1495974852332,0.004,-0.000,0.002,-0.000
1495974852348,0.001,0.003,0.000,0.001
1495974852364,0.003,-0.003,0.001,-0.001
1495974852380,-0.000,-0.001,-0.000,-0.001
1495974852397,-0.001,0.001,-0.000,0.000
1495974852415,-0.004,-0.000,-0.001,-0.000
1495974852433,0.002,0.001,0.001,0.001
1495974852448,-0.002,0.004,-0.001,0.002
1495974852464,-0.001,-0.001,-0.000,-0.000
1495974852497,-0.005,-0.004,-0.002,-0.001
1495974852515,-0.007,0.003,-0.003,0.001
1495974852532,0.005,0.002,0.002,0.001
1495974852550,0.005,-0.002,0.002,-0.001
1495974852565,0.003,-0.001,0.001,-0.000
1495974852581,-0.002,0.003,-0.001,0.001
1495974852598,-0.001,0.001,-0.000,0.000
1495974852613,-0.003,0.001,-0.001,0.000
1495974852631,-0.003,0.000,-0.001,0.000
1495974852648,0.002,0.001,0.001,0.000
1495974852666,-0.002,-0.003,-0.001,-0.001
1495974852682,0.001,0.001,0.000,0.000
1495974852698,0.000,0.001,0.000,0.001
1495974852716,0.004,-0.001,0.001,-0.000
1495974852731,0.002,-0.003,0.001,-0.001
1495974852747,0.003,-0.002,0.001,-0.001
1495974852780,-0.002,-0.001,-0.001,-0.000
1495974852798,-0.004,0.001,-0.002,0.000
1495974852829,-0.002,-0.001,-0.001,-0.000
1495974852846,-0.001,0.003,-0.000,0.001
1495974852863,0.003,0.001,0.001,0.001
1495974852881,-0.004,-0.002,-0.001,-0.001
1495974852899,-0.004,0.001,-0.002,0.001
1495974852917,-0.007,-0.000,-0.003,-0.000
1495974852935,-0.001,-0.003,-0.000,-0.001
1495974852952,0.003,0.003,0.001,0.001
1495974852968,0.003,0.001,0.001,0.001
1495974852983,-0.001,0.000,-0.001,0.000
1495974853000,-0.005,0.001,-0.002,0.001
1495974853016,-0.005,-0.001,-0.002,-0.001
1495974853033,0.005,0.001,0.002,0.000
1495974853052,-0.002,0.002,-0.001,0.001
1495974853068,-0.002,-0.004,-0.001,-0.002
1495974853084,-0.003,-0.002,-0.001,-0.001
1495974853101,-0.005,0.001,-0.002,0.001
1495974853116,-0.003,-0.001,-0.001,-0.001
1495974853134,0.003,0.002,0.001,0.001
1495974853152,0.002,0.002,0.001,0.001
1495974853170,-0.002,-0.002,-0.001,-0.001
1495974853188,-0.001,0.002,-0.000,0.001
1495974853205,0.001,0.003,0.000,0.001
1495974853223,-0.002,0.003,-0.001,0.001
1495974853241,0.005,-0.002,0.002,-0.001
1495974853259,0.001,0.000,0.001,0.000
1495974853278,-0.001,-0.001,-0.000,-0.001
1495974853296,-0.002,0.000,-0.001,0.000
1495974853314,-0.001,0.003,-0.000,0.001
1495974853331,0.003,0.002,0.001,0.001
1495974853349,0.004,-0.000,0.002,-0.000
1495974853365,0.000,-0.001,0.000,-0.000
1495974853382,-0.000,-0.001,-0.000,-0.000
1495974853401,-0.004,-0.002,-0.002,-0.001
1495974853418,0.002,0.002,0.001,0.001
1495974853434,0.003,-0.002,0.001,-0.001
1495974853450,-0.001,-0.003,-0.000,-0.001
1495974853465,-0.000,-0.000,-0.000,-0.000
1495974853483,-0.001,0.001,-0.000,0.001
1495974853500,-0.000,-0.000,-0.000,-0.000
1495974853518,0.003,-0.001,0.001,-0.001
1495974853536,-0.001,0.001,-0.000,0.001
1495974853551,-0.001,-0.002,-0.000,-0.001
1495974853567,-0.004,-0.002,-0.002,-0.001
1495974853599,-0.002,0.003,-0.001,0.001
1495974853617,0.003,0.000,0.001,0.000
1495974853634,0.001,-0.001,0.001,-0.000
1495974853652,-0.002,-0.000,-0.001,-0.000
1495974853669,-0.001,-0.001,-0.000,-0.000
1495974853685,-0.004,0.004,-0.002,0.002
1495974853701,-0.003,0.001,-0.001,0.000
1495974853717,0.001,0.002,0.001,0.001
1495974853734,0.001,0.001,0.000,0.000
1495974853750,-0.003,-0.003,-0.001,-0.001
1495974853766,-0.005,0.002,-0.002,0.001
1495974853799,-0.003,-0.002,-0.001,-0.001
1495974853817,0.000,-0.002,0.000,-0.001
1495974853834,0.001,-0.002,0.001,-0.001
1495974853852,0.002,0.000,0.001,0.000
1495974853868,0.001,-0.002,0.000,-0.001
1495974853883,0.002,0.003,0.001,0.001
1495974853902,-0.007,-0.001,-0.003,-0.000
1495974853919,-0.002,-0.001,-0.001,-0.000
1495974853935,0.000,-0.004,0.000,-0.002
1495974853951,-0.002,0.000,-0.001,0.000
1495974853967,-0.001,0.002,-0.000,0.001
1495974853983,0.001,0.002,0.000,0.001
1495974854000,-0.001,-0.001,-0.000,-0.000
1495974854018,0.000,-0.003,0.000,-0.001
1495974854036,-0.004,0.000,-0.002,0.000
1495974854051,-0.001,0.004,-0.000,0.002
1495974854067,-0.003,0.004,-0.001,0.002
1495974854084,0.002,-0.004,0.001,-0.002
1495974854102,0.004,0.002,0.002,0.001
1495974854120,0.002,-0.001,0.001,-0.000
1495974854151,-0.001,0.000,-0.000,0.000
1495974854167,-0.001,0.002,-0.001,0.001
1495974854183,-0.001,0.002,-0.001,0.001
1495974854201,0.003,-0.001,0.001,-0.000
1495974854218,0.005,0.002,0.002,0.001
1495974854236,0.002,0.002,0.001,0.001
1495974854251,-0.001,0.000,-0.001,0.000
1495974854267,-0.005,0.003,-0.002,0.001
1495974854284,0.002,0.001,0.001,0.000
1495974854300,0.002,0.002,0.001,0.001
1495974854317,-0.000,-0.001,-0.000,-0.000
1495974854350,-0.001,0.001,-0.000,0.000
1495974854368,-0.001,-0.000,-0.000,-0.000
1495974854385,0.001,-0.001,0.000,-0.001
1495974854403,0.002,-0.004,0.001,-0.002
1495974854418,0.000,0.002,0.000,0.001
1495974854434,0.003,0.001,0.001,0.000
1495974854452,-0.004,0.002,-0.002,0.001
1495974854469,-0.000,0.002,-0.000,0.001
1495974854485,-0.001,0.000,-0.000,0.000
1495974854500,0.002,0.001,0.001,0.000
1495974854517,0.000,-0.005,0.000,-0.002
1495974854533,0.001,0.001,0.000,0.001
1495974854549,0.002,0.002,0.001,0.001
1495974854565,-0.001,0.002,-0.000,0.001
1495974854582,-0.001,0.005,-0.000,0.002
1495974854600,0.000,-0.002,0.000,-0.001
1495974854619,-0.001,0.002,-0.000,0.001
1495974854636,-0.001,0.001,-0.000,0.000
1495974854652,0.002,-0.001,0.001,-0.000
1495974854685,0.004,0.000,0.002,0.000
1495974854701,0.001,-0.004,0.000,-0.002
1495974854717,0.001,0.000,0.000,0.000
1495974854733,0.002,-0.002,0.001,-0.001
1495974854750,-0.002,-0.002,-0.001,-0.001
1495974854768,-0.004,0.000,-0.002,0.000
1495974854801,-0.001,0.004,-0.000,0.002
1495974854817,0.006,0.004,0.003,0.002
1495974854839,0.001,-0.000,0.000,-0.000
1495974854857,0.002,-0.004,0.001,-0.002
1495974854875,-0.003,0.003,-0.001,0.001
1495974854892,-0.002,0.002,-0.001,0.001
1495974854910,-0.000,0.003,-0.000,0.001
1495974854927,0.001,-0.003,0.001,-0.001
1495974854945,0.003,-0.002,0.001,-0.001
1495974854961,-0.005,0.000,-0.002,0.000
1495974854976,0.001,0.004,0.000,0.002
1495974854994,-0.001,-0.005,-0.000,-0.002
1495974855011,0.002,-0.001,0.001,-0.000
1495974855029,-0.005,-0.000,-0.002,-0.000
1495974855045,0.002,-0.002,0.001,-0.001
1495974855060,0.001,0.002,0.000,0.001
1495974855077,-0.003,-0.001,-0.001,-0.000
1495974855092,0.001,-0.001,0.000,-0.000
1495974855110,-0.001,-0.000,-0.000,-0.000
1495974855128,-0.003,-0.001,-0.001,-0.000
1495974855145,-0.003,0.004,-0.001,0.002
1495974855163,-0.001,0.000,-0.000,0.000
1495974855178,0.003,0.003,0.001,0.001
1495974855194,0.003,0.000,0.001,0.000
1495974855211,0.005,-0.001,0.002,-0.000
1495974855226,0.002,0.002,0.001,0.001
1495974855244,0.002,-0.000,0.001,-0.000
1495974855261,0.000,0.003,0.000,0.001
1495974855279,0.005,0.003,0.002,0.001
1495974855295,0.003,0.000,0.001,0.000
1495974855310,-0.000,0.003,-0.000,0.001
1495974855327,-0.003,-0.001,-0.001,-0.000
1495974855342,0.000,-0.001,0.000,-0.000
1495974855360,-0.002,0.002,-0.001,0.001
1495974855395,0.003,0.000,0.001,0.000
1495974855413,-0.004,-0.002,-0.002,-0.001
1495974855428,0.004,0.002,0.002,0.001
1495974855446,-0.003,0.000,-0.001,0.000
1495974855462,-0.002,0.002,-0.001,0.001
1495974855479,-0.001,-0.000,-0.000,-0.000
1495974855495,0.001,0.000,0.000,0.000
1495974855510,0.001,0.000,0.001,0.000
1495974855528,-0.001,-0.000,-0.000,-0.000
1495974855546,0.001,0.002,0.001,0.001
1495974855561,-0.001,0.003,-0.000,0.001
1495974855577,0.002,0.005,0.001,0.002
1495974855593,0.001,0.000,0.000,0.000
1495974855609,0.002,0.002,0.001,0.001
1495974855627,-0.002,-0.002,-0.001,-0.001
1495974855642,-0.000,-0.003,-0.000,-0.001
1495974855660,-0.001,0.001,-0.001,0.001
1495974855695,0.002,0.001,0.001,0.000
1495974855713,0.002,-0.003,0.001,-0.001
1495974855728,-0.005,0.001,-0.002,0.000
1495974855744,-0.007,-0.001,-0.003,-0.000
1495974855760,0.001,0.004,0.001,0.002
1495974855776,0.001,-0.003,0.001,-0.001
1495974855794,0.004,0.001,0.002,0.000
1495974855811,0.006,0.002,0.002,0.001
1495974855829,-0.003,0.000,-0.001,0.000
1495974855844,0.002,-0.000,0.001,-0.000
1495974855860,-0.006,0.001,-0.002,0.000
1495974855876,0.001,0.000,0.001,0.000
1495974855891,-0.001,0.000,-0.000,0.000
1495974855909,0.001,0.003,0.000,0.001
1495974855926,-0.002,0.000,-0.001,0.000
1495974855944,-0.002,0.003,-0.001,0.001
1495974855963,0.002,-0.001,0.001,-0.000
1495974855980,0.002,0.001,0.001,0.000
1495974855998,-0.001,-0.001,-0.000,-0.001
1495974856015,0.001,0.000,0.000,0.000
1495974856033,-0.003,-0.001,-0.001,-0.000
1495974856051,-0.004,0.005,-0.001,0.002
1495974856068,-0.002,-0.001,-0.001,-0.000
1495974856086,0.006,-0.000,0.003,-0.000
1495974856121,0.001,0.002,0.000,0.001
1495974856123,-0.001,0.002,-0.000,0.001
1495974856140,-0.003,-0.001,-0.001,-0.000
1495974856157,0.002,-0.003,0.001,-0.001
1495974856175,0.002,-0.001,0.001,-0.000
1495974856192,0.004,-0.002,0.002,-0.001
1495974856210,-0.001,-0.005,-0.000,-0.002
1495974856228,-0.006,0.001,-0.002,0.000
1495974856245,0.001,0.002,0.001,0.001
1495974856263,0.004,-0.001,0.002,-0.001
1495974856278,0.003,0.002,0.001,0.001
1495974856311,-0.002,-0.002,-0.001,-0.001
1495974856326,-0.002,0.001,-0.001,0.000
1495974856344,-0.001,0.001,-0.000,0.001
1495974856361,0.002,0.001,0.001,0.000
1495974856379,0.002,-0.002,0.001,-0.001
1495974856395,0.002,0.000,0.001,0.000
1495974856410,-0.003,0.002,-0.001,0.001
1495974856427,-0.004,0.002,-0.002,0.001
1495974856442,-0.002,0.000,-0.001,0.000
1495974856460,0.003,-0.000,0.001,-0.000
1495974856478,0.001,0.003,0.000,0.001
1495974856495,0.000,-0.001,0.000,-0.000
1495974856513,-0.000,-0.001,-0.000,-0.001
1495974856528,-0.003,0.000,-0.001,0.000
1495974856544,0.001,0.006,0.000,0.003
1495974856562,0.002,-0.002,0.001,-0.001
1495974856579,0.000,-0.000,0.000,-0.000
1495974856610,0.000,-0.000,0.000,-0.000
1495974856628,-0.001,0.002,-0.001,0.001
1495974856646,-0.002,0.002,-0.001,0.001
1495974856661,-0.000,-0.003,-0.000,-0.001
1495974856677,0.001,0.001,0.000,0.000
1495974856692,0.001,0.001,0.001,0.000
1495974856710,0.001,0.002,0.000,0.001
1495974856728,0.001,-0.000,0.000,-0.000
1495974856745,0.001,0.000,0.000,0.000
1495974856763,0.001,0.001,0.000,0.001
1495974856810,0.002,-0.003,0.001,-0.001
1495974856825,-0.002,-0.001,-0.001,-0.000
1495974856853,-0.004,0.001,-0.001,0.000
1495974856870,0.001,0.002,0.000,0.001
1495974856888,0.002,0.000,0.001,0.000
1495974856906,0.005,0.002,0.002,0.001
1495974856923,0.002,0.001,0.001,0.000
1495974856941,-0.003,0.001,-0.001,0.000
1495974856958,-0.003,0.002,-0.001,0.001
1495974856976,-0.002,0.001,-0.001,0.000
1495974856994,0.001,-0.001,0.000,-0.000
1495974857009,0.004,0.001,0.002,0.000
1495974857025,0.001,-0.001,0.001,-0.000
1495974857041,-0.006,0.001,-0.002,0.001
1495974857057,-0.005,0.004,-0.002,0.002
1495974857075,0.001,0.002,0.000,0.001
1495974857092,-0.002,0.001,-0.001,0.000
1495974857110,0.002,-0.002,0.001,-0.001
1495974857125,-0.003,0.001,-0.001,0.000
1495974857141,-0.003,-0.000,-0.001,-0.000
1495974857157,0.002,-0.001,0.001,-0.000
1495974857174,0.003,0.000,0.001,0.000
1495974857192,0.003,0.001,0.001,0.000
1495974857209,0.002,0.001,0.001,0.001
1495974857227,-0.003,-0.006,-0.001,-0.002
1495974857243,-0.003,0.001,-0.001,0.001
1495974857258,-0.001,0.000,-0.000,0.000
1495974857275,0.002,-0.003,0.001,-0.001
1495974857290,-0.001,-0.001,-0.001,-0.000
1495974857308,0.004,0.002,0.001,0.001
1495974857326,-0.004,-0.001,-0.002,-0.000
1495974857341,-0.002,-0.002,-0.001,-0.001
1495974857358,0.003,-0.000,0.001,-0.000
1495974857373,0.003,-0.001,0.001,-0.000
1495974857391,-0.000,0.003,-0.000,0.001
1495974857409,-0.000,-0.001,-0.000,-0.000
1495974857426,0.001,0.001,0.000,0.001
1495974857444,0.000,0.002,0.000,0.001
1495974857459,0.002,0.004,0.001,0.002
1495974857475,0.000,0.002,0.000,0.001
1495974857492,-0.005,0.002,-0.002,0.001
1495974857507,-0.002,0.002,-0.001,0.001
1495974857524,-0.001,0.003,-0.000,0.001
1495974857539,-0.000,-0.003,-0.000,-0.001
1495974857557,0.004,0.003,0.001,0.001
1495974857575,-0.005,0.003,-0.002,0.001
1495974857592,-0.004,0.000,-0.002,0.000
1495974857610,-0.005,0.000,-0.002,0.000
1495974857627,-0.002,0.002,-0.001,0.001
1495974857643,0.004,0.000,0.002,0.000
1495974857659,0.001,-0.002,0.001,-0.001
1495974857675,-0.000,0.004,-0.000,0.002
1495974857691,-0.002,0.003,-0.001,0.001
1495974857708,-0.002,0.001,-0.001,0.001
1495974857726,0.002,0.002,0.001,0.001
1495974857744,-0.002,0.002,-0.001,0.001
1495974857775,-0.003,-0.003,-0.001,-0.001
1495974857791,-0.000,-0.001,-0.000,-0.000
1495974857808,-0.002,-0.003,-0.001,-0.001
1495974857826,-0.000,-0.000,-0.000,-0.000
1495974857843,0.002,-0.002,0.001,-0.001
1495974857859,0.001,0.003,0.000,0.001
1495974857874,-0.001,0.003,-0.001,0.001
1495974857891,-0.006,0.001,-0.002,0.000
1495974857907,0.000,-0.000,0.000,-0.000
1495974857924,-0.001,-0.003,-0.001,-0.001
1495974857942,0.005,-0.003,0.002,-0.001
1495974857960,0.004,-0.001,0.001,-0.000
1495974857978,-0.004,-0.001,-0.001,-0.000
1495974857996,-0.001,0.003,-0.000,0.001
1495974858013,-0.002,0.001,-0.001,0.000
1495974858048,0.005,-0.001,0.002,-0.000
1495974858066,0.001,0.001,0.000,0.000
1495974858084,-0.003,0.003,-0.001,0.001
1495974858101,-0.004,0.004,-0.001,0.002
1495974858103,0.001,-0.001,0.000,-0.000
1495974858120,0.002,0.002,0.001,0.001
1495974858155,0.001,-0.003,0.000,-0.001
1495974858173,0.003,0.003,0.001,0.001
1495974858190,0.001,0.002,0.000,0.001
1495974858208,-0.004,0.006,-0.002,0.002
1495974858225,0.000,0.002,0.000,0.001
1495974858243,0.001,-0.000,0.000,-0.000
1495974858261,0.001,0.000,0.000,0.000
1495974858276,0.000,0.002,0.000,0.001
1495974858292,-0.004,-0.000,-0.001,-0.000
1495974858308,0.001,0.000,0.001,0.000
1495974858325,0.002,-0.001,0.001,-0.000
1495974858343,0.001,0.002,0.000,0.001
1495974858360,-0.002,-0.001,-0.001,-0.000
1495974858376,-0.002,0.001,-0.001,0.000
1495974858391,-0.003,0.001,-0.001,0.000
1495974858408,-0.001,0.001,-0.001,0.000
1495974858424,0.001,-0.001,0.001,-0.000
1495974858441,0.002,-0.003,0.001,-0.001
1495974858457,-0.001,-0.001,-0.000,-0.001
1495974858474,-0.001,0.000,-0.000,0.000
1495974858492,-0.003,0.000,-0.001,0.000
1495974858511,0.003,0.001,0.001,0.000
1495974858528,-0.001,-0.000,-0.000,-0.000
1495974858546,0.003,0.003,0.001,0.001
1495974858581,-0.004,0.002,-0.002,0.001
1495974858599,0.000,0.001,0.000,0.001
1495974858616,-0.002,-0.002,-0.001,-0.001
1495974858634,0.001,-0.003,0.000,-0.001
1495974858651,-0.001,-0.000,-0.000,-0.000
1495974858653,-0.001,-0.001,-0.001,-0.001
1495974858670,-0.002,-0.005,-0.001,-0.002
1495974858688,-0.002,-0.002,-0.001,-0.001
1495974858705,0.001,-0.003,0.000,-0.001
1495974858723,-0.003,-0.000,-0.001,-0.000
1495974858740,-0.001,-0.002,-0.000,-0.001
1495974858758,-0.001,0.004,-0.000,0.001
1495974858807,-0.005,-0.000,-0.002,-0.000
1495974858822,0.000,0.000,0.000,0.000
1495974858845,0.000,0.003,0.000,0.001
1495974858863,0.001,0.001,0.000,0.000
1495974858880,-0.002,-0.001,-0.001,-0.000
1495974858898,-0.000,-0.002,-0.000,-0.001
1495974858915,-0.002,-0.005,-0.001,-0.002
1495974858933,0.001,-0.001,0.000,-0.000
1495974858951,0.000,0.003,0.000,0.001
1495974858968,0.003,0.001,0.001,0.000
1495974858984,-0.001,0.003,-0.000,0.001
1495974858999,-0.003,-0.001,-0.001,-0.000
1495974859016,-0.001,0.002,-0.000,0.001
1495974859032,0.002,-0.001,0.001,-0.000
1495974859048,0.003,-0.001,0.001,-0.000
1495974859064,-0.001,0.001,-0.000,0.000
1495974859081,-0.001,0.001,-0.001,0.001
1495974859099,-0.003,0.001,-0.001,0.001
1495974859117,0.000,0.002,0.000,0.001
1495974859134,0.002,-0.001,0.001,-0.000
1495974859152,0.004,0.001,0.001,0.000
1495974859167,0.001,0.005,0.000,0.002
1495974859183,-0.001,0.003,-0.000,0.001
1495974859200,0.000,-0.001,0.000,-0.000
1495974859215,-0.004,-0.000,-0.001,-0.000
1495974859233,0.003,-0.002,0.001,-0.001
1495974859248,0.003,-0.003,0.001,-0.001
1495974859266,-0.005,0.001,-0.002,0.000
1495974859284,0.001,-0.002,0.000,-0.001
1495974859301,-0.001,0.001,-0.000,0.000
1495974859317,0.005,-0.002,0.002,-0.001
1495974859332,0.005,0.001,0.002,0.000
1495974859350,-0.007,-0.003,-0.003,-0.001
1495974859368,-0.004,0.001,-0.001,0.000
1495974859383,-0.000,-0.001,-0.000,-0.001
1495974859399,0.004,0.003,0.001,0.001
1495974859414,0.003,-0.002,0.001,-0.001
1495974859450,-0.002,0.002,-0.001,0.001
1495974859467,-0.003,0.005,-0.001,0.002
1495974859485,-0.003,0.001,-0.001,0.001
1495974859500,-0.002,-0.000,-0.001,-0.000
1495974859516,0.001,-0.003,0.001,-0.001
1495974859533,-0.000,-0.003,-0.000,-0.001
1495974859548,0.003,0.002,0.001,0.001
1495974859564,-0.002,0.001,-0.001,0.000
1495974859581,0.001,0.003,0.000,0.001
1495974859599,0.001,0.001,0.000,0.000
1495974859617,0.001,0.002,0.000,0.001
1495974859634,0.003,-0.001,0.001,-0.000
1495974859652,-0.001,-0.001,-0.000,-0.000
1495974859667,-0.008,-0.001,-0.003,-0.000
1495974859683,-0.001,-0.001,-0.001,-0.000
1495974859700,0.005,0.001,0.002,0.000
1495974859735,0.003,-0.003,0.001,-0.001
1495974859752,-0.001,-0.003,-0.000,-0.001
1495974859770,-0.003,0.001,-0.001,0.000
1495974859786,-0.003,-0.001,-0.001,-0.000
1495974859803,0.005,0.001,0.002,0.000
1495974859821,0.001,-0.001,0.000,-0.000
1495974859838,-0.001,-0.003,-0.000,-0.001
1495974859856,0.001,-0.004,0.000,-0.001
1495974859874,-0.003,-0.003,-0.001,-0.001
1495974859891,-0.001,0.001,-0.000,0.001
1495974859909,-0.001,0.001,-0.001,0.000
1495974859926,0.002,0.001,0.001,0.000
1495974859928,-0.001,0.000,-0.001,0.000
1495974859963,-0.001,-0.003,-0.000,-0.001
1495974859980,-0.004,-0.001,-0.001,-0.000
1495974860000,0.000,-0.005,0.000,-0.002
1495974860017,0.004,-0.004,0.001,-0.002
1495974860033,0.000,0.002,0.000,0.001
1495974860049,-0.005,-0.002,-0.002,-0.001
1495974860064,-0.004,-0.005,-0.002,-0.002
1495974860082,0.000,0.000,0.000,0.000
1495974860099,0.001,0.003,0.001,0.001
1495974860118,-0.001,-0.004,-0.000,-0.002
1495974860136,-0.004,0.000,-0.001,0.000
1495974860153,-0.000,-0.004,-0.000,-0.002
1495974860171,-0.004,0.001,-0.002,0.000
1495974860188,0.001,-0.004,0.000,-0.001
1495974860206,-0.001,0.002,-0.000,0.001
1495974860224,0.002,0.003,0.001,0.001
1495974860241,0.002,-0.002,0.001,-0.001
1495974860259,0.004,-0.001,0.001,-0.000
1495974860276,-0.006,0.005,-0.003,0.002
1495974860295,0.003,0.002,0.001,0.001
1495974860313,-0.001,-0.002,-0.000,-0.001
1495974860330,-0.003,-0.001,-0.001,-0.000
1495974860348,-0.003,0.001,-0.001,0.000
1495974860365,-0.001,-0.001,-0.001,-0.000
1495974860381,-0.000,0.003,-0.000,0.001
1495974860399,0.005,-0.000,0.002,-0.000
1495974860416,-0.000,-0.004,-0.000,-0.001
1495974860434,-0.002,-0.002,-0.001,-0.001
1495974860451,-0.000,0.002,-0.000,0.001
1495974860483,-0.002,0.003,-0.001,0.001
1495974860500,-0.001,0.000,-0.000,0.000
1495974860518,0.001,-0.004,0.001,-0.002
1495974860535,-0.001,0.002,-0.000,0.001
1495974860554,-0.003,0.002,-0.001,0.001
1495974860572,-0.004,-0.002,-0.002,-0.001
1495974860587,0.001,0.004,0.000,0.002
1495974860605,0.002,0.001,0.001,0.000
1495974860622,0.004,0.002,0.001,0.001
1495974860640,-0.002,0.001,-0.001,0.000
1495974860659,-0.003,-0.001,-0.001,-0.000
1495974860676,-0.003,0.001,-0.001,0.000
1495974860678,-0.000,-0.001,-0.000,-0.000
1495974860695,0.001,-0.001,0.000,-0.001
1495974860712,-0.002,0.001,-0.001,0.000
1495974860730,-0.000,0.001,-0.000,0.000
1495974860766,-0.002,0.003,-0.001,0.001
1495974860784,-0.003,0.000,-0.001,0.000
1495974860799,0.001,0.001,0.000,0.001
1495974860816,-0.000,-0.004,-0.000,-0.002
1495974860832,-0.001,0.004,-0.000,0.001
1495974860850,0.000,0.004,0.000,0.001
1495974860868,-0.004,0.000,-0.002,0.000
1495974860883,0.002,-0.000,0.001,-0.000
1495974860899,0.003,-0.000,0.001,-0.000
1495974860915,-0.001,-0.001,-0.000,-0.000
1495974860930,-0.004,-0.001,-0.002,-0.000
1495974860948,-0.002,0.002,-0.001,0.001
1495974860966,0.004,0.004,0.001,0.002
1495974860983,-0.001,-0.002,-0.000,-0.001
1495974861001,0.002,0.001,0.001,0.001
1495974861033,-0.003,0.001,-0.001,0.000
1495974861050,0.001,-0.000,0.000,-0.000
1495974861067,-0.004,0.001,-0.001,0.000
1495974861085,0.004,0.002,0.002,0.001
1495974861100,0.003,-0.001,0.001,-0.000
1495974861116,-0.002,0.000,-0.001,0.000
1495974861132,-0.004,0.000,-0.001,0.000
1495974861147,0.003,-0.000,0.001,-0.000
1495974861165,0.002,0.005,0.001,0.002
1495974861182,0.005,0.003,0.002,0.001
1495974861201,-0.003,0.001,-0.001,0.000
1495974861219,-0.002,-0.002,-0.001,-0.001
1495974861234,-0.003,0.000,-0.001,0.000
1495974861250,-0.002,0.002,-0.001,0.001
1495974861266,0.002,0.001,0.001,0.000
1495974861282,0.003,-0.000,0.001,-0.000
1495974861317,0.002,-0.001,0.001,-0.000
1495974861335,-0.002,-0.001,-0.001,-0.001
1495974861350,-0.004,0.000,-0.001,0.000
1495974861367,-0.001,-0.001,-0.000,-0.000
1495974861385,-0.002,-0.003,-0.001,-0.001
1495974861400,0.003,-0.002,0.001,-0.001
1495974861416,-0.004,-0.002,-0.001,-0.001
1495974861431,-0.002,-0.002,-0.001,-0.001
1495974861449,-0.001,0.002,-0.000,0.001
1495974861465,0.001,-0.000,0.001,-0.000
1495974861482,0.004,-0.004,0.002,-0.002
1495974861515,0.001,-0.002,0.000,-0.001
1495974861534,-0.003,-0.001,-0.001,-0.001
1495974861552,-0.005,-0.001,-0.002,-0.000
1495974861567,0.001,0.006,0.000,0.003
1495974861583,0.004,0.000,0.002,0.000
1495974861599,0.001,-0.000,0.001,-0.000
1495974861615,-0.004,-0.003,-0.002,-0.001
1495974861633,-0.003,0.004,-0.001,0.002
1495974861651,-0.000,-0.001,-0.000,-0.000
1495974861669,0.002,-0.003,0.001,-0.001
1495974861686,0.002,0.002,0.001,0.001
1495974861704,0.000,-0.006,0.000,-0.003
1495974861722,-0.003,-0.002,-0.001,-0.001
1495974861739,0.001,0.002,0.001,0.001
1495974861758,-0.002,-0.003,-0.001,-0.001
1495974861774,0.002,-0.003,0.001,-0.001
1495974861790,-0.002,-0.002,-0.001,-0.001
1495974861808,-0.002,0.003,-0.001,0.001
1495974861825,-0.005,0.001,-0.002,0.000
1495974861843,-0.003,0.002,-0.001,0.001
1495974861860,0.004,-0.002,0.002,-0.001
1495974861879,0.003,0.001,0.001,0.000
1495974861897,-0.000,-0.001,-0.000,-0.000
1495974861914,-0.003,-0.001,-0.001,-0.000
1495974861932,-0.001,0.000,-0.001,0.000
1495974861949,-0.001,0.002,-0.000,0.001
1495974861967,0.003,0.005,0.001,0.002
1495974861985,0.002,0.003,0.001,0.001
1495974862002,-0.002,0.002,-0.001,0.001
1495974862018,-0.005,-0.003,-0.002,-0.001
1495974862033,-0.002,0.005,-0.001,0.002
1495974862050,0.005,0.003,0.002,0.001
1495974862084,0.005,-0.001,0.002,-0.000
1495974862102,-0.001,0.000,-0.000,0.000
1495974862117,-0.003,0.003,-0.001,0.001
1495974862133,0.001,0.002,0.001,0.001
1495974862150,0.002,0.001,0.001,0.000
1495974862165,0.002,-0.000,0.001,-0.000
1495974862183,-0.002,0.001,-0.001,0.000
1495974862200,0.000,0.000,0.000,0.000
1495974862216,-0.001,0.003,-0.000,0.001
1495974862234,-0.002,0.002,-0.001,0.001
1495974862251,0.002,-0.002,0.001,-0.001
1495974862269,-0.002,-0.003,-0.001,-0.001
1495974862284,-0.000,-0.001,-0.000,-0.001
1495974862300,-0.004,-0.001,-0.002,-0.001
1495974862317,-0.001,-0.004,-0.000,-0.001
1495974862332,-0.004,0.001,-0.002,0.000
1495974862367,-0.003,0.001,-0.001,0.001
1495974862385,0.002,0.002,0.001,0.001
1495974862401,-0.002,-0.000,-0.001,-0.000
1495974862416,-0.004,0.003,-0.002,0.001
1495974862433,-0.005,0.003,-0.002,0.001
1495974862448,-0.000,-0.001,-0.000,-0.000
1495974862466,-0.003,0.001,-0.001,0.000
1495974862484,0.003,0.000,0.001,0.000
1495974862501,-0.001,0.001,-0.001,0.000
1495974862519,-0.005,-0.003,-0.002,-0.001
1495974862534,0.000,0.002,0.000,0.001
1495974862550,-0.000,-0.001,-0.000,-0.000
1495974862582,-0.001,-0.002,-0.001,-0.001
1495974862599,-0.003,0.000,-0.001,0.000
1495974862614,-0.003,0.002,-0.001,0.001
1495974862633,-0.002,0.005,-0.001,0.002
1495974862651,0.002,0.000,0.001,0.000
1495974862668,-0.002,0.001,-0.001,0.000
1495974862684,-0.001,-0.001,-0.000,-0.001
1495974862699,-0.004,0.002,-0.002,0.001
1495974862715,0.002,0.001,0.001,0.000
1495974862733,-0.003,-0.002,-0.001,-0.001
1495974862750,0.002,0.000,0.001,0.000
1495974862766,0.000,-0.002,0.000,-0.001
1495974862783,0.001,-0.003,0.000,-0.001
1495974862817,0.000,-0.002,0.000,-0.001
1495974862832,-0.002,-0.001,-0.001,-0.001
1495974862852,0.003,0.001,0.001,0.000
1495974862869,0.006,0.000,0.003,0.000
1495974862887,0.004,0.000,0.002,0.000
1495974862905,-0.003,-0.000,-0.001,-0.000
1495974862922,0.002,0.002,0.001,0.001
1495974862940,-0.001,0.001,-0.000,0.001
1495974862958,0.004,0.002,0.002,0.001
1495974862976,0.001,-0.003,0.000,-0.001
1495974862994,-0.001,-0.002,-0.000,-0.001
1495974863011,-0.005,0.000,-0.002,0.000
1495974863029,-0.002,-0.005,-0.001,-0.002
1495974863046,0.001,0.001,0.001,0.001
1495974863064,0.001,0.001,0.001,0.000
1495974863082,0.001,0.000,0.000,0.000
1495974863099,0.000,-0.001,0.000,-0.000
1495974863117,-0.003,0.001,-0.001,0.001
1495974863119,0.003,-0.002,0.001,-0.001
1495974863135,0.001,-0.003,0.000,-0.001
1495974863153,0.004,0.000,0.002,0.000
1495974863172,-0.003,0.000,-0.001,0.000
1495974863189,-0.003,0.001,-0.001,0.000
1495974863207,-0.002,0.003,-0.001,0.001
1495974863224,0.006,0.002,0.003,0.001
1495974863242,0.002,0.004,0.001,0.002
1495974863258,-0.004,0.003,-0.002,0.001
1495974863289,-0.001,-0.001,-0.001,-0.000
1495974863306,-0.004,-0.000,-0.002,-0.000
1495974863324,0.002,0.003,0.001,0.001
1495974863342,0.002,0.002,0.001,0.001
1495974863359,0.001,-0.001,0.000,-0.000
1495974863375,-0.004,0.003,-0.002,0.001
1495974863392,-0.001,0.002,-0.000,0.001
1495974863408,-0.002,0.001,-0.001,0.000
1495974863424,-0.001,-0.001,-0.000,-0.001
1495974863440,0.003,0.001,0.001,0.000
1495974863456,0.004,0.002,0.002,0.001
1495974863473,-0.001,-0.001,-0.000,-0.000
1495974863491,0.000,-0.001,0.000,-0.001
1495974863509,-0.001,0.001,-0.000,0.001
1495974863524,0.003,-0.003,0.001,-0.001
1495974863540,-0.002,-0.004,-0.001,-0.002
1495974863573,-0.001,-0.001,-0.000,-0.000
1495974863591,-0.005,-0.003,-0.002,-0.001
1495974863608,-0.002,-0.001,-0.001,-0.000
1495974863626,-0.000,-0.001,-0.000,-0.000
1495974863641,-0.002,-0.000,-0.001,-0.000
1495974863657,0.002,-0.001,0.001,-0.000
1495974863674,-0.002,0.001,-0.001,0.000
1495974863689,-0.005,0.002,-0.002,0.001
1495974863707,0.001,0.003,0.000,0.001
1495974863724,-0.002,-0.006,-0.001,-0.003
1495974863742,0.000,-0.001,0.000,-0.001
1495974863758,-0.004,0.000,-0.002,0.000
1495974863773,-0.005,-0.003,-0.002,-0.001
1495974863806,-0.000,0.004,-0.000,0.002
1495974863824,-0.004,-0.000,-0.002,-0.000
1495974863843,0.000,0.002,0.000,0.001
1495974863860,-0.002,-0.001,-0.001,-0.000
1495974863876,-0.003,0.000,-0.001,0.000
1495974863893,-0.000,0.003,-0.000,0.001
1495974863911,0.003,-0.002,0.001,-0.001
1495974863929,-0.002,0.001,-0.001,0.001
1495974863946,-0.004,0.003,-0.002,0.001
1495974863964,-0.002,-0.002,-0.001,-0.001
1495974863981,-0.007,0.001,-0.003,0.001
1495974863999,0.001,0.001,0.001,0.000
1495974864017,-0.000,0.001,-0.000,0.001
1495974864034,0.003,-0.003,0.001,-0.002
1495974864053,-0.001,-0.000,-0.001,-0.000
1495974864071,-0.001,0.001,-0.000,0.001
1495974864089,-0.001,-0.002,-0.001,-0.001
1495974864107,0.001,-0.001,0.001,-0.000
1495974864124,0.004,-0.000,0.002,-0.000
1495974864142,0.001,-0.003,0.000,-0.002
1495974864159,-0.002,0.000,-0.001,0.000
1495974864175,0.001,-0.005,0.000,-0.002
1495974864191,-0.004,0.000,-0.002,0.000
1495974864207,0.000,0.003,0.000,0.001
1495974864223,0.000,-0.002,0.000,-0.001
1495974864240,0.005,-0.001,0.002,-0.000
1495974864258,-0.000,0.002,-0.000,0.001
1495974864291,-0.002,-0.004,-0.001,-0.002
1495974864307,-0.000,0.004,-0.000,0.002
1495974864322,-0.000,-0.002,-0.000,-0.001
1495974864338,-0.001,-0.007,-0.000,-0.003
1495974864356,-0.003,0.002,-0.001,0.001
1495974864373,-0.002,0.000,-0.001,0.000
1495974864391,-0.004,0.004,-0.002,0.002
1495974864408,0.001,-0.002,0.001,-0.001
1495974864426,-0.001,-0.002,-0.001,-0.001
1495974864442,0.000,0.003,0.000,0.001
1495974864457,-0.004,-0.001,-0.002,-0.001
1495974864474,0.002,-0.001,0.001,-0.000
1495974864508,-0.001,-0.000,-0.000,-0.000
1495974864526,-0.001,0.000,-0.001,0.000
1495974864541,-0.001,-0.001,-0.000,-0.001
1495974864557,0.001,-0.002,0.000,-0.001
1495974864573,-0.004,0.001,-0.002,0.001
1495974864590,-0.003,0.002,-0.001,0.001
1495974864608,0.002,-0.001,0.001,-0.001
1495974864625,0.001,0.001,0.001,0.000
1495974864643,-0.001,0.004,-0.001,0.002
1495974864660,-0.003,-0.002,-0.001,-0.001
1495974864678,-0.001,-0.002,-0.000,-0.001
1495974864696,-0.002,0.002,-0.001,0.001
1495974864713,0.001,-0.001,0.000,-0.000
1495974864731,0.003,0.000,0.001,0.000
1495974864748,-0.002,0.002,-0.001,0.001
1495974864766,-0.001,-0.002,-0.000,-0.001
1495974864815,-0.005,-0.002,-0.002,-0.001
1495974864846,-0.001,0.002,-0.001,0.001
1495974864864,0.002,0.003,0.001,0.001
1495974864879,0.003,-0.000,0.001,-0.000
1495974864895,0.003,0.002,0.002,0.001
1495974864911,-0.003,0.003,-0.001,0.001
1495974864927,-0.000,0.000,-0.000,0.000
1495974864945,-0.002,-0.000,-0.001,-0.000
1495974864962,0.003,-0.003,0.001,-0.001
1495974864980,0.002,0.001,0.001,0.001
1495974864997,0.000,-0.002,0.000,-0.001
1495974865013,0.002,0.002,0.001,0.001
1495974865029,0.000,0.000,0.000,0.000
1495974865045,0.004,0.001,0.002,0.001
1495974865061,0.006,-0.003,0.003,-0.001
1495974865078,-0.000,-0.002,-0.000,-0.001
1495974865096,-0.000,-0.000,-0.000,-0.000
1495974865114,-0.000,-0.003,-0.000,-0.002
1495974865129,0.004,0.000,0.002,0.000
1495974865145,0.002,0.000,0.001,0.000
1495974865161,0.003,0.001,0.002,0.001
1495974865177,-0.001,0.000,-0.001,0.000
1495974865195,-0.001,0.002,-0.000,0.001
1495974865212,-0.001,0.001,-0.001,0.000
1495974865230,-0.002,-0.002,-0.001,-0.001
1495974865245,-0.001,0.002,-0.001,0.001
1495974865261,-0.002,-0.003,-0.001,-0.001
1495974865277,-0.001,-0.004,-0.000,-0.002
1495974865294,-0.002,0.003,-0.001,0.001
1495974865312,-0.000,-0.001,-0.000,-0.000
1495974865329,0.001,0.001,0.000,0.000
1495974865347,-0.001,0.000,-0.001,0.000
1495974865363,-0.001,0.003,-0.000,0.001
1495974865378,-0.000,-0.001,-0.000,-0.001
1495974865395,0.001,0.001,0.000,0.001
1495974865410,0.001,0.002,0.000,0.001
1495974865427,0.004,-0.004,0.002,-0.002
1495974865443,-0.001,0.003,-0.000,0.001
1495974865460,-0.003,-0.001,-0.002,-0.001
1495974865478,-0.003,0.004,-0.002,0.002
1495974865497,0.001,0.004,0.001,0.002
1495974865514,0.004,0.000,0.002,0.000
1495974865530,0.000,-0.001,0.000,-0.000
1495974865547,-0.002,0.001,-0.001,0.001
1495974865563,-0.003,0.001,-0.001,0.001
1495974865578,0.002,-0.001,0.001,-0.001
1495974865595,0.003,0.001,0.001,0.000
1495974865611,0.000,-0.001,0.000,-0.001
1495974865628,-0.001,0.004,-0.000,0.002
1495974865646,-0.002,0.002,-0.001,0.001
1495974865663,-0.003,-0.001,-0.001,-0.000
1495974865695,-0.001,0.004,-0.001,0.002
1495974865712,-0.001,-0.002,-0.001,-0.001
1495974865730,-0.002,0.001,-0.001,0.000
1495974865747,-0.002,0.003,-0.001,0.001
1495974865763,0.001,0.002,0.001,0.001
1495974865779,0.001,0.001,0.001,0.000
1495974865795,0.001,0.003,0.001,0.001
1495974865811,0.002,-0.000,0.001,-0.000
1495974865828,-0.003,-0.003,-0.001,-0.002
1495974865846,-0.003,-0.005,-0.001,-0.002
1495974865864,-0.000,-0.002,-0.000,-0.001
1495974865879,-0.000,-0.000,-0.000,-0.000
1495974865911,0.002,0.003,0.001,0.001
1495974865927,-0.005,0.003,-0.002,0.001
1495974865945,0.000,-0.000,0.000,-0.000
1495974865962,0.004,0.002,0.002,0.001
1495974865980,-0.000,-0.002,-0.000,-0.001
1495974865997,-0.000,-0.003,-0.000,-0.002
1495974866015,0.001,-0.003,0.001,-0.001
1495974866033,-0.000,0.001,-0.000,0.001
1495974866050,-0.003,0.000,-0.002,0.000
1495974866068,-0.002,0.003,-0.001,0.001
1495974866085,0.001,-0.002,0.001,-0.001
1495974866103,0.001,0.006,0.000,0.003
1495974866121,0.005,-0.000,0.002,-0.000
1495974866138,-0.002,0.001,-0.001,0.000
1495974866157,-0.001,-0.002,-0.001,-0.001
1495974866174,0.000,-0.004,0.000,-0.002
1495974866192,0.003,-0.001,0.001,-0.001
1495974866210,-0.001,-0.005,-0.000,-0.002
1495974866227,-0.001,-0.001,-0.001,-0.000
1495974866245,-0.002,0.002,-0.001,0.001
1495974866262,-0.004,0.002,-0.002,0.001
1495974866280,-0.001,-0.001,-0.000,-0.000
1495974866296,0.000,-0.003,0.000,-0.001
1495974866311,-0.001,0.002,-0.000,0.001
1495974866327,0.000,-0.002,0.000,-0.001
1495974866344,-0.002,0.003,-0.001,0.001
1495974866362,-0.001,0.002,-0.000,0.001
1495974866380,0.005,0.000,0.002,0.000
1495974866397,-0.002,0.001,-0.001,0.000
1495974866428,-0.004,-0.002,-0.002,-0.001
1495974866445,-0.002,-0.002,-0.001,-0.001
1495974866461,-0.002,0.001,-0.001,0.000
1495974866477,0.003,-0.001,0.001,-0.000
1495974866493,0.002,-0.002,0.001,-0.001
1495974866510,0.001,0.002,0.000,0.001
1495974866528,-0.005,0.000,-0.002,0.000
1495974866546,0.002,0.001,0.001,0.001
1495974866563,0.005,0.002,0.002,0.001
1495974866581,-0.001,0.001,-0.000,0.001
1495974866596,-0.003,0.004,-0.001,0.002
1495974866612,-0.003,0.006,-0.001,0.003
1495974866629,-0.004,-0.001,-0.002,-0.000
1495974866662,-0.001,0.002,-0.000,0.001
1495974866679,0.000,-0.001,0.000,-0.001
1495974866697,0.003,0.001,0.001,0.000
1495974866713,0.004,0.002,0.002,0.001
1495974866728,-0.004,0.003,-0.002,0.002
1495974866745,-0.006,0.001,-0.003,0.001
1495974866760,-0.003,0.003,-0.001,0.001
1495974866778,0.001,0.002,0.000,0.001
1495974866811,0.001,0.003,0.001,0.001
1495974866827,0.001,-0.003,0.000,-0.001
1495974866859,-0.002,0.002,-0.001,0.001
1495974866875,-0.001,-0.000,-0.001,-0.000
1495974866890,-0.002,0.002,-0.001,0.001
1495974866908,0.000,0.001,0.000,0.000
1495974866925,0.000,-0.001,0.000,-0.000
1495974866943,-0.005,0.001,-0.002,0.001
1495974866962,-0.002,0.004,-0.001,0.002
1495974866964,-0.002,0.002,-0.001,0.001
1495974866980,0.001,-0.004,0.001,-0.002
1495974866999,0.003,-0.002,0.001,-0.001
1495974867016,-0.003,-0.004,-0.001,-0.002
1495974867034,-0.005,0.001,-0.002,0.001
1495974867052,-0.003,-0.001,-0.001,-0.000
1495974867069,-0.001,-0.000,-0.000,-0.000
1495974867087,0.001,-0.001,0.001,-0.000
1495974867104,0.001,-0.001,0.000,-0.001
1495974867120,0.001,0.005,0.001,0.002
1495974867136,-0.001,-0.003,-0.001,-0.001
1495974867152,-0.001,0.001,-0.000,0.001
1495974867168,0.003,0.001,0.001,0.000
1495974867185,0.001,-0.002,0.001,-0.001
1495974867203,-0.003,-0.001,-0.002,-0.000
1495974867221,0.000,0.001,0.000,0.001
1495974867236,0.002,-0.001,0.001,-0.000
1495974867252,0.002,-0.001,0.001,-0.000
1495974867269,0.002,0.002,0.001,0.001
1495974867287,0.001,0.004,0.000,0.002
1495974867303,0.002,-0.001,0.001,-0.001
1495974867318,-0.000,0.000,-0.000,0.000
1495974867351,0.001,-0.001,0.000,-0.000
1495974867369,-0.004,-0.000,-0.002,-0.000
1495974867388,0.001,0.000,0.001,0.000
1495974867404,0.000,-0.001,0.000,-0.000
1495974867420,-0.004,0.001,-0.002,0.000
1495974867437,-0.002,0.002,-0.001,0.001
1495974867453,0.001,0.003,0.001,0.001
1495974867469,-0.003,0.004,-0.001,0.002
1495974867485,0.000,-0.003,0.000,-0.001
1495974867501,-0.001,-0.003,-0.001,-0.001
1495974867517,-0.006,-0.001,-0.003,-0.001
1495974867533,0.002,0.000,0.001,0.000
1495974867551,0.002,-0.003,0.001,-0.002
1495974867568,0.001,-0.001,0.000,-0.001
1495974867586,-0.001,-0.001,-0.001,-0.000
1495974867603,-0.004,-0.004,-0.002,-0.002
1495974867619,-0.002,-0.001,-0.001,-0.001
1495974867651,0.002,0.003,0.001,0.001
1495974867669,0.004,-0.000,0.002,-0.000
1495974867686,0.004,-0.003,0.002,-0.001
1495974867704,0.002,-0.004,0.001,-0.002
1495974867720,-0.003,0.000,-0.001,0.000
1495974867735,-0.005,0.001,-0.003,0.000
1495974867752,0.003,-0.002,0.001,-0.001
1495974867767,0.001,-0.001,0.000,-0.001
1495974867785,0.003,-0.000,0.001,-0.000
1495974867803,-0.000,0.000,-0.000,0.000
1495974867838,0.003,-0.001,0.001,-0.001
1495974867853,0.001,0.003,0.000,0.001
1495974867869,0.001,0.005,0.001,0.002
1495974867886,0.003,0.001,0.002,0.000
1495974867901,-0.003,0.004,-0.001,0.002
1495974867919,-0.004,-0.000,-0.002,-0.000
1495974867937,-0.004,-0.005,-0.002,-0.002
1495974867955,0.006,-0.003,0.003,-0.001
1495974867973,0.008,-0.004,0.004,-0.002
1495974867991,0.003,0.002,0.001,0.001
1495974868009,-0.003,-0.000,-0.001,-0.000
1495974868026,-0.008,-0.000,-0.004,-0.000
1495974868044,-0.010,-0.002,-0.005,-0.001
1495974868062,-0.001,-0.003,-0.000,-0.001
1495974868079,0.005,0.002,0.002,0.001
1495974868081,-0.000,0.000,-0.000,0.000
1495974868098,-0.003,0.007,-0.002,0.003
1495974868133,-0.006,0.001,-0.003,0.001
1495974868151,-0.003,-0.001,-0.001,-0.001
1495974868168,0.003,-0.005,0.001,-0.002
1495974868186,0.007,0.001,0.004,0.000
1495974868203,0.007,0.002,0.003,0.001
1495974868221,-0.004,0.003,-0.002,0.001
1495974868237,-0.008,0.001,-0.004,0.000
1495974868252,-0.010,0.004,-0.005,0.002
1495974868269,-0.001,0.001,-0.000,0.001
1495974868284,0.001,-0.002,0.001,-0.001
1495974868302,0.003,-0.002,0.001,-0.001
1495974868320,-0.002,0.005,-0.001,0.002
1495974868355,-0.001,0.007,-0.000,0.004
1495974868370,-0.002,0.003,-0.001,0.001
1495974868386,-0.007,0.002,-0.003,0.001
1495974868404,-0.002,0.001,-0.001,0.001
1495974868421,0.002,0.003,0.001,0.001
1495974868437,0.005,0.001,0.002,0.000
1495974868452,0.005,0.001,0.002,0.000
1495974868469,0.003,-0.002,0.001,-0.001
1495974868485,-0.005,-0.002,-0.002,-0.001
1495974868502,-0.006,-0.003,-0.003,-0.002
1495974868518,-0.004,-0.007,-0.002,-0.004
1495974868535,0.002,0.002,0.001,0.001
1495974868553,0.005,0.005,0.002,0.002
1495974868569,-0.002,0.004,-0.001,0.002
1495974868584,-0.009,-0.001,-0.004,-0.000
1495974868600,-0.010,-0.004,-0.005,-0.002
1495974868617,0.001,0.001,0.001,0.001
1495974868635,0.008,0.001,0.004,0.000
1495974868653,0.005,-0.001,0.003,-0.001
1495974868670,0.006,0.003,0.003,0.001
1495974868703,-0.002,0.004,-0.001,0.002
1495974868719,-0.003,-0.000,-0.002,-0.000
1495974868736,-0.004,0.005,-0.002,0.002
1495974868751,-0.002,0.001,-0.001,0.000
1495974868800,-0.002,0.006,-0.001,0.003
1495974868831,-0.000,-0.000,-0.000,-0.000
1495974868849,-0.003,-0.001,-0.002,-0.000
1495974868866,0.001,-0.004,0.000,-0.002
1495974868884,0.001,-0.002,0.000,-0.001
1495974868902,0.006,-0.008,0.003,-0.004
1495974868919,0.001,0.003,0.000,0.002
1495974868937,-0.001,-0.000,-0.001,-0.000
1495974868954,0.000,0.003,0.000,0.001
1495974868972,0.004,0.000,0.002,0.000
1495974868990,0.001,0.002,0.001,0.001
1495974868992,-0.005,0.002,-0.002,0.001
1495974869008,-0.007,0.005,-0.004,0.002
1495974869026,-0.005,-0.002,-0.002,-0.001
1495974869041,0.001,0.002,0.001,0.001
1495974869059,0.003,-0.000,0.001,-0.000
1495974869077,0.003,-0.001,0.001,-0.000
1495974869094,0.001,-0.004,0.001,-0.002
1495974869112,-0.002,-0.005,-0.001,-0.002
1495974869129,-0.007,-0.004,-0.003,-0.002
1495974869147,0.005,-0.001,0.002,-0.001
1495974869165,0.003,-0.000,0.001,-0.000
1495974869180,-0.001,0.005,-0.001,0.002
1495974869196,-0.007,0.001,-0.004,0.000
1495974869212,-0.006,-0.000,-0.003,-0.000
1495974869228,-0.005,0.001,-0.003,0.000
1495974869246,0.004,-0.001,0.002,-0.000
1495974869263,0.006,-0.003,0.003,-0.001
1495974869279,-0.002,-0.002,-0.001,-0.001
1495974869295,-0.008,0.003,-0.004,0.002
1495974869311,-0.001,0.001,-0.001,0.000
1495974869329,-0.000,0.003,-0.000,0.001
1495974869346,0.006,-0.002,0.003,-0.001
1495974869364,-0.002,-0.002,-0.001,-0.001
1495974869381,-0.003,-0.003,-0.001,-0.002
1495974869397,-0.000,-0.002,-0.000,-0.001
1495974869413,-0.001,0.006,-0.001,0.003
1495974869429,-0.000,0.001,-0.000,0.000
1495974869445,0.001,0.000,0.001,0.000
1495974869462,-0.001,-0.002,-0.001,-0.001
1495974869480,-0.000,0.005,-0.000,0.002
1495974869498,-0.002,0.004,-0.001,0.002
1495974869513,-0.002,0.001,-0.001,0.000
1495974869529,-0.000,-0.000,-0.000,-0.000
1495974869545,0.000,0.001,0.000,0.000
1495974869578,0.000,0.001,0.000,0.000
1495974869593,0.001,0.001,0.000,0.001
1495974869611,-0.002,0.003,-0.001,0.001
