1495974778783,0.004,0.001,0.001,0.000
1495974778798,0.005,0.003,0.001,0.001
1495974778831,-0.001,0.000,-0.000,0.000
1495974778846,0.002,0.000,0.001,0.000
1495974778862,0.005,0.003,0.001,0.001
1495974778879,0.003,-0.000,0.001,-0.000
1495974778895,0.003,-0.001,0.001,-0.000
1495974778913,-0.002,-0.002,-0.001,-0.001
1495974778928,-0.004,0.003,-0.001,0.001
1495974778946,-0.004,-0.001,-0.001,-0.000
1495974778963,0.002,0.003,0.000,0.001
1495974778979,-0.002,-0.002,-0.000,-0.000
1495974778997,-0.002,-0.001,-0.000,-0.000
1495974779014,-0.001,0.001,-0.000,0.000
1495974779032,-0.003,0.005,-0.001,0.001
1495974779051,0.000,0.001,0.000,0.000
1495974779067,0.006,-0.000,0.001,-0.000
1495974779083,0.000,-0.000,0.000,-0.000
1495974779100,0.003,-0.003,0.001,-0.001
1495974779118,0.001,-0.000,0.000,-0.000
1495974779133,0.001,-0.001,0.000,-0.000
1495974779151,-0.000,-0.001,-0.000,-0.000
1495974779169,0.001,0.002,0.000,0.001
1495974779171,0.000,0.004,0.000,0.001
1495974779187,-0.001,0.002,-0.000,0.001
1495974779205,-0.003,0.005,-0.001,0.001
1495974779223,-0.002,0.002,-0.001,0.000
1495974779241,0.002,-0.003,0.001,-0.001
1495974779259,0.002,-0.002,0.001,-0.001
1495974779276,0.004,-0.003,0.001,-0.001
1495974779294,0.000,0.000,0.000,0.000
1495974779309,0.002,0.001,0.000,0.000
1495974779325,0.002,0.001,0.001,0.000
1495974779342,0.000,0.003,0.000,0.001
1495974779357,-0.004,0.000,-0.001,0.000
1495974779375,-0.002,0.001,-0.000,0.000
1495974779392,-0.003,-0.002,-0.001,-0.001
1495974779410,-0.002,0.002,-0.000,0.001
1495974779426,0.003,0.001,0.001,0.000
1495974779442,0.004,0.001,0.001,0.000
1495974779460,0.003,0.001,0.001,0.000
1495974779475,0.001,0.000,0.000,0.000
1495974779491,-0.004,0.004,-0.001,0.001
1495974779507,0.002,-0.001,0.001,-0.000
1495974779524,0.002,0.004,0.001,0.001
1495974779542,0.001,-0.002,0.000,-0.001
1495974779559,-0.002,0.004,-0.001,0.001
1495974779577,-0.002,0.001,-0.001,0.000
1495974779593,0.002,0.003,0.001,0.001
1495974779608,0.003,0.001,0.001,0.000
1495974779625,0.003,-0.000,0.001,-0.000
1495974779640,-0.001,-0.003,-0.000,-0.001
1495974779658,-0.002,-0.003,-0.001,-0.001
1495974779674,0.001,-0.001,0.000,-0.000
1495974779691,0.003,0.001,0.001,0.000
1495974779709,0.000,0.004,0.000,0.001
1495974779724,0.002,-0.002,0.001,-0.000
1495974779742,0.002,-0.000,0.001,-0.000
1495974779760,0.001,0.002,0.000,0.001
1495974779777,0.003,0.003,0.001,0.001
1495974779793,0.000,0.002,0.000,0.001
1495974779808,-0.005,-0.002,-0.001,-0.001
1495974779825,0.002,-0.004,0.001,-0.001
1495974779841,-0.001,0.004,-0.000,0.001
1495974779858,-0.003,0.002,-0.001,0.001
1495974779876,0.003,-0.001,0.001,-0.000
1495974779891,0.000,0.003,0.000,0.001
1495974779908,0.004,-0.000,0.001,-0.000
1495974779924,-0.001,-0.001,-0.000,-0.000
1495974779941,-0.003,-0.003,-0.001,-0.001
1495974779959,0.003,-0.001,0.001,-0.000
1495974779976,0.003,-0.001,0.001,-0.000
1495974779994,0.004,0.004,0.001,0.001
1495974780010,0.004,0.001,0.001,0.000
1495974780025,-0.004,-0.001,-0.001,-0.000
1495974780042,-0.000,0.003,-0.000,0.001
1495974780057,-0.002,0.003,-0.001,0.001
1495974780073,0.002,0.001,0.001,0.000
1495974780091,0.001,-0.001,0.000,-0.000
1495974780108,0.002,-0.005,0.001,-0.001
1495974780143,-0.002,0.001,-0.001,0.000
1495974780161,-0.000,0.004,-0.000,0.001
1495974780179,0.003,-0.001,0.001,-0.000
1495974780196,0.002,0.004,0.001,0.001
1495974780215,-0.000,0.001,-0.000,0.000
1495974780232,0.001,0.002,0.000,0.001
1495974780250,0.001,-0.000,0.000,-0.000
1495974780268,-0.005,0.002,-0.001,0.001
1495974780285,0.001,0.001,0.000,0.000
1495974780287,0.002,0.000,0.001,0.000
1495974780304,0.003,0.001,0.001,0.000
1495974780321,0.001,0.001,0.000,0.000
1495974780339,-0.002,-0.003,-0.001,-0.001
1495974780357,0.001,0.004,0.000,0.001
1495974780374,-0.000,0.005,-0.000,0.002
1495974780392,0.000,0.000,0.000,0.000
1495974780407,-0.002,-0.001,-0.001,-0.000
1495974780425,-0.003,0.003,-0.001,0.001
1495974780443,-0.001,-0.000,-0.000,-0.000
1495974780460,-0.002,0.004,-0.001,0.001
1495974780476,0.002,-0.001,0.001,-0.000
1495974780491,0.002,-0.001,0.001,-0.000
1495974780507,-0.004,-0.001,-0.001,-0.000
1495974780524,-0.003,-0.004,-0.001,-0.001
1495974780557,0.000,-0.001,0.000,-0.000
1495974780574,0.004,-0.001,0.001,-0.000
1495974780592,0.006,0.002,0.002,0.001
1495974780610,0.004,-0.000,0.001,-0.000
1495974780627,-0.000,0.004,-0.000,0.001
1495974780643,-0.005,0.002,-0.002,0.001
1495974780658,0.002,0.003,0.001,0.001
1495974780675,0.004,-0.008,0.001,-0.003
1495974780691,0.001,0.000,0.000,0.000
1495974780708,-0.001,0.000,-0.000,0.000
1495974780726,-0.004,0.003,-0.001,0.001
1495974780743,-0.001,0.004,-0.000,0.001
1495974780761,0.001,0.000,0.000,0.000
1495974780808,0.005,0.001,0.002,0.000
1495974780823,0.002,0.003,0.001,0.001
1495974780852,0.000,0.001,0.000,0.000
1495974780870,0.002,0.003,0.001,0.001
1495974780887,0.003,0.004,0.001,0.001
1495974780905,0.003,0.001,0.001,0.000
1495974780922,0.003,0.005,0.001,0.002
1495974780940,-0.000,0.001,-0.000,0.000
1495974780958,0.000,-0.004,0.000,-0.002
1495974780973,-0.002,0.002,-0.001,0.001
1495974780990,0.001,0.005,0.000,0.002
1495974781005,0.003,0.001,0.001,0.000
1495974781023,0.001,0.003,0.000,0.001
1495974781041,0.003,-0.000,0.001,-0.000
1495974781058,-0.001,-0.001,-0.000,-0.000
1495974781076,-0.002,0.001,-0.001,0.000
1495974781091,0.004,0.000,0.002,0.000
1495974781107,0.002,-0.001,0.001,-0.001
1495974781124,0.002,0.002,0.001,0.001
1495974781139,-0.002,-0.004,-0.001,-0.001
1495974781157,0.001,0.002,0.001,0.001
1495974781174,-0.001,0.001,-0.000,0.000
1495974781192,-0.002,-0.001,-0.001,-0.001
1495974781208,0.001,-0.002,0.000,-0.001
1495974781223,-0.001,-0.002,-0.000,-0.001
1495974781240,-0.003,0.003,-0.001,0.001
1495974781255,-0.000,0.002,-0.000,0.001
1495974781273,0.001,-0.000,0.000,-0.000
1495974781291,0.004,-0.001,0.001,-0.000
1495974781308,0.003,0.000,0.001,0.000
1495974781326,0.003,-0.003,0.001,-0.001
1495974781341,0.002,-0.001,0.001,-0.000
1495974781357,0.002,0.001,0.001,0.000
1495974781374,-0.001,0.001,-0.001,0.000
1495974781389,-0.001,-0.001,-0.001,-0.000
1495974781407,-0.003,0.003,-0.001,0.001
1495974781424,0.001,-0.001,0.000,-0.000
1495974781442,-0.002,0.006,-0.001,0.002
1495974781458,0.003,0.001,0.001,0.000
1495974781473,0.007,-0.003,0.003,-0.001
1495974781490,0.004,0.002,0.002,0.001
1495974781505,-0.001,0.004,-0.000,0.001
1495974781523,-0.001,-0.000,-0.000,-0.000
1495974781541,-0.001,-0.004,-0.001,-0.002
1495974781556,-0.000,0.003,-0.000,0.001
1495974781573,0.001,0.003,0.000,0.001
1495974781589,-0.000,0.002,-0.000,0.001
1495974781606,-0.003,0.004,-0.001,0.002
1495974781622,0.003,0.003,0.001,0.001
1495974781639,0.000,0.003,0.000,0.001
1495974781657,0.001,0.002,0.000,0.001
1495974781674,0.004,0.004,0.002,0.002
1495974781692,0.005,0.003,0.002,0.001
1495974781710,0.001,0.001,0.000,0.000
1495974781725,0.000,0.000,0.000,0.000
1495974781741,0.005,0.000,0.002,0.000
1495974781758,0.004,-0.005,0.002,-0.002
1495974781776,-0.004,0.003,-0.001,0.001
1495974781794,0.000,-0.000,0.000,-0.000
1495974781809,0.000,-0.000,0.000,-0.000
1495974781825,0.004,0.003,0.002,0.001
1495974781857,0.005,0.006,0.002,0.003
1495974781875,0.002,0.000,0.001,0.000
1495974781892,-0.003,-0.001,-0.001,-0.001
1495974781910,-0.003,0.004,-0.001,0.002
1495974781925,-0.000,0.001,-0.000,0.001
1495974781941,0.000,0.001,0.000,0.001
1495974781958,0.002,-0.001,0.001,-0.000
1495974781973,0.001,-0.003,0.000,-0.001
1495974781991,-0.004,0.002,-0.002,0.001
1495974782008,-0.001,0.000,-0.001,0.000
1495974782026,-0.003,0.001,-0.001,0.000
1495974782044,0.004,0.002,0.002,0.001
1495974782059,0.000,0.002,0.000,0.001
1495974782091,0.000,-0.001,0.000,-0.001
1495974782107,-0.000,-0.001,-0.000,-0.001
1495974782125,-0.003,-0.000,-0.001,-0.000
1495974782142,-0.001,0.001,-0.000,0.000
1495974782160,-0.000,-0.002,-0.000,-0.001
1495974782175,-0.003,0.002,-0.001,0.001
1495974782191,-0.001,-0.002,-0.000,-0.001
1495974782209,-0.001,-0.001,-0.000,-0.001
1495974782226,0.000,0.003,0.000,0.001
1495974782244,0.001,0.001,0.001,0.000
1495974782261,0.005,0.001,0.002,0.000
1495974782279,-0.001,0.005,-0.000,0.002
1495974782297,0.001,0.005,0.001,0.002
1495974782314,0.002,-0.001,0.001,-0.001
1495974782333,0.007,-0.000,0.003,-0.000
1495974782350,0.006,0.001,0.003,0.000
1495974782366,0.015,0.005,0.006,0.002
1495974782384,-0.000,0.000,-0.000,0.000
1495974782401,-0.001,0.001,-0.000,0.000
1495974782420,0.002,0.003,0.001,0.001
1495974782437,0.001,0.004,0.001,0.002
1495974782455,0.003,0.001,0.001,0.000
1495974782473,0.001,0.003,0.000,0.001
1495974782490,-0.001,0.001,-0.001,0.001
1495974782508,-0.002,-0.003,-0.001,-0.001
1495974782523,0.005,0.002,0.002,0.001
1495974782541,0.009,0.000,0.004,0.000
1495974782559,0.005,0.002,0.002,0.001
1495974782576,0.004,0.001,0.002,0.001
1495974782592,0.002,0.001,0.001,0.000
1495974782607,-0.004,0.003,-0.002,0.001
1495974782623,0.001,0.003,0.000,0.001
1495974782641,0.005,0.003,0.003,0.001
1495974782658,-0.001,-0.000,-0.000,-0.000
1495974782676,-0.004,-0.001,-0.002,-0.001
1495974782693,-0.008,-0.002,-0.004,-0.001
1495974782709,0.004,0.001,0.002,0.000
1495974782725,0.005,0.002,0.002,0.001
1495974782741,0.011,0.003,0.005,0.001
1495974782757,-0.001,0.001,-0.000,0.000
1495974782806,0.002,0.002,0.001,0.001
1495974782821,0.003,0.002,0.002,0.001
1495974782845,0.007,0.006,0.003,0.003
1495974782862,0.006,0.008,0.003,0.004
1495974782880,-0.000,-0.001,-0.000,-0.000
1495974782898,-0.005,0.000,-0.003,0.000
1495974782916,-0.002,-0.000,-0.001,-0.000
1495974782934,-0.001,-0.002,-0.000,-0.001
1495974782949,-0.002,-0.003,-0.001,-0.002
1495974782966,0.004,-0.000,0.002,-0.000
1495974782982,-0.001,-0.001,-0.001,-0.000
1495974782998,-0.000,-0.000,-0.000,-0.000
1495974783014,0.003,0.000,0.002,0.000
1495974783031,0.005,0.005,0.003,0.002
1495974783049,0.006,0.001,0.003,0.000
1495974783067,0.001,0.004,0.001,0.002
1495974783084,-0.001,0.000,-0.001,0.000
1495974783102,-0.002,-0.001,-0.001,-0.000
1495974783117,-0.004,-0.003,-0.002,-0.002
1495974783133,-0.002,-0.006,-0.001,-0.003
1495974783150,-0.004,-0.005,-0.002,-0.003
1495974783165,-0.000,-0.000,-0.000,-0.000
1495974783183,-0.003,0.000,-0.001,0.000
1495974783200,-0.003,0.004,-0.001,0.002
1495974783218,-0.001,0.003,-0.000,0.001
1495974783236,0.001,0.003,0.000,0.001
1495974783253,0.005,0.003,0.002,0.002
1495974783271,0.007,-0.003,0.003,-0.002
1495974783288,-0.001,-0.005,-0.000,-0.003
1495974783306,-0.004,-0.004,-0.002,-0.002
1495974783324,0.001,0.000,0.000,0.000
1495974783341,0.001,0.000,0.001,0.000
1495974783359,-0.001,0.001,-0.000,0.000
1495974783376,-0.004,0.003,-0.002,0.002
1495974783378,-0.003,0.004,-0.002,0.002
1495974783395,-0.004,0.003,-0.002,0.002
1495974783413,0.001,0.000,0.000,0.000
1495974783430,0.003,0.001,0.001,0.001
1495974783448,0.001,-0.007,0.001,-0.003
1495974783465,-0.000,-0.004,-0.000,-0.002
1495974783499,0.005,0.003,0.002,0.001
1495974783516,0.002,0.001,0.001,0.000
1495974783534,-0.001,0.001,-0.001,0.000
1495974783551,-0.002,-0.000,-0.001,-0.000
1495974783567,-0.003,0.001,-0.001,0.001
1495974783583,-0.005,0.001,-0.002,0.000
1495974783599,-0.005,-0.000,-0.002,-0.000
1495974783615,0.002,-0.002,0.001,-0.001
1495974783632,0.002,-0.002,0.001,-0.001
1495974783650,0.002,0.002,0.001,0.001
1495974783668,-0.003,-0.001,-0.002,-0.000
1495974783685,-0.001,-0.004,-0.000,-0.002
1495974783701,0.002,-0.004,0.001,-0.002
1495974783716,0.005,-0.001,0.003,-0.000
1495974783733,0.001,0.003,0.001,0.002
1495974783766,-0.001,-0.000,-0.001,-0.000
1495974783784,-0.008,0.003,-0.004,0.002
1495974783801,-0.005,0.000,-0.002,0.000
1495974783817,-0.001,0.003,-0.001,0.001
1495974783833,0.001,0.007,0.001,0.004
1495974783850,-0.001,0.000,-0.001,0.000
1495974783868,0.003,-0.002,0.001,-0.001
1495974783885,0.000,0.001,0.000,0.000
1495974783901,0.000,-0.004,0.000,-0.002
1495974783917,0.001,0.000,0.000,0.000
1495974783933,-0.000,-0.002,-0.000,-0.001
1495974783949,-0.001,0.001,-0.000,0.000
1495974783966,-0.004,0.006,-0.002,0.003
1495974783984,0.002,0.000,0.001,0.000
1495974784017,-0.000,-0.004,-0.000,-0.002
1495974784033,-0.001,-0.007,-0.001,-0.003
1495974784048,-0.002,-0.005,-0.001,-0.003
1495974784064,-0.001,0.001,-0.000,0.001
1495974784082,0.003,-0.000,0.002,-0.000
1495974784099,0.001,-0.002,0.000,-0.001
1495974784117,0.004,-0.002,0.002,-0.001
1495974784134,0.003,0.003,0.002,0.001
1495974784152,-0.001,0.003,-0.000,0.002
1495974784168,-0.003,-0.000,-0.001,-0.000
1495974784183,0.001,0.003,0.000,0.002
1495974784200,-0.002,-0.001,-0.001,-0.001
1495974784215,0.001,-0.002,0.001,-0.001
1495974784233,-0.002,-0.003,-0.001,-0.002
1495974784252,-0.003,-0.004,-0.001,-0.002
1495974784269,-0.004,0.003,-0.002,0.001
1495974784285,0.002,0.002,0.001,0.001
1495974784302,0.004,0.000,0.002,0.000
1495974784320,0.006,-0.004,0.003,-0.002
1495974784338,0.001,0.001,0.001,0.001
1495974784356,-0.004,0.003,-0.002,0.002
1495974784374,-0.000,-0.002,-0.000,-0.001
1495974784391,-0.001,0.001,-0.001,0.001
1495974784409,0.006,0.000,0.003,0.000
1495974784427,-0.001,0.001,-0.000,0.001
1495974784445,0.001,-0.003,0.001,-0.002
1495974784463,-0.005,-0.001,-0.002,-0.000
1495974784480,0.001,0.003,0.001,0.001
1495974784498,0.001,0.002,0.001,0.001
1495974784516,0.002,-0.001,0.001,-0.001
1495974784534,0.003,0.003,0.002,0.002
1495974784552,-0.001,0.000,-0.001,0.000
1495974784567,-0.000,0.001,-0.000,0.000
1495974784585,0.001,-0.001,0.000,-0.001
1495974784601,0.003,-0.003,0.001,-0.001
1495974784616,0.002,-0.001,0.001,-0.001
1495974784633,-0.001,0.001,-0.000,0.000
1495974784666,-0.001,0.000,-0.001,0.000
1495974784684,-0.001,-0.001,-0.001,-0.000
1495974784701,-0.000,-0.001,-0.000,-0.001
1495974784719,0.002,0.001,0.001,0.000
1495974784734,-0.002,-0.006,-0.001,-0.003
1495974784750,-0.003,-0.003,-0.001,-0.002
1495974784767,0.004,-0.001,0.002,-0.001
1495974784799,0.002,0.001,0.001,0.001
1495974784814,0.005,0.001,0.003,0.001
1495974784836,-0.001,0.001,-0.001,0.001
1495974784855,-0.004,-0.001,-0.002,-0.001
1495974784872,-0.003,0.002,-0.002,0.001
1495974784890,-0.003,0.003,-0.002,0.001
1495974784907,0.003,-0.004,0.001,-0.002
1495974784925,0.007,0.001,0.003,0.000
1495974784943,-0.001,0.002,-0.000,0.001
1495974784960,0.002,0.000,0.001,0.000
1495974784976,0.001,0.000,0.000,0.000
1495974784991,0.001,0.001,0.000,0.001
1495974785008,-0.001,0.005,-0.000,0.003
1495974785024,0.000,-0.002,0.000,-0.001
1495974785042,0.001,0.001,0.001,0.001
1495974785060,-0.003,0.003,-0.002,0.002
1495974785075,-0.005,0.002,-0.002,0.001
1495974785091,0.001,-0.002,0.000,-0.001
1495974785109,-0.004,0.002,-0.002,0.001
1495974785126,-0.001,-0.002,-0.001,-0.001
1495974785144,-0.001,0.001,-0.001,0.000
1495974785159,0.000,-0.004,0.000,-0.002
1495974785175,0.002,0.002,0.001,0.001
1495974785192,0.002,0.000,0.001,0.000
1495974785207,0.001,0.002,0.001,0.001
1495974785225,-0.000,0.002,-0.000,0.001
1495974785242,-0.001,-0.001,-0.001,-0.001
1495974785260,-0.002,0.001,-0.001,0.001
1495974785276,0.001,0.002,0.001,0.001
1495974785309,-0.000,-0.002,-0.000,-0.001
1495974785326,0.002,0.001,0.001,0.001
1495974785344,-0.004,-0.004,-0.002,-0.002
1495974785360,-0.003,-0.001,-0.002,-0.001
1495974785375,-0.001,0.004,-0.001,0.002
1495974785392,0.000,0.003,0.000,0.001
1495974785407,0.004,0.002,0.002,0.001
1495974785425,-0.000,0.000,-0.000,0.000
1495974785443,0.003,0.002,0.001,0.001
1495974785460,-0.000,0.001,-0.000,0.000
1495974785476,-0.001,-0.000,-0.000,-0.000
1495974785491,-0.003,-0.001,-0.002,-0.001
1495974785508,0.003,-0.002,0.001,-0.001
1495974785524,-0.003,0.000,-0.001,0.000
1495974785541,-0.005,0.003,-0.003,0.002
1495974785559,-0.001,0.002,-0.000,0.001
1495974785592,-0.002,0.003,-0.001,0.001
1495974785608,0.000,0.001,0.000,0.000
1495974785623,-0.001,-0.000,-0.000,-0.000
1495974785639,-0.005,-0.001,-0.003,-0.001
1495974785656,0.000,-0.002,0.000,-0.001
1495974785674,0.002,-0.000,0.001,-0.000
1495974785692,-0.002,-0.004,-0.001,-0.002
1495974785709,-0.000,-0.003,-0.000,-0.001
1495974785727,-0.004,0.002,-0.002,0.001
1495974785742,-0.004,0.004,-0.002,0.002
1495974785758,0.001,0.001,0.000,0.001
1495974785776,-0.002,0.003,-0.001,0.001
1495974785793,0.005,0.001,0.003,0.001
1495974785811,0.003,0.000,0.002,0.000
1495974785826,-0.002,-0.004,-0.001,-0.002
1495974785842,-0.005,0.003,-0.003,0.001
1495974785859,0.004,0.000,0.002,0.000
1495974785890,0.004,0.001,0.002,0.001
1495974785907,-0.002,0.004,-0.001,0.002
1495974785925,-0.003,0.001,-0.002,0.001
1495974785943,-0.001,-0.000,-0.000,-0.000
1495974785960,-0.003,0.004,-0.002,0.002
1495974785976,0.001,-0.001,0.001,-0.001
1495974785991,-0.000,-0.002,-0.000,-0.001
1495974786008,-0.005,0.002,-0.002,0.001
1495974786024,-0.001,-0.002,-0.001,-0.001
1495974786041,-0.002,0.001,-0.001,0.000
1495974786059,0.004,-0.002,0.002,-0.001
1495974786076,0.003,-0.003,0.002,-0.002
1495974786094,0.005,0.004,0.002,0.002
1495974786129,0.001,0.000,0.001,0.000
1495974786147,-0.004,0.001,-0.002,0.001
1495974786164,-0.004,0.001,-0.002,0.001
1495974786182,0.002,0.003,0.001,0.001
1495974786200,0.001,0.002,0.000,0.001
1495974786217,-0.002,0.001,-0.001,0.000
1495974786235,-0.005,-0.001,-0.002,-0.000
1495974786237,-0.004,0.001,-0.002,0.001
1495974786253,-0.002,0.001,-0.001,0.001
1495974786271,0.002,0.002,0.001,0.001
1495974786289,-0.002,-0.002,-0.001,-0.001
1495974786306,0.002,0.002,0.001,0.001
1495974786324,-0.001,0.003,-0.001,0.001
1495974786341,-0.001,-0.001,-0.000,-0.000
1495974786360,0.003,-0.001,0.001,-0.000
1495974786378,-0.004,0.001,-0.002,0.000
1495974786393,-0.001,0.001,-0.000,0.001
1495974786411,-0.007,-0.001,-0.003,-0.001
1495974786426,-0.005,-0.004,-0.002,-0.002
1495974786459,0.001,-0.004,0.000,-0.002
1495974786474,0.001,0.001,0.000,0.000
1495974786492,0.006,-0.003,0.003,-0.002
1495974786509,0.003,-0.001,0.001,-0.000
1495974786527,-0.003,0.001,-0.001,0.001
1495974786543,-0.000,0.001,-0.000,0.000
1495974786558,0.004,0.000,0.002,0.000
1495974786575,0.002,0.000,0.001,0.000
1495974786590,-0.001,0.000,-0.001,0.000
1495974786608,-0.005,-0.002,-0.002,-0.001
1495974786641,-0.004,0.001,-0.002,0.000
1495974786659,0.002,0.002,0.001,0.001
1495974786676,0.002,-0.001,0.001,-0.000
1495974786694,0.001,-0.001,0.000,-0.000
1495974786710,-0.002,0.002,-0.001,0.001
1495974786725,-0.001,0.004,-0.000,0.002
1495974786742,-0.001,0.002,-0.000,0.001
1495974786757,-0.001,-0.000,-0.001,-0.000
1495974786806,-0.002,0.003,-0.001,0.001
1495974786822,-0.003,0.000,-0.001,0.000
1495974786840,-0.002,0.002,-0.001,0.001
1495974786858,-0.001,0.004,-0.001,0.002
1495974786876,0.002,-0.001,0.001,-0.000
1495974786893,0.000,0.001,0.000,0.000
1495974786909,-0.001,-0.003,-0.000,-0.001
1495974786926,0.001,0.002,0.000,0.001
1495974786944,-0.000,0.001,-0.000,0.001
1495974786962,-0.002,-0.001,-0.001,-0.000
1495974786979,-0.000,0.001,-0.000,0.000
1495974786997,0.001,0.002,0.000,0.001
1495974787014,-0.005,0.000,-0.002,0.000
1495974787030,-0.004,0.000,-0.002,0.000
1495974787046,-0.001,0.002,-0.000,0.001
1495974787063,0.002,0.001,0.001,0.001
1495974787081,0.002,-0.003,0.001,-0.002
1495974787096,0.001,-0.000,0.001,-0.000
1495974787112,0.002,0.003,0.001,0.002
1495974787130,-0.005,-0.001,-0.003,-0.001
1495974787147,-0.005,0.003,-0.002,0.002
1495974787163,-0.001,0.001,-0.001,0.000
1495974787178,-0.002,0.003,-0.001,0.001
1495974787195,0.001,-0.001,0.001,-0.001
1495974787211,-0.005,0.000,-0.002,0.000
1495974787228,-0.003,0.000,-0.001,0.000
1495974787246,-0.004,-0.004,-0.002,-0.002
1495974787263,0.004,-0.002,0.002,-0.001
1495974787279,0.000,0.001,0.000,0.000
1495974787295,-0.003,-0.001,-0.001,-0.001
1495974787310,-0.000,0.001,-0.000,0.000
1495974787326,0.001,-0.000,0.000,-0.000
1495974787343,-0.001,0.001,-0.000,0.000
1495974787361,0.001,0.002,0.000,0.001
1495974787379,0.000,0.000,0.000,0.000
1495974787396,0.000,0.002,0.000,0.001
1495974787414,-0.001,0.001,-0.001,0.000
1495974787429,-0.001,-0.001,-0.001,-0.001
1495974787445,0.001,0.003,0.000,0.002
1495974787462,-0.001,0.005,-0.000,0.002
1495974787477,0.001,0.000,0.000,0.000
1495974787495,-0.004,0.000,-0.002,0.000
1495974787512,-0.002,0.001,-0.001,0.000
1495974787546,-0.005,0.003,-0.002,0.001
1495974787561,0.001,-0.001,0.000,-0.000
1495974787577,-0.001,0.001,-0.000,0.000
1495974787594,-0.002,-0.002,-0.001,-0.001
1495974787612,-0.002,-0.000,-0.001,-0.000
1495974787630,-0.000,0.005,-0.000,0.002
1495974787647,0.005,0.003,0.002,0.002
1495974787663,-0.001,0.001,-0.000,0.000
1495974787678,0.000,0.004,0.000,0.002
1495974787695,-0.006,0.003,-0.003,0.001
1495974787711,-0.004,-0.001,-0.002,-0.000
1495974787728,-0.003,-0.001,-0.002,-0.000
1495974787746,0.002,-0.000,0.001,-0.000
1495974787763,-0.001,-0.002,-0.001,-0.001
1495974787781,-0.003,-0.001,-0.001,-0.001
1495974787797,-0.003,-0.006,-0.001,-0.003
1495974787829,-0.001,-0.006,-0.001,-0.003
1495974787844,0.003,-0.001,0.001,-0.000
1495974787862,0.001,0.002,0.001,0.001
1495974787880,-0.002,0.001,-0.001,0.000
1495974787897,-0.004,-0.002,-0.002,-0.001
1495974787913,-0.003,0.001,-0.001,0.000
1495974787928,0.000,0.002,0.000,0.001
1495974787945,-0.001,0.000,-0.001,0.000
1495974787961,-0.003,0.001,-0.001,0.000
1495974787978,-0.005,-0.004,-0.002,-0.002
1495974787996,-0.001,-0.000,-0.001,-0.000
1495974788013,-0.000,0.001,-0.000,0.000
1495974788047,0.002,-0.006,0.001,-0.003
1495974788062,-0.002,0.001,-0.001,0.000
1495974788079,-0.003,-0.000,-0.001,-0.000
1495974788094,-0.001,0.003,-0.000,0.001
1495974788112,-0.003,0.001,-0.001,0.001
1495974788130,0.001,-0.002,0.000,-0.001
1495974788147,-0.000,-0.001,-0.000,-0.001
1495974788163,-0.001,-0.003,-0.001,-0.001
1495974788178,-0.003,-0.004,-0.001,-0.002
1495974788195,-0.003,0.001,-0.001,0.001
1495974788211,-0.001,-0.001,-0.000,-0.001
1495974788228,-0.002,0.002,-0.001,0.001
1495974788246,-0.002,0.001,-0.001,0.000
1495974788263,-0.001,-0.000,-0.000,-0.000
1495974788295,-0.003,0.003,-0.001,0.001
1495974788310,0.002,0.000,0.001,0.000
1495974788328,-0.000,0.003,-0.000,0.001
1495974788345,0.007,-0.001,0.003,-0.001
1495974788363,-0.004,-0.002,-0.002,-0.001
1495974788381,-0.000,0.003,-0.000,0.001
1495974788396,0.001,0.003,0.000,0.001
1495974788412,0.000,-0.004,0.000,-0.002
1495974788428,-0.001,0.001,-0.000,0.001
1495974788444,-0.001,-0.003,-0.000,-0.001
1495974788462,-0.006,0.002,-0.003,0.001
1495974788479,-0.006,-0.002,-0.003,-0.001
1495974788497,-0.001,-0.000,-0.001,-0.000
1495974788528,-0.000,-0.004,-0.000,-0.002
1495974788544,-0.000,-0.000,-0.000,-0.000
1495974788560,0.003,-0.000,0.001,-0.000
1495974788576,-0.004,-0.002,-0.002,-0.001
1495974788593,0.002,-0.003,0.001,-0.001
1495974788611,0.000,-0.001,0.000,-0.000
1495974788629,-0.003,0.001,-0.001,0.000
1495974788646,-0.004,-0.001,-0.002,-0.000
1495974788664,-0.003,-0.001,-0.001,-0.000
1495974788679,-0.001,-0.004,-0.000,-0.002
1495974788695,-0.004,0.001,-0.002,0.000
1495974788727,0.001,-0.005,0.000,-0.002
1495974788745,0.001,-0.006,0.000,-0.002
1495974788762,-0.000,-0.001,-0.000,-0.000
1495974788811,-0.002,-0.002,-0.001,-0.001
1495974788827,0.002,0.003,0.001,0.001
1495974788844,-0.002,0.002,-0.001,0.001
1495974788862,-0.002,0.004,-0.001,0.002
1495974788880,0.000,0.002,0.000,0.001
1495974788897,-0.004,0.002,-0.001,0.001
1495974788915,-0.005,-0.006,-0.002,-0.003
1495974788932,-0.003,-0.001,-0.001,-0.000
1495974788948,-0.002,-0.004,-0.001,-0.001
1495974788966,0.001,-0.002,0.000,-0.001
1495974788983,0.001,-0.003,0.000,-0.001
1495974789001,-0.003,0.001,-0.001,0.000
1495974789016,-0.003,-0.000,-0.001,-0.000
1495974789032,0.001,0.004,0.000,0.001
1495974789049,0.004,-0.002,0.002,-0.001
1495974789064,0.009,0.034,0.004,0.013
1495974789082,0.003,-0.017,0.001,-0.007
1495974789099,-0.003,-0.000,-0.001,-0.000
1495974789118,-0.003,-0.003,-0.001,-0.001
1495974789136,0.001,-0.003,0.000,-0.001
1495974789153,0.008,-0.001,0.003,-0.000
1495974789171,-0.001,0.003,-0.001,0.001
1495974789188,0.001,-0.000,0.000,-0.000
1495974789204,-0.005,-0.019,-0.002,-0.008
1495974789222,-0.003,0.002,-0.001,0.001
1495974789239,0.004,0.002,0.002,0.001
1495974789257,0.000,-0.008,0.000,-0.003
1495974789274,0.004,-0.002,0.002,-0.001
1495974789292,-0.002,0.001,-0.001,0.000
1495974789294,-0.002,0.000,-0.001,0.000
1495974789311,-0.000,-0.001,-0.000,-0.000
1495974789328,0.000,-0.003,0.000,-0.001
1495974789346,0.000,-0.002,0.000,-0.001
1495974789363,-0.005,-0.003,-0.002,-0.001
1495974789381,-0.005,0.001,-0.002,0.000
1495974789399,-0.000,0.001,-0.000,0.000
1495974789416,0.002,-0.000,0.001,-0.000
1495974789434,0.002,0.005,0.001,0.002
1495974789449,0.003,-0.002,0.001,-0.001
1495974789465,-0.006,0.001,-0.002,0.000
1495974789482,-0.004,0.001,-0.002,0.000
1495974789515,0.003,0.002,0.001,0.001
1495974789532,0.000,-0.000,0.000,-0.000
1495974789550,-0.002,0.002,-0.001,0.001
1495974789568,-0.004,-0.001,-0.001,-0.001
1495974789583,-0.002,-0.001,-0.001,-0.000
1495974789599,-0.003,-0.002,-0.001,-0.001
1495974789615,0.004,0.003,0.001,0.001
1495974789631,0.003,0.000,0.001,0.000
1495974789649,-0.005,0.001,-0.002,0.000
1495974789666,-0.004,-0.002,-0.002,-0.001
1495974789684,0.002,0.000,0.001,0.000
1495974789699,-0.003,0.002,-0.001,0.001
1495974789715,0.003,0.003,0.001,0.001
1495974789732,-0.002,-0.002,-0.001,-0.001
1495974789747,-0.002,0.001,-0.001,0.000
1495974789782,-0.002,-0.002,-0.001,-0.001
1495974789800,0.001,0.003,0.000,0.001
1495974789818,0.001,-0.002,0.001,-0.001
1495974789833,-0.000,-0.001,-0.000,-0.000
1495974789849,0.000,-0.001,0.000,-0.000
1495974789865,0.002,0.001,0.001,0.000
1495974789881,0.004,0.002,0.002,0.001
1495974789899,-0.001,0.002,-0.001,0.001
1495974789916,0.003,0.005,0.001,0.002
1495974789934,-0.001,-0.003,-0.000,-0.001
1495974789949,-0.003,-0.001,-0.001,-0.001
1495974789965,-0.002,0.003,-0.001,0.001
1495974789981,-0.002,-0.004,-0.001,-0.001
1495974789996,0.002,0.001,0.001,0.000
1495974790014,0.002,-0.000,0.001,-0.000
1495974790031,-0.000,0.001,-0.000,0.000
1495974790049,-0.004,-0.003,-0.002,-0.001
1495974790067,-0.003,0.003,-0.001,0.001
1495974790084,-0.001,0.002,-0.000,0.001
1495974790100,0.005,-0.000,0.002,-0.000
1495974790132,0.004,-0.000,0.001,-0.000
1495974790148,-0.005,-0.003,-0.002,-0.001
1495974790165,0.001,-0.003,0.000,-0.001
1495974790183,-0.002,0.004,-0.001,0.001
1495974790200,-0.000,0.005,-0.000,0.002
1495974790218,0.002,0.000,0.001,0.000
1495974790234,-0.001,-0.006,-0.000,-0.002
1495974790249,0.000,-0.004,0.000,-0.001
1495974790266,-0.002,-0.001,-0.001,-0.000
1495974790281,0.005,0.002,0.002,0.001
1495974790299,0.000,0.003,0.000,0.001
1495974790317,-0.004,-0.001,-0.001,-0.000
1495974790334,-0.006,0.003,-0.002,0.001
1495974790365,-0.006,-0.001,-0.002,-0.001
1495974790382,0.001,-0.001,0.000,-0.000
1495974790398,0.006,0.001,0.002,0.000
1495974790412,-0.002,-0.000,-0.001,-0.000
1495974790429,-0.002,0.003,-0.001,0.001
1495974790447,-0.004,0.003,-0.002,0.001
1495974790464,-0.004,0.006,-0.001,0.002
1495974790482,-0.001,0.004,-0.000,0.002
1495974790501,-0.002,-0.000,-0.001,-0.000
1495974790518,0.004,0.005,0.001,0.002
1495974790534,-0.002,0.000,-0.001,0.000
1495974790551,-0.001,-0.000,-0.000,-0.000
1495974790567,-0.002,-0.008,-0.001,-0.003
1495974790583,0.006,-0.000,0.002,-0.000
1495974790599,0.004,0.001,0.001,0.000
1495974790615,0.004,0.000,0.002,0.000
1495974790648,-0.000,-0.005,-0.000,-0.002
1495974790666,-0.003,0.003,-0.001,0.001
1495974790683,-0.004,0.001,-0.001,0.000
1495974790701,-0.003,-0.002,-0.001,-0.001
1495974790716,0.002,-0.003,0.001,-0.001
1495974790732,-0.003,-0.003,-0.001,-0.001
1495974790749,-0.001,0.001,-0.000,0.000
1495974790764,0.006,0.000,0.002,0.000
1495974790813,0.001,0.001,0.000,0.000
1495974790829,0.002,-0.002,0.001,-0.001
1495974790847,-0.004,-0.004,-0.002,-0.001
1495974790865,0.001,-0.004,0.000,-0.002
1495974790882,-0.002,0.003,-0.001,0.001
1495974790900,0.002,0.001,0.001,0.000
1495974790918,0.006,-0.001,0.002,-0.000
1495974790935,0.002,-0.001,0.001,-0.000
1495974790953,0.000,0.000,0.000,0.000
1495974790970,-0.003,-0.004,-0.001,-0.001
1495974790988,0.001,-0.000,0.000,-0.000
1495974791004,0.002,-0.002,0.001,-0.001
1495974791019,-0.001,0.001,-0.000,0.000
1495974791036,0.004,0.005,0.001,0.002
1495974791051,-0.002,0.002,-0.001,0.001
1495974791069,-0.003,-0.001,-0.001,-0.001
1495974791087,-0.001,0.004,-0.000,0.002
1495974791104,-0.003,-0.004,-0.001,-0.001
1495974791122,0.000,-0.001,0.000,-0.000
1495974791137,0.001,-0.003,0.001,-0.001
1495974791153,-0.002,0.000,-0.001,0.000
1495974791170,0.001,0.000,0.000,0.000
1495974791185,0.002,-0.005,0.001,-0.002
1495974791203,0.002,-0.001,0.001,-0.000
1495974791220,0.000,0.004,0.000,0.001
1495974791238,-0.000,0.004,-0.000,0.002
1495974791254,-0.000,0.003,-0.000,0.001
1495974791269,0.001,0.002,0.000,0.001
1495974791286,0.000,-0.001,0.000,-0.000
1495974791301,0.001,-0.002,0.000,-0.001
1495974791319,-0.001,0.001,-0.000,0.000
1495974791337,-0.001,0.003,-0.001,0.001
1495974791354,-0.004,-0.001,-0.001,-0.000
1495974791372,-0.001,-0.002,-0.000,-0.001
1495974791387,0.002,0.001,0.001,0.000
1495974791403,-0.003,-0.003,-0.001,-0.001
1495974791420,-0.004,0.003,-0.001,0.001
1495974791451,0.001,-0.000,0.000,-0.000
1495974791468,0.001,0.004,0.000,0.001
1495974791486,0.004,-0.002,0.002,-0.001
1495974791504,0.003,-0.002,0.001,-0.001
1495974791521,0.003,-0.003,0.001,-0.001
1495974791537,0.001,-0.000,0.001,-0.000
1495974791552,-0.002,-0.002,-0.001,-0.001
1495974791569,0.002,0.001,0.001,0.000
1495974791585,-0.002,-0.002,-0.001,-0.001
1495974791602,0.003,0.002,0.001,0.001
1495974791620,-0.005,-0.002,-0.002,-0.001
1495974791637,-0.001,0.003,-0.000,0.001
1495974791653,0.001,0.002,0.000,0.001
1495974791669,0.001,0.001,0.000,0.000
1495974791702,0.001,0.002,0.000,0.001
1495974791719,0.000,-0.001,0.000,-0.000
1495974791737,-0.002,0.001,-0.001,0.000
1495974791755,-0.003,-0.002,-0.001,-0.001
1495974791770,0.006,0.000,0.002,0.000
1495974791786,-0.000,-0.001,-0.000,-0.001
1495974791802,-0.000,0.000,-0.000,0.000
1495974791818,-0.000,-0.001,-0.000,-0.001
1495974791836,-0.000,0.000,-0.000,0.000
1495974791853,0.001,-0.003,0.000,-0.001
1495974791871,0.003,-0.003,0.001,-0.001
1495974791886,-0.004,-0.001,-0.001,-0.000
1495974791902,-0.001,0.001,-0.000,0.000
1495974791918,-0.004,-0.002,-0.001,-0.001
1495974791935,-0.002,-0.003,-0.001,-0.001
1495974791953,0.001,0.000,0.000,0.000
1495974791970,-0.000,-0.002,-0.000,-0.001
1495974792004,-0.001,-0.002,-0.000,-0.001
1495974792019,-0.002,-0.003,-0.001,-0.001
1495974792036,-0.001,0.003,-0.000,0.001
1495974792051,-0.001,-0.001,-0.000,-0.000
1495974792069,0.001,0.002,0.000,0.001
1495974792088,0.005,0.001,0.002,0.000
1495974792105,-0.002,0.002,-0.001,0.001
1495974792123,-0.007,-0.003,-0.002,-0.001
1495974792140,-0.001,-0.003,-0.000,-0.001
1495974792158,-0.001,-0.003,-0.000,-0.001
1495974792176,0.002,-0.001,0.001,-0.000
1495974792191,0.001,0.002,0.000,0.001
1495974792209,-0.005,-0.002,-0.002,-0.001
1495974792226,-0.002,0.002,-0.001,0.001
1495974792244,-0.001,-0.000,-0.000,-0.000
1495974792262,0.004,0.000,0.001,0.000
1495974792279,0.004,-0.003,0.001,-0.001
1495974792298,-0.000,0.001,-0.000,0.000
1495974792315,0.001,0.002,0.000,0.001
1495974792333,-0.005,0.003,-0.002,0.001
1495974792351,-0.002,0.003,-0.001,0.001
1495974792368,0.004,-0.001,0.001,-0.000
1495974792386,0.002,-0.001,0.001,-0.000
1495974792403,-0.005,-0.003,-0.002,-0.001
1495974792421,-0.004,0.001,-0.001,0.000
1495974792437,0.000,0.000,0.000,0.000
1495974792452,-0.001,0.002,-0.000,0.001
1495974792485,0.001,0.002,0.000,0.001
1495974792503,-0.002,-0.003,-0.001,-0.001
1495974792521,-0.002,0.002,-0.001,0.001
1495974792536,-0.001,0.001,-0.000,0.000
1495974792552,0.002,0.002,0.001,0.001
1495974792567,-0.000,-0.004,-0.000,-0.001
1495974792585,-0.003,-0.000,-0.001,-0.000
1495974792603,0.001,-0.002,0.000,-0.001
1495974792620,0.002,0.004,0.001,0.001
1495974792638,-0.002,-0.001,-0.001,-0.000
1495974792655,0.000,0.001,0.000,0.000
1495974792673,0.000,0.004,0.000,0.001
1495974792691,-0.005,0.001,-0.002,0.000
1495974792708,-0.002,0.006,-0.001,0.002
1495974792726,-0.002,-0.001,-0.001,-0.000
1495974792743,-0.001,0.002,-0.000,0.001
1495974792761,0.001,-0.002,0.000,-0.001
1495974792779,0.001,0.000,0.000,0.000
1495974792812,-0.001,0.002,-0.000,0.001
1495974792827,-0.004,0.002,-0.001,0.001
1495974792850,-0.002,0.001,-0.001,0.000
1495974792868,0.004,-0.001,0.001,-0.000
1495974792885,-0.000,0.001,-0.000,0.000
1495974792903,-0.003,0.002,-0.001,0.001
1495974792920,-0.005,0.000,-0.002,0.000
1495974792938,-0.004,0.003,-0.001,0.001
1495974792956,0.003,-0.005,0.001,-0.002
1495974792973,-0.002,-0.001,-0.001,-0.000
1495974792989,-0.004,-0.001,-0.001,-0.000
1495974793004,-0.004,0.001,-0.001,0.000
1495974793021,-0.002,-0.004,-0.001,-0.001
1495974793037,0.001,0.000,0.000,0.000
1495974793054,0.000,0.002,0.000,0.001
1495974793073,-0.001,0.000,-0.000,0.000
1495974793091,-0.005,0.001,-0.002,0.000
1495974793109,0.000,0.002,0.000,0.001
1495974793127,-0.001,0.003,-0.000,0.001
1495974793144,-0.001,-0.001,-0.000,-0.000
1495974793162,0.005,-0.002,0.002,-0.001
1495974793180,-0.001,0.000,-0.000,0.000
1495974793198,-0.004,-0.002,-0.001,-0.001
1495974793200,-0.004,0.001,-0.001,0.000
1495974793217,0.001,0.002,0.000,0.000
1495974793234,0.001,-0.001,0.000,-0.000
1495974793269,0.001,-0.001,0.000,-0.000
1495974793287,-0.000,0.002,-0.000,0.001
1495974793305,0.000,-0.002,0.000,-0.001
1495974793322,-0.003,0.005,-0.001,0.002
1495974793340,0.003,-0.001,0.001,-0.000
1495974793355,0.002,-0.003,0.001,-0.001
1495974793371,0.001,0.002,0.000,0.000
1495974793390,0.002,-0.001,0.001,-0.000
1495974793407,0.002,-0.004,0.001,-0.001
1495974793425,-0.002,-0.002,-0.001,-0.001
1495974793442,-0.002,0.001,-0.001,0.000
1495974793460,0.000,-0.003,0.000,-0.001
1495974793478,0.002,-0.002,0.001,-0.001
1495974793495,-0.002,-0.003,-0.001,-0.001
1495974793513,0.000,-0.002,0.000,-0.001
1495974793532,-0.005,0.000,-0.001,0.000
1495974793566,0.002,0.002,0.001,0.001
1495974793568,-0.002,-0.003,-0.001,-0.001
1495974793584,0.003,-0.003,0.001,-0.001
1495974793603,-0.003,-0.002,-0.001,-0.001
1495974793620,-0.001,0.002,-0.000,0.001
1495974793639,0.003,0.001,0.001,0.000
1495974793657,0.001,0.000,0.000,0.000
1495974793672,-0.001,-0.001,-0.000,-0.000
1495974793688,-0.003,0.002,-0.001,0.001
1495974793703,0.001,0.003,0.000,0.001
1495974793722,-0.003,-0.000,-0.001,-0.000
1495974793740,0.003,0.000,0.001,0.000
1495974793757,-0.000,0.001,-0.000,0.000
1495974793773,-0.002,-0.001,-0.000,-0.000
1495974793788,-0.003,0.000,-0.001,0.000
1495974793805,-0.010,0.001,-0.003,0.000
1495974793821,0.000,0.000,0.000,0.000
1495974793838,0.001,-0.001,0.000,-0.000
1495974793856,-0.000,0.001,-0.000,0.000
1495974793873,-0.003,0.001,-0.001,0.000
1495974793891,-0.004,-0.003,-0.001,-0.001
1495974793922,0.001,0.002,0.000,0.001
1495974793939,0.004,-0.003,0.001,-0.001
1495974793954,0.001,-0.001,0.000,-0.000
1495974793972,-0.002,-0.001,-0.000,-0.000
1495974793990,-0.004,0.001,-0.001,0.000
1495974794007,0.005,0.002,0.001,0.001
1495974794023,-0.001,0.003,-0.000,0.001
1495974794038,-0.000,0.003,-0.000,0.001
1495974794055,-0.003,-0.002,-0.001,-0.001
1495974794071,-0.002,0.001,-0.000,0.000
1495974794088,-0.000,-0.001,-0.000,-0.000
1495974794106,-0.002,-0.001,-0.000,-0.000
1495974794139,0.000,-0.001,0.000,-0.000
1495974794155,0.002,-0.003,0.001,-0.001
1495974794170,0.000,-0.001,0.000,-0.000
1495974794188,-0.003,0.003,-0.001,0.001
1495974794205,-0.002,-0.000,-0.001,-0.000
1495974794224,-0.004,0.001,-0.001,0.000
1495974794242,0.005,-0.002,0.001,-0.001
1495974794259,0.003,-0.001,0.001,-0.000
1495974794277,-0.002,-0.001,-0.001,-0.000
1495974794294,-0.000,-0.002,-0.000,-0.000
1495974794312,0.003,0.003,0.001,0.001
1495974794328,-0.002,-0.001,-0.000,-0.000
1495974794345,0.000,0.002,0.000,0.000
1495974794363,0.001,-0.002,0.000,-0.001
1495974794380,-0.005,0.002,-0.001,0.000
1495974794398,-0.005,-0.000,-0.001,-0.000
1495974794416,-0.002,0.004,-0.000,0.001
1495974794434,0.003,0.000,0.001,0.000
1495974794452,-0.000,-0.001,-0.000,-0.000
1495974794469,-0.001,0.000,-0.000,0.000
1495974794487,-0.002,0.002,-0.001,0.001
1495974794505,-0.001,0.004,-0.000,0.001
1495974794522,-0.001,-0.004,-0.000,-0.001
1495974794540,-0.001,0.003,-0.000,0.001
1495974794557,-0.003,0.002,-0.001,0.000
1495974794573,-0.002,-0.000,-0.000,-0.000
1495974794589,-0.006,0.002,-0.002,0.001
1495974794605,0.002,0.001,0.001,0.000
1495974794638,-0.001,-0.001,-0.000,-0.000
1495974794656,-0.002,-0.002,-0.001,-0.000
1495974794672,-0.004,-0.000,-0.001,-0.000
1495974794689,-0.004,-0.004,-0.001,-0.001
1495974794707,0.003,-0.003,0.001,-0.001
1495974794724,0.002,0.002,0.001,0.001
1495974794740,0.001,-0.000,0.000,-0.000
1495974794757,-0.004,-0.001,-0.001,-0.000
1495974794805,-0.004,0.001,-0.001,0.000
1495974794837,0.001,-0.000,0.000,-0.000
1495974794854,0.004,-0.002,0.001,-0.000
1495974794872,0.002,0.003,0.001,0.001
1495974794887,-0.003,0.005,-0.001,0.001
1495974794905,-0.002,-0.000,-0.001,-0.000
1495974794923,-0.005,-0.002,-0.001,-0.001
1495974794940,-0.000,-0.000,-0.000,-0.000
1495974794958,0.002,0.001,0.001,0.000
1495974794976,-0.001,-0.003,-0.000,-0.001
1495974794977,-0.001,-0.001,-0.000,-0.000
1495974795010,0.002,-0.002,0.001,-0.000
1495974795012,0.002,0.001,0.001,0.000
1495974795027,0.004,-0.000,0.001,-0.000
1495974795045,0.001,-0.002,0.000,-0.001
1495974795062,0.004,-0.004,0.001,-0.001
1495974795081,-0.000,0.002,-0.000,0.000
1495974795098,-0.000,0.003,-0.000,0.001
1495974795113,-0.002,-0.002,-0.001,-0.001
1495974795131,0.003,0.000,0.001,0.000
1495974795148,-0.002,-0.001,-0.001,-0.000
1495974795166,-0.005,-0.001,-0.001,-0.000
1495974795184,-0.003,0.001,-0.001,0.000
1495974795201,0.001,0.000,0.000,0.000
1495974795217,0.002,-0.000,0.000,-0.000
1495974795232,0.001,-0.003,0.000,-0.001
1495974795249,-0.003,-0.001,-0.001,-0.000
1495974795265,-0.002,0.000,-0.001,0.000
1495974795282,-0.005,0.002,-0.001,0.001
1495974795300,-0.000,-0.002,-0.000,-0.000
1495974795317,0.003,0.001,0.001,0.000
1495974795333,0.003,0.000,0.001,0.000
1495974795349,0.001,-0.001,0.000,-0.000
1495974795365,-0.000,0.004,-0.000,0.001
1495974795381,-0.000,-0.002,-0.000,-0.000
1495974795398,-0.001,-0.001,-0.000,-0.000
1495974795416,0.002,-0.001,0.001,-0.000
1495974795434,0.004,-0.000,0.001,-0.000
1495974795451,0.000,-0.004,0.000,-0.001
1495974795467,-0.002,0.001,-0.000,0.000
1495974795482,-0.002,-0.001,-0.000,-0.000
1495974795499,-0.001,-0.003,-0.000,-0.001
1495974795532,0.002,0.003,0.000,0.001
1495974795550,-0.001,-0.001,-0.000,-0.000
1495974795567,-0.002,-0.000,-0.000,-0.000
1495974795583,-0.002,-0.002,-0.000,-0.001
1495974795599,0.002,-0.002,0.001,-0.000
1495974795615,0.001,0.003,0.000,0.001
1495974795631,0.004,-0.003,0.001,-0.001
1495974795648,-0.003,-0.002,-0.001,-0.001
1495974795666,-0.002,-0.000,-0.000,-0.000
1495974795684,-0.002,0.000,-0.000,0.000
1495974795701,0.003,-0.003,0.001,-0.001
1495974795717,0.002,0.001,0.000,0.000
1495974795732,-0.000,0.003,-0.000,0.001
1495974795749,-0.003,0.004,-0.001,0.001
1495974795765,-0.004,0.002,-0.001,0.001
1495974795782,0.001,-0.003,0.000,-0.001
1495974795800,-0.000,-0.002,-0.000,-0.000
1495974795817,-0.001,-0.001,-0.000,-0.000
1495974795849,-0.001,-0.001,-0.000,-0.000
1495974795866,-0.000,0.002,-0.000,0.000
1495974795884,-0.001,0.001,-0.000,0.000
1495974795901,-0.000,-0.001,-0.000,-0.000
1495974795917,-0.000,-0.000,-0.000,-0.000
1495974795933,-0.002,-0.003,-0.000,-0.001
1495974795949,-0.001,-0.001,-0.000,-0.000
1495974795965,-0.000,0.002,-0.000,0.000
1495974795981,-0.003,-0.001,-0.001,-0.000
1495974795997,-0.004,-0.000,-0.001,-0.000
1495974796015,-0.002,0.001,-0.000,0.000
1495974796032,-0.004,-0.000,-0.001,-0.000
1495974796068,-0.004,0.002,-0.001,0.000
1495974796086,-0.001,0.001,-0.000,0.000
1495974796104,0.002,0.004,0.000,0.001
1495974796121,0.004,0.002,0.001,0.000
1495974796139,-0.000,0.000,-0.000,0.000
1495974796156,0.000,-0.001,0.000,-0.000
1495974796174,-0.003,0.003,-0.001,0.001
1495974796192,-0.001,-0.002,-0.000,-0.000
1495974796209,0.000,0.000,0.000,0.000
1495974796228,0.000,-0.002,0.000,-0.000
1495974796245,-0.004,0.001,-0.001,0.000
1495974796263,-0.006,-0.001,-0.001,-0.000
1495974796281,-0.001,-0.004,-0.000,-0.001
1495974796298,-0.000,0.001,-0.000,0.000
1495974796316,0.002,0.001,0.000,0.000
1495974796333,-0.000,0.003,-0.000,0.001
1495974796351,-0.001,0.001,-0.000,0.000
1495974796367,-0.005,0.002,-0.001,0.000
1495974796382,-0.001,-0.003,-0.000,-0.001
1495974796399,0.000,-0.001,0.000,-0.000
1495974796414,-0.004,-0.000,-0.001,-0.000
1495974796432,-0.001,0.001,-0.000,0.000
1495974796450,-0.000,-0.003,-0.000,-0.001
1495974796467,0.001,-0.001,0.000,-0.000
1495974796485,-0.003,-0.001,-0.001,-0.000
1495974796500,0.000,0.003,0.000,0.001
1495974796516,-0.002,0.002,-0.000,0.000
1495974796534,-0.001,0.000,-0.000,0.000
1495974796551,-0.002,0.001,-0.000,0.000
1495974796567,0.005,-0.001,0.001,-0.000
1495974796599,0.003,-0.004,0.001,-0.001
1495974796616,0.002,-0.003,0.000,-0.000
1495974796633,-0.001,-0.003,-0.000,-0.000
1495974796649,-0.002,-0.000,-0.000,-0.000
1495974796666,-0.002,-0.005,-0.000,-0.001
1495974796684,0.002,-0.000,0.000,-0.000
1495974796700,0.002,0.002,0.000,0.000
1495974796715,-0.000,0.003,-0.000,0.000
1495974796731,-0.005,0.001,-0.001,0.000
1495974796746,-0.005,0.003,-0.001,0.000
1495974796764,-0.001,-0.001,-0.000,-0.000
1495974796782,0.002,-0.005,0.000,-0.001
1495974796815,-0.004,0.000,-0.001,0.000
1495974796832,-0.002,-0.001,-0.000,-0.000
1495974796851,-0.001,0.004,-0.000,0.001
1495974796869,-0.001,-0.002,-0.000,-0.000
1495974796886,0.001,-0.003,0.000,-0.000
1495974796904,0.004,-0.000,0.001,-0.000
1495974796921,-0.003,-0.004,-0.000,-0.001
1495974796939,0.002,0.004,0.000,0.001
1495974796957,-0.000,0.000,-0.000,0.000
1495974796974,0.006,0.002,0.001,0.000
1495974796992,-0.000,0.003,-0.000,0.000
1495974797009,-0.002,-0.002,-0.000,-0.000
1495974797011,0.003,-0.000,0.001,-0.000
1495974797046,-0.001,0.004,-0.000,0.001
1495974797064,0.002,-0.002,0.000,-0.000
1495974797082,0.002,-0.001,0.000,-0.000
1495974797099,-0.001,-0.000,-0.000,-0.000
1495974797117,-0.002,-0.003,-0.000,-0.001
1495974797133,0.003,-0.000,0.001,-0.000
1495974797148,0.001,0.001,0.000,0.000
1495974797164,-0.003,-0.003,-0.000,-0.001
1495974797181,-0.000,0.001,-0.000,0.000
1495974797199,0.003,0.004,0.001,0.001
1495974797217,-0.003,0.001,-0.000,0.000
1495974797234,-0.002,-0.003,-0.000,-0.001
1495974797250,-0.002,-0.001,-0.000,-0.000
1495974797265,0.004,-0.000,0.001,-0.000
1495974797281,0.002,0.001,0.000,0.000
1495974797314,-0.000,-0.003,-0.000,-0.000
1495974797333,0.000,-0.004,0.000,-0.001
1495974797350,0.002,0.002,0.000,0.000
1495974797366,0.002,0.002,0.000,0.000
1495974797382,-0.002,0.001,-0.000,0.000
1495974797397,0.004,0.001,0.001,0.000
1495974797415,0.001,0.002,0.000,0.000
1495974797432,-0.001,0.005,-0.000,0.001
1495974797451,-0.005,-0.001,-0.001,-0.000
1495974797469,0.002,-0.005,0.000,-0.001
1495974797486,0.001,-0.003,0.000,-0.000
1495974797504,0.004,-0.001,0.001,-0.000
1495974797521,-0.005,0.002,-0.001,0.000
1495974797539,-0.005,-0.001,-0.001,-0.000
1495974797558,-0.002,-0.000,-0.000,-0.000
1495974797575,0.005,-0.002,0.001,-0.000
1495974797593,0.001,0.002,0.000,0.000
1495974797611,-0.001,0.001,-0.000,0.000
1495974797629,-0.005,0.001,-0.001,0.000
1495974797647,-0.003,0.002,-0.001,0.000
1495974797665,0.004,-0.002,0.001,-0.000
1495974797683,0.005,-0.002,0.001,-0.000
1495974797698,-0.001,-0.006,-0.000,-0.001
1495974797716,0.000,-0.003,0.000,-0.000
1495974797734,-0.002,-0.002,-0.000,-0.000
1495974797751,-0.002,-0.002,-0.000,-0.000
1495974797767,0.002,0.002,0.000,0.000
1495974797782,-0.002,0.006,-0.000,0.001
1495974797799,-0.009,0.001,-0.001,0.000
1495974797815,-0.007,0.005,-0.001,0.001
1495974797832,0.002,0.000,0.000,0.000
1495974797850,0.004,0.001,0.001,0.000
1495974797867,0.007,-0.003,0.001,-0.000
1495974797885,0.005,-0.001,0.001,-0.000
1495974797901,0.000,-0.003,0.000,-0.001
1495974797934,0.007,0.002,0.001,0.000
1495974797951,0.005,-0.002,0.001,-0.000
1495974797967,0.009,0.002,0.001,0.000
1495974797983,0.001,-0.002,0.000,-0.000
1495974797999,0.001,0.004,0.000,0.001
1495974798015,-0.005,0.002,-0.001,0.000
1495974798032,0.001,-0.002,0.000,-0.000
1495974798050,-0.003,-0.003,-0.000,-0.001
1495974798068,-0.002,-0.001,-0.000,-0.000
1495974798083,-0.001,0.000,-0.000,0.000
1495974798099,-0.002,-0.002,-0.000,-0.000
1495974798131,0.006,0.005,0.001,0.001
1495974798149,0.002,-0.001,0.000,-0.000
1495974798166,0.003,0.002,0.000,0.000
1495974798184,0.006,0.004,0.001,0.001
1495974798199,0.000,0.005,0.000,0.001
1495974798215,-0.003,0.003,-0.001,0.001
1495974798231,-0.004,-0.001,-0.001,-0.000
1495974798248,0.001,0.001,0.000,0.000
1495974798266,0.004,-0.002,0.001,-0.000
1495974798283,0.002,0.003,0.000,0.001
1495974798301,-0.002,0.004,-0.000,0.001
1495974798317,-0.002,-0.002,-0.000,-0.000
1495974798332,0.003,-0.001,0.001,-0.000
1495974798348,0.005,-0.001,0.001,-0.000
1495974798363,0.007,0.002,0.001,0.000
1495974798381,0.003,0.002,0.001,0.000
1495974798399,-0.005,-0.002,-0.001,-0.000
1495974798416,-0.002,0.003,-0.000,0.001
1495974798434,0.003,-0.002,0.001,-0.000
1495974798452,0.007,0.004,0.002,0.001
1495974798483,-0.002,-0.002,-0.001,-0.001
1495974798499,-0.005,-0.002,-0.001,-0.000
1495974798515,-0.002,-0.001,-0.000,-0.000
1495974798533,-0.005,0.003,-0.001,0.001
1495974798550,-0.002,-0.000,-0.000,-0.000
1495974798568,-0.001,0.002,-0.000,0.000
1495974798583,-0.000,0.002,-0.000,0.000
1495974798599,0.001,0.000,0.000,0.000
1495974798615,0.001,0.002,0.000,0.000
1495974798632,0.002,-0.002,0.000,-0.001
1495974798650,0.003,-0.000,0.001,-0.000
1495974798667,0.001,-0.001,0.000,-0.000
1495974798685,-0.003,-0.004,-0.001,-0.001
1495974798701,-0.007,0.001,-0.002,0.000
1495974798716,-0.004,0.006,-0.001,0.001
1495974798733,-0.004,-0.001,-0.001,-0.000
1495974798766,0.001,0.003,0.000,0.001
1495974798846,-0.003,-0.001,-0.001,-0.000
1495974798877,0.002,0.001,0.000,0.000
1495974798896,0.001,-0.002,0.000,-0.000
1495974798913,0.005,-0.003,0.001,-0.001
1495974798931,0.006,-0.003,0.001,-0.001
1495974798949,-0.001,-0.002,-0.000,-0.000
1495974798966,-0.002,0.003,-0.000,0.001
1495974798984,-0.004,0.001,-0.001,0.000
1495974799001,0.001,0.004,0.000,0.001
1495974799003,0.000,-0.000,0.000,-0.000
1495974799020,-0.001,-0.000,-0.000,-0.000
1495974799038,-0.004,-0.002,-0.001,-0.000
1495974799055,-0.001,-0.003,-0.000,-0.001
1495974799073,-0.003,-0.001,-0.001,-0.000
1495974799090,0.004,-0.001,0.001,-0.000
1495974799108,0.004,-0.004,0.001,-0.001
1495974799126,0.004,-0.003,0.001,-0.001
1495974799143,0.002,0.002,0.000,0.000
1495974799159,-0.002,0.000,-0.000,0.000
1495974799174,-0.003,-0.001,-0.001,-0.000
1495974799191,0.000,-0.001,0.000,-0.000
1495974799207,0.002,0.004,0.000,0.001
1495974799224,0.004,0.001,0.001,0.000
1495974799242,-0.001,0.002,-0.000,0.000
1495974799259,0.000,0.001,0.000,0.000
1495974799277,0.001,-0.001,0.000,-0.000
1495974799293,0.004,0.000,0.001,0.000
1495974799308,0.000,-0.001,0.000,-0.000
1495974799325,0.001,0.003,0.000,0.001
1495974799340,-0.003,0.003,-0.001,0.001
1495974799358,-0.003,-0.000,-0.001,-0.000
1495974799376,0.002,0.001,0.000,0.000
1495974799393,0.001,0.002,0.000,0.000
1495974799409,0.002,-0.000,0.000,-0.000
1495974799424,0.001,0.001,0.000,0.000
1495974799441,-0.005,-0.000,-0.001,-0.000
1495974799457,0.003,-0.001,0.001,-0.000
1495974799474,0.003,0.001,0.001,0.000
1495974799492,0.001,-0.000,0.000,-0.000
1495974799509,-0.004,0.003,-0.001,0.001
1495974799527,-0.003,-0.002,-0.001,-0.001
1495974799543,0.001,-0.001,0.000,-0.000
1495974799558,0.004,-0.002,0.001,-0.000
1495974799575,0.003,-0.005,0.001,-0.001
1495974799590,0.000,0.001,0.000,0.000
1495974799608,-0.005,-0.001,-0.001,-0.000
1495974799626,-0.008,0.005,-0.002,0.001
1495974799643,-0.000,0.004,-0.000,0.001
1495974799659,0.005,0.003,0.001,0.001
1495974799674,0.002,0.002,0.000,0.000
1495974799691,0.004,-0.003,0.001,-0.001
1495974799707,0.001,0.002,0.000,0.000
1495974799724,0.003,0.001,0.001,0.000
1495974799742,0.003,-0.001,0.001,-0.000
1495974799759,0.000,-0.001,0.000,-0.000
1495974799777,0.001,0.001,0.000,0.000
1495974799793,0.000,-0.001,0.000,-0.000
1495974799808,0.000,-0.002,0.000,-0.000
1495974799825,0.000,-0.000,0.000,-0.000
1495974799840,-0.001,0.003,-0.000,0.001
