1495989413880,0.0010,0.0000,0.0000,0.0008
1495989413897,0.0020,0.0006,0.0003,0.0013
1495989413913,0.0030,0.0014,0.0007,0.0019
1495989413930,0.0030,0.0027,0.0013,0.0022
1495989413948,0.0020,0.0041,0.0021,0.0020
1495989413966,0.0010,0.0055,0.0027,0.0019
1495989413981,-0.0010,0.0067,0.0033,0.0012
1495989413997,0.0020,0.0075,0.0037,0.0029
1495989414013,-0.0030,0.0094,0.0047,0.0008
1495989414029,-0.0050,0.0099,0.0050,-0.0000
1495989414045,-0.0020,0.0099,0.0050,0.0015
1495989414062,-0.0010,0.0109,0.0054,0.0022
1495989414080,0.0030,0.0124,0.0062,0.0046
1495989414097,0.0020,0.0154,0.0077,0.0049
1495989414115,0.0000,0.0186,0.0093,0.0047
1495989414131,0.0030,0.0217,0.0109,0.0069
1495989414146,-0.0050,0.0263,0.0131,0.0041
1495989414163,0.0040,0.0290,0.0145,0.0092
1495989414178,0.0060,0.0351,0.0175,0.0118
1495989414196,0.0030,0.0428,0.0214,0.0122
1495989414214,0.0020,0.0507,0.0253,0.0137
1495989414231,-0.0020,0.0594,0.0297,0.0138
1495989414249,-0.0040,0.0678,0.0339,0.0150
1495989414264,0.0050,0.0769,0.0384,0.0217
1495989414280,0.0000,0.0900,0.0450,0.0225
1495989414298,0.0010,0.1027,0.0513,0.0262
1495989414315,0.0020,0.1169,0.0584,0.0302
1495989414331,0.0010,0.1323,0.0661,0.0335
1495989414346,-0.0010,0.1476,0.0737,0.0362
1495989414363,0.0010,0.1623,0.0809,0.0408
1495989414379,0.0030,0.1774,0.0884,0.0455
1495989414396,-0.0020,0.1914,0.0954,0.0464
1495989414414,0.0030,0.2028,0.1010,0.0517
1495989414429,-0.0020,0.2135,0.1062,0.0517
1495989414447,0.0040,0.2216,0.1102,0.0566
1495989414465,-0.0020,0.2292,0.1139,0.0553
1495989414482,0.0000,0.2330,0.1158,0.0572
1495989414498,0.0030,0.2374,0.1180,0.0597
1495989414513,-0.0010,0.2411,0.1198,0.0586
1495989414530,-0.0040,0.2413,0.1199,0.0570
