1495956148159,-0.003,-0.002,0.000,0.000
1495956148175,0.001,-0.002,0.000,-0.000
1495956148192,0.002,-0.005,0.000,-0.000
1495956148208,0.004,-0.001,0.000,-0.000
1495956148225,0.001,0.001,0.000,0.000
1495956148242,-0.005,-0.000,-0.000,-0.000
1495956148258,0.001,-0.002,0.000,-0.000
1495956148275,0.003,-0.001,0.000,-0.000
1495956148292,0.003,0.002,0.000,0.000
1495956148309,0.003,0.003,0.000,0.000
1495956148325,0.002,0.002,0.000,0.000
1495956148341,-0.000,-0.002,-0.000,-0.000
1495956148358,-0.006,-0.003,-0.000,-0.000
1495956148375,0.003,-0.005,0.000,-0.000
1495956148391,0.006,0.002,0.000,0.000
1495956148408,0.001,0.002,0.000,0.000
1495956148441,-0.000,0.002,-0.000,0.000
1495956148458,-0.002,-0.000,-0.000,-0.000
1495956148475,-0.003,-0.001,-0.000,-0.000
1495956148491,0.001,0.002,0.000,0.000
1495956148508,0.003,0.004,0.000,0.000
1495956148525,0.003,0.002,0.000,0.000
1495956148541,0.003,-0.002,0.000,-0.000
1495956148558,-0.003,-0.004,-0.000,-0.000
1495956148574,0.001,-0.003,0.000,-0.000
1495956148591,0.002,0.002,0.000,0.000
1495956148608,0.004,0.000,0.000,0.000
1495956148624,-0.003,-0.001,-0.000,-0.000
1495956148658,-0.000,-0.000,-0.000,-0.000
1495956148675,-0.004,-0.005,-0.000,-0.000
1495956148691,0.003,0.001,0.000,0.000
1495956148708,0.005,0.001,0.000,0.000
1495956148725,0.005,0.003,0.000,0.000
1495956148741,0.003,-0.003,0.000,-0.000
1495956148758,-0.003,-0.001,-0.000,-0.000
1495956148775,0.002,0.001,0.000,0.000
1495956148791,0.000,0.002,0.000,0.000
1495956148808,0.006,0.001,0.000,0.000
1495956148824,0.005,-0.001,0.000,-0.000
1495956148841,-0.000,-0.000,-0.000,-0.000
1495956148858,-0.006,-0.000,-0.001,-0.000
1495956148875,-0.002,-0.004,-0.000,-0.000
1495956148891,0.004,-0.001,0.000,-0.000
1495956148908,0.005,-0.002,0.000,-0.000
1495956148925,-0.003,-0.000,-0.000,-0.000
1495956148958,-0.001,-0.006,-0.000,-0.000
1495956148974,0.001,0.001,0.000,0.000
1495956148991,0.003,0.002,0.000,0.000
1495956149009,0.004,-0.003,0.000,-0.000
1495956149025,0.001,-0.002,0.000,-0.000
1495956149041,0.000,-0.002,0.000,-0.000
1495956149058,-0.002,-0.003,-0.000,-0.000
1495956149075,0.002,0.001,0.000,0.000
1495956149092,0.001,0.001,0.000,0.000
1495956149108,0.003,0.002,0.000,0.000
1495956149125,0.001,0.001,0.000,0.000
1495956149142,-0.005,0.005,-0.000,0.000
1495956149158,0.001,0.002,0.000,0.000
1495956149175,0.001,0.004,0.000,0.000
1495956149192,0.007,0.002,0.000,0.000
1495956149208,-0.000,0.002,-0.000,0.000
1495956149225,-0.002,0.005,-0.000,0.000
1495956149242,-0.001,-0.003,-0.000,-0.000
1495956149258,-0.001,0.000,-0.000,0.000
1495956149275,0.007,0.001,0.001,0.000
1495956149292,0.005,0.000,0.000,0.000
1495956149325,0.003,-0.003,0.000,-0.000
1495956149342,-0.002,-0.003,-0.000,-0.000
1495956149358,-0.002,-0.002,-0.000,-0.000
1495956149375,0.004,0.003,0.000,0.000
1495956149392,0.005,-0.002,0.000,-0.000
1495956149410,0.000,0.003,0.000,0.000
1495956149425,-0.004,-0.003,-0.000,-0.000
1495956149442,-0.002,-0.000,-0.000,-0.000
1495956149459,-0.000,-0.001,-0.000,-0.000
1495956149475,0.002,-0.000,0.000,-0.000
1495956149492,0.002,0.002,0.000,0.000
1495956149509,0.001,-0.005,0.000,-0.000
1495956149525,-0.004,-0.000,-0.000,-0.000
1495956149559,0.002,0.003,0.000,0.000
1495956149575,-0.001,0.002,-0.000,0.000
1495956149592,0.005,0.000,0.000,0.000
1495956149609,0.002,-0.002,0.000,-0.000
1495956149625,-0.003,-0.006,-0.000,-0.001
1495956149642,-0.004,-0.003,-0.000,-0.000
1495956149659,0.003,-0.003,0.000,-0.000
1495956149675,0.003,0.001,0.000,0.000
1495956149692,0.005,-0.001,0.000,-0.000
1495956149708,0.002,0.002,0.000,0.000
1495956149725,-0.004,0.002,-0.000,0.000
1495956149742,-0.002,-0.003,-0.000,-0.000
1495956149759,0.001,0.001,0.000,0.000
1495956149775,0.005,0.004,0.000,0.000
1495956149792,0.004,0.000,0.000,0.000
1495956149809,0.003,0.002,0.000,0.000
1495956149825,-0.001,0.004,-0.000,0.000
1495956149842,0.000,-0.001,0.000,-0.000
1495956149859,0.002,0.006,0.000,0.001
1495956149875,-0.001,0.066,-0.000,0.007
1495956149892,0.013,-0.074,0.001,-0.011
1495956149909,0.006,0.011,0.001,-0.000
1495956149942,-0.023,-0.012,-0.003,-0.001
1495956149959,-0.047,-0.259,-0.002,-0.022
1495956149975,-0.013,0.037,-0.001,0.005
1495956149992,0.016,0.034,0.030,-0.024
1495956150009,-0.043,-0.065,-0.003,-0.007
1495956150025,-0.037,-0.037,-0.007,-0.021
1495956150042,0.036,-0.037,0.007,-0.014
1495956150059,0.016,0.060,0.002,0.030
1495956150075,-0.039,0.050,-0.006,0.002
1495956150092,0.004,-0.068,0.001,-0.011
1495956150109,-0.021,-0.036,-0.003,-0.006
1495956150125,0.006,0.046,0.001,0.008
1495956150142,0.005,-0.019,0.001,-0.003
1495956150159,0.021,0.026,0.003,0.004
1495956150175,0.009,-0.016,0.001,-0.003
1495956150192,-0.006,0.046,-0.001,0.007
1495956150209,0.033,0.055,0.005,0.007
1495956150242,-0.004,-0.103,-0.001,-0.015
1495956150258,-0.012,0.065,-0.002,0.011
1495956150275,-0.001,0.022,-0.000,0.002
1495956150292,-0.019,0.023,-0.003,0.003
1495956150308,-0.006,-0.002,-0.001,-0.000
1495956150325,0.021,0.009,0.003,0.001
1495956150342,-0.021,-0.025,-0.003,-0.003
1495956150359,0.043,0.014,0.006,0.002
1495956150375,0.042,0.033,0.005,0.004
1495956150392,0.044,-0.062,0.006,-0.008
1495956150409,-0.032,-0.012,-0.004,-0.002
1495956150425,0.004,-0.034,0.001,-0.004
1495956150459,-0.022,0.123,-0.003,0.018
1495956150475,-0.013,-0.052,-0.002,-0.003
1495956150492,0.023,0.023,0.003,0.003
1495956150509,-0.007,-0.088,-0.000,-0.008
1495956150525,-0.005,-0.028,-0.000,-0.003
1495956150542,-0.005,-0.033,-0.000,-0.006
1495956150559,-0.013,-0.096,-0.002,-0.014
1495956150575,0.015,0.075,0.002,0.014
1495956150592,0.003,0.151,0.000,0.010
1495956150609,-0.008,-0.041,-0.001,-0.005
1495956150625,-0.023,0.056,-0.003,0.006
1495956150642,-0.021,-0.018,-0.002,-0.001
1495956150659,-0.015,-0.034,-0.002,-0.004
1495956150675,0.010,-0.071,0.001,-0.008
1495956150692,-0.018,-0.075,-0.002,-0.010
1495956150709,-0.039,-0.017,-0.005,-0.003
1495956150725,0.032,-0.021,0.004,-0.003
1495956150759,0.013,-0.078,0.002,-0.011
1495956150775,0.020,-0.116,0.003,-0.017
1495956150792,-0.008,-0.008,-0.001,-0.001
1495956150809,-0.007,0.114,-0.001,0.016
1495956150825,0.022,-0.036,0.003,-0.004
1495956150842,0.025,-0.087,0.004,-0.013
1495956150859,0.037,-0.124,0.005,-0.019
1495956150875,-0.003,0.019,-0.000,0.003
1495956150892,0.027,0.044,0.004,0.006
1495956150909,0.011,0.048,0.002,0.007
1495956150925,0.006,0.197,0.001,0.027
1495956150943,-0.017,-0.045,-0.002,-0.005
1495956150958,0.062,-0.149,0.008,-0.019
1495956150976,0.011,0.081,0.001,0.012
1495956151008,-0.018,0.012,-0.002,0.001
1495956151025,-0.021,0.005,-0.003,0.001
1495956151041,-0.020,0.003,-0.003,0.000
1495956151058,0.005,0.057,0.001,0.007
1495956151075,-0.019,-0.076,-0.002,-0.009
1495956151091,-0.020,0.198,-0.002,0.026
1495956151108,-0.014,0.011,-0.002,0.001
1495956151125,-0.006,0.069,-0.001,0.008
1495956151141,0.020,-0.030,0.002,-0.003
1495956151158,0.013,0.133,0.001,0.014
1495956151175,0.006,0.016,0.001,0.001
1495956151209,-0.022,0.050,-0.002,0.004
1495956151224,0.011,0.021,0.001,0.001
1495956151241,0.001,-0.046,0.000,-0.002
1495956151258,0.025,0.108,0.001,0.003
1495956151275,0.023,0.047,0.000,0.001
1495956151291,0.007,0.036,0.000,0.001
1495956151308,0.015,-0.091,0.004,-0.017
1495956151325,-0.052,0.130,-0.010,0.006
1495956151341,-0.007,0.096,-0.001,-0.028
1495956151358,-0.029,-0.009,-0.009,-0.002
1495956151375,0.019,-0.016,0.006,-0.006
1495956151392,-0.024,0.077,-0.004,0.016
1495956151425,-0.044,0.005,-0.009,0.001
1495956151425,0.002,-0.221,0.000,-0.045
1495956151443,0.030,0.028,0.006,0.008
1495956151459,-0.040,-0.009,-0.007,-0.002
1495956151476,0.000,0.018,0.000,0.004
1495956151492,-0.028,-0.022,-0.006,-0.005
1495956151526,-0.039,-0.102,-0.009,-0.024
1495956151542,0.009,0.091,0.002,0.025
1495956151559,-0.005,-0.013,-0.001,-0.003
1495956151576,0.022,0.088,0.005,0.021
1495956151592,-0.017,-0.143,-0.004,-0.030
1495956151609,0.033,-0.016,0.008,-0.004
1495956151626,0.013,0.041,0.003,0.010
1495956151642,0.040,0.099,0.009,0.022
1495956151659,-0.028,-0.157,-0.006,-0.034
1495956151676,-0.015,-0.056,-0.004,-0.014
1495956151693,-0.035,-0.016,-0.008,-0.004
1495956151709,-0.016,-0.070,-0.004,-0.017
1495956151726,-0.007,-0.025,-0.002,-0.007
1495956151743,-0.011,0.133,-0.003,0.034
1495956151761,0.018,0.022,0.005,0.005
1495956151776,-0.001,-0.027,-0.000,-0.007
1495956151810,-0.015,0.044,-0.004,0.011
1495956151826,-0.003,0.021,-0.001,0.005
1495956151843,0.002,0.014,0.000,0.003
1495956151860,0.031,0.075,0.007,0.018
1495956151876,-0.004,-0.023,-0.001,-0.005
1495956151893,-0.029,0.044,-0.007,0.010
1495956151910,-0.016,0.024,-0.004,0.005
1495956151930,-0.010,-0.091,-0.002,-0.020
1495956151948,-0.019,-0.028,-0.004,-0.007
1495956151966,0.011,-0.103,0.002,-0.025
1495956151981,0.012,0.066,0.003,0.018
1495956151997,0.040,0.061,0.009,0.013
1495956152013,0.019,0.055,0.005,0.013
1495956152026,-0.000,0.011,-0.000,0.002
1495956152043,0.068,0.045,0.016,0.010
1495956152060,0.033,0.031,0.007,0.006
1495956152076,-0.039,-0.062,-0.008,-0.012
1495956152093,0.007,0.004,0.002,0.001
1495956152126,0.029,0.012,0.005,0.002
1495956152143,0.020,-0.001,0.004,-0.000
1495956152160,0.007,-0.005,0.001,-0.001
1495956152176,-0.028,0.005,-0.005,0.001
1495956152193,-0.017,-0.037,-0.003,-0.007
1495956152210,0.005,0.043,0.001,0.009
1495956152226,0.017,0.026,0.003,0.005
1495956152243,-0.018,-0.073,-0.003,-0.014
1495956152260,0.014,0.010,0.003,0.002
1495956152276,0.025,0.029,0.005,0.006
1495956152293,-0.023,-0.028,-0.005,-0.005
1495956152309,0.020,0.008,0.004,0.002
1495956152326,-0.010,0.023,-0.002,0.004
1495956152360,-0.005,0.029,-0.001,0.005
1495956152378,0.030,0.073,0.006,0.014
1495956152392,0.022,0.091,0.004,0.016
1495956152409,-0.015,0.036,-0.003,0.006
1495956152426,-0.020,0.066,-0.003,0.009
1495956152443,-0.002,0.024,-0.000,0.002
1495956152460,-0.017,-0.011,-0.002,-0.001
1495956152476,-0.005,0.023,-0.000,0.001
1495956152493,-0.000,0.015,-0.000,0.001
1495956152510,0.001,0.011,0.000,0.001
1495956152526,0.003,0.010,0.000,0.001
1495956152543,0.006,0.006,0.000,0.000
1495956152560,0.002,0.010,0.000,0.000
1495956152576,-0.002,0.015,-0.000,0.000
1495956152593,0.001,0.012,0.000,0.000
1495956152609,0.000,0.009,0.000,0.000
1495956152626,0.002,0.009,0.000,0.000
1495956152643,0.002,0.011,-0.000,-0.000
1495956152660,0.002,0.008,-0.000,-0.000
1495956152676,-0.001,0.010,0.000,-0.001
1495956152710,0.003,0.009,-0.000,-0.001
1495956152726,0.002,0.013,-0.000,-0.001
1495956152743,0.003,0.013,0.000,0.000
1495956152760,0.006,0.012,0.000,0.000
1495956152776,-0.002,0.012,-0.000,0.001
1495956152793,0.002,0.008,0.000,0.000
1495956152810,-0.000,0.014,-0.000,0.001
1495956152826,0.017,0.106,0.001,0.006
1495956152843,-0.002,-0.005,-0.000,-0.000
1495956152860,0.000,0.013,0.000,0.001
1495956152876,-0.005,0.013,-0.000,0.001
1495956152893,-0.005,0.015,-0.000,0.001
1495956152910,0.001,0.002,0.000,0.000
1495956152926,0.006,0.005,0.000,0.000
1495956152943,0.002,0.000,0.000,0.000
1495956152959,-0.002,0.003,-0.000,0.000
1495956152976,0.001,-0.002,0.000,-0.000
1495956152993,0.004,-0.001,0.000,-0.000
1495956153026,-0.002,-0.001,-0.000,-0.000
1495956153043,0.003,0.000,0.000,0.000
1495956153059,0.007,0.001,0.001,0.000
1495956153076,0.006,0.000,0.001,0.000
1495956153093,0.005,-0.001,0.000,-0.000
1495956153109,-0.003,-0.003,-0.000,-0.000
1495956153126,0.002,0.005,0.000,0.000
1495956153143,0.004,-0.000,0.000,-0.000
1495956153159,0.002,-0.001,0.000,-0.000
1495956153176,-0.003,0.003,-0.000,0.000
1495956153193,0.005,-0.001,0.000,-0.000
1495956153210,0.010,-0.001,0.001,-0.000
1495956153226,0.003,-0.016,0.000,-0.001
1495956153243,-0.006,-0.039,-0.001,-0.003
1495956153259,-0.001,-0.015,-0.000,-0.001
1495956153276,-0.000,-0.020,-0.000,-0.002
1495956153293,0.003,-0.014,0.000,-0.001
1495956153326,0.008,-0.012,0.001,-0.001
1495956153343,0.004,-0.010,0.000,-0.001
1495956153359,-0.003,-0.015,-0.000,-0.001
1495956153377,-0.007,-0.014,-0.001,-0.001
1495956153410,0.000,-0.017,0.000,-0.001
1495956153410,0.007,-0.017,0.000,-0.001
1495956153426,0.005,-0.016,0.000,-0.001
1495956153444,0.002,-0.013,0.000,-0.001
1495956153460,-0.001,-0.015,-0.000,-0.001
1495956153477,0.000,-0.018,0.000,-0.001
1495956153494,0.008,-0.016,0.000,-0.001
1495956153510,0.004,-0.014,0.000,-0.000
1495956153527,0.002,-0.011,0.000,-0.000
1495956153560,-0.004,-0.012,-0.000,-0.000
1495956153577,-0.002,-0.012,-0.000,-0.000
1495956153593,-0.047,-0.084,-0.001,-0.001
1495956153610,0.076,0.273,0.002,0.009
1495956153627,-0.006,-0.005,0.000,-0.000
1495956153643,0.007,0.019,0.001,-0.001
1495956153660,0.008,-0.020,0.001,-0.001
1495956153677,0.011,-0.009,0.001,-0.001
1495956153694,0.010,-0.000,0.001,-0.000
1495956153710,0.007,-0.008,0.001,-0.001
1495956153727,0.001,0.000,0.000,0.000
1495956153760,-0.005,-0.005,-0.000,-0.000
1495956153777,-0.002,-0.003,-0.000,-0.000
1495956153794,0.006,-0.002,0.000,-0.000
1495956153812,0.004,-0.002,0.000,-0.000
1495956153827,0.001,-0.002,0.000,-0.000
1495956153844,0.000,-0.005,0.000,-0.000
1495956153861,-0.002,-0.006,-0.000,-0.001
1495956153877,0.006,-0.001,0.001,-0.000
1495956153894,0.009,-0.003,0.001,-0.000
1495956153911,0.000,-0.003,0.000,-0.000
1495956153944,-0.001,0.000,-0.000,0.000
1495956153961,-0.003,0.003,-0.000,0.000
1495956153977,0.000,0.000,0.000,0.000
1495956153994,0.004,-0.001,0.000,-0.000
1495956154011,0.007,0.003,0.001,0.000
1495956154027,0.004,-0.004,0.000,-0.000
1495956154044,-0.002,-0.004,-0.000,-0.000
1495956154061,-0.004,-0.003,-0.000,-0.000
1495956154077,0.002,-0.003,0.000,-0.000
1495956154094,0.005,-0.003,0.000,-0.000
1495956154111,0.004,-0.000,0.000,-0.000
1495956154127,0.003,0.001,0.000,0.000
1495956154144,0.001,-0.000,0.000,-0.000
1495956154161,0.005,-0.004,0.000,-0.000
1495956154177,0.006,-0.000,0.001,-0.000
1495956154194,0.010,-0.002,0.001,-0.000
1495956154211,0.005,-0.003,0.000,-0.000
1495956154245,-0.001,-0.002,-0.000,-0.000
1495956154260,-0.003,-0.003,-0.000,-0.000
1495956154277,0.003,0.002,0.000,0.000
1495956154294,0.005,-0.001,0.000,-0.000
1495956154310,0.004,-0.002,0.000,-0.000
1495956154327,0.005,-0.002,0.000,-0.000
1495956154344,-0.002,-0.003,-0.000,-0.000
1495956154360,0.002,-0.005,0.000,-0.000
1495956154377,0.006,0.001,0.001,0.000
1495956154393,0.001,-0.004,0.000,-0.000
1495956154410,0.002,-0.000,0.000,-0.000
1495956154427,0.002,-0.001,0.000,-0.000
1495956154443,-0.001,-0.001,-0.000,-0.000
1495956154477,0.001,-0.000,0.000,-0.000
1495956154493,0.008,-0.001,0.001,-0.000
1495956154510,0.004,-0.001,0.000,-0.000
1495956154527,0.002,-0.001,0.000,-0.000
1495956154543,-0.005,-0.000,-0.000,-0.000
1495956154560,0.006,-0.006,0.001,-0.001
1495956154577,0.004,-0.002,0.000,-0.000
1495956154594,0.003,-0.001,0.000,-0.000
1495956154610,0.000,-0.002,0.000,-0.000
1495956154627,-0.005,-0.003,-0.001,-0.000
1495956154644,0.001,-0.002,0.000,-0.000
1495956154660,0.004,-0.001,0.000,-0.000
1495956154694,0.005,-0.002,0.000,-0.000
1495956154710,0.004,0.004,0.000,0.000
1495956154727,0.002,-0.001,0.000,-0.000
1495956154745,-0.001,0.001,-0.000,0.000
1495956154760,0.005,-0.001,0.000,-0.000
1495956154776,0.003,-0.004,0.000,-0.000
1495956154793,-0.003,-0.010,-0.000,-0.001
1495956154810,-0.004,-0.009,-0.000,-0.001
1495956154826,-0.003,-0.007,-0.000,-0.001
1495956154843,0.003,-0.003,0.000,-0.000
1495956154860,0.008,0.004,0.001,0.000
1495956154876,0.006,0.004,0.001,0.000
1495956154893,0.003,0.003,0.000,0.000
1495956154910,0.001,0.001,0.000,0.000
1495956154927,-0.002,-0.007,-0.000,-0.001
1495956154943,0.002,-0.006,0.000,-0.001
1495956154960,0.006,-0.004,0.001,-0.000
1495956154993,0.004,-0.002,0.000,-0.000
1495956155010,-0.000,0.000,-0.000,0.000
1495956155026,-0.004,0.002,-0.000,0.000
1495956155043,-0.005,-0.003,-0.000,-0.000
1495956155060,-0.002,0.000,-0.000,0.000
1495956155076,0.001,0.000,0.000,0.000
1495956155093,0.010,-0.001,0.001,-0.000
1495956155110,0.003,-0.001,0.000,-0.000
1495956155126,0.006,-0.001,0.001,-0.000
1495956155144,-0.003,-0.006,-0.000,-0.001
1495956155161,-0.003,0.001,-0.000,0.000
1495956155177,0.001,-0.002,0.000,-0.000
1495956155211,0.005,-0.004,0.000,-0.000
1495956155227,0.004,-0.005,0.000,-0.000
1495956155244,-0.003,-0.007,-0.000,-0.001
1495956155261,-0.003,0.000,-0.000,0.000
1495956155277,0.001,0.000,0.000,0.000
1495956155294,0.000,0.003,0.000,0.000
1495956155311,0.001,0.002,0.000,0.000
1495956155327,0.004,0.007,0.000,0.001
1495956155344,0.005,0.002,0.000,0.000
1495956155360,0.005,-0.005,0.000,-0.000
1495956155377,0.006,-0.007,0.001,-0.001
1495956155394,-0.000,-0.005,-0.000,-0.000
1495956155411,0.001,0.001,0.000,0.000
1495956155427,-0.004,-0.003,-0.000,-0.000
1495956155444,0.005,0.002,0.000,0.000
1495956155461,0.003,0.001,0.000,0.000
1495956155478,0.005,0.003,0.000,0.000
1495956155511,0.001,0.002,0.000,0.000
1495956155527,0.000,-0.005,0.000,-0.001
1495956155544,0.001,-0.003,0.000,-0.000
1495956155561,0.012,-0.003,0.001,-0.000
1495956155577,0.011,-0.001,0.001,-0.000
1495956155593,0.006,-0.000,0.001,-0.000
1495956155610,0.003,0.001,0.000,0.000
1495956155627,-0.001,-0.005,-0.000,-0.000
1495956155643,0.000,-0.003,0.000,-0.000
1495956155660,0.006,-0.002,0.001,-0.000
1495956155677,0.005,-0.007,0.000,-0.001
1495956155694,0.005,-0.004,0.001,-0.000
1495956155710,-0.002,-0.002,-0.000,-0.000
1495956155727,-0.006,-0.004,-0.001,-0.000
1495956155743,0.001,0.002,0.000,0.000
1495956155760,0.006,-0.001,0.001,-0.000
1495956155777,0.007,-0.004,0.001,-0.000
