1495988994314,0.099,0.000,0.000,0.082
1495988994332,0.197,0.065,0.033,0.127
1495988994347,0.296,0.168,0.084,0.194
1495988994365,0.296,0.314,0.157,0.227
1495988994383,0.197,0.458,0.229,0.213
1495988994400,0.099,0.499,0.249,0.174
1495988994418,-0.099,0.334,0.164,0.034
1495988994433,0.197,0.367,0.184,0.190
1495988994449,-0.296,0.291,0.140,-0.078
1495988994466,-0.483,-0.213,-0.110,-0.297
