1495993199876,0.000,-0.008,-0.000,0.003
1495993199916,-0.002,-0.008,-0.000,-0.006
1495993199934,-0.003,-0.008,-0.000,-0.020
1495993199951,-0.004,-0.008,-0.000,-0.028
1495993199967,0.000,-0.008,-0.000,-0.014
1495993199984,-0.001,-0.009,-0.000,-0.011
1495993200002,0.002,-0.009,-0.000,0.002
1495993200018,0.005,-0.009,-0.000,0.025
1495993200035,-0.001,-0.009,-0.000,0.006
1495993200053,-0.000,-0.009,-0.000,0.002
1495993200070,-0.003,-0.009,-0.000,-0.012
1495993200086,0.003,-0.009,-0.000,0.006
1495993200104,-0.002,-0.009,-0.000,-0.009
1495993200120,0.006,-0.009,-0.000,0.027
1495993200138,0.001,-0.009,-0.000,0.020
1495993200153,-0.002,-0.009,-0.000,0.001
1495993200171,0.001,-0.009,-0.000,0.005
1495993200189,0.001,-0.010,-0.000,0.008
1495993200206,0.002,-0.010,-0.000,0.013
1495993200225,0.002,-0.010,-0.000,0.015
1495993200242,-0.003,-0.010,-0.000,-0.009
1495993200261,-0.000,-0.010,-0.000,-0.005
1495993200279,-0.003,-0.010,-0.000,-0.019
1495993200296,-0.002,-0.010,-0.000,-0.019
1495993200315,0.002,-0.010,-0.000,0.000
1495993200317,0.003,-0.010,-0.000,0.015
1495993200332,-0.002,-0.010,-0.000,-0.001
1495993200349,-0.007,-0.010,-0.000,-0.036
1495993200367,-0.001,-0.010,-0.000,-0.021
1495993200384,0.001,-0.011,-0.000,-0.008
1495993200402,-0.001,-0.011,-0.000,-0.007
1495993200420,-0.001,-0.011,-0.000,-0.007
1495993200438,-0.002,-0.011,-0.000,-0.012
1495993200454,-0.001,-0.011,-0.000,-0.009
1495993200471,-0.001,-0.011,-0.000,-0.011
1495993200489,-0.002,-0.011,-0.000,-0.015
1495993200506,0.003,-0.011,-0.000,0.008
1495993200522,-0.001,-0.011,-0.000,-0.000
1495993200538,-0.001,-0.011,-0.000,-0.003
1495993200556,-0.004,-0.012,-0.000,-0.019
1495993200574,0.001,-0.012,-0.000,-0.005
1495993200589,-0.003,-0.012,-0.000,-0.015
1495993200607,-0.002,-0.012,-0.000,-0.018
1495993200625,-0.003,-0.012,-0.000,-0.022
1495993200642,-0.001,-0.012,-0.000,-0.014
1495993200660,-0.000,-0.012,-0.000,-0.008
1495993200677,-0.000,-0.012,-0.000,-0.005
1495993200695,0.002,-0.012,-0.000,0.009
1495993200713,-0.003,-0.013,-0.000,-0.009
1495993200730,-0.002,-0.013,-0.000,-0.012
1495993200749,0.000,-0.013,-0.000,-0.005
1495993200751,-0.008,-0.013,-0.000,-0.041
1495993200798,0.003,-0.013,-0.000,-0.007
1495993200813,0.001,-0.013,-0.000,0.001
1495993200832,0.003,-0.013,-0.000,0.017
1495993200851,-0.003,-0.013,-0.000,-0.005
1495993200869,-0.002,-0.014,-0.000,-0.011
1495993200887,-0.002,-0.014,-0.000,-0.016
1495993200904,-0.001,-0.014,-0.000,-0.011
1495993200920,0.003,-0.014,-0.000,0.008
1495993200937,0.001,-0.014,-0.000,0.008
1495993200953,-0.000,-0.014,-0.000,0.003
1495993200970,-0.003,-0.014,-0.000,-0.013
1495993200985,0.001,-0.015,-0.000,-0.002
1495993201003,-0.000,-0.015,-0.000,-0.003
1495993201020,-0.002,-0.015,-0.000,-0.012
1495993201036,0.001,-0.015,-0.000,-0.003
1495993201054,-0.005,-0.015,-0.000,-0.028
1495993201071,-0.001,-0.015,-0.000,-0.020
1495993201089,-0.004,-0.015,-0.000,-0.030
1495993201106,0.002,-0.016,-0.000,-0.007
1495993201122,0.001,-0.016,-0.000,-0.001
1495993201138,-0.000,-0.016,-0.000,-0.001
1495993201155,-0.002,-0.016,-0.000,-0.012
1495993201173,0.001,-0.016,-0.000,-0.004
1495993201190,-0.002,-0.016,-0.000,-0.013
1495993201206,-0.000,-0.016,-0.000,-0.009
1495993201224,-0.006,-0.017,-0.000,-0.032
1495993201239,-0.003,-0.017,-0.000,-0.030
1495993201255,0.004,-0.017,-0.000,0.006
1495993201272,-0.003,-0.017,-0.000,-0.012
1495993201290,0.002,-0.017,-0.000,0.001
1495993201306,0.003,-0.017,-0.000,0.018
1495993201321,0.003,-0.018,-0.000,0.025
1495993201338,0.002,-0.018,-0.000,0.020
1495993201353,0.002,-0.018,-0.000,0.017
1495993201371,-0.001,-0.018,-0.000,0.003
1495993201389,0.002,-0.018,-0.000,0.013
1495993201406,-0.002,-0.018,-0.000,-0.002
1495993201424,-0.002,-0.019,-0.000,-0.009
1495993201440,-0.000,-0.019,-0.000,-0.005
1495993201458,0.002,-0.019,-0.000,0.005
1495993201474,-0.003,-0.019,-0.000,-0.014
1495993201491,-0.001,-0.019,-0.000,-0.012
1495993201509,0.000,-0.019,-0.000,-0.005
1495993201526,0.001,-0.019,-0.000,0.004
1495993201544,0.003,-0.020,-0.000,0.014
1495993201561,0.002,-0.020,-0.000,0.018
1495993201578,-0.003,-0.020,-0.000,-0.006
1495993201594,-0.002,-0.020,-0.000,-0.014
1495993201611,-0.004,-0.020,-0.000,-0.025
1495993201630,-0.001,-0.020,-0.000,-0.016
1495993201648,-0.006,-0.021,-0.000,-0.036
1495993201663,-0.002,-0.021,-0.000,-0.028
1495993201681,0.002,-0.021,-0.000,-0.004
1495993201698,0.006,-0.021,-0.000,0.026
1495993201700,0.006,-0.021,-0.000,0.042
1495993201717,0.005,-0.021,-0.000,0.044
1495993201735,-0.001,-0.022,-0.000,0.015
1495993201750,-0.003,-0.022,-0.000,-0.008
1495993201769,-0.001,-0.022,-0.000,-0.008
1495993201786,0.001,-0.022,-0.000,-0.000
1495993201804,0.002,-0.022,-0.000,0.007
1495993201820,0.001,-0.022,-0.000,0.010
1495993201837,-0.001,-0.023,-0.000,-0.001
1495993201855,0.003,-0.023,-0.000,0.014
1495993201872,0.000,-0.023,-0.000,0.007
1495993201890,0.003,-0.023,-0.000,0.021
1495993201906,0.004,-0.023,-0.000,0.032
1495993201921,0.001,-0.023,-0.000,0.023
1495993201938,0.000,-0.023,-0.000,0.013
1495993201953,-0.002,-0.023,-0.000,-0.003
1495993201971,-0.000,-0.024,-0.000,-0.002
1495993201989,-0.002,-0.024,-0.000,-0.009
1495993202004,0.001,-0.024,-0.000,-0.001
1495993202022,-0.000,-0.024,-0.000,-0.001
1495993202039,0.003,-0.024,-0.000,0.015
1495993202057,0.002,-0.024,-0.000,0.018
1495993202073,0.000,-0.024,-0.000,0.009
1495993202090,0.000,-0.024,-0.000,0.005
1495993202106,0.001,-0.025,-0.000,0.008
1495993202121,-0.001,-0.025,-0.000,-0.002
1495993202138,0.000,-0.025,-0.000,-0.001
1495993202154,0.000,-0.025,-0.000,0.001
1495993202171,0.003,-0.025,-0.000,0.015
1495993202189,0.000,-0.025,-0.000,0.009
1495993202206,-0.000,-0.025,-0.000,0.004
1495993202224,0.002,-0.025,-0.000,0.012
1495993202242,0.002,-0.026,-0.000,0.015
1495993202259,0.002,-0.026,-0.000,0.017
1495993202277,-0.002,-0.026,-0.000,0.000
1495993202292,0.003,-0.026,-0.000,0.016
1495993202310,-0.001,-0.026,-0.000,0.004
1495993202328,0.001,-0.026,-0.000,0.008
1495993202343,-0.000,-0.026,-0.000,0.003
1495993202361,0.003,-0.026,-0.000,0.015
1495993202378,-0.001,-0.026,-0.000,0.001
1495993202396,-0.001,-0.026,-0.000,-0.003
1495993202414,-0.001,-0.027,-0.000,-0.006
1495993202431,0.002,-0.027,-0.000,0.006
1495993202447,0.002,-0.027,-0.000,0.014
1495993202464,0.007,-0.027,-0.000,0.043
1495993202482,0.003,-0.027,-0.000,0.035
1495993202484,-0.001,-0.027,-0.000,0.013
1495993202501,-0.004,-0.027,-0.000,-0.015
1495993202518,0.001,-0.027,-0.000,-0.002
1495993202536,-0.003,-0.027,-0.000,-0.016
1495993202551,0.002,-0.027,-0.000,-0.001
1495993202569,0.005,-0.027,-0.000,0.026
1495993202585,-0.004,-0.028,-0.000,-0.007
1495993202602,-0.003,-0.028,-0.000,-0.019
1495993202620,-0.001,-0.028,-0.000,-0.015
1495993202638,0.001,-0.028,-0.000,-0.004
1495993202656,-0.003,-0.028,-0.000,-0.016
1495993202672,0.004,-0.028,-0.000,0.014
1495993202689,-0.004,-0.028,-0.000,-0.014
1495993202705,-0.001,-0.028,-0.000,-0.012
1495993202720,-0.002,-0.028,-0.000,-0.016
1495993202736,0.001,-0.028,-0.000,-0.005
1495993202754,0.005,-0.028,-0.000,0.024
1495993202771,-0.003,-0.029,-0.000,-0.005
1495993202804,0.006,-0.029,-0.000,0.029
1495993202820,0.016,-0.029,-0.000,0.092
1495993202838,0.003,-0.029,-0.000,0.062
1495993202855,0.007,-0.029,-0.000,0.067
1495993202873,0.002,-0.029,-0.000,0.042
1495993202890,0.006,-0.029,-0.000,0.053
1495993202908,0.015,-0.029,-0.000,0.101
1495993202926,0.007,-0.029,0.000,0.087
1495993202943,0.011,-0.029,0.000,0.099
1495993202961,0.012,-0.029,0.000,0.108
1495993202976,0.009,-0.029,0.000,0.100
1495993202992,0.010,-0.029,0.000,0.097
1495993203009,0.004,-0.029,0.000,0.071
1495993203025,-0.000,-0.029,0.000,0.034
1495993203043,0.003,-0.028,0.000,0.034
1495993203058,0.008,-0.028,0.000,0.056
1495993203077,0.011,-0.028,0.000,0.081
1495993203095,0.005,-0.028,0.000,0.065
1495993203110,0.004,-0.028,0.000,0.054
1495993203128,0.013,-0.028,0.000,0.089
1495993203143,0.007,-0.028,0.000,0.081
1495993203159,0.011,-0.027,0.000,0.096
1495993203177,0.007,-0.027,0.000,0.084
1495993203194,0.005,-0.027,0.000,0.068
1495993203210,0.007,-0.027,0.000,0.070
1495993203225,0.007,-0.026,0.000,0.069
1495993203242,0.006,-0.026,0.000,0.063
1495993203258,0.006,-0.026,0.000,0.060
1495993203275,0.009,-0.026,0.000,0.076
1495993203293,0.008,-0.025,0.000,0.079
1495993203308,0.009,-0.025,0.000,0.086
1495993203325,0.007,-0.025,0.000,0.079
1495993203341,0.007,-0.024,0.000,0.075
1495993203358,0.007,-0.024,0.000,0.070
1495993203374,0.005,-0.024,0.000,0.062
1495993203391,0.003,-0.023,0.000,0.044
1495993203409,0.007,-0.023,0.000,0.059
1495993203427,0.004,-0.023,0.000,0.048
1495993203444,0.002,-0.022,0.000,0.033
1495993203460,0.005,-0.022,0.000,0.042
1495993203475,0.005,-0.021,0.000,0.048
1495993203493,0.003,-0.021,0.000,0.041
1495993203511,-0.061,-0.021,0.000,-0.279
1495993203526,-0.077,-0.020,0.000,-0.518
1495993203542,-0.126,-0.020,-0.000,-0.882
1495993203558,-0.160,-0.020,-0.000,-1.230
1495993203574,-0.173,-0.021,-0.001,-1.469
1495993203592,-0.125,-0.021,-0.001,-1.352
1495993203609,-0.089,-0.022,-0.001,-1.116
1495993203628,-0.072,-0.023,-0.001,-0.915
1495993203644,-0.108,-0.024,-0.001,-0.988
1495993203660,-0.087,-0.026,-0.001,-0.924
1495993203678,-0.034,-0.027,-0.002,-0.632
1495993203693,-0.058,-0.029,-0.002,-0.602
1495993203709,-0.064,-0.030,-0.002,-0.618
1495993203725,-0.041,-0.032,-0.002,-0.510
1495993203741,-0.061,-0.034,-0.002,-0.558
1495993203759,-0.035,-0.036,-0.002,-0.449
1495993203776,-0.008,-0.038,-0.002,-0.262
1495993203794,-0.027,-0.040,-0.002,-0.262
1495993203809,-0.002,-0.042,-0.002,-0.140
1495993203825,0.003,-0.044,-0.002,-0.054
1495993203841,0.047,-0.046,-0.002,0.204
1495993203858,0.022,-0.047,-0.002,0.209
1495993203876,-0.014,-0.049,-0.002,0.038
1495993203893,-0.010,-0.051,-0.002,-0.029
1495993203911,-0.055,-0.053,-0.002,-0.284
1495993203927,0.034,-0.055,-0.002,0.028
1495993203942,-0.008,-0.057,-0.002,-0.025
1495993203959,0.024,-0.059,-0.002,0.104
1495993203974,-0.002,-0.061,-0.002,0.040
1495993203991,0.014,-0.063,-0.002,0.090
1495993204007,-0.005,-0.065,-0.002,0.019
1495993204024,0.026,-0.067,-0.002,0.136
1495993204042,0.031,-0.069,-0.002,0.220
1495993204059,-0.004,-0.071,-0.002,0.091
1495993204077,0.004,-0.073,-0.002,0.067
1495993204095,0.008,-0.074,-0.002,0.075
1495993204110,0.026,-0.076,-0.002,0.164
1495993204126,0.064,-0.078,-0.002,0.396
1495993204142,0.044,-0.080,-0.002,0.415
1495993204158,-0.019,-0.081,-0.002,0.114
1495993204175,-0.002,-0.083,-0.002,0.049
1495993204190,0.045,-0.084,-0.002,0.248
1495993204208,0.032,-0.086,-0.001,0.283
1495993204225,0.033,-0.087,-0.001,0.306
1495993204241,-0.014,-0.089,-0.001,0.083
1495993204259,-0.045,-0.090,-0.002,-0.178
1495993204276,0.017,-0.092,-0.002,-0.003
1495993204294,-0.011,-0.093,-0.002,-0.058
1495993204309,-0.010,-0.095,-0.002,-0.078
1495993204325,0.018,-0.096,-0.002,0.048
1495993204341,-0.030,-0.097,-0.002,-0.122
1495993204358,-0.014,-0.099,-0.002,-0.130
1495993204375,0.033,-0.100,-0.002,0.098
1495993204392,0.009,-0.102,-0.002,0.094
1495993204408,0.021,-0.103,-0.001,0.148
1495993204426,-0.013,-0.105,-0.002,0.008
1495993204443,0.021,-0.106,-0.001,0.109
1495993204461,0.041,-0.108,-0.001,0.258
1495993204476,-0.011,-0.109,-0.001,0.075
1495993204492,0.005,-0.110,-0.001,0.062
1495993204509,0.056,-0.112,-0.001,0.308
1495993204524,0.083,-0.113,-0.001,0.561
1495993204542,0.046,-0.114,-0.001,0.507
1495993204557,0.030,-0.115,-0.001,0.402
1495993204575,0.072,-0.116,-0.001,0.556
1495993204593,0.068,-0.117,-0.001,0.613
1495993204610,0.145,-0.118,-0.001,1.020
1495993204628,0.100,-0.118,-0.000,1.002
1495993204643,0.125,-0.118,-0.000,1.119
1495993204659,0.178,-0.118,0.000,1.437
1495993204678,0.178,-0.118,0.001,1.594
1495993204695,0.143,-0.117,0.001,1.500
1495993204714,0.005,-0.117,0.001,0.776
1495993204731,0.006,-0.116,0.001,0.420
1495993204747,0.003,-0.115,0.001,0.227
1495993204765,0.004,-0.115,0.001,0.132
1495993204813,-0.003,-0.114,0.001,0.053
1495993204829,-0.004,-0.113,0.001,0.005
1495993204851,-0.007,-0.112,0.001,-0.031
1495993204869,0.002,-0.111,0.001,-0.007
1495993204887,-0.001,-0.110,0.001,-0.009
1495993204904,0.000,-0.110,0.001,-0.003
1495993204922,0.002,-0.109,0.001,0.007
1495993204940,0.003,-0.108,0.001,0.017
1495993204957,0.004,-0.107,0.001,0.027
1495993204975,0.008,-0.106,0.001,0.052
1495993204992,0.003,-0.106,0.001,0.038
1495993205008,-0.000,-0.105,0.001,0.017
1495993205024,-0.003,-0.104,0.001,-0.008
1495993205040,0.001,-0.103,0.001,0.001
1495993205056,0.001,-0.102,0.001,0.004
1495993205073,-0.002,-0.101,0.001,-0.006
1495993205091,0.005,-0.101,0.001,0.023
1495993205109,0.002,-0.100,0.001,0.022
1495993205124,0.004,-0.099,0.001,0.033
1495993205140,0.003,-0.098,0.001,0.029
1495993205156,-0.001,-0.097,0.001,0.009
1495993205172,0.002,-0.096,0.001,0.016
1495993205189,0.001,-0.096,0.001,0.013
1495993205204,0.002,-0.095,0.001,0.015
1495993205222,-0.003,-0.094,0.001,-0.007
1495993205239,-0.003,-0.093,0.001,-0.016
1495993205257,-0.001,-0.092,0.001,-0.011
1495993205275,0.001,-0.091,0.001,-0.002
1495993205292,0.003,-0.090,0.001,0.015
1495993205308,0.003,-0.090,0.001,0.021
1495993205323,-0.003,-0.089,0.001,-0.002
1495993205340,0.006,-0.088,0.001,0.029
1495993205356,0.005,-0.087,0.001,0.041
1495993205373,0.002,-0.086,0.001,0.029
1495993205391,0.002,-0.085,0.001,0.026
1495993205408,0.001,-0.084,0.001,0.016
1495993205424,-0.000,-0.084,0.001,0.007
1495993205440,0.000,-0.083,0.001,0.005
1495993205457,0.001,-0.082,0.001,0.008
1495993205475,0.000,-0.081,0.001,0.005
1495993205492,0.006,-0.080,0.001,0.031
1495993205508,0.007,-0.079,0.001,0.050
1495993205524,0.006,-0.078,0.001,0.056
1495993205540,0.005,-0.078,0.001,0.055
1495993205556,0.004,-0.077,0.001,0.048
1495993205573,-0.000,-0.076,0.001,0.023
1495993205591,0.002,-0.075,0.001,0.020
1495993205609,-0.001,-0.074,0.001,0.007
1495993205624,0.002,-0.073,0.001,0.015
1495993205640,-0.004,-0.072,0.001,-0.013
1495993205657,0.003,-0.071,0.001,0.007
1495993205675,0.002,-0.070,0.001,0.015
1495993205691,0.003,-0.069,0.001,0.021
1495993205706,0.002,-0.068,0.001,0.019
1495993205722,0.003,-0.067,0.001,0.026
1495993205739,0.006,-0.067,0.001,0.042
1495993205757,0.002,-0.066,0.001,0.032
1495993205775,0.003,-0.065,0.001,0.032
1495993205792,-0.002,-0.064,0.001,0.008
1495993205808,0.002,-0.063,0.001,0.013
1495993205823,-0.000,-0.062,0.001,0.005
1495993205840,0.001,-0.061,0.001,0.009
1495993205856,0.002,-0.060,0.001,0.012
1495993205873,0.000,-0.059,0.001,0.006
1495993205891,0.002,-0.058,0.001,0.014
1495993205908,0.005,-0.057,0.001,0.034
1495993205924,0.001,-0.056,0.001,0.023
1495993205940,0.003,-0.055,0.001,0.026
1495993205957,-0.002,-0.054,0.001,0.005
1495993205976,-0.005,-0.053,0.001,-0.020
1495993205994,0.004,-0.052,0.001,0.010
1495993206012,0.003,-0.051,0.001,0.018
1495993206030,0.005,-0.050,0.001,0.034
1495993206047,0.002,-0.049,0.001,0.027
1495993206065,0.003,-0.048,0.001,0.030
1495993206081,0.002,-0.047,0.001,0.026
1495993206099,0.007,-0.046,0.001,0.046
1495993206116,0.005,-0.045,0.001,0.049
1495993206134,0.001,-0.044,0.001,0.031
1495993206136,0.001,-0.043,0.001,0.018
1495993206152,0.000,-0.042,0.001,0.009
1495993206168,0.002,-0.041,0.001,0.013
1495993206203,0.001,-0.040,0.001,0.013
1495993206204,0.001,-0.039,0.001,0.013
1495993206219,0.001,-0.038,0.001,0.012
1495993206237,0.001,-0.037,0.001,0.011
1495993206254,0.001,-0.036,0.001,0.011
1495993206272,0.001,-0.035,0.001,0.010
1495993206290,0.004,-0.034,0.001,0.027
1495993206307,0.004,-0.033,0.001,0.036
1495993206325,0.005,-0.032,0.001,0.045
1495993206342,0.002,-0.031,0.001,0.033
1495993206361,0.003,-0.030,0.001,0.031
1495993206379,0.001,-0.029,0.001,0.022
1495993206396,0.000,-0.028,0.001,0.013
1495993206415,0.004,-0.027,0.001,0.026
1495993206432,-0.001,-0.026,0.001,0.007
1495993206450,0.000,-0.025,0.001,0.004
1495993206466,0.002,-0.024,0.001,0.009
1495993206484,0.003,-0.023,0.001,0.017
1495993206502,0.002,-0.022,0.001,0.017
1495993206504,0.009,-0.021,0.001,0.051
1495993206520,0.005,-0.020,0.001,0.050
1495993206538,0.002,-0.019,0.001,0.034
1495993206555,-0.004,-0.018,0.001,-0.005
1495993206572,-0.000,-0.017,0.001,-0.004
1495993206590,0.002,-0.016,0.001,0.007
1495993206607,0.004,-0.014,0.001,0.023
1495993206626,0.002,-0.013,0.001,0.023
1495993206644,0.002,-0.012,0.001,0.021
1495993206659,0.002,-0.011,0.001,0.022
1495993206675,0.003,-0.010,0.001,0.023
1495993206691,0.002,-0.009,0.001,0.023
1495993206707,0.004,-0.008,0.001,0.030
1495993206725,0.001,-0.007,0.001,0.019
1495993206742,0.003,-0.006,0.001,0.025
1495993206760,0.002,-0.005,0.001,0.020
1495993206775,0.000,-0.004,0.001,0.012
1495993206791,-0.001,-0.003,0.001,-0.001
1495993206809,0.002,-0.001,0.001,0.008
1495993206826,0.004,-0.000,0.001,0.024
1495993206844,0.001,0.001,0.001,0.016
1495993206859,0.003,0.002,0.001,0.024
1495993206875,0.001,0.003,0.001,0.016
1495993206892,0.005,0.004,0.001,0.032
1495993206907,0.004,0.005,0.001,0.038
1495993206925,0.001,0.006,0.001,0.025
1495993206942,-0.001,0.007,0.001,0.007
1495993206960,-0.000,0.008,0.001,0.001
1495993206976,0.003,0.010,0.001,0.015
1495993206991,0.001,0.011,0.001,0.014
1495993207007,0.003,0.012,0.001,0.023
1495993207024,0.004,0.013,0.001,0.032
1495993207040,0.003,0.014,0.001,0.030
1495993207058,0.002,0.015,0.001,0.022
1495993207075,0.001,0.016,0.001,0.016
1495993207093,0.001,0.017,0.001,0.011
1495993207110,0.002,0.019,0.001,0.013
1495993207126,0.003,0.020,0.001,0.022
1495993207142,0.005,0.021,0.001,0.037
1495993207159,0.001,0.022,0.001,0.025
1495993207177,0.002,0.023,0.001,0.021
1495993207192,0.004,0.024,0.001,0.029
1495993207208,0.001,0.026,0.001,0.018
1495993207226,0.002,0.027,0.001,0.019
1495993207243,0.004,0.028,0.001,0.030
1495993207261,0.002,0.029,0.001,0.025
1495993207276,0.004,0.030,0.001,0.032
1495993207292,-0.000,0.031,0.001,0.014
1495993207310,0.004,0.033,0.001,0.028
1495993207327,0.005,0.034,0.001,0.041
1495993207343,0.006,0.035,0.001,0.051
1495993207358,0.003,0.036,0.001,0.041
1495993207375,0.000,0.037,0.001,0.022
1495993207391,-0.000,0.039,0.001,0.010
1495993207407,0.003,0.040,0.001,0.022
1495993207423,0.002,0.041,0.001,0.022
1495993207441,0.001,0.042,0.001,0.014
1495993207459,0.006,0.044,0.001,0.038
1495993207475,0.003,0.045,0.001,0.032
1495993207492,-0.000,0.046,0.001,0.015
1495993207510,0.003,0.047,0.001,0.021
1495993207527,0.003,0.049,0.001,0.025
1495993207543,0.005,0.050,0.001,0.036
1495993207559,0.003,0.051,0.001,0.034
1495993207575,-0.001,0.052,0.001,0.010
1495993207591,0.006,0.054,0.001,0.037
1495993207606,0.001,0.055,0.001,0.025
1495993207624,0.004,0.056,0.001,0.031
1495993207640,0.007,0.057,0.001,0.049
1495993207657,0.006,0.059,0.001,0.056
1495993207675,0.006,0.060,0.001,0.057
1495993207692,0.002,0.061,0.001,0.036
1495993207710,-0.002,0.063,0.001,0.010
1495993207728,0.002,0.064,0.001,0.016
1495993207743,0.003,0.065,0.001,0.020
1495993207759,0.001,0.066,0.001,0.014
1495993207775,0.002,0.068,0.001,0.017
1495993207791,0.002,0.069,0.001,0.018
1495993207809,0.002,0.070,0.001,0.017
1495993207826,0.001,0.072,0.001,0.015
1495993207844,0.007,0.073,0.001,0.041
1495993207859,0.001,0.074,0.001,0.025
1495993207875,0.003,0.076,0.001,0.029
1495993207892,0.004,0.077,0.001,0.033
1495993207907,0.002,0.078,0.001,0.025
1495993207925,0.004,0.080,0.001,0.032
1495993207943,0.023,0.081,0.001,0.128
1495993207961,0.021,0.082,0.001,0.169
1495993207977,0.034,0.084,0.002,0.251
1495993207994,0.148,0.085,0.002,0.855
1495993208010,0.147,0.087,0.002,1.152
1495993208025,0.128,0.089,0.002,1.204
1495993208043,0.095,0.091,0.002,1.068
1495993208061,0.066,0.094,0.003,0.860
1495993208076,0.090,0.096,0.003,0.876
1495993208092,0.057,0.099,0.003,0.721
1495993208108,0.087,0.102,0.003,0.788
1495993208124,0.013,0.104,0.003,0.457
1495993208142,-0.001,0.107,0.003,0.225
1495993208159,0.023,0.110,0.003,0.226
1495993208178,0.057,0.113,0.003,0.396
1495993208195,0.014,0.116,0.003,0.267
1495993208213,0.055,0.119,0.003,0.407
1495993208229,0.046,0.122,0.003,0.430
1495993208246,0.119,0.126,0.004,0.801
1495993208265,0.101,0.129,0.004,0.899
1495993208282,0.066,0.133,0.004,0.775
1495993208300,0.006,0.137,0.004,0.415
1495993208318,0.023,0.140,0.004,0.322
1495993208335,0.039,0.144,0.004,0.355
1495993208337,0.023,0.148,0.004,0.290
1495993208354,0.031,0.152,0.004,0.298
1495993208371,0.041,0.156,0.004,0.350
1495993208389,0.029,0.160,0.004,0.316
1495993208407,-0.023,0.164,0.004,0.045
1495993208422,0.033,0.168,0.004,0.187
1495993208440,0.054,0.172,0.004,0.357
1495993208459,0.075,0.176,0.004,0.549
1495993208477,-0.009,0.180,0.004,0.229
1495993208493,-0.050,0.185,0.004,-0.130
1495993208508,-0.026,0.189,0.004,-0.194
1495993208526,-0.008,0.193,0.004,-0.136
1495993208541,-0.001,0.197,0.004,-0.071
1495993208559,-0.005,0.201,0.004,-0.061
1495993208578,-0.052,0.205,0.004,-0.286
1495993208595,-0.003,0.209,0.004,-0.160
1495993208613,-0.016,0.213,0.004,-0.157
1495993208629,0.023,0.217,0.004,0.036
1495993208646,-0.033,0.221,0.004,-0.145
1495993208663,-0.006,0.225,0.004,-0.104
1495993208678,-0.020,0.229,0.004,-0.150
1495993208697,-0.008,0.233,0.004,-0.112
1495993208714,0.038,0.237,0.004,0.133
1495993208730,0.047,0.241,0.004,0.298
1495993208748,0.057,0.245,0.004,0.428
1495993208766,-0.020,0.249,0.004,0.115
1495993208799,0.048,0.253,0.004,0.296
1495993208831,0.007,0.257,0.004,0.181
1495993208846,-0.014,0.261,0.004,0.022
1495993208865,-0.066,0.265,0.004,-0.312
1495993208882,-0.016,0.269,0.004,-0.234
1495993208900,-0.038,0.273,0.004,-0.306
1495993208918,-0.091,0.277,0.004,-0.600
1495993208935,-0.049,0.281,0.004,-0.542
1495993208953,-0.015,0.284,0.004,-0.346
1495993208970,-0.037,0.288,0.004,-0.356
1495993208986,-0.018,0.292,0.004,-0.264
1495993209002,0.015,0.295,0.004,-0.056
1495993209018,0.023,0.299,0.004,0.088
1495993209034,-0.009,0.302,0.004,0.001
1495993209050,-0.000,0.306,0.004,-0.002
1495993209066,0.013,0.310,0.004,0.062
1495993209084,-0.027,0.313,0.004,-0.100
1495993209101,0.001,0.317,0.004,-0.045
1495993209117,-0.031,0.320,0.004,-0.174
1495993209135,-0.104,0.323,0.003,-0.599
1495993209153,-0.070,0.327,0.003,-0.644
1495993209169,-0.088,0.330,0.003,-0.757
1495993209184,-0.093,0.333,0.003,-0.838
1495993209201,-0.152,0.336,0.003,-1.168
1495993209218,-0.097,0.338,0.003,-1.060
1495993209236,-0.124,0.341,0.002,-1.143
1495993209254,-0.000,0.343,0.002,-0.573
1495993209269,-0.008,0.345,0.002,-0.324
1495993209285,-0.002,0.347,0.002,-0.171
1495993209302,-0.004,0.350,0.002,-0.103
1495993209321,0.005,0.352,0.002,-0.025
1495993209339,0.005,0.354,0.002,0.013
1495993209356,0.003,0.356,0.002,0.022
1495993209375,0.004,0.358,0.002,0.032
1495993209392,0.000,0.361,0.002,0.016
1495993209409,0.000,0.363,0.002,0.008
1495993209427,0.001,0.365,0.002,0.009
1495993209444,-0.001,0.367,0.002,0.000
1495993209462,-0.004,0.369,0.002,-0.018
1495993209464,-0.005,0.371,0.002,-0.031
1495993209480,-0.004,0.374,0.002,-0.035
1495993209498,-0.001,0.376,0.002,-0.024
1495993209515,-0.002,0.378,0.002,-0.020
1495993209532,0.004,0.380,0.002,0.012
1495993209550,0.003,0.382,0.002,0.022
1495993209567,0.003,0.384,0.002,0.023
1495993209585,-0.001,0.386,0.002,0.007
1495993209603,0.002,0.389,0.002,0.012
1495993209618,-0.001,0.391,0.002,0.003
1495993209634,0.001,0.393,0.002,0.005
1495993209649,-0.001,0.395,0.002,-0.004
1495993209667,-0.005,0.397,0.002,-0.026
1495993209683,-0.004,0.399,0.002,-0.034
1495993209701,-0.004,0.401,0.002,-0.036
1495993209719,-0.001,0.403,0.002,-0.025
1495993209734,0.003,0.406,0.002,0.001
1495993209752,0.008,0.408,0.002,0.038
1495993209770,0.008,0.410,0.002,0.060
1495993209787,0.005,0.412,0.002,0.053
1495993209803,0.001,0.414,0.002,0.032
1495993209818,-0.001,0.416,0.002,0.009
1495993209835,-0.003,0.418,0.002,-0.010
1495993209851,0.002,0.421,0.002,0.004
1495993209868,-0.002,0.423,0.002,-0.007
1495993209886,-0.001,0.425,0.002,-0.009
1495993209903,-0.005,0.427,0.002,-0.031
1495993209921,0.001,0.429,0.002,-0.010
1495993209937,-0.001,0.431,0.002,-0.010
1495993209952,0.006,0.433,0.002,0.026
1495993209969,0.003,0.435,0.002,0.030
1495993209984,0.005,0.438,0.002,0.042
1495993210002,0.002,0.440,0.002,0.031
1495993210020,0.003,0.442,0.002,0.028
1495993210037,-0.007,0.444,0.002,-0.018
1495993210053,-0.006,0.446,0.002,-0.037
1495993210068,-0.001,0.448,0.002,-0.025
1495993210085,-0.003,0.450,0.002,-0.026
1495993210101,0.000,0.452,0.002,-0.012
1495993210118,0.004,0.455,0.002,0.015
1495993210137,0.004,0.457,0.002,0.028
1495993210154,0.003,0.459,0.002,0.029
1495993210172,0.002,0.461,0.002,0.024
1495993210190,-0.000,0.463,0.002,0.011
1495993210207,0.003,0.465,0.002,0.019
1495993210225,-0.004,0.467,0.002,-0.009
1495993210242,-0.004,0.469,0.002,-0.026
1495993210260,-0.006,0.471,0.002,-0.042
1495993210278,0.000,0.473,0.002,-0.019
1495993210293,0.001,0.476,0.002,-0.005
1495993210311,0.002,0.478,0.002,0.006
1495993210326,-0.002,0.480,0.002,-0.005
1495993210344,0.001,0.482,0.002,0.000
1495993210362,0.002,0.484,0.002,0.010
1495993210364,-0.000,0.486,0.002,0.003
1495993210380,-0.003,0.488,0.002,-0.013
1495993210398,-0.000,0.490,0.002,-0.007
1495993210415,-0.002,0.492,0.002,-0.012
1495993210433,-0.001,0.494,0.002,-0.010
1495993210449,0.001,0.496,0.002,-0.002
1495993210466,0.001,0.498,0.002,0.005
1495993210484,-0.003,0.500,0.002,-0.010
1495993210501,-0.003,0.502,0.002,-0.018
1495993210519,-0.002,0.504,0.002,-0.018
1495993210537,-0.003,0.506,0.002,-0.026
1495993210552,0.002,0.509,0.002,-0.005
1495993210568,0.002,0.511,0.002,0.008
1495993210585,0.001,0.513,0.002,0.007
1495993210604,0.003,0.515,0.002,0.016
1495993210622,-0.003,0.517,0.002,-0.009
1495993210639,-0.003,0.519,0.002,-0.020
1495993210657,-0.000,0.521,0.002,-0.012
1495993210674,0.002,0.523,0.002,0.002
1495993210692,0.001,0.525,0.002,0.003
1495993210710,0.001,0.527,0.002,0.004
1495993210726,0.003,0.529,0.002,0.017
1495993210744,-0.001,0.531,0.002,0.003
1495993210759,0.000,0.533,0.002,0.002
1495993210808,-0.002,0.535,0.002,-0.007
1495993210824,-0.000,0.537,0.002,-0.005
1495993210851,-0.002,0.539,0.002,-0.012
1495993210869,-0.003,0.541,0.002,-0.019
1495993210887,-0.002,0.543,0.002,-0.021
1495993210904,-0.002,0.545,0.002,-0.019
1495993210922,0.001,0.547,0.002,-0.003
1495993210939,-0.001,0.549,0.002,-0.006
1495993210955,0.002,0.551,0.002,0.008
1495993210973,0.001,0.553,0.002,0.009
1495993210991,0.002,0.554,0.002,0.012
1495993211009,-0.002,0.556,0.002,-0.002
1495993211024,-0.001,0.558,0.002,-0.008
1495993211041,-0.001,0.560,0.002,-0.007
1495993211059,0.002,0.562,0.002,0.005
1495993211074,0.005,0.564,0.002,0.027
1495993211092,-0.004,0.566,0.002,-0.005
1495993211107,-0.001,0.568,0.002,-0.008
1495993211123,0.001,0.570,0.002,0.002
1495993211140,0.002,0.572,0.002,0.009
1495993211156,-0.001,0.574,0.002,-0.000
1495993211175,-0.002,0.576,0.002,-0.012
1495993211192,0.001,0.578,0.002,0.000
1495993211210,-0.000,0.580,0.002,-0.002
1495993211229,-0.003,0.582,0.002,-0.016
1495993211246,-0.002,0.584,0.002,-0.017
1495993211264,-0.001,0.586,0.002,-0.014
1495993211281,-0.001,0.588,0.002,-0.014
1495993211300,-0.002,0.590,0.002,-0.019
1495993211318,-0.002,0.592,0.002,-0.019
1495993211318,-0.003,0.593,0.002,-0.026
1495993211333,0.003,0.595,0.002,0.003
1495993211354,-0.004,0.597,0.002,-0.016
1495993211371,-0.003,0.599,0.002,-0.025
1495993211389,-0.002,0.601,0.002,-0.020
1495993211407,-0.003,0.603,0.002,-0.027
1495993211424,-0.001,0.605,0.002,-0.017
1495993211442,-0.000,0.607,0.002,-0.009
1495993211459,-0.001,0.609,0.002,-0.008
1495993211475,-0.003,0.611,0.002,-0.017
1495993211491,-0.003,0.613,0.002,-0.021
1495993211506,-0.000,0.614,0.002,-0.013
1495993211524,0.001,0.616,0.002,-0.004
1495993211539,-0.002,0.618,0.002,-0.014
1495993211557,-0.001,0.620,0.002,-0.013
1495993211573,0.001,0.622,0.002,-0.004
1495993211592,-0.001,0.624,0.002,-0.009
1495993211610,-0.002,0.626,0.002,-0.014
1495993211625,-0.003,0.627,0.002,-0.021
1495993211641,-0.006,0.629,0.002,-0.039
1495993211658,-0.003,0.631,0.002,-0.032
1495993211673,0.002,0.633,0.002,-0.006
1495993211691,-0.003,0.635,0.002,-0.016
1495993211708,-0.002,0.637,0.002,-0.020
1495993211726,-0.004,0.639,0.002,-0.029
1495993211744,-0.004,0.640,0.002,-0.033
1495993211759,0.002,0.642,0.002,-0.006
1495993211775,0.002,0.644,0.002,0.008
1495993211791,0.003,0.646,0.002,0.018
1495993211807,-0.003,0.648,0.002,-0.008
1495993211825,-0.003,0.649,0.002,-0.018
1495993211842,-0.003,0.651,0.002,-0.022
1495993211860,-0.001,0.653,0.002,-0.014
1495993211875,-0.001,0.655,0.002,-0.012
1495993211891,0.002,0.657,0.002,0.004
1495993211908,-0.002,0.659,0.002,-0.006
1495993211924,-0.005,0.660,0.002,-0.027
1495993211942,-0.003,0.662,0.002,-0.026
1495993211957,-0.001,0.664,0.002,-0.018
1495993211976,-0.001,0.666,0.002,-0.016
1495993211994,-0.001,0.667,0.002,-0.012
1495993212012,0.001,0.669,0.002,-0.003
1495993212031,-0.005,0.671,0.002,-0.027
1495993212048,-0.006,0.673,0.002,-0.044
1495993212066,-0.003,0.675,0.002,-0.038
1495993212084,-0.001,0.676,0.002,-0.022
1495993212101,0.003,0.678,0.002,0.006
1495993212103,-0.001,0.680,0.002,-0.001
1495993212120,-0.003,0.681,0.002,-0.015
1495993212137,-0.000,0.683,0.002,-0.010
1495993212155,0.002,0.685,0.002,0.004
1495993212173,-0.001,0.687,0.002,-0.003
1495993212190,-0.001,0.688,0.002,-0.006
1495993212208,-0.001,0.690,0.002,-0.006
1495993212225,-0.002,0.692,0.002,-0.015
1495993212243,-0.006,0.693,0.002,-0.038
1495993212259,-0.001,0.695,0.002,-0.026
1495993212274,-0.003,0.697,0.002,-0.027
1495993212291,0.000,0.698,0.002,-0.013
1495993212306,-0.008,0.700,0.002,-0.045
1495993212323,-0.005,0.702,0.002,-0.049
1495993212339,-0.007,0.704,0.002,-0.056
1495993212357,-0.014,0.705,0.002,-0.095
1495993212375,-0.008,0.707,0.002,-0.087
1495993212390,-0.004,0.708,0.002,-0.065
1495993212408,-0.004,0.710,0.002,-0.051
1495993212426,-0.006,0.712,0.002,-0.057
1495993212443,-0.014,0.713,0.002,-0.097
1495993212459,-0.009,0.715,0.002,-0.095
1495993212474,-0.005,0.716,0.002,-0.072
1495993212492,0.016,0.718,0.002,0.041
1495993212508,-0.006,0.720,0.002,-0.010
1495993212525,-0.025,0.721,0.002,-0.130
1495993212543,-0.005,0.722,0.002,-0.090
1495993212558,-0.013,0.724,0.002,-0.108
1495993212574,-0.011,0.725,0.002,-0.110
1495993212591,-0.006,0.727,0.002,-0.085
1495993212606,-0.008,0.728,0.002,-0.080
1495993212624,-0.003,0.730,0.002,-0.054
1495993212639,-0.012,0.731,0.002,-0.087
1495993212657,-0.009,0.733,0.002,-0.088
1495993212675,-0.011,0.734,0.002,-0.098
1495993212692,0.013,0.735,0.002,0.014
1495993212708,-0.006,0.737,0.002,-0.020
1495993212724,-0.005,0.738,0.002,-0.034
1495993212740,-0.008,0.739,0.002,-0.054
1495993212758,-0.003,0.741,0.002,-0.040
1495993212806,-0.005,0.742,0.002,-0.044
1495993212822,-0.001,0.743,0.002,-0.026
1495993212854,-0.001,0.745,0.002,-0.018
1495993212870,-0.004,0.746,0.002,-0.027
1495993212885,-0.003,0.747,0.002,-0.026
1495993212903,-0.003,0.748,0.002,-0.030
1495993212921,-0.005,0.750,0.002,-0.037
1495993212938,-0.002,0.751,0.002,-0.028
1495993212956,-0.004,0.752,0.002,-0.034
1495993212974,-0.004,0.754,0.002,-0.037
1495993212976,-0.001,0.755,0.002,-0.023
1495993212992,-0.003,0.756,0.002,-0.028
1495993213010,-0.005,0.757,0.002,-0.039
1495993213027,-0.000,0.759,0.002,-0.020
1495993213045,-0.003,0.760,0.002,-0.026
1495993213062,0.002,0.761,0.002,-0.005
1495993213080,-0.001,0.762,0.002,-0.006
1495993213100,-0.002,0.763,0.002,-0.011
1495993213117,-0.005,0.765,0.002,-0.029
1495993213133,-0.004,0.766,0.002,-0.035
1495993213150,-0.003,0.767,0.002,-0.033
1495993213168,0.001,0.768,0.002,-0.011
1495993213186,-0.004,0.769,0.002,-0.025
1495993213201,-0.004,0.771,0.001,-0.030
1495993213219,-0.001,0.772,0.001,-0.020
1495993213236,0.000,0.773,0.001,-0.008
1495993213254,0.002,0.774,0.001,0.007
1495993213272,0.000,0.776,0.001,0.005
1495993213289,-0.000,0.777,0.001,0.002
1495993213307,-0.002,0.778,0.001,-0.011
1495993213322,-0.003,0.779,0.001,-0.018
1495993213340,-0.000,0.780,0.001,-0.010
1495993213359,-0.004,0.781,0.001,-0.023
1495993213361,-0.002,0.783,0.001,-0.021
1495993213376,-0.000,0.784,0.001,-0.011
1495993213393,0.000,0.785,0.001,-0.004
1495993213410,-0.003,0.786,0.001,-0.015
1495993213428,-0.003,0.787,0.001,-0.022
1495993213447,-0.001,0.788,0.001,-0.018
1495993213464,0.000,0.790,0.001,-0.007
1495993213482,-0.003,0.791,0.001,-0.017
1495993213499,0.003,0.792,0.001,0.008
1495993213515,-0.006,0.793,0.001,-0.026
1495993213532,-0.004,0.794,0.001,-0.034
1495993213547,-0.006,0.795,0.001,-0.045
1495993213565,-0.001,0.796,0.001,-0.029
1495993213582,-0.001,0.797,0.001,-0.020
1495993213600,-0.004,0.798,0.001,-0.032
1495993213616,-0.003,0.799,0.001,-0.032
1495993213631,0.001,0.801,0.001,-0.010
1495993213648,-0.002,0.802,0.001,-0.014
1495993213664,0.000,0.803,0.001,-0.006
1495993213682,0.002,0.804,0.001,0.007
1495993213700,-0.005,0.805,0.001,-0.020
1495993213717,-0.002,0.806,0.001,-0.022
1495993213733,-0.002,0.807,0.001,-0.020
1495993213748,-0.002,0.808,0.001,-0.018
1495993213766,-0.002,0.809,0.001,-0.018
1495993213784,-0.002,0.810,0.001,-0.017
1495993213799,0.001,0.811,0.001,-0.004
1495993213815,-0.006,0.813,0.001,-0.030
1495993213831,-0.002,0.814,0.001,-0.024
1495993213847,-0.001,0.815,0.001,-0.019
1495993213865,-0.001,0.816,0.001,-0.017
1495993213883,0.001,0.817,0.001,-0.006
1495993213901,-0.003,0.818,0.001,-0.018
1495993213919,-0.000,0.819,0.001,-0.010
1495993213937,-0.001,0.820,0.001,-0.009
1495993213955,-0.005,0.821,0.001,-0.030
1495993213972,-0.005,0.822,0.001,-0.040
1495993213990,-0.002,0.823,0.001,-0.032
1495993214008,-0.002,0.824,0.001,-0.024
1495993214010,-0.003,0.825,0.001,-0.026
1495993214027,-0.004,0.826,0.001,-0.033
1495993214045,-0.004,0.827,0.001,-0.036
1495993214062,-0.005,0.828,0.001,-0.044
1495993214080,-0.002,0.829,0.001,-0.030
1495993214098,0.003,0.830,0.001,-0.003
1495993214116,-0.005,0.831,0.001,-0.024
1495993214132,-0.005,0.832,0.001,-0.038
1495993214147,-0.003,0.833,0.001,-0.033
1495993214163,-0.003,0.834,0.001,-0.030
1495993214180,-0.003,0.835,0.001,-0.031
1495993214198,-0.003,0.836,0.001,-0.029
1495993214216,-0.001,0.837,0.001,-0.019
1495993214233,-0.001,0.838,0.001,-0.013
1495993214249,-0.002,0.839,0.001,-0.016
1495993214264,-0.006,0.839,0.001,-0.035
1495993214282,-0.004,0.840,0.001,-0.038
1495993214300,0.002,0.841,0.001,-0.010
1495993214317,-0.004,0.842,0.001,-0.024
1495993214333,-0.001,0.843,0.001,-0.019
1495993214348,-0.002,0.844,0.001,-0.021
1495993214365,0.000,0.845,0.001,-0.009
1495993214381,0.002,0.846,0.001,0.004
1495993214399,0.000,0.847,0.001,0.002
1495993214417,0.001,0.847,0.001,0.004
1495993214432,0.000,0.848,0.001,0.002
1495993214448,-0.004,0.849,0.001,-0.018
1495993214466,-0.001,0.850,0.001,-0.016
1495993214483,-0.001,0.851,0.001,-0.014
1495993214499,-0.002,0.852,0.001,-0.019
1495993214514,0.001,0.853,0.001,-0.007
1495993214531,0.001,0.854,0.001,0.003
1495993214547,0.001,0.855,0.001,0.004
1495993214565,-0.003,0.855,0.001,-0.011
1495993214583,-0.004,0.856,0.001,-0.023
1495993214598,-0.002,0.857,0.001,-0.022
1495993214614,-0.005,0.858,0.001,-0.035
1495993214631,-0.003,0.859,0.001,-0.030
1495993214648,-0.007,0.860,0.001,-0.049
1495993214666,-0.004,0.861,0.001,-0.042
1495993214683,-0.003,0.861,0.001,-0.036
1495993214699,0.000,0.862,0.001,-0.018
1495993214715,0.003,0.863,0.001,0.007
1495993214732,-0.000,0.864,0.001,0.003
1495993214750,0.001,0.864,0.001,0.004
1495993214765,-0.000,0.865,0.001,0.001
1495993214781,-0.006,0.866,0.001,-0.028
1495993214798,-0.006,0.867,0.001,-0.041
1495993214813,-0.003,0.867,0.001,-0.034
1495993214831,-0.002,0.868,0.001,-0.025
1495993214848,-0.001,0.869,0.001,-0.019
1495993214866,-0.005,0.870,0.001,-0.036
1495993214884,-0.004,0.870,0.001,-0.039
1495993214899,-0.000,0.871,0.001,-0.021
1495993214915,0.003,0.872,0.001,0.003
1495993214931,-0.000,0.873,0.001,0.001
1495993214947,-0.001,0.874,0.001,-0.004
1495993214965,-0.003,0.874,0.001,-0.017
1495993214982,-0.004,0.875,0.001,-0.028
1495993215000,-0.005,0.876,0.001,-0.038
1495993215015,-0.005,0.876,0.001,-0.045
1495993215031,0.000,0.877,0.001,-0.022
1495993215049,-0.004,0.878,0.001,-0.032
1495993215066,-0.004,0.879,0.001,-0.034
1495993215084,-0.002,0.879,0.001,-0.025
1495993215099,0.000,0.880,0.001,-0.011
1495993215115,0.003,0.881,0.001,0.008
1495993215132,-0.003,0.882,0.001,-0.010
1495993215147,-0.007,0.882,0.001,-0.040
1495993215164,0.001,0.883,0.001,-0.015
1495993215179,-0.003,0.884,0.001,-0.023
1495993215197,-0.002,0.884,0.001,-0.021
1495993215215,0.001,0.885,0.001,-0.004
1495993215230,-0.000,0.886,0.001,-0.004
1495993215248,-0.003,0.886,0.001,-0.015
1495993215265,-0.003,0.887,0.001,-0.020
1495993215283,-0.003,0.888,0.001,-0.024
1495993215301,0.000,0.889,0.001,-0.012
1495993215316,-0.001,0.889,0.001,-0.013
1495993215332,0.002,0.890,0.001,0.001
1495993215348,-0.003,0.891,0.001,-0.012
1495993215364,-0.003,0.891,0.001,-0.022
1495993215380,-0.007,0.892,0.001,-0.045
1495993215397,-0.004,0.892,0.001,-0.043
1495993215416,-0.003,0.893,0.001,-0.036
1495993215433,-0.004,0.894,0.001,-0.038
1495993215449,-0.001,0.894,0.001,-0.022
1495993215465,0.001,0.895,0.001,-0.008
1495993215481,-0.001,0.896,0.001,-0.011
1495993215497,0.002,0.896,0.001,0.003
1495993215514,0.001,0.897,0.001,0.004
1495993215532,-0.001,0.898,0.001,-0.002
1495993215550,-0.006,0.898,0.001,-0.030
1495993215567,-0.000,0.899,0.001,-0.016
1495993215583,-0.004,0.899,0.001,-0.026
1495993215600,-0.004,0.900,0.001,-0.031
1495993215618,-0.004,0.900,0.001,-0.037
1495993215636,-0.001,0.901,0.001,-0.023
1495993215653,-0.001,0.902,0.001,-0.015
1495993215671,-0.002,0.902,0.001,-0.017
1495993215686,-0.003,0.903,0.001,-0.025
1495993215704,0.001,0.903,0.001,-0.009
1495993215722,-0.000,0.904,0.001,-0.005
1495993215739,0.001,0.905,0.001,0.000
1495993215757,-0.001,0.905,0.001,-0.007
1495993215774,-0.001,0.906,0.001,-0.010
1495993215792,-0.007,0.906,0.001,-0.041
1495993215794,-0.007,0.907,0.001,-0.055
1495993215811,-0.007,0.907,0.001,-0.060
1495993215828,-0.000,0.908,0.001,-0.031
1495993215846,0.003,0.908,0.001,0.002
1495993215863,-0.001,0.909,0.001,-0.005
1495993215883,-0.003,0.909,0.001,-0.018
1495993215901,-0.004,0.910,0.001,-0.027
1495993215916,-0.004,0.910,0.001,-0.031
1495993215932,-0.003,0.911,0.001,-0.030
1495993215949,-0.001,0.911,0.001,-0.021
1495993215967,-0.002,0.912,0.001,-0.020
1495993215983,-0.009,0.912,0.001,-0.054
1495993215998,-0.005,0.913,0.001,-0.051
1495993216015,-0.003,0.913,0.001,-0.040
1495993216030,-0.007,0.914,0.001,-0.053
1495993216048,-0.004,0.914,0.001,-0.047
1495993216066,-0.002,0.914,0.001,-0.035
1495993216083,-0.002,0.915,0.001,-0.028
1495993216099,-0.001,0.915,0.001,-0.017
1495993216114,-0.003,0.916,0.001,-0.024
1495993216131,-0.002,0.916,0.001,-0.021
1495993216147,-0.003,0.917,0.001,-0.027
1495993216164,-0.002,0.917,0.001,-0.022
1495993216182,-0.004,0.917,0.001,-0.031
1495993216199,-0.004,0.918,0.001,-0.033
1495993216217,-0.003,0.918,0.001,-0.033
1495993216233,0.000,0.919,0.001,-0.015
