1495974068413,0.002,0.001,0.002,0.001
1495974068429,-0.002,0.002,-0.002,0.002
1495974068455,-0.002,0.004,-0.002,0.004
1495974068488,0.001,-0.000,0.001,-0.000
1495974068490,0.005,0.002,0.005,0.002
1495974068505,0.000,0.001,0.000,0.001
1495974068522,0.001,0.000,0.001,0.000
1495974068544,-0.002,0.003,-0.002,0.003
1495974068561,0.001,0.000,0.001,0.000
1495974068579,0.003,0.003,0.003,0.003
1495974068594,0.003,-0.001,0.003,-0.001
1495974068612,0.002,0.004,0.002,0.004
1495974068628,0.002,0.002,0.002,0.002
1495974068644,-0.002,0.000,-0.002,0.000
1495974068660,-0.001,0.001,-0.001,0.001
1495974068679,0.001,0.002,0.001,0.002
1495974068695,0.003,0.001,0.003,0.001
1495974068711,0.003,0.005,0.003,0.005
1495974068728,-0.001,0.003,-0.001,0.003
1495974068746,0.002,0.004,0.002,0.004
1495974068763,0.001,0.000,0.001,0.000
1495974068779,0.001,0.000,0.001,0.000
1495974068797,0.005,-0.001,0.005,-0.001
1495974068812,0.002,-0.003,0.002,-0.003
1495974068828,-0.004,0.005,-0.004,0.005
1495974068845,0.000,0.002,0.000,0.002
1495974068863,0.001,0.004,0.001,0.004
1495974068879,0.006,0.003,0.006,0.003
1495974068894,0.001,0.002,0.001,0.002
1495974068911,-0.001,0.001,-0.001,0.001
1495974068926,0.003,0.004,0.003,0.004
1495974068944,-0.001,-0.000,-0.001,-0.001
1495974068962,0.003,-0.001,0.003,-0.001
1495974068979,0.003,0.003,0.003,0.003
1495974068997,0.000,-0.001,0.000,-0.001
1495974069012,-0.005,-0.001,-0.005,-0.002
1495974069028,0.003,-0.001,0.003,-0.001
1495974069045,-0.001,0.003,-0.001,0.003
1495974069060,0.003,0.003,0.003,0.003
1495974069078,0.003,0.000,0.003,0.000
1495974069111,-0.000,0.001,-0.000,0.001
1495974069129,0.003,0.003,0.003,0.003
1495974069146,-0.002,0.000,-0.002,0.001
1495974069162,0.005,0.000,0.006,0.001
1495974069177,-0.001,0.001,-0.002,0.001
1495974069195,0.001,-0.002,0.001,-0.002
1495974069213,0.001,0.000,0.001,0.000
1495974069230,-0.002,0.004,-0.002,0.004
1495974069248,0.003,0.002,0.003,0.002
1495974069265,0.001,0.001,0.001,0.001
1495974069281,0.002,0.004,0.002,0.004
1495974069299,0.000,0.002,0.000,0.002
1495974069316,-0.003,0.001,-0.004,0.001
1495974069334,-0.001,0.001,-0.001,0.001
1495974069351,0.003,-0.002,0.004,-0.002
1495974069369,0.005,0.000,0.006,0.001
1495974069387,0.001,-0.001,0.001,-0.001
1495974069404,-0.004,-0.002,-0.004,-0.002
1495974069423,0.001,0.000,0.001,0.000
1495974069440,0.005,0.000,0.006,0.000
1495974069457,0.005,-0.000,0.005,-0.001
1495974069475,0.005,0.001,0.006,0.001
1495974069490,0.002,0.001,0.002,0.001
1495974069508,-0.003,-0.001,-0.003,-0.002
1495974069525,-0.002,-0.004,-0.003,-0.004
1495974069541,0.002,-0.003,0.002,-0.003
1495974069559,0.005,0.000,0.006,0.000
1495974069574,0.005,0.001,0.006,0.001
1495974069592,-0.001,-0.004,-0.002,-0.004
1495974069609,0.002,-0.001,0.002,-0.001
1495974069627,0.001,0.002,0.001,0.002
1495974069645,0.003,-0.001,0.003,-0.001
1495974069662,0.003,0.001,0.004,0.001
1495974069680,0.001,0.003,0.001,0.004
1495974069695,-0.004,0.006,-0.004,0.006
1495974069729,-0.004,0.003,-0.004,0.003
1495974069746,0.001,0.002,0.001,0.002
1495974069762,0.004,-0.002,0.004,-0.003
1495974069777,0.000,-0.000,0.000,-0.001
1495974069793,0.002,-0.000,0.003,-0.001
1495974069809,0.001,0.005,0.001,0.005
1495974069826,0.001,-0.001,0.001,-0.001
1495974069844,0.004,0.001,0.004,0.002
1495974069861,0.008,0.001,0.009,0.002
1495974069879,0.003,0.001,0.003,0.001
1495974069897,-0.004,0.006,-0.004,0.007
1495974069912,-0.001,0.000,-0.001,0.001
1495974069928,0.004,-0.001,0.005,-0.001
1495974069944,0.005,0.002,0.006,0.002
1495974069960,0.002,0.000,0.002,0.000
1495974069973,-0.002,0.004,-0.002,0.005
1495974070008,0.000,-0.001,0.000,-0.002
1495974070026,0.001,0.003,0.001,0.004
1495974070043,0.004,-0.000,0.005,-0.000
1495974070059,0.004,-0.001,0.005,-0.001
1495974070077,0.008,0.001,0.010,0.001
1495974070094,0.003,0.003,0.003,0.003
1495974070112,0.001,0.004,0.001,0.005
1495974070129,0.003,0.000,0.003,0.000
1495974070147,0.003,0.001,0.003,0.001
1495974070163,0.006,-0.004,0.007,-0.005
1495974070178,0.004,0.003,0.005,0.004
1495974070195,0.001,0.001,0.001,0.001
1495974070210,0.001,0.002,0.001,0.003
1495974070228,-0.001,0.004,-0.001,0.005
1495974070246,0.004,-0.000,0.004,-0.001
1495974070263,0.000,-0.001,0.000,-0.001
1495974070279,0.004,0.001,0.004,0.001
1495974070294,0.003,0.002,0.003,0.003
1495974070312,0.002,0.001,0.002,0.002
1495974070330,0.003,-0.000,0.003,-0.001
1495974070347,0.003,0.000,0.003,0.001
1495974070363,0.001,0.001,0.001,0.001
1495974070378,-0.001,0.001,-0.001,0.001
1495974070396,0.002,0.006,0.002,0.007
1495974070414,0.001,0.003,0.002,0.004
1495974070429,0.006,0.001,0.007,0.002
1495974070461,0.004,0.000,0.005,0.000
1495974070477,-0.001,0.002,-0.001,0.002
1495974070495,-0.001,0.005,-0.001,0.007
1495974070512,0.001,0.003,0.002,0.004
1495974070530,0.004,0.014,0.005,0.017
1495974070545,0.007,0.004,0.008,0.005
1495974070561,0.005,-0.002,0.006,-0.002
1495974070579,0.004,-0.005,0.005,-0.006
1495974070596,0.001,0.009,0.001,0.011
1495974070612,-0.000,-0.002,-0.000,-0.002
1495974070628,0.003,-0.000,0.004,-0.001
1495974070644,-0.045,-0.297,-0.057,-0.372
1495974070662,0.035,0.183,0.041,0.175
1495974070679,-0.032,-0.207,-0.040,-0.254
1495974070697,0.007,-0.220,0.005,-0.134
1495974070728,0.031,-0.090,0.034,-0.084
1495974070746,0.003,-0.129,0.002,-0.064
1495974070763,0.002,-0.186,-0.000,-0.051
1495974070810,-0.021,-0.004,0.021,-0.003
1495974070826,0.033,-0.103,0.396,-5.362
1495974070847,0.061,-0.133,0.050,-0.457
1495974070865,0.075,-0.015,-1.362,-0.720
1495974070882,0.078,-0.163,0.363,-1.336
1495974070900,-0.096,-0.164,-0.385,-0.810
1495974070918,-0.073,-0.232,-0.328,-1.090
1495974070935,0.032,-0.051,0.143,-0.244
1495974070953,0.039,0.045,0.172,0.204
1495974070970,0.016,0.022,0.071,0.097
1495974070986,0.032,-0.010,0.143,-0.045
1495974071002,-0.027,-0.023,-0.122,-0.103
1495974071018,-0.016,-0.055,-0.074,-0.247
1495974071034,-0.001,-0.091,-0.004,-0.415
1495974071050,0.031,-0.011,0.139,-0.052
1495974071066,0.012,0.051,0.054,0.231
1495974071084,-0.005,0.101,-0.023,0.454
1495974071101,0.133,0.068,0.603,0.302
1495974071120,0.003,0.081,0.012,0.358
1495974071137,0.090,-0.097,0.402,-0.421
1495974071153,-0.208,0.031,-0.896,0.142
1495974071171,-0.112,0.163,-0.519,0.705
1495974071186,0.038,0.154,0.177,0.655
1495974071202,-0.022,0.016,-0.097,0.068
1495974071218,0.020,0.064,0.088,0.279
1495974071234,-0.000,0.027,-0.002,0.115
1495974071251,0.039,0.022,0.169,0.094
1495974071266,-0.026,-0.035,-0.112,-0.150
1495974071285,0.003,-0.004,0.015,-0.018
1495974071302,0.066,0.126,0.283,0.546
1495974071320,0.042,0.098,0.176,0.409
1495974071336,-0.043,-0.007,-0.184,-0.029
1495974071351,-0.008,-0.078,-0.037,-0.331
1495974071367,-0.022,-0.085,-0.091,-0.369
1495974071384,0.012,0.040,0.051,0.175
1495974071402,0.036,-0.027,0.153,-0.114
1495974071420,0.074,0.027,0.315,0.118
1495974071437,-0.010,0.028,-0.043,0.120
1495974071453,0.024,0.045,0.103,0.189
1495974071468,-0.014,-0.031,-0.057,-0.128
1495974071486,0.023,0.007,0.098,0.031
1495974071504,-0.005,-0.033,-0.021,-0.137
1495974071519,-0.009,0.026,-0.038,0.109
1495974071535,0.008,0.090,0.034,0.374
1495974071552,-0.013,0.051,-0.055,0.208
1495974071570,0.009,-0.037,0.039,-0.152
1495974071586,0.003,0.062,0.012,0.262
1495974071601,-0.033,0.196,-0.138,0.794
1495974071619,-0.032,-0.031,-0.136,-0.121
1495974071636,-0.005,-0.034,-0.022,-0.140
1495974071654,0.046,-0.015,0.188,-0.061
1495974071670,0.041,0.081,0.164,0.332
1495974071702,0.051,0.011,0.205,0.043
1495974071717,0.010,0.017,0.041,0.067
1495974071735,-0.007,0.213,-0.026,0.848
1495974071753,-0.100,0.146,-0.401,0.530
1495974071770,-0.060,0.073,-0.250,0.273
1495974071786,-0.036,0.071,-0.145,0.266
1495974071802,0.036,0.245,0.142,0.914
1495974071820,0.038,0.094,0.145,0.322
1495974071836,0.010,0.006,0.039,0.022
1495974071851,0.005,0.003,0.019,0.010
1495974071867,0.007,0.000,0.023,0.001
1495974071884,0.007,-0.002,0.023,-0.007
1495974071903,0.010,-0.002,0.035,-0.007
1495974071921,0.007,-0.000,0.025,-0.001
1495974071936,0.002,-0.000,0.005,-0.001
1495974071952,-0.000,0.002,-0.001,0.007
1495974071984,0.000,-0.001,0.001,-0.005
1495974072002,-0.000,-0.005,-0.001,-0.016
1495974072019,0.006,0.004,0.019,0.013
1495974072037,0.004,0.009,0.014,0.032
1495974072052,0.001,0.008,0.004,0.027
1495974072068,-0.002,0.015,-0.007,0.050
1495974072084,0.001,0.011,0.004,0.036
1495974072101,0.008,0.010,0.027,0.035
1495974072119,0.012,0.008,0.040,0.028
1495974072136,0.014,0.010,0.047,0.034
1495974072152,0.004,0.010,0.015,0.033
1495974072169,0.001,0.009,0.002,0.030
1495974072184,0.004,0.011,0.012,0.038
1495974072202,0.006,0.011,0.021,0.038
1495974072219,0.005,0.006,0.016,0.020
1495974072237,0.006,0.006,0.020,0.021
1495974072253,0.003,0.008,0.010,0.027
1495974072268,0.003,0.016,0.010,0.053
1495974072285,0.003,0.013,0.010,0.042
1495974072300,0.004,0.014,0.014,0.044
1495974072318,0.006,0.012,0.018,0.039
1495974072334,0.008,0.015,0.025,0.047
1495974072351,0.003,0.015,0.009,0.047
1495974072369,0.010,0.014,0.032,0.043
1495974072386,0.011,0.016,0.034,0.050
1495974072404,0.006,0.010,0.019,0.031
1495974072420,0.003,0.010,0.009,0.031
1495974072435,0.003,0.007,0.010,0.020
1495974072452,-0.001,0.016,-0.004,0.049
1495974072467,0.004,0.010,0.012,0.030
1495974072501,0.001,0.015,0.004,0.044
1495974072518,0.008,0.012,0.023,0.034
1495974072536,0.005,0.008,0.014,0.023
1495974072554,0.004,0.017,0.011,0.049
1495974072572,0.001,0.011,0.002,0.032
1495974072588,0.007,0.016,0.020,0.045
1495974072605,0.009,0.012,0.027,0.034
1495974072623,0.002,0.010,0.004,0.029
1495974072640,0.006,0.014,0.016,0.040
1495974072658,0.003,0.014,0.008,0.037
1495974072677,0.005,0.014,0.014,0.037
1495974072694,0.006,0.013,0.017,0.034
1495974072712,0.005,0.010,0.013,0.025
1495974072714,0.004,0.012,0.012,0.031
1495974072730,0.007,0.013,0.017,0.033
1495974072748,0.002,0.016,0.004,0.040
1495974072766,0.005,0.014,0.012,0.036
1495974072814,0.009,0.012,0.023,0.029
1495974072830,0.010,0.015,0.025,0.036
1495974072862,0.009,0.009,0.021,0.020
1495974072878,0.005,0.011,0.012,0.025
1495974072894,0.000,0.012,0.001,0.026
1495974072912,0.005,0.013,0.012,0.028
1495974072930,0.001,0.013,0.002,0.028
1495974072947,0.003,0.011,0.007,0.024
1495974072965,0.003,0.017,0.007,0.035
1495974072982,0.001,0.018,0.002,0.035
1495974072984,0.004,0.014,0.007,0.025
1495974073001,0.009,0.014,0.017,0.026
1495974073019,0.003,0.013,0.005,0.022
1495974073036,0.006,0.011,0.010,0.016
1495974073054,0.005,0.011,0.007,0.016
1495974073071,0.004,0.012,0.005,0.016
1495974073089,0.005,0.013,0.006,0.015
1495974073107,0.002,0.012,0.002,0.012
1495974073124,-0.002,0.011,-0.002,0.008
1495974073140,0.005,0.013,0.003,0.006
1495974073155,0.005,0.016,0.002,0.004
1495974073171,0.006,0.017,-0.000,0.000
1495974073189,0.002,0.014,-0.001,0.007
1495974073206,0.003,0.011,0.034,0.039
1495974073225,0.004,0.010,0.011,0.045
1495974073242,0.006,0.011,0.015,0.073
1495974073258,0.005,0.013,0.012,0.049
1495974073276,-0.003,0.014,-0.007,0.043
1495974073293,0.001,0.010,0.001,0.025
1495974073311,0.006,0.012,0.015,0.030
1495974073328,0.008,0.018,0.020,0.047
1495974073346,0.010,0.011,0.025,0.030
1495974073364,0.004,0.015,0.012,0.040
1495974073381,-0.000,0.013,-0.000,0.037
1495974073399,-0.001,0.012,-0.004,0.035
1495974073416,0.010,0.014,0.027,0.038
1495974073418,0.006,0.013,0.017,0.037
1495974073434,0.010,0.015,0.028,0.045
1495974073453,0.010,0.014,0.030,0.042
1495974073470,-0.002,0.009,-0.006,0.026
1495974073488,-0.003,0.012,-0.008,0.035
1495974073505,0.004,0.010,0.012,0.031
1495974073523,0.009,0.015,0.027,0.044
1495974073541,0.010,0.015,0.030,0.046
1495974073558,0.008,0.014,0.026,0.045
1495974073574,0.005,0.016,0.017,0.052
1495974073589,0.003,0.021,0.009,0.066
1495974073606,0.008,0.020,0.024,0.065
1495974073622,0.011,0.028,0.035,0.093
1495974073639,-0.000,0.270,-0.001,0.903
1495974073655,-0.008,0.179,-0.026,0.783
1495974073672,0.022,0.852,0.071,4.252
1495974073690,-0.155,0.084,-0.558,0.486
1495974073708,0.006,0.250,0.016,1.426
1495974073723,-0.204,0.215,-0.800,0.961
1495974073739,-0.074,0.106,-0.270,0.459
1495974073754,0.053,-0.005,0.206,-0.020
1495974073772,0.104,0.105,0.424,0.422
1495974073790,0.022,0.013,0.093,0.055
1495974073805,0.060,0.035,0.245,0.143
1495974073823,0.062,0.128,0.258,0.532
1495974073840,-0.009,-0.123,-0.038,-0.528
1495974073858,0.084,-0.022,0.350,-0.091
1495974073874,0.057,0.013,0.243,0.054
1495974073889,0.014,-0.023,0.061,-0.096
1495974073906,0.056,0.017,0.238,0.071
1495974073921,0.018,-0.044,0.077,-0.187
1495974073939,0.019,0.058,0.080,0.241
1495974073957,-0.037,-0.083,-0.158,-0.357
1495974073974,0.028,-0.016,0.118,-0.068
1495974073992,0.072,0.080,0.305,0.335
1495974074007,-0.034,-0.033,-0.146,-0.143
1495974074023,-0.017,0.013,-0.072,0.056
1495974074040,0.014,0.032,0.060,0.138
1495974074073,-0.036,-0.013,-0.154,-0.054
1495974074090,-0.034,-0.070,-0.144,-0.296
1495974074108,0.054,0.019,0.225,0.079
1495974074124,0.020,0.021,0.087,0.087
1495974074139,-0.029,-0.002,-0.124,-0.010
1495974074156,-0.029,-0.022,-0.123,-0.094
1495974074171,-0.041,0.002,-0.171,0.007
1495974074189,0.007,-0.028,0.028,-0.119
1495974074207,0.012,0.023,0.052,0.098
1495974074224,-0.029,0.024,-0.120,0.101
1495974074240,-0.006,0.071,-0.023,0.298
1495974074255,0.024,0.054,0.101,0.232
1495974074271,0.025,0.070,0.104,0.298
1495974074289,-0.017,-0.018,-0.072,-0.078
1495974074306,0.007,0.025,0.031,0.108
1495974074324,0.014,-0.055,0.062,-0.235
1495974074341,-0.015,-0.020,-0.062,-0.082
1495974074373,0.002,0.024,0.008,0.103
1495974074389,0.013,-0.024,0.053,-0.101
1495974074405,0.032,0.009,0.135,0.039
1495974074422,0.004,-0.083,0.017,-0.352
1495974074440,-0.022,-0.074,-0.092,-0.311
1495974074458,0.014,-0.068,0.058,-0.286
1495974074473,0.029,-0.037,0.125,-0.155
1495974074489,-0.056,-0.149,-0.237,-0.623
1495974074504,0.009,-0.044,0.036,-0.179
1495974074522,-0.007,-0.028,-0.030,-0.116
1495974074538,-0.062,-0.092,-0.255,-0.378
1495974074573,-0.009,-0.190,-0.035,-0.763
1495974074590,0.050,-0.094,0.206,-0.368
1495974074608,-0.011,-0.139,-0.045,-0.548
1495974074624,-0.019,-0.173,-0.077,-0.666
1495974074639,0.007,-0.085,0.029,-0.323
1495974074656,-0.001,-0.119,-0.005,-0.453
1495974074671,-0.018,-0.065,-0.069,-0.242
1495974074689,-0.009,-0.034,-0.033,-0.126
1495974074705,-0.005,0.010,-0.018,0.035
1495974074722,-0.001,0.010,-0.002,0.038
1495974074738,0.007,0.012,0.026,0.044
1495974074755,0.010,0.019,0.037,0.070
1495974074804,0.000,0.017,0.001,0.063
1495974074820,-0.004,0.014,-0.013,0.054
1495974074842,-0.001,0.016,-0.005,0.060
1495974074860,0.000,0.021,0.001,0.079
1495974074878,0.003,0.015,0.013,0.056
1495974074895,0.004,0.012,0.014,0.047
1495974074911,0.000,0.016,0.001,0.062
1495974074928,-0.006,0.022,-0.021,0.084
1495974074946,-0.003,0.029,-0.012,0.109
1495974074964,-0.000,0.020,-0.001,0.076
1495974074981,0.005,0.023,0.018,0.088
1495974074999,0.002,0.022,0.006,0.086
1495974075014,0.002,0.031,0.008,0.121
1495974075030,0.001,0.112,0.002,0.430
1495974075048,0.001,0.032,0.005,0.129
1495974075065,0.004,0.045,0.016,0.176
1495974075083,0.005,-0.008,0.021,-0.030
1495974075099,0.000,-0.015,0.000,-0.058
1495974075114,0.003,-0.001,0.012,-0.004
1495974075131,0.004,0.031,0.015,0.120
1495974075146,0.006,0.030,0.023,0.118
1495974075164,0.003,0.027,0.014,0.108
1495974075182,-0.003,0.024,-0.010,0.095
1495974075197,-0.001,0.023,-0.004,0.091
1495974075214,-0.001,0.030,-0.003,0.117
1495974075229,0.001,0.026,0.003,0.105
1495974075247,0.003,0.032,0.010,0.127
1495974075263,0.002,0.027,0.008,0.107
1495974075280,0.001,0.026,0.005,0.105
1495974075298,0.002,0.028,0.009,0.111
1495974075315,0.003,0.025,0.011,0.100
1495974075333,-0.000,0.030,-0.002,0.122
1495974075349,-0.001,0.028,-0.006,0.111
1495974075364,0.001,0.028,0.004,0.112
1495974075381,0.007,0.030,0.030,0.120
1495974075396,-0.001,0.028,-0.003,0.112
1495974075413,0.003,0.032,0.011,0.129
1495974075429,-0.004,0.027,-0.017,0.111
1495974075446,-0.000,0.030,-0.001,0.123
1495974075462,0.004,0.029,0.016,0.120
1495974075479,0.006,0.022,0.026,0.092
1495974075497,0.002,0.024,0.007,0.099
1495974075515,-0.003,0.026,-0.011,0.107
1495974075532,0.002,0.030,0.007,0.124
1495974075548,-0.001,0.028,-0.003,0.114
1495974075563,0.006,0.023,0.024,0.097
1495974075579,0.003,0.026,0.010,0.107
1495974075597,-0.005,0.025,-0.021,0.102
1495974075614,-0.005,0.029,-0.022,0.120
1495974075632,-0.000,0.027,-0.001,0.112
1495974075649,0.004,0.027,0.018,0.114
1495974075665,0.003,0.028,0.012,0.118
1495974075681,0.001,0.030,0.004,0.124
1495974075697,-0.002,0.028,-0.008,0.119
1495974075730,0.001,0.026,0.003,0.109
1495974075748,0.009,0.025,0.038,0.106
1495974075766,0.004,0.026,0.016,0.109
1495974075781,0.003,0.027,0.012,0.112
1495974075797,-0.003,0.027,-0.014,0.116
1495974075813,-0.003,0.029,-0.011,0.122
1495974075829,0.000,0.030,0.001,0.129
1495974075847,0.004,0.029,0.019,0.123
1495974075864,0.002,0.027,0.007,0.113
1495974075882,0.001,0.024,0.004,0.102
1495974075899,-0.002,0.026,-0.007,0.109
1495974075915,-0.000,0.030,-0.002,0.129
1495974075931,0.006,0.017,0.024,0.074
1495974075947,0.006,0.018,0.026,0.077
1495974075963,0.006,0.018,0.025,0.077
1495974075980,-0.002,0.025,-0.008,0.108
1495974075998,0.000,0.033,0.000,0.141
1495974076010,-0.004,0.032,-0.016,0.137
1495974076028,-0.002,0.033,-0.007,0.144
1495974076045,-0.002,0.023,-0.010,0.101
1495974076063,0.003,0.022,0.011,0.097
1495974076080,-0.000,0.026,-0.002,0.112
1495974076098,0.004,0.026,0.016,0.112
1495974076116,0.001,0.023,0.006,0.099
1495974076133,0.003,0.023,0.011,0.101
1495974076151,0.002,0.022,0.008,0.098
1495974076168,0.002,0.029,0.008,0.127
1495974076186,0.001,0.030,0.003,0.131
1495974076204,0.000,0.027,0.000,0.120
1495974076221,-0.005,0.031,-0.020,0.137
1495974076239,-0.007,0.027,-0.032,0.119
1495974076256,-0.000,0.028,-0.002,0.124
1495974076274,-0.002,0.028,-0.008,0.124
1495974076293,-0.003,0.024,-0.014,0.104
1495974076310,-0.001,0.024,-0.006,0.104
1495974076328,0.004,0.022,0.018,0.099
1495974076345,0.005,0.028,0.022,0.123
1495974076363,-0.001,0.025,-0.003,0.110
1495974076379,-0.003,0.029,-0.012,0.129
1495974076396,-0.002,0.031,-0.010,0.135
1495974076414,0.001,0.030,0.004,0.135
1495974076429,0.005,0.029,0.022,0.129
1495974076447,-0.000,0.030,-0.002,0.134
1495974076465,-0.003,0.027,-0.013,0.120
1495974076497,-0.003,0.022,-0.012,0.099
1495974076512,-0.003,0.022,-0.013,0.097
1495974076530,0.006,0.021,0.026,0.096
1495974076548,0.001,0.027,0.004,0.121
1495974076565,0.002,0.031,0.010,0.140
1495974076583,-0.002,0.032,-0.010,0.144
1495974076598,-0.006,0.031,-0.028,0.139
1495974076614,0.004,0.031,0.018,0.138
1495974076631,0.006,0.024,0.025,0.110
1495974076646,0.002,0.028,0.010,0.128
1495974076664,-0.001,0.030,-0.003,0.137
1495974076681,-0.005,0.023,-0.023,0.105
1495974076699,-0.004,0.025,-0.017,0.113
1495974076715,0.004,0.020,0.017,0.091
1495974076730,-0.001,0.029,-0.003,0.133
1495974076747,-0.004,0.031,-0.016,0.140
1495974076780,-0.003,0.025,-0.014,0.115
1495974076813,0.002,0.029,0.009,0.132
1495974076829,0.003,0.028,0.011,0.126
1495974076846,0.007,0.025,0.030,0.114
1495974076864,0.006,0.023,0.029,0.107
1495974076882,0.004,0.023,0.018,0.107
1495974076899,-0.003,0.027,-0.014,0.125
1495974076917,0.002,0.027,0.009,0.125
1495974076932,0.001,0.027,0.004,0.124
1495974076950,-0.001,0.025,-0.005,0.115
1495974076968,0.002,0.027,0.007,0.124
1495974076985,0.000,0.030,0.000,0.137
1495974077003,-0.001,0.028,-0.005,0.128
1495974077020,-0.001,0.022,-0.004,0.102
1495974077036,0.004,0.025,0.017,0.115
1495974077054,0.005,0.027,0.022,0.126
1495974077069,0.004,0.026,0.018,0.118
1495974077085,-0.002,0.028,-0.010,0.130
1495974077101,-0.002,0.024,-0.010,0.113
1495974077117,0.005,0.025,0.022,0.118
1495974077135,0.004,0.028,0.017,0.128
1495974077152,-0.003,0.028,-0.014,0.128
1495974077170,-0.000,0.030,-0.002,0.140
1495974077185,-0.007,0.030,-0.031,0.138
1495974077201,0.001,0.029,0.003,0.135
1495974077218,0.002,0.025,0.007,0.115
1495974077233,0.004,0.027,0.020,0.124
1495974077251,0.002,0.022,0.009,0.101
1495974077266,0.000,0.028,0.000,0.131
1495974077284,-0.003,0.030,-0.015,0.141
1495974077302,0.002,0.026,0.009,0.122
1495974077319,0.003,0.028,0.013,0.129
1495974077337,0.002,0.028,0.009,0.131
1495974077352,0.001,0.028,0.005,0.130
1495974077368,-0.004,0.022,-0.018,0.103
1495974077385,0.001,0.026,0.004,0.122
1495974077400,0.003,0.027,0.012,0.128
1495974077419,0.000,0.028,0.001,0.133
1495974077436,0.002,0.030,0.008,0.139
1495974077452,-0.002,0.028,-0.008,0.134
1495974077468,0.006,0.028,0.028,0.133
1495974077484,0.001,0.028,0.004,0.133
1495974077500,0.004,0.027,0.021,0.126
1495974077517,0.005,0.027,0.023,0.128
1495974077533,-0.001,0.025,-0.005,0.117
1495974077551,-0.003,0.028,-0.012,0.131
1495974077568,-0.005,0.024,-0.024,0.115
1495974077586,0.002,0.033,0.010,0.158
1495974077601,0.005,0.027,0.025,0.128
1495974077618,-0.002,0.029,-0.008,0.136
1495974077634,-0.001,0.027,-0.007,0.127
1495974077669,0.001,0.029,0.004,0.136
1495974077686,0.002,0.026,0.011,0.125
1495974077702,-0.001,0.027,-0.003,0.131
1495974077718,0.003,0.030,0.013,0.145
1495974077733,-0.003,0.029,-0.013,0.137
1495974077751,-0.005,0.029,-0.023,0.138
1495974077768,-0.003,0.027,-0.013,0.129
1495974077786,0.001,0.030,0.005,0.145
1495974077802,-0.001,0.026,-0.003,0.124
1495974077817,0.000,0.027,0.000,0.131
1495974077833,0.003,0.027,0.016,0.128
1495974077850,-0.002,0.026,-0.010,0.126
1495974077868,-0.000,0.031,-0.002,0.147
1495974077886,-0.000,0.025,-0.002,0.123
1495974077903,-0.002,0.027,-0.010,0.132
1495974077919,0.001,0.027,0.005,0.129
1495974077935,-0.003,0.025,-0.016,0.123
1495974077969,-0.001,0.029,-0.004,0.142
1495974077986,-0.003,0.027,-0.013,0.130
1495974078002,-0.002,0.027,-0.009,0.130
1495974078017,-0.001,0.024,-0.006,0.117
1495974078033,-0.002,0.025,-0.008,0.122
1495974078051,-0.005,0.027,-0.026,0.130
1495974078066,-0.003,0.027,-0.013,0.129
1495974078084,-0.000,0.025,-0.001,0.123
1495974078101,0.008,0.022,0.038,0.108
1495974078119,-0.000,0.026,-0.002,0.126
1495974078137,-0.004,0.030,-0.017,0.144
1495974078152,-0.002,0.025,-0.008,0.121
1495974078168,0.002,0.028,0.010,0.136
1495974078185,0.006,0.021,0.029,0.105
1495974078203,0.004,0.023,0.022,0.112
1495974078236,-0.004,0.027,-0.018,0.131
1495974078252,-0.001,0.029,-0.004,0.140
1495974078268,-0.001,0.028,-0.007,0.139
1495974078284,0.003,0.025,0.013,0.122
1495974078302,0.009,0.025,0.042,0.121
1495974078319,0.003,0.026,0.015,0.126
1495974078337,-0.002,0.024,-0.010,0.119
1495974078352,-0.002,0.027,-0.008,0.134
1495974078368,0.003,0.028,0.015,0.136
1495974078385,0.002,0.026,0.011,0.130
1495974078400,0.002,0.031,0.010,0.150
