1495974481235,0.004,0.001,-0.000,-0.000
1495974481251,0.000,0.001,0.000,0.000
1495974481269,-0.003,-0.000,-0.001,-0.000
1495974481284,-0.003,-0.001,-0.000,-0.002
1495974481302,-0.002,0.004,-0.001,0.001
1495974481319,0.001,-0.003,0.000,-0.000
1495974481335,-0.000,-0.003,-0.000,-0.000
1495974481352,-0.000,0.001,-0.000,0.000
1495974481367,-0.005,-0.002,-0.001,-0.000
1495974481402,0.000,0.004,0.000,0.001
1495974481420,0.002,0.003,0.000,0.001
1495974481438,-0.002,0.004,-0.000,0.001
1495974481453,-0.003,0.002,-0.001,0.000
1495974481469,-0.004,-0.002,-0.001,-0.000
1495974481485,-0.001,-0.000,-0.000,-0.000
1495974481501,0.003,-0.003,0.000,-0.000
1495974481519,0.001,-0.001,0.000,-0.000
1495974481534,-0.003,-0.002,-0.000,-0.000
1495974481552,-0.008,-0.002,-0.001,-0.000
1495974481585,-0.007,-0.001,-0.001,-0.000
1495974481603,0.001,0.006,0.000,0.001
1495974481620,0.003,-0.000,0.001,-0.000
1495974481638,0.001,0.003,0.000,0.001
1495974481653,-0.002,-0.001,-0.000,-0.000
1495974481669,-0.007,-0.001,-0.001,-0.000
1495974481686,-0.002,-0.004,-0.000,-0.001
1495974481701,-0.002,0.000,-0.000,0.000
1495974481719,0.000,-0.001,0.000,-0.000
1495974481736,-0.004,0.000,-0.001,0.000
1495974481754,-0.003,-0.001,-0.001,-0.000
1495974481770,-0.006,0.002,-0.001,0.001
1495974481785,-0.004,0.003,-0.001,0.001
1495974481802,-0.001,0.003,-0.000,0.001
1495974481817,-0.005,0.002,-0.001,0.000
1495974481835,-0.001,-0.000,-0.000,-0.000
1495974481853,-0.001,0.000,-0.000,0.000
1495974481870,-0.001,-0.001,-0.000,-0.000
1495974481901,0.002,-0.006,0.000,-0.001
1495974481917,-0.006,-0.001,-0.001,-0.000
1495974481935,-0.005,0.000,-0.001,0.000
1495974481952,-0.003,-0.001,-0.001,-0.000
1495974481970,-0.002,0.003,-0.000,0.001
1495974481987,-0.003,-0.001,-0.001,-0.000
1495974482003,0.003,0.003,0.001,0.001
1495974482019,-0.002,0.002,-0.001,0.000
1495974482035,0.001,0.001,0.000,0.000
1495974482051,0.003,0.001,0.001,0.000
1495974482068,-0.001,0.002,-0.000,0.001
1495974482086,-0.000,0.003,-0.000,0.001
1495974482104,-0.003,-0.001,-0.001,-0.000
1495974482119,-0.003,0.004,-0.001,0.001
1495974482136,-0.003,0.002,-0.001,0.000
1495974482151,-0.003,0.003,-0.001,0.001
1495974482169,-0.004,0.000,-0.001,0.000
1495974482187,-0.002,-0.003,-0.000,-0.001
1495974482219,-0.002,-0.003,-0.000,-0.001
1495974482234,0.000,-0.003,0.000,-0.001
1495974482252,-0.004,0.001,-0.001,0.000
1495974482270,-0.005,-0.000,-0.001,-0.000
1495974482287,-0.001,-0.003,-0.000,-0.001
1495974482303,0.002,0.002,0.001,0.001
1495974482318,-0.000,0.004,-0.000,0.001
1495974482334,-0.001,0.000,-0.000,0.000
1495974482352,-0.002,0.000,-0.001,0.000
1495974482370,-0.001,-0.001,-0.000,-0.000
1495974482387,-0.000,-0.001,-0.000,-0.000
1495974482402,-0.002,0.002,-0.000,0.001
1495974482434,-0.004,0.001,-0.001,0.000
1495974482451,-0.005,-0.000,-0.002,-0.000
1495974482469,-0.002,0.003,-0.001,0.001
1495974482486,-0.004,-0.002,-0.001,-0.001
1495974482504,0.000,0.001,0.000,0.000
1495974482520,-0.001,0.000,-0.000,0.000
1495974482535,-0.002,0.002,-0.001,0.001
1495974482553,-0.001,-0.004,-0.000,-0.001
1495974482570,0.000,-0.001,0.000,-0.000
1495974482586,0.000,-0.001,0.000,-0.000
1495974482603,0.002,0.000,0.001,0.000
1495974482618,-0.005,-0.004,-0.002,-0.001
1495974482636,-0.008,-0.003,-0.002,-0.001
1495974482653,-0.005,0.002,-0.002,0.001
1495974482671,-0.000,0.005,-0.000,0.002
1495974482687,-0.003,0.004,-0.001,0.001
1495974482702,-0.001,0.000,-0.000,0.000
1495974482734,-0.002,-0.001,-0.001,-0.000
1495974482752,0.004,0.006,0.001,0.002
1495974482770,0.004,-0.000,0.001,-0.000
1495974482785,0.002,0.001,0.001,0.000
1495974482802,0.003,-0.001,0.001,-0.000
1495974482817,-0.002,0.001,-0.001,0.000
1495974482835,-0.002,0.005,-0.001,0.002
1495974482853,-0.006,0.002,-0.002,0.001
1495974482870,-0.005,0.003,-0.002,0.001
1495974482888,-0.003,0.001,-0.001,0.000
1495974482903,-0.000,0.001,-0.000,0.000
1495974482919,-0.005,-0.004,-0.001,-0.001
1495974482951,-0.005,-0.002,-0.001,-0.001
1495974482969,-0.002,-0.001,-0.001,-0.000
1495974482984,0.000,-0.000,0.000,-0.000
1495974483002,-0.000,0.001,-0.000,0.000
1495974483020,-0.001,0.000,-0.000,0.000
1495974483035,-0.004,0.002,-0.001,0.001
1495974483053,-0.001,-0.001,-0.000,-0.000
1495974483070,0.000,0.001,0.000,0.000
1495974483088,0.001,0.003,0.000,0.001
1495974483104,-0.004,0.000,-0.001,0.000
1495974483119,-0.004,-0.004,-0.001,-0.001
1495974483136,-0.001,0.004,-0.000,0.001
1495974483151,0.002,-0.004,0.001,-0.001
1495974483169,-0.001,-0.001,-0.000,-0.000
1495974483187,0.001,0.001,0.000,0.000
1495974483204,0.001,0.001,0.000,0.000
1495974483220,0.000,0.001,0.000,0.000
1495974483252,-0.001,0.002,-0.000,0.001
1495974483268,0.001,0.001,0.000,0.000
1495974483285,-0.002,0.002,-0.001,0.001
1495974483303,0.001,-0.001,0.000,-0.000
1495974483318,-0.006,0.001,-0.002,0.000
1495974483336,-0.006,0.000,-0.002,0.000
1495974483352,-0.001,-0.002,-0.000,-0.001
1495974483369,-0.002,0.001,-0.001,0.000
1495974483387,-0.003,0.001,-0.001,0.000
1495974483404,0.001,-0.000,0.000,-0.000
1495974483420,-0.001,0.005,-0.000,0.002
1495974483436,-0.011,-0.001,-0.004,-0.000
1495974483452,0.000,-0.006,0.000,-0.002
1495974483485,0.004,-0.008,0.001,-0.003
1495974483503,0.001,0.009,0.000,0.003
1495974483521,-0.004,-0.013,-0.001,-0.005
1495974483538,-0.002,0.009,-0.001,0.003
1495974483556,-0.005,0.004,-0.002,0.001
1495974483573,0.006,0.007,0.002,0.003
1495974483591,-0.003,-0.014,-0.001,-0.005
1495974483607,-0.003,-0.005,-0.001,-0.002
1495974483624,-0.004,-0.022,-0.001,-0.008
1495974483642,-0.002,-0.024,-0.001,-0.010
1495974483659,0.001,-0.006,0.000,-0.002
1495974483675,0.004,-0.013,0.002,-0.005
1495974483693,0.002,-0.004,0.001,-0.002
1495974483710,-0.003,0.001,-0.001,0.000
1495974483728,-0.000,0.004,-0.000,0.002
1495974483745,0.001,0.002,0.000,0.001
1495974483765,-0.004,-0.003,-0.002,-0.001
1495974483783,-0.000,-0.010,-0.000,-0.004
1495974483800,-0.006,-0.003,-0.002,-0.001
1495974483818,-0.095,-0.183,-0.041,-0.079
1495974483835,-0.057,-0.208,-0.030,-0.133
1495974483853,0.032,-0.190,0.020,-0.169
1495974483869,0.043,-0.032,0.022,-0.029
1495974483885,0.050,0.035,0.029,0.023
1495974483901,0.060,-0.016,0.038,-0.010
1495974483918,0.018,-0.128,0.011,-0.082
1495974483936,0.003,-0.212,0.002,-0.141
1495974483954,0.036,-0.241,0.022,-0.176
1495974483971,0.100,-0.122,0.063,-0.096
1495974484002,-0.020,-0.105,-0.013,-0.079
1495974484020,0.044,0.062,0.032,0.047
1495974484038,-0.020,0.121,-0.014,0.087
1495974484053,0.018,-0.062,0.013,-0.044
1495974484069,0.021,-0.114,0.015,-0.084
1495974484085,-0.024,-0.073,-0.017,-0.055
1495974484101,-0.038,-0.090,-0.027,-0.068
1495974484119,0.026,-0.010,0.019,-0.008
1495974484134,0.013,0.021,0.009,0.016
1495974484152,-0.030,-0.007,-0.023,-0.005
1495974484169,-0.005,0.018,-0.004,0.014
1495974484185,-0.006,-0.047,-0.005,-0.036
1495974484203,-0.039,-0.047,-0.030,-0.037
1495974484236,-0.031,-0.054,-0.024,-0.042
1495974484253,-0.016,-0.049,-0.013,-0.039
1495974484271,0.024,0.016,0.019,0.013
1495974484289,0.038,0.044,0.030,0.035
1495974484304,-0.013,-0.055,-0.010,-0.044
1495974484320,0.018,-0.043,0.015,-0.035
1495974484337,0.023,-0.081,0.018,-0.065
1495974484355,0.013,-0.043,0.010,-0.036
1495974484371,0.018,-0.072,0.015,-0.059
1495974484386,0.040,0.053,0.033,0.044
1495974484403,-0.014,0.031,-0.011,0.025
1495974484418,-0.038,0.040,-0.031,0.032
1495974484436,0.004,-0.020,0.003,-0.016
1495974484454,-0.004,-0.025,-0.004,-0.021
1495974484471,0.006,0.013,0.005,0.010
1495974484487,0.048,-0.022,0.039,-0.018
1495974484520,-0.032,-0.038,-0.026,-0.031
1495974484538,-0.036,-0.059,-0.030,-0.048
1495974484553,-0.010,0.018,-0.008,0.015
1495974484570,0.015,0.090,0.012,0.074
1495974484585,0.021,0.039,0.017,0.032
1495974484603,-0.010,0.030,-0.008,0.024
1495974484621,-0.050,0.036,-0.041,0.029
1495974484638,-0.055,0.025,-0.045,0.020
1495974484654,-0.010,-0.063,-0.008,-0.050
1495974484669,0.016,0.049,0.013,0.041
1495974484702,0.057,0.193,0.046,0.155
1495974484719,0.027,0.232,0.022,0.180
1495974484737,-0.011,0.290,-0.009,0.216
1495974484754,-0.025,0.268,-0.019,0.185
1495974484770,-0.036,0.104,-0.026,0.067
1495974484786,-0.037,-0.061,-0.025,-0.037
1495974484803,0.012,0.042,0.007,0.025
1495974484821,0.000,-0.021,0.000,-0.012
1495974484838,-0.002,-0.019,-0.001,-0.011
1495974484854,0.004,-0.021,0.002,-0.012
1495974484870,0.003,-0.024,0.002,-0.014
1495974484886,-0.001,-0.026,-0.000,-0.015
1495974484902,-0.003,-0.022,-0.002,-0.013
1495974484919,-0.000,-0.019,-0.000,-0.012
1495974484935,0.001,-0.021,0.001,-0.012
1495974484953,0.007,-0.021,0.004,-0.013
1495974484988,-0.003,-0.023,-0.002,-0.014
1495974485005,-0.007,-0.022,-0.004,-0.013
1495974485021,-0.003,-0.019,-0.002,-0.012
1495974485039,0.001,-0.020,0.001,-0.013
1495974485054,0.005,-0.022,0.003,-0.014
1495974485070,-0.002,-0.023,-0.001,-0.015
1495974485087,-0.002,-0.025,-0.001,-0.016
1495974485105,-0.000,-0.021,-0.000,-0.013
1495974485121,0.003,-0.020,0.002,-0.013
1495974485136,0.002,-0.019,0.002,-0.013
1495974485153,0.004,-0.017,0.003,-0.011
1495974485168,-0.001,-0.017,-0.001,-0.011
1495974485202,-0.001,-0.021,-0.001,-0.014
1495974485219,-0.000,-0.019,-0.000,-0.013
1495974485237,0.001,-0.019,0.000,-0.013
1495974485254,0.002,-0.020,0.002,-0.013
1495974485272,-0.003,-0.023,-0.002,-0.016
1495974485288,0.000,-0.023,0.000,-0.015
1495974485303,-0.000,-0.020,-0.000,-0.014
1495974485320,0.005,-0.019,0.003,-0.013
1495974485335,0.003,-0.023,0.002,-0.016
1495974485351,0.004,-0.020,0.003,-0.014
1495974485384,0.000,-0.016,0.000,-0.011
1495974485402,-0.002,-0.019,-0.001,-0.013
1495974485419,0.000,-0.018,0.000,-0.012
1495974485435,0.001,-0.019,0.001,-0.014
1495974485453,0.002,-0.018,0.001,-0.013
1495974485470,-0.000,-0.019,-0.000,-0.013
1495974485488,0.000,-0.020,0.000,-0.014
1495974485505,-0.004,-0.020,-0.003,-0.014
1495974485521,0.002,-0.024,0.001,-0.017
1495974485537,0.004,-0.020,0.003,-0.014
1495974485554,0.004,-0.022,0.003,-0.016
1495974485570,0.002,-0.016,0.002,-0.011
1495974485585,0.001,-0.020,0.001,-0.014
1495974485601,-0.001,-0.015,-0.000,-0.011
1495974485636,-0.000,-0.021,-0.000,-0.016
1495974485655,0.002,-0.020,0.001,-0.015
1495974485671,-0.004,-0.023,-0.003,-0.017
1495974485687,-0.005,-0.020,-0.004,-0.014
1495974485705,-0.002,-0.020,-0.001,-0.015
1495974485720,-0.001,-0.018,-0.001,-0.014
1495974485736,-0.001,-0.019,-0.001,-0.014
1495974485752,0.001,-0.016,0.001,-0.012
1495974485768,-0.001,-0.017,-0.001,-0.013
1495974485786,0.000,-0.018,0.000,-0.013
1495974485803,-0.001,-0.013,-0.000,-0.010
1495974485819,0.004,-0.016,0.003,-0.012
1495974485836,-0.003,-0.026,-0.002,-0.020
1495974485854,-0.003,-0.020,-0.002,-0.015
1495974485872,0.008,-0.022,0.006,-0.017
1495974485903,0.004,-0.023,0.003,-0.018
1495974485920,-0.001,-0.022,-0.001,-0.017
1495974485938,-0.000,-0.018,-0.000,-0.014
1495974485954,-0.001,-0.019,-0.001,-0.015
1495974485969,-0.001,-0.013,-0.000,-0.010
1495974485986,0.035,0.179,0.028,0.140
1495974486001,0.003,0.044,0.002,0.033
1495974486018,0.010,0.096,0.008,0.073
1495974486034,-0.026,0.096,-0.020,0.070
1495974486051,-0.032,0.124,-0.024,0.089
1495974486069,-0.043,0.204,-0.032,0.143
1495974486104,-0.094,0.130,-0.068,0.088
1495974486122,-0.012,0.133,-0.009,0.089
1495974486137,-0.024,0.074,-0.016,0.049
1495974486153,0.002,0.099,0.001,0.064
1495974486169,0.060,0.046,0.039,0.029
1495974486185,0.071,0.107,0.044,0.066
1495974486203,0.039,0.062,0.024,0.036
1495974486220,0.002,-0.007,0.001,-0.004
1495974486238,-0.002,0.001,-0.001,0.000
1495974486255,0.031,-0.011,0.017,-0.006
1495974486271,-0.002,-0.023,-0.001,-0.013
1495974486287,-0.019,0.005,-0.010,0.003
1495974486303,0.001,-0.003,0.000,-0.001
1495974486319,0.070,-0.120,0.037,-0.065
1495974486336,0.067,-0.041,0.035,-0.023
1495974486354,0.002,-0.018,0.001,-0.010
1495974486370,-0.053,-0.073,-0.029,-0.039
1495974486402,-0.048,-0.065,-0.026,-0.037
1495974486419,-0.041,-0.009,-0.023,-0.005
1495974486437,0.026,-0.041,0.015,-0.024
1495974486455,0.066,-0.029,0.039,-0.017
1495974486470,0.024,0.019,0.014,0.011
1495974486486,-0.035,-0.003,-0.021,-0.002
1495974486501,-0.085,-0.013,-0.050,-0.008
1495974486519,-0.034,-0.053,-0.020,-0.032
1495974486538,-0.029,-0.045,-0.017,-0.028
1495974486555,0.047,0.024,0.029,0.015
1495974486571,0.031,0.002,0.019,0.002
1495974486586,0.064,-0.004,0.040,-0.002
1495974486603,-0.008,-0.069,-0.005,-0.042
1495974486636,0.043,-0.067,0.026,-0.041
1495974486654,-0.015,-0.054,-0.009,-0.034
1495974486671,-0.074,-0.027,-0.046,-0.017
1495974486687,-0.042,-0.081,-0.027,-0.051
1495974486703,0.034,-0.010,0.022,-0.007
1495974486720,0.106,0.171,0.068,0.112
1495974486738,0.038,-0.086,0.024,-0.054
1495974486755,-0.005,-0.060,-0.004,-0.039
1495974486771,-0.033,-0.031,-0.020,-0.020
1495974486787,-0.019,-0.084,-0.012,-0.053
1495974486803,-0.030,-0.163,-0.019,-0.107
1495974486819,0.001,-0.169,0.001,-0.117
1495974486849,0.007,-0.132,0.004,-0.094
1495974486867,0.047,-0.153,0.032,-0.111
1495974486886,0.032,-0.146,0.022,-0.108
1495974486903,0.039,-0.103,0.027,-0.077
1495974486921,-0.007,-0.225,-0.005,-0.169
1495974486938,0.017,-0.253,0.012,-0.199
1495974486954,0.005,-0.070,0.004,-0.057
1495974486970,-0.007,-0.027,-0.005,-0.022
1495974486986,-0.001,-0.024,-0.001,-0.020
1495974487002,0.001,-0.024,0.001,-0.019
1495974487019,0.000,-0.017,0.000,-0.014
1495974487037,-0.004,-0.022,-0.003,-0.018
1495974487056,-0.001,-0.016,-0.001,-0.013
1495974487073,0.000,-0.020,0.000,-0.016
1495974487091,-0.000,-0.019,-0.000,-0.016
1495974487108,0.003,-0.018,0.002,-0.015
1495974487126,-0.001,-0.021,-0.001,-0.018
1495974487144,-0.002,-0.021,-0.002,-0.017
1495974487161,-0.006,-0.020,-0.005,-0.016
1495974487179,-0.003,-0.019,-0.002,-0.016
1495974487196,0.001,-0.020,0.001,-0.016
1495974487215,-0.002,-0.020,-0.001,-0.017
1495974487233,-0.004,-0.022,-0.003,-0.018
1495974487268,-0.002,-0.018,-0.002,-0.015
1495974487285,-0.004,-0.019,-0.004,-0.015
1495974487303,-0.001,-0.018,-0.001,-0.015
1495974487321,0.003,-0.022,0.002,-0.019
1495974487338,0.001,-0.018,0.001,-0.015
1495974487354,-0.003,-0.019,-0.003,-0.016
1495974487369,0.000,-0.022,0.000,-0.019
1495974487386,-0.004,-0.023,-0.003,-0.020
1495974487402,0.003,-0.021,0.002,-0.018
1495974487419,-0.001,-0.020,-0.001,-0.017
1495974487437,-0.005,-0.019,-0.004,-0.016
1495974487454,-0.002,-0.019,-0.002,-0.016
1495974487470,-0.002,-0.018,-0.002,-0.015
1495974487487,0.003,-0.021,0.003,-0.018
1495974487520,-0.001,-0.023,-0.000,-0.020
1495974487537,-0.006,-0.021,-0.005,-0.018
1495974487555,-0.003,-0.021,-0.002,-0.018
1495974487571,-0.005,-0.017,-0.004,-0.014
1495974487586,-0.003,-0.024,-0.003,-0.021
1495974487604,-0.001,-0.019,-0.001,-0.016
1495974487621,-0.003,-0.022,-0.002,-0.019
1495974487637,-0.004,-0.008,-0.004,-0.007
1495974487653,-0.003,-0.020,-0.003,-0.018
1495974487670,0.006,-0.018,0.005,-0.016
1495974487688,-0.001,-0.019,-0.000,-0.017
1495974487705,-0.001,-0.017,-0.000,-0.015
1495974487721,-0.002,-0.020,-0.002,-0.017
1495974487737,-0.003,-0.020,-0.002,-0.018
1495974487769,-0.000,-0.020,-0.000,-0.018
1495974487786,0.002,-0.017,0.001,-0.015
1495974487804,0.004,-0.024,0.003,-0.021
1495974487822,-0.002,-0.019,-0.001,-0.017
1495974487837,-0.004,-0.020,-0.004,-0.018
1495974487853,-0.005,-0.019,-0.005,-0.017
1495974487869,-0.001,-0.019,-0.001,-0.017
1495974487885,-0.000,-0.022,-0.000,-0.020
1495974487903,-0.004,-0.020,-0.004,-0.018
1495974487920,-0.005,-0.023,-0.004,-0.021
1495974487955,-0.004,-0.017,-0.004,-0.016
1495974487971,-0.003,-0.018,-0.003,-0.016
1495974487987,0.002,-0.023,0.002,-0.021
1495974488003,0.003,-0.020,0.003,-0.018
1495974488019,0.001,-0.021,0.001,-0.019
1495974488036,-0.005,-0.024,-0.004,-0.022
1495974488054,-0.005,-0.018,-0.004,-0.016
1495974488072,-0.000,-0.016,-0.000,-0.015
1495974488087,0.001,-0.020,0.001,-0.018
1495974488103,0.001,-0.020,0.001,-0.018
1495974488120,-0.004,-0.022,-0.004,-0.020
1495974488138,-0.001,-0.022,-0.001,-0.021
1495974488154,-0.001,-0.022,-0.001,-0.020
1495974488169,0.001,-0.022,0.001,-0.020
1495974488202,-0.001,-0.020,-0.001,-0.018
1495974488220,-0.006,-0.020,-0.005,-0.019
1495974488238,-0.001,-0.021,-0.001,-0.019
1495974488255,-0.004,-0.017,-0.004,-0.016
1495974488271,-0.002,-0.022,-0.002,-0.020
1495974488286,0.000,-0.022,0.000,-0.020
1495974488303,-0.002,-0.020,-0.001,-0.019
1495974488319,-0.003,-0.020,-0.003,-0.018
1495974488336,0.000,-0.021,0.000,-0.020
1495974488354,-0.000,-0.017,-0.000,-0.016
1495974488371,0.003,-0.017,0.002,-0.016
1495974488387,0.002,-0.016,0.002,-0.015
1495974488403,-0.003,-0.016,-0.003,-0.015
1495974488436,-0.003,-0.020,-0.002,-0.019
1495974488453,-0.002,-0.018,-0.001,-0.017
1495974488471,-0.003,-0.022,-0.003,-0.021
1495974488489,0.002,-0.018,0.002,-0.017
1495974488504,-0.002,-0.025,-0.002,-0.024
1495974488520,0.000,-0.022,0.000,-0.021
1495974488536,-0.000,-0.018,-0.000,-0.017
1495974488552,-0.001,-0.021,-0.001,-0.020
1495974488570,0.002,-0.018,0.002,-0.018
1495974488587,-0.002,-0.020,-0.002,-0.019
1495974488603,-0.004,-0.021,-0.004,-0.020
1495974488635,-0.004,-0.021,-0.004,-0.020
1495974488653,-0.001,-0.019,-0.001,-0.018
1495974488670,0.001,-0.020,0.001,-0.019
1495974488688,0.000,-0.023,0.000,-0.022
1495974488705,-0.000,-0.022,-0.000,-0.021
1495974488721,-0.003,-0.024,-0.003,-0.023
1495974488737,-0.006,-0.021,-0.005,-0.021
1495974488753,0.000,-0.023,0.000,-0.022
1495974488801,-0.001,-0.019,-0.001,-0.019
1495974488817,0.002,-0.016,0.002,-0.015
1495974488836,0.001,-0.021,0.001,-0.020
1495974488854,-0.003,-0.016,-0.003,-0.016
1495974488871,-0.005,-0.019,-0.005,-0.019
1495974488889,0.001,-0.020,0.001,-0.019
1495974488907,0.001,-0.022,0.001,-0.022
1495974488924,0.002,-0.017,0.002,-0.017
1495974488942,0.001,-0.020,0.001,-0.019
1495974488959,0.004,-0.020,0.004,-0.019
1495974488975,-0.000,-0.018,-0.000,-0.018
1495974488991,0.000,-0.020,0.000,-0.020
1495974489007,-0.002,-0.018,-0.002,-0.018
1495974489023,-0.003,-0.024,-0.002,-0.024
1495974489040,0.000,-0.023,0.000,-0.023
1495974489056,-0.004,-0.016,-0.004,-0.016
1495974489074,0.002,-0.022,0.002,-0.022
1495974489091,-0.003,-0.021,-0.003,-0.021
1495974489109,-0.004,-0.020,-0.004,-0.019
1495974489126,-0.006,-0.021,-0.006,-0.020
1495974489142,-0.003,-0.012,-0.003,-0.012
1495974489158,0.002,-0.021,0.002,-0.021
1495974489174,0.006,-0.018,0.006,-0.018
1495974489190,0.001,-0.016,0.001,-0.016
1495974489207,-0.001,-0.021,-0.001,-0.021
1495974489225,-0.002,-0.023,-0.002,-0.023
1495974489243,-0.000,-0.020,-0.000,-0.020
1495974489258,-0.001,-0.020,-0.001,-0.020
1495974489274,-0.003,-0.021,-0.004,-0.021
1495974489307,-0.010,-0.018,-0.010,-0.019
1495974489325,-0.010,-0.019,-0.010,-0.019
1495974489342,-0.005,-0.017,-0.005,-0.017
1495974489360,-0.000,-0.020,-0.000,-0.020
1495974489375,-0.000,-0.020,-0.000,-0.020
1495974489391,-0.000,-0.019,-0.000,-0.020
1495974489408,0.003,-0.021,0.003,-0.021
1495974489423,-0.002,-0.018,-0.002,-0.018
1495974489441,-0.000,-0.025,-0.000,-0.025
1495974489458,0.000,-0.021,0.000,-0.021
1495974489476,-0.002,-0.017,-0.002,-0.018
1495974489492,-0.003,-0.021,-0.003,-0.022
1495974489507,-0.006,-0.021,-0.006,-0.021
1495974489525,-0.007,-0.018,-0.007,-0.019
1495974489542,-0.001,-0.018,-0.001,-0.018
1495974489576,-0.002,-0.023,-0.002,-0.024
1495974489591,-0.004,-0.024,-0.004,-0.025
1495974489609,-0.003,-0.021,-0.004,-0.022
1495974489626,0.000,-0.019,0.000,-0.020
1495974489642,-0.000,-0.019,-0.000,-0.019
1495974489658,0.004,-0.018,0.004,-0.019
1495974489674,0.001,-0.026,0.001,-0.027
1495974489690,-0.007,-0.020,-0.007,-0.021
1495974489707,-0.003,-0.021,-0.003,-0.022
1495974489725,-0.002,-0.022,-0.002,-0.023
1495974489743,-0.004,-0.021,-0.004,-0.022
1495974489760,-0.005,-0.022,-0.006,-0.023
1495974489791,-0.005,-0.023,-0.006,-0.024
1495974489808,-0.009,-0.019,-0.009,-0.020
1495974489824,-0.005,-0.018,-0.005,-0.019
1495974489841,-0.001,-0.022,-0.001,-0.024
1495974489859,0.004,-0.017,0.004,-0.018
1495974489876,-0.002,-0.017,-0.002,-0.018
1495974489892,-0.002,-0.019,-0.002,-0.020
1495974489908,-0.006,-0.019,-0.006,-0.020
1495974489924,0.000,-0.016,0.000,-0.017
1495974489940,0.001,-0.020,0.001,-0.021
1495974489957,-0.004,-0.023,-0.004,-0.024
1495974489975,-0.007,-0.021,-0.008,-0.022
1495974489993,-0.004,-0.026,-0.004,-0.027
1495974490026,-0.002,-0.025,-0.002,-0.026
1495974490043,-0.000,-0.020,-0.000,-0.022
1495974490059,0.000,-0.023,0.000,-0.024
1495974490075,0.001,-0.023,0.001,-0.025
1495974490091,0.002,-0.019,0.002,-0.020
1495974490107,-0.002,-0.016,-0.002,-0.017
1495974490124,0.002,-0.018,0.002,-0.019
1495974490158,-0.002,-0.021,-0.002,-0.022
1495974490174,-0.001,-0.021,-0.001,-0.023
1495974490190,-0.003,-0.022,-0.003,-0.024
1495974490207,-0.003,-0.019,-0.003,-0.021
1495974490225,0.001,-0.017,0.001,-0.019
1495974490243,-0.002,-0.024,-0.002,-0.026
1495974490260,-0.001,-0.020,-0.001,-0.022
1495974490278,0.001,-0.019,0.001,-0.020
1495974490295,0.000,-0.020,0.000,-0.022
1495974490313,0.003,-0.019,0.003,-0.021
1495974490331,0.000,-0.020,0.000,-0.022
1495974490348,-0.001,-0.023,-0.001,-0.025
1495974490366,-0.003,-0.023,-0.004,-0.025
1495974490383,-0.006,-0.024,-0.006,-0.027
1495974490401,-0.005,-0.021,-0.006,-0.022
1495974490420,-0.006,-0.019,-0.007,-0.021
1495974490437,-0.008,-0.021,-0.009,-0.023
1495974490455,-0.003,-0.023,-0.004,-0.025
1495974490472,-0.000,-0.021,-0.000,-0.024
1495974490490,-0.002,-0.021,-0.002,-0.023
1495974490508,-0.003,-0.019,-0.003,-0.021
1495974490525,0.000,-0.020,0.000,-0.021
1495974490543,0.005,-0.021,0.005,-0.023
1495974490558,-0.002,-0.021,-0.002,-0.023
1495974490574,-0.006,-0.021,-0.007,-0.023
1495974490590,-0.008,-0.021,-0.009,-0.023
1495974490605,-0.006,-0.020,-0.006,-0.022
1495974490623,-0.004,-0.025,-0.005,-0.028
1495974490658,-0.003,-0.018,-0.003,-0.020
1495974490676,-0.004,-0.022,-0.005,-0.024
