1495973109447,-0.003,-0.003,-0.033,-0.032
1495973109462,-0.002,-0.004,-0.021,-0.040
1495973109485,-0.000,-0.004,-0.004,-0.045
1495973109503,0.003,0.003,0.030,0.034
1495973109521,0.002,-0.000,0.020,-0.001
1495973109537,-0.001,0.002,-0.013,0.016
1495973109554,-0.000,0.001,-0.004,0.009
1495973109572,0.000,-0.003,0.001,-0.024
1495973109587,0.002,-0.001,0.020,-0.010
1495973109605,-0.002,-0.003,-0.022,-0.032
1495973109623,-0.002,-0.004,-0.023,-0.037
1495973109638,-0.005,0.001,-0.048,0.009
1495973109656,0.001,-0.001,0.011,-0.005
1495973109673,-0.001,-0.000,-0.008,-0.001
1495973109691,-0.002,0.003,-0.021,0.026
1495973109711,-0.004,0.003,-0.043,0.032
1495973109726,-0.004,-0.001,-0.038,-0.005
1495973109742,0.004,0.001,0.038,0.007
1495973109759,-0.002,-0.006,-0.020,-0.056
1495973109791,-0.001,-0.001,-0.006,-0.006
1495973109808,-0.000,0.002,-0.004,0.019
1495973109826,-0.007,0.000,-0.066,0.004
1495973109841,-0.002,-0.001,-0.019,-0.010
1495973109857,-0.000,-0.004,-0.004,-0.039
1495973109873,-0.005,0.000,-0.045,0.002
1495973109890,-0.004,-0.001,-0.036,-0.005
1495973109908,0.000,0.000,0.001,0.004
1495973109925,0.002,-0.002,0.016,-0.022
1495973109943,0.003,-0.002,0.030,-0.015
1495973109959,0.003,-0.001,0.025,-0.005
1495973109974,-0.002,-0.004,-0.015,-0.042
1495973109991,-0.002,-0.001,-0.021,-0.010
1495973110024,-0.003,-0.003,-0.033,-0.034
1495973110040,-0.003,-0.004,-0.033,-0.045
1495973110057,0.001,0.000,0.011,0.002
1495973110075,-0.001,-0.002,-0.008,-0.022
1495973110092,-0.005,-0.001,-0.049,-0.005
1495973110108,-0.006,-0.004,-0.065,-0.044
1495973110124,-0.003,-0.001,-0.033,-0.010
1495973110139,-0.000,-0.000,-0.004,-0.001
1495973110157,0.003,-0.001,0.028,-0.008
1495973110174,0.002,-0.004,0.015,-0.039
1495973110192,-0.001,0.000,-0.006,0.004
1495973110210,-0.003,-0.005,-0.030,-0.049
1495973110225,-0.003,-0.003,-0.026,-0.030
1495973110257,-0.002,0.001,-0.016,0.009
1495973110273,0.001,-0.003,0.013,-0.027
1495973110291,-0.005,-0.002,-0.047,-0.022
1495973110308,0.000,-0.004,0.004,-0.037
1495973110326,-0.000,0.005,-0.001,0.051
1495973110343,0.003,-0.003,0.025,-0.027
1495973110361,-0.006,-0.003,-0.061,-0.032
1495973110377,0.001,-0.003,0.011,-0.025
1495973110394,0.003,-0.003,0.030,-0.032
1495973110410,0.003,0.001,0.030,0.007
1495973110427,0.002,-0.002,0.020,-0.015
1495973110443,0.005,-0.003,0.044,-0.034
1495973110478,-0.003,-0.005,-0.030,-0.047
1495973110496,0.003,-0.001,0.028,-0.013
1495973110496,0.005,-0.004,0.044,-0.042
1495973110528,0.001,-0.001,0.006,-0.010
1495973110544,-0.002,-0.001,-0.023,-0.008
1495973110561,-0.006,-0.001,-0.064,-0.005
1495973110579,0.002,0.003,0.018,0.033
1495973110594,-0.002,-0.002,-0.016,-0.017
1495973110612,-0.001,0.005,-0.011,0.045
1495973110629,-0.001,-0.004,-0.006,-0.041
1495973110646,-0.002,0.002,-0.023,0.019
1495973110662,0.001,0.004,0.013,0.035
1495973110679,-0.001,-0.003,-0.008,-0.031
1495973110697,0.000,-0.001,0.001,-0.010
1495973110715,0.001,0.002,0.008,0.016
1495973110733,-0.002,0.001,-0.023,0.009
1495973110751,0.001,0.004,0.013,0.040
1495973110877,-0.003,-0.000,-0.025,-0.003
1495973110892,-0.003,0.003,-0.028,0.033
1495973110918,-0.000,-0.000,-0.004,-0.001
1495973110935,-0.004,-0.002,-0.042,-0.017
1495973110953,0.002,0.001,0.021,0.007
1495973110971,0.003,0.003,0.027,0.028
1495973110988,0.000,0.001,0.001,0.011
1495973111006,-0.003,-0.002,-0.028,-0.020
1495973111023,-0.002,-0.003,-0.018,-0.032
1495973111041,-0.002,-0.003,-0.021,-0.032
1495973111057,0.002,0.002,0.023,0.021
1495973111072,-0.002,-0.001,-0.018,-0.005
1495973111089,0.002,0.002,0.016,0.016
1495973111104,-0.003,-0.001,-0.025,-0.008
1495973111122,0.002,-0.001,0.018,-0.008
1495973111140,0.001,0.001,0.008,0.007
1495973111157,0.001,-0.005,0.008,-0.051
1495973111175,-0.000,0.002,-0.001,0.021
1495973111190,-0.005,-0.002,-0.044,-0.020
1495973111206,-0.002,-0.001,-0.018,-0.008
1495973111223,0.002,0.002,0.018,0.021
1495973111238,0.002,0.005,0.020,0.052
1495973111256,0.000,-0.004,0.004,-0.036
1495973111273,-0.003,0.003,-0.032,0.033
1495973111291,-0.002,0.000,-0.018,0.002
1495973111307,-0.001,-0.002,-0.011,-0.017
1495973111322,-0.003,-0.002,-0.028,-0.022
1495973111339,-0.003,0.000,-0.025,0.002
1495973111354,-0.005,0.004,-0.045,0.038
1495973111372,-0.001,-0.001,-0.009,-0.010
1495973111390,0.003,0.006,0.025,0.060
1495973111407,0.005,0.002,0.049,0.016
1495973111423,-0.000,0.004,-0.001,0.040
1495973111439,-0.002,-0.001,-0.020,-0.010
1495973111455,-0.001,-0.003,-0.008,-0.025
1495973111472,-0.001,0.002,-0.006,0.019
1495973111487,0.001,0.002,0.006,0.016
1495973111505,0.003,0.000,0.028,0.002
1495973111522,0.001,0.003,0.011,0.026
1495973111540,-0.004,-0.001,-0.035,-0.008
1495973111558,0.000,-0.004,0.001,-0.037
1495973111573,0.002,0.000,0.020,0.004
1495973111589,0.003,0.005,0.027,0.045
1495973111605,0.003,-0.003,0.030,-0.029
1495973111621,-0.004,-0.002,-0.042,-0.018
1495973111639,-0.000,0.003,-0.001,0.031
1495973111656,-0.002,-0.006,-0.018,-0.058
1495973111674,0.001,0.001,0.008,0.007
1495973111691,-0.001,-0.002,-0.006,-0.015
1495973111707,-0.000,0.000,-0.001,0.002
1495973111723,0.001,-0.012,0.006,-0.114
1495973111739,-0.033,-0.154,-0.325,-1.576
1495973111755,0.006,-0.065,0.063,-0.958
1495973111770,0.025,-0.020,0.235,-0.300
1495973111788,-0.016,-0.110,-0.144,-1.170
1495973111806,0.036,-0.062,0.368,-0.742
1495973111823,0.019,-0.042,0.177,-0.474
1495973111841,-0.025,-0.117,-0.243,-1.241
1495973111856,-0.026,-0.062,-0.262,-0.710
1495973111872,-0.014,-0.014,-0.146,-0.157
1495973111888,-0.018,-0.109,-0.177,-1.091
1495973111905,-0.000,-0.120,-0.004,-1.301
1495973111921,-0.007,-0.073,-0.066,-0.803
1495973111938,0.058,0.006,0.580,0.066
1495973111956,0.038,-0.044,0.356,-0.427
1495973111974,-0.011,-0.090,-0.105,-0.913
1495973111991,-0.005,0.007,-0.045,0.069
1495973112007,-0.008,-0.035,-0.078,-0.341
1495973112022,-0.001,-0.054,-0.011,-0.541
1495973112039,0.023,0.011,0.230,0.116
1495973112055,0.034,0.007,0.328,0.071
1495973112072,-0.029,-0.037,-0.282,-0.360
1495973112090,-0.001,-0.079,-0.013,-0.800
1495973112107,-0.008,-0.029,-0.076,-0.304
1495973112125,-0.042,-0.042,-0.419,-0.422
1495973112141,-0.032,-0.036,-0.327,-0.366
1495973112156,0.009,-0.049,0.092,-0.492
1495973112174,0.018,-0.053,0.181,-0.534
1495973112189,0.040,-0.015,0.390,-0.154
1495973112205,-0.006,-0.013,-0.058,-0.124
1495973112221,-0.016,-0.020,-0.156,-0.197
1495973112238,-0.029,0.026,-0.285,0.257
1495973112256,-0.038,-0.017,-0.384,-0.169
1495973112273,-0.046,-0.045,-0.459,-0.447
1495973112291,-0.031,-0.093,-0.316,-0.932
1495973112307,-0.008,-0.014,-0.077,-0.144
1495973112322,0.041,0.024,0.402,0.234
1495973112339,0.029,0.073,0.278,0.714
1495973112354,-0.008,0.032,-0.075,0.303
1495973112372,-0.017,-0.010,-0.173,-0.096
1495973112390,-0.048,-0.020,-0.474,-0.194
1495973112407,0.002,-0.062,0.021,-0.612
1495973112425,0.005,-0.015,0.047,-0.156
1495973112440,0.019,0.005,0.184,0.048
1495973112456,0.032,0.000,0.316,0.004
1495973112473,0.022,-0.004,0.217,-0.037
1495973112488,-0.047,-0.038,-0.454,-0.372
1495973112506,0.068,0.075,0.678,0.753
1495973112523,0.015,0.036,0.143,0.342
1495973112541,-0.004,0.012,-0.037,0.118
1495973112557,-0.031,-0.035,-0.305,-0.345
1495973112572,-0.024,0.007,-0.238,0.070
1495973112589,-0.010,0.042,-0.101,0.417
1495973112604,0.028,0.005,0.277,0.051
1495973112622,-0.005,-0.019,-0.046,-0.183
1495973112640,0.036,0.055,0.358,0.550
1495973112657,-0.016,0.030,-0.157,0.293
1495973112675,-0.022,0.027,-0.219,0.265
1495973112690,-0.017,0.011,-0.167,0.104
1495973112723,-0.006,0.039,-0.057,0.378
1495973112738,0.014,0.011,0.136,0.108
1495973112756,0.036,0.050,0.357,0.490
1495973112805,0.011,0.025,0.103,0.244
1495973112820,0.012,0.043,0.116,0.418
1495973112843,0.015,-0.013,0.147,-0.125
1495973112860,-0.006,0.006,-0.061,0.062
1495973112878,-0.015,0.017,-0.151,0.167
1495973112896,0.026,-0.001,0.263,-0.008
1495973112913,0.058,0.138,0.566,1.364
1495973112929,-0.015,0.050,-0.141,0.455
1495973112946,0.007,-0.005,0.069,-0.045
1495973112964,0.005,-0.069,0.044,-0.678
1495973112982,0.029,0.050,0.287,0.519
1495973112999,0.064,0.126,0.620,1.203
1495973113017,0.006,0.062,0.055,0.571
1495973113032,0.005,0.115,0.049,1.093
1495973113048,-0.014,0.070,-0.133,0.637
1495973113065,0.010,-0.001,0.101,-0.007
1495973113080,-0.001,0.071,-0.008,0.702
1495973113098,-0.029,0.155,-0.285,1.433
1495973113115,-0.006,0.123,-0.063,1.063
1495973113133,-0.031,-0.033,-0.306,-0.295
1495973113149,0.016,0.044,0.162,0.443
1495973113164,0.002,-0.001,0.015,-0.010
1495973113181,-0.001,-0.003,-0.006,-0.027
1495973113196,0.001,-0.006,0.013,-0.063
1495973113214,0.005,-0.005,0.047,-0.054
1495973113232,0.001,-0.006,0.013,-0.061
1495973113249,0.003,-0.002,0.025,-0.015
1495973113267,-0.005,-0.004,-0.047,-0.037
1495973113282,-0.004,0.001,-0.040,0.007
1495973113298,0.001,-0.004,0.013,-0.041
1495973113316,0.006,-0.002,0.056,-0.018
1495973113333,0.004,-0.008,0.039,-0.083
1495973113349,-0.006,-0.006,-0.059,-0.056
1495973113364,-0.003,-0.006,-0.028,-0.064
1495973113381,0.002,-0.001,0.021,-0.005
1495973113397,0.006,0.000,0.061,0.002
1495973113414,0.009,-0.004,0.090,-0.039
1495973113432,-0.002,-0.004,-0.018,-0.044
1495973113449,-0.008,-0.004,-0.076,-0.037
1495973113465,0.000,-0.001,0.001,-0.008
1495973113481,0.001,-0.004,0.008,-0.042
1495973113497,0.003,-0.004,0.028,-0.042
1495973113513,0.002,-0.005,0.016,-0.047
1495973113530,-0.000,-0.002,-0.004,-0.020
1495973113548,-0.002,-0.002,-0.018,-0.015
1495973113566,-0.000,-0.002,-0.001,-0.017
1495973113583,0.001,-0.002,0.008,-0.015
1495973113599,0.006,-0.003,0.064,-0.030
1495973113614,0.000,-0.003,0.001,-0.030
1495973113647,-0.002,-0.003,-0.016,-0.032
1495973113664,0.003,-0.001,0.030,-0.008
1495973113682,0.002,-0.004,0.023,-0.044
1495973113699,0.005,-0.003,0.047,-0.030
1495973113715,0.001,-0.006,0.006,-0.063
1495973113731,-0.001,0.001,-0.006,0.014
1495973113746,-0.004,-0.003,-0.042,-0.027
1495973113781,0.004,-0.005,0.035,-0.054
1495973113799,0.003,-0.005,0.032,-0.047
1495973113817,-0.000,-0.003,-0.001,-0.027
1495973113832,0.001,-0.007,0.006,-0.066
1495973113848,-0.000,-0.004,-0.001,-0.039
1495973113864,-0.005,-0.005,-0.047,-0.047
1495973113880,0.001,-0.004,0.013,-0.037
1495973113898,0.005,-0.001,0.054,-0.008
1495973113915,0.003,-0.004,0.025,-0.037
1495973113933,-0.003,-0.000,-0.025,-0.001
1495973113948,-0.003,-0.002,-0.025,-0.015
1495973113965,0.000,-0.004,0.004,-0.042
1495973113981,0.003,0.002,0.032,0.016
1495973113998,0.000,-0.002,0.004,-0.015
1495973114016,-0.002,-0.002,-0.018,-0.015
1495973114033,0.001,-0.000,0.006,-0.003
1495973114049,0.005,-0.003,0.047,-0.025
1495973114065,0.002,0.001,0.023,0.007
1495973114097,0.004,-0.004,0.035,-0.037
1495973114114,0.003,0.003,0.028,0.026
1495973114132,-0.004,0.001,-0.037,0.011
1495973114150,-0.001,-0.005,-0.013,-0.049
1495973114165,-0.002,-0.000,-0.018,-0.003
1495973114181,-0.003,-0.000,-0.025,-0.003
1495973114197,0.004,0.001,0.037,0.007
1495973114213,-0.003,0.001,-0.025,0.007
1495973114231,-0.003,-0.001,-0.028,-0.008
1495973114248,0.002,-0.006,0.016,-0.061
1495973114266,0.003,0.001,0.032,0.014
1495973114283,0.008,0.000,0.078,0.002
1495973114299,0.001,-0.000,0.006,-0.003
1495973114315,-0.003,0.002,-0.025,0.021
1495973114331,0.001,0.001,0.008,0.011
1495973114347,0.002,-0.002,0.020,-0.015
1495973114364,0.004,-0.001,0.042,-0.010
1495973114382,0.000,-0.005,0.004,-0.051
1495973114415,-0.006,-0.001,-0.059,-0.008
1495973114431,-0.002,0.004,-0.021,0.038
1495973114446,-0.001,0.001,-0.008,0.014
1495973114464,0.008,-0.002,0.078,-0.020
1495973114482,0.005,-0.003,0.044,-0.030
1495973114499,0.003,0.001,0.028,0.007
1495973114515,0.001,-0.000,0.006,-0.003
1495973114531,-0.001,-0.002,-0.011,-0.017
1495973114547,0.000,-0.003,0.004,-0.032
1495973114565,0.001,-0.003,0.006,-0.032
1495973114582,0.003,-0.003,0.032,-0.027
1495973114600,0.002,-0.003,0.018,-0.027
1495973114631,-0.004,0.005,-0.037,0.045
1495973114648,-0.001,0.001,-0.013,0.009
1495973114663,0.005,0.001,0.045,0.014
1495973114681,0.006,-0.001,0.059,-0.013
1495973114698,0.001,-0.000,0.006,-0.001
1495973114716,-0.002,-0.006,-0.018,-0.058
1495973114732,0.059,0.161,0.580,1.592
1495973114747,0.002,0.021,0.017,0.173
1495973114763,-0.024,0.020,-0.234,0.193
1495973114812,-0.032,0.053,-0.322,0.503
1495973114827,-0.027,0.009,-0.279,0.079
1495973114859,-0.035,-0.031,-0.362,-0.298
1495973114875,-0.001,-0.008,-0.011,-0.084
1495973114891,0.021,0.011,0.206,0.107
1495973114908,-0.032,0.068,-0.309,0.663
1495973114926,-0.013,0.111,-0.131,0.986
1495973114943,-0.037,0.030,-0.371,0.257
1495973114961,-0.048,0.021,-0.498,0.199
1495973114979,0.005,0.051,0.054,0.489
1495973114996,-0.016,0.094,-0.151,0.861
1495973114998,0.003,0.073,0.026,0.623
1495973115015,-0.016,0.018,-0.157,0.157
1495973115032,-0.033,0.039,-0.333,0.368
1495973115050,0.061,0.039,0.650,0.351
1495973115068,0.058,0.031,0.479,0.289
1495973115085,0.019,0.031,0.167,0.285
1495973115103,-0.004,-0.003,-0.040,-0.022
1495973115120,-0.026,-0.006,-0.257,-0.059
1495973115138,0.017,0.080,0.197,0.824
1495973115154,-0.016,0.058,-0.135,0.373
1495973115169,-0.011,0.023,-0.112,0.194
1495973115186,0.039,0.059,0.418,0.487
1495973115201,0.025,-0.005,0.145,-0.053
1495973115219,0.050,-0.013,0.931,0.108
1495973115237,0.003,0.039,0.043,0.499
1495973115252,-0.009,0.014,-0.128,0.172
1495973115270,0.025,0.024,0.224,0.258
1495973115287,0.023,-0.014,0.247,-0.160
1495973115303,0.017,0.038,0.183,0.346
1495973115319,-0.002,-0.003,-0.017,-0.030
1495973115334,-0.026,-0.016,-0.249,-0.157
1495973115352,-0.011,0.045,-0.102,0.422
1495973115369,-0.030,0.009,-0.292,0.095
1495973115387,-0.020,-0.038,-0.181,-0.389
1495973115405,0.001,-0.004,0.010,-0.035
1495973115420,0.014,0.007,0.136,0.066
1495973115436,-0.006,-0.043,-0.062,-0.436
1495973115452,-0.003,-0.010,-0.027,-0.082
1495973115468,0.019,0.049,0.182,0.468
1495973115503,-0.002,0.016,-0.017,0.183
1495973115521,0.000,-0.040,0.001,-0.432
1495973115536,0.038,0.011,0.371,0.095
1495973115552,0.010,-0.039,0.112,-0.391
1495973115568,-0.009,-0.009,-0.092,-0.080
1495973115585,0.004,0.024,0.036,0.235
1495973115603,0.025,-0.035,0.249,-0.376
1495973115620,0.029,0.004,0.310,0.036
1495973115638,0.059,-0.051,0.635,-0.507
1495973115654,0.048,0.066,0.586,0.528
1495973115669,-0.015,0.009,-0.169,0.100
1495973115686,-0.035,-0.048,-0.320,-0.484
1495973115719,-0.000,0.034,-0.001,0.304
1495973115737,0.009,-0.026,0.088,-0.274
1495973115754,-0.022,-0.010,-0.220,-0.091
1495973115770,-0.007,-0.051,-0.065,-0.495
1495973115785,-0.036,-0.036,-0.353,-0.306
1495973115801,0.004,-0.002,0.036,-0.019
1495973115819,0.011,-0.034,0.105,-0.329
1495973115836,0.053,-0.041,0.547,-0.343
1495973115854,0.014,-0.045,0.164,-0.372
1495973115871,-0.013,-0.110,-0.141,-0.935
1495973115887,-0.002,-0.063,-0.019,-0.452
1495973115903,-0.016,-0.020,-0.156,-0.174
1495973115919,-0.018,-0.063,-0.170,-0.608
1495973115953,-0.044,-0.147,-0.593,-2.296
1495973115971,0.013,-0.056,0.339,-0.965
1495973115987,-0.007,-0.062,0.336,-2.954
1495973116002,-0.007,-0.070,-0.059,-1.666
1495973116020,-0.023,-0.153,-0.234,-5.725
1495973116037,0.009,-0.119,0.089,-2.323
1495973116055,0.036,-0.062,0.352,-1.075
1495973116071,0.011,-0.064,0.104,-0.686
1495973116086,-0.012,-0.055,-0.114,-0.566
1495973116103,-0.004,0.008,-0.035,0.079
1495973116118,-0.000,0.005,-0.004,0.050
1495973116136,-0.001,0.001,-0.011,0.014
1495973116154,-0.004,-0.004,-0.037,-0.041
1495973116171,-0.006,0.001,-0.057,0.007
1495973116202,0.001,0.005,0.008,0.048
1495973116220,-0.002,0.003,-0.018,0.033
1495973116238,0.002,0.001,0.020,0.011
1495973116255,0.001,-0.039,0.006,-0.388
1495973116271,-0.005,-0.006,-0.054,-0.062
1495973116286,0.006,-0.061,0.057,-0.599
1495973116303,-0.006,0.012,-0.064,0.123
1495973116319,-0.002,-0.034,-0.018,-0.328
1495973116336,-0.005,0.004,-0.047,0.041
1495973116354,-0.002,-0.000,-0.023,-0.001
1495973116371,-0.001,0.003,-0.013,0.028
1495973116387,-0.000,0.002,-0.004,0.021
1495973116403,0.002,0.004,0.016,0.038
1495973116419,-0.001,0.005,-0.006,0.052
1495973116435,0.002,0.004,0.023,0.038
1495973116452,-0.002,-0.003,-0.018,-0.027
1495973116470,-0.003,0.002,-0.033,0.021
1495973116505,0.002,-0.001,0.016,-0.005
1495973116521,0.001,0.002,0.006,0.019
1495973116536,0.001,0.005,0.013,0.052
1495973116553,-0.002,0.005,-0.016,0.052
1495973116569,-0.001,0.007,-0.008,0.064
1495973116586,-0.005,0.003,-0.045,0.031
1495973116604,0.001,-0.000,0.013,-0.001
1495973116621,-0.000,0.002,-0.004,0.019
1495973116637,0.000,0.001,0.004,0.009
1495973116653,-0.001,0.003,-0.008,0.033
1495973116669,-0.002,0.001,-0.016,0.011
1495973116702,-0.003,0.002,-0.028,0.019
1495973116720,0.001,0.002,0.008,0.023
1495973116738,0.002,0.003,0.016,0.031
1495973116753,-0.000,0.001,-0.004,0.009
1495973116800,-0.003,0.004,-0.032,0.038
1495973116816,0.002,0.006,0.016,0.057
1495973116839,-0.002,-0.004,-0.018,-0.039
1495973116857,0.002,0.002,0.016,0.016
1495973116874,-0.001,0.007,-0.008,0.067
1495973116892,-0.001,-0.000,-0.006,-0.001
1495973116910,-0.005,0.000,-0.045,0.004
1495973116927,-0.000,0.005,-0.004,0.050
1495973116946,0.004,0.001,0.042,0.011
1495973116963,-0.001,-0.001,-0.008,-0.008
1495973116979,0.004,-0.003,0.035,-0.032
1495973116997,-0.003,0.004,-0.025,0.036
1495973117012,-0.006,-0.002,-0.057,-0.017
1495973117028,0.001,0.004,0.013,0.043
1495973117044,-0.000,0.002,-0.004,0.019
1495973117060,0.002,-0.001,0.023,-0.010
1495973117078,-0.003,0.001,-0.030,0.014
1495973117095,0.002,0.000,0.016,0.004
1495973117113,-0.002,0.001,-0.020,0.007
1495973117128,-0.000,0.003,-0.004,0.026
1495973117144,-0.001,0.002,-0.008,0.021
1495973117161,-0.002,0.000,-0.016,0.004
1495973117176,-0.005,-0.000,-0.045,-0.001
1495973117194,-0.007,-0.002,-0.066,-0.022
1495973117211,0.005,0.001,0.047,0.011
1495973117229,0.002,-0.002,0.016,-0.015
1495973117247,0.001,0.003,0.011,0.026
1495973117262,-0.004,0.001,-0.035,0.007
1495973117278,-0.007,0.002,-0.073,0.021
1495973117294,-0.009,0.001,-0.088,0.007
1495973117310,-0.001,0.001,-0.008,0.014
1495973117326,0.002,0.006,0.016,0.060
1495973117343,-0.002,0.001,-0.016,0.007
1495973117361,-0.011,-0.004,-0.107,-0.041
1495973117378,-0.009,-0.003,-0.088,-0.025
1495973117396,-0.003,-0.001,-0.030,-0.005
1495973117412,0.007,-0.001,0.069,-0.010
1495973117427,0.005,0.002,0.054,0.023
1495973117443,0.000,0.003,0.001,0.033
1495973117458,-0.001,0.005,-0.008,0.052
1495973117476,-0.003,0.006,-0.025,0.055
1495973117494,-0.006,0.002,-0.064,0.023
1495973117511,-0.004,0.000,-0.042,0.002
1495973117529,-0.008,-0.002,-0.076,-0.022
1495973117546,-0.002,0.002,-0.021,0.021
1495973117562,0.001,-0.003,0.006,-0.029
1495973117578,-0.002,-0.003,-0.016,-0.034
1495973117594,-0.000,-0.003,-0.004,-0.025
1495973117627,-0.005,-0.001,-0.049,-0.008
1495973117645,-0.006,0.005,-0.061,0.050
1495973117663,-0.004,0.006,-0.037,0.057
1495973117680,0.004,0.009,0.042,0.091
1495973117698,0.008,0.009,0.076,0.088
1495973117715,-0.006,0.001,-0.056,0.014
1495973117731,-0.006,-0.003,-0.057,-0.025
1495973117749,-0.011,-0.008,-0.105,-0.078
1495973117766,-0.003,-0.003,-0.025,-0.030
1495973117784,0.008,0.002,0.076,0.023
1495973117801,0.005,0.001,0.047,0.014
1495973117819,0.003,0.007,0.032,0.067
1495973117837,-0.009,0.002,-0.088,0.021
1495973117852,-0.008,0.003,-0.083,0.031
1495973117870,-0.004,0.001,-0.040,0.014
1495973117887,0.000,-0.002,0.004,-0.017
1495973117906,0.002,0.002,0.018,0.023
1495973117924,0.005,0.006,0.049,0.059
1495973117941,0.001,0.002,0.011,0.023
1495973117959,-0.007,-0.001,-0.071,-0.010
1495973117976,-0.007,-0.003,-0.069,-0.034
1495973117994,-0.007,-0.001,-0.071,-0.010
1495973118012,0.002,0.004,0.018,0.040
1495973118029,0.003,0.008,0.025,0.076
1495973118045,-0.002,0.004,-0.016,0.035
1495973118060,-0.003,0.004,-0.025,0.040
1495973118076,-0.003,0.003,-0.030,0.028
1495973118093,-0.007,-0.002,-0.071,-0.015
