1495972720150,-0.004,0.001,-0.056,0.009
1495972720166,-0.002,-0.001,-0.037,-0.008
1495972720184,0.005,0.001,0.065,0.008
1495972720201,0.006,-0.002,0.038,-0.023
1495972720219,-0.003,-0.000,-0.024,-0.005
1495972720234,0.001,-0.002,0.011,-0.024
1495972720252,0.001,-0.002,0.011,-0.023
1495972720270,0.007,-0.004,0.065,-0.048
1495972720287,0.002,-0.000,0.012,-0.002
1495972720322,-0.001,-0.001,-0.014,-0.007
1495972720338,-0.005,0.002,-0.048,0.023
1495972720356,-0.002,-0.000,-0.024,-0.004
1495972720371,-0.002,0.002,-0.024,0.022
1495972720389,0.002,0.004,0.024,0.040
1495972720408,0.002,-0.002,0.018,-0.019
1495972720424,-0.001,-0.001,-0.007,-0.009
1495972720440,-0.001,-0.000,-0.015,-0.002
1495972720457,0.001,-0.000,0.008,-0.004
1495972720473,0.002,-0.001,0.016,-0.014
1495972720488,-0.001,0.001,-0.009,0.008
1495972720505,-0.003,0.004,-0.035,0.040
1495972720522,-0.008,-0.002,-0.087,-0.018
1495972720539,0.002,0.002,0.028,0.021
1495972720557,0.000,-0.002,0.000,-0.020
1495972720574,0.004,0.000,0.041,0.001
1495972720590,0.000,-0.002,0.002,-0.021
1495972720606,-0.000,-0.007,-0.005,-0.069
1495972720622,-0.003,-0.001,-0.029,-0.011
1495972720638,-0.001,0.000,-0.013,0.003
1495972720673,0.005,0.001,0.050,0.010
1495972720691,-0.000,0.004,-0.002,0.036
1495972720706,-0.004,0.002,-0.043,0.018
1495972720722,-0.005,0.001,-0.050,0.005
1495972720738,-0.006,0.002,-0.070,0.017
1495972720754,0.003,0.002,0.041,0.019
1495972720772,0.001,0.003,0.006,0.033
1495972720787,0.003,-0.001,0.028,-0.006
1495972720805,-0.005,0.000,-0.045,0.003
1495972720822,0.001,-0.001,0.008,-0.009
1495972720840,0.001,-0.005,0.012,-0.051
1495972720858,0.001,-0.001,0.012,-0.013
1495972720873,0.003,0.005,0.028,0.053
1495972720889,0.000,0.001,0.000,0.011
1495972720905,-0.005,-0.000,-0.046,-0.002
1495972720939,-0.003,-0.001,-0.038,-0.014
1495972720956,0.003,-0.001,0.038,-0.014
1495972720974,0.001,0.002,0.011,0.023
1495972720989,0.002,-0.003,0.019,-0.024
1495972721005,-0.001,-0.000,-0.014,-0.002
1495972721021,-0.002,-0.005,-0.022,-0.045
1495972721038,0.001,-0.002,0.010,-0.018
1495972721056,0.002,0.001,0.023,0.006
1495972721073,-0.001,0.002,-0.009,0.017
1495972721091,-0.003,0.003,-0.034,0.028
1495972721107,-0.001,0.004,-0.008,0.039
1495972721122,-0.002,-0.002,-0.017,-0.015
1495972721139,0.001,-0.001,0.012,-0.012
1495972721154,0.007,-0.006,0.065,-0.061
1495972721172,-0.001,-0.001,-0.006,-0.015
1495972721190,-0.006,0.002,-0.061,0.021
1495972721223,-0.001,0.002,-0.014,0.014
1495972721240,0.005,0.003,0.052,0.026
1495972721256,0.002,0.003,0.017,0.026
1495972721272,0.003,0.001,0.033,0.007
1495972721287,-0.004,0.003,-0.034,0.031
1495972721305,0.000,0.002,0.000,0.014
1495972721322,0.001,-0.004,0.010,-0.034
1495972721340,-0.000,0.002,-0.002,0.022
1495972721358,-0.002,-0.004,-0.024,-0.033
1495972721373,0.002,-0.004,0.020,-0.041
1495972721389,-0.002,0.000,-0.018,0.001
1495972721406,-0.002,-0.000,-0.018,-0.004
1495972721424,0.000,-0.000,0.005,-0.002
1495972721442,0.002,-0.007,0.019,-0.065
1495972721457,0.000,0.001,0.002,0.014
1495972721490,-0.002,-0.003,-0.017,-0.027
1495972721508,0.000,-0.002,0.002,-0.020
1495972721524,0.003,0.003,0.031,0.026
1495972721539,0.004,0.003,0.034,0.030
1495972721556,0.004,0.003,0.036,0.033
1495972721571,-0.001,-0.003,-0.011,-0.031
1495972721589,-0.001,0.001,-0.015,0.011
1495972721607,-0.006,0.005,-0.065,0.052
1495972721624,0.000,0.001,0.000,0.005
1495972721640,0.002,0.003,0.017,0.027
1495972721655,0.001,-0.001,0.007,-0.011
1495972721673,0.003,-0.002,0.026,-0.019
1495972721691,-0.002,-0.006,-0.022,-0.065
1495972721724,0.002,0.001,0.025,0.012
1495972721739,-0.001,-0.026,-0.013,-0.242
1495972721756,0.001,-0.011,0.010,-0.154
1495972721772,-0.002,-0.013,-0.016,-0.210
1495972721789,-0.001,-0.005,-0.012,-0.064
1495972721807,0.001,-0.005,0.010,-0.055
1495972721824,0.004,-0.005,0.038,-0.055
1495972721840,0.004,-0.013,0.040,-0.133
1495972721856,0.003,-0.005,0.033,-0.058
1495972721872,0.001,-0.005,0.007,-0.055
1495972721888,-0.002,-0.014,-0.022,-0.140
1495972721905,-0.004,-0.009,-0.039,-0.095
1495972721923,0.001,-0.005,0.007,-0.054
1495972721941,0.002,-0.005,0.017,-0.054
1495972721958,-0.003,-0.001,-0.033,-0.009
1495972721974,-0.004,0.001,-0.042,0.013
1495972722006,-0.002,0.000,-0.025,0.003
1495972722022,0.001,0.003,0.012,0.025
1495972722039,0.002,-0.004,0.017,-0.035
1495972722057,-0.004,0.001,-0.036,0.013
1495972722074,0.005,0.006,0.047,0.060
1495972722090,-0.002,0.002,-0.021,0.019
1495972722106,0.002,-0.003,0.017,-0.028
1495972722122,0.003,-0.003,0.026,-0.029
1495972722138,0.004,-0.000,0.043,-0.002
1495972722155,-0.005,0.003,-0.045,0.034
1495972722173,-0.003,0.001,-0.032,0.005
1495972722191,0.001,0.005,0.010,0.046
1495972722208,-0.003,0.004,-0.026,0.040
1495972722224,0.004,0.002,0.039,0.015
1495972722256,0.001,0.002,0.012,0.017
1495972722272,-0.004,-0.000,-0.043,-0.004
1495972722288,-0.002,-0.005,-0.017,-0.052
1495972722304,0.000,-0.002,0.000,-0.019
1495972722321,0.008,-0.002,0.082,-0.019
1495972722339,0.004,-0.001,0.037,-0.009
1495972722357,-0.001,-0.002,-0.012,-0.021
1495972722374,-0.009,0.001,-0.092,0.008
1495972722390,-0.004,0.002,-0.038,0.015
1495972722405,0.003,0.005,0.027,0.051
1495972722421,0.004,0.001,0.038,0.008
1495972722439,0.004,0.004,0.042,0.041
1495972722456,-0.002,0.003,-0.021,0.024
1495972722474,-0.005,0.004,-0.054,0.039
1495972722491,0.000,0.003,0.005,0.033
1495972722507,0.002,-0.002,0.017,-0.016
1495972722523,0.003,0.000,0.031,0.003
1495972722539,0.001,-0.003,0.012,-0.031
1495972722555,-0.001,-0.000,-0.010,-0.002
1495972722587,-0.002,0.001,-0.019,0.010
1495972722605,0.001,0.007,0.007,0.065
1495972722622,-0.001,0.003,-0.012,0.028
1495972722640,0.003,0.001,0.031,0.005
1495972722658,0.002,0.006,0.017,0.063
1495972722676,0.004,0.000,0.043,0.001
1495972722692,0.000,0.004,0.002,0.041
1495972722709,0.000,0.001,0.000,0.012
1495972722727,0.000,-0.000,0.002,-0.004
1495972722744,-0.000,0.001,-0.002,0.008
1495972722765,-0.002,0.003,-0.022,0.025
1495972722783,-0.000,0.004,-0.002,0.036
1495972722798,0.001,0.004,0.010,0.040
1495972722816,0.003,0.003,0.031,0.031
1495972722831,0.000,0.004,0.002,0.041
1495972722849,0.001,0.005,0.007,0.045
1495972722851,-0.000,0.003,-0.005,0.026
1495972722868,0.001,0.005,0.010,0.048
1495972722901,0.002,-0.003,0.024,-0.025
1495972722903,0.004,0.002,0.042,0.018
1495972722935,0.003,0.003,0.032,0.029
1495972722953,-0.005,0.006,-0.049,0.057
1495972722970,-0.002,0.003,-0.025,0.030
1495972722988,-0.005,0.003,-0.050,0.033
1495972723005,0.002,0.005,0.023,0.051
1495972723024,0.002,-0.002,0.021,-0.015
1495972723042,-0.001,0.004,-0.007,0.037
1495972723057,0.001,0.004,0.010,0.042
1495972723075,0.000,0.001,0.000,0.010
1495972723090,0.002,0.003,0.024,0.029
1495972723106,-0.000,0.002,-0.002,0.021
1495972723123,0.003,0.006,0.031,0.056
1495972723138,-0.002,0.004,-0.018,0.036
1495972723156,0.001,0.005,0.015,0.043
1495972723173,-0.000,0.005,-0.002,0.043
1495972723191,-0.000,-0.000,-0.005,-0.002
1495972723209,-0.001,-0.001,-0.015,-0.014
1495972723224,0.005,-0.002,0.055,-0.017
1495972723240,0.001,0.005,0.008,0.048
1495972723272,0.003,0.001,0.026,0.011
1495972723290,0.003,0.002,0.029,0.015
1495972723307,0.009,0.008,0.078,0.071
1495972723325,0.044,-0.007,0.322,-0.061
1495972723340,0.038,-0.028,0.366,0.306
1495972723356,-0.008,-0.084,-0.145,-1.834
1495972723373,0.009,-0.048,-0.484,-0.260
1495972723388,-0.050,-0.149,-1.323,-7.063
1495972723406,-0.004,-0.098,-0.080,-1.433
1495972723423,-0.028,-0.150,-0.599,-11.477
1495972723441,0.012,-0.096,0.125,-1.924
1495972723459,-0.043,-0.060,-0.420,-1.646
1495972723474,0.032,-0.028,0.326,-0.293
1495972723490,0.017,-0.082,0.166,-0.819
1495972723519,0.001,-0.074,0.014,-0.753
1495972723537,-0.068,-0.145,-0.674,-1.466
1495972723555,-0.011,-0.134,-0.111,-1.386
1495972723572,0.019,-0.039,0.186,-0.404
1495972723590,-0.060,-0.070,-0.591,-0.704
1495972723607,0.031,-0.037,0.313,-0.368
1495972723625,0.043,-0.003,0.418,-0.029
1495972723641,0.039,0.033,0.381,0.328
1495972723656,-0.038,-0.000,-0.374,-0.002
1495972723673,0.007,-0.031,0.068,-0.308
1495972723688,-0.028,-0.000,-0.276,-0.004
1495972723706,-0.017,0.014,-0.172,0.143
1495972723724,0.010,0.042,0.094,0.413
1495972723741,-0.042,-0.094,-0.413,-0.914
1495972723759,-0.026,0.010,-0.255,0.102
1495972723774,0.039,0.135,0.390,1.331
1495972723807,0.085,0.080,0.832,0.759
1495972723822,0.010,-0.008,0.099,-0.080
1495972723839,-0.008,-0.040,-0.077,-0.397
1495972723854,0.017,0.022,0.171,0.215
1495972723872,0.021,0.044,0.201,0.431
1495972723890,-0.013,0.011,-0.132,0.110
1495972723907,0.014,0.043,0.143,0.423
1495972723925,-0.024,0.039,-0.233,0.383
1495972723940,0.038,0.104,0.376,1.010
1495972723956,0.016,0.073,0.157,0.700
1495972723974,-0.020,0.008,-0.197,0.074
1495972723991,0.040,0.041,0.395,0.406
1495972724009,0.035,0.009,0.340,0.089
1495972724024,-0.039,-0.082,-0.379,-0.811
1495972724040,0.021,0.024,0.212,0.243
1495972724057,0.033,0.027,0.320,0.261
1495972724072,0.018,0.025,0.174,0.244
1495972724090,0.019,-0.031,0.182,-0.307
1495972724107,-0.007,0.012,-0.069,0.120
1495972724125,-0.021,0.022,-0.205,0.219
1495972724141,0.012,0.010,0.119,0.101
1495972724173,0.037,-0.010,0.367,-0.100
1495972724188,-0.023,-0.035,-0.224,-0.345
1495972724206,-0.021,-0.046,-0.213,-0.457
1495972724224,-0.059,-0.024,-0.587,-0.239
1495972724239,-0.034,-0.020,-0.341,-0.201
1495972724257,-0.000,-0.011,-0.005,-0.106
1495972724274,-0.008,-0.046,-0.077,-0.456
1495972724292,0.007,-0.044,0.072,-0.436
1495972724308,-0.006,0.079,-0.058,0.794
1495972724323,0.025,0.082,0.248,0.790
1495972724355,0.001,0.098,0.010,0.941
1495972724373,-0.024,-0.017,-0.233,-0.165
1495972724391,-0.022,0.040,-0.216,0.395
1495972724408,-0.010,-0.018,-0.099,-0.170
1495972724424,-0.045,-0.033,-0.449,-0.324
1495972724439,0.014,0.000,0.139,0.001
1495972724457,-0.007,0.017,-0.072,0.169
1495972724475,-0.006,0.086,-0.055,0.839
1495972724492,-0.012,0.094,-0.116,0.905
1495972724508,0.032,0.048,0.314,0.461
1495972724523,0.024,0.046,0.238,0.451
1495972724540,0.011,0.149,0.107,1.452
1495972724557,-0.005,0.062,-0.053,0.579
1495972724574,-0.018,0.031,-0.176,0.298
1495972724592,-0.001,-0.000,-0.010,-0.004
1495972724607,-0.004,0.002,-0.043,0.015
1495972724623,-0.002,0.001,-0.022,0.005
1495972724640,0.002,-0.001,0.017,-0.009
1495972724655,0.007,-0.003,0.070,-0.033
1495972724673,0.008,-0.003,0.082,-0.033
1495972724708,0.000,0.002,0.002,0.015
1495972724726,-0.001,0.001,-0.007,0.008
1495972724741,0.001,0.002,0.012,0.022
1495972724757,0.007,-0.002,0.070,-0.019
1495972724773,0.005,-0.002,0.050,-0.023
1495972724789,-0.000,-0.002,-0.002,-0.019
1495972724807,-0.001,-0.002,-0.010,-0.021
1495972724824,0.000,0.004,0.000,0.037
1495972724842,0.001,0.004,0.010,0.037
1495972724857,0.002,-0.001,0.024,-0.009
1495972724890,0.007,-0.002,0.067,-0.023
1495972724905,0.003,0.001,0.034,0.013
1495972724923,-0.003,0.001,-0.034,0.010
1495972724940,-0.001,0.000,-0.012,0.003
1495972724958,0.004,0.003,0.036,0.034
1495972724976,0.007,0.003,0.067,0.029
1495972724991,0.007,-0.001,0.067,-0.007
1495972725007,-0.000,0.002,-0.005,0.020
1495972725023,-0.000,0.001,-0.005,0.005
1495972725039,-0.002,0.003,-0.017,0.034
1495972725057,0.002,0.003,0.024,0.032
1495972725074,0.006,-0.004,0.055,-0.040
1495972725092,-0.002,-0.003,-0.017,-0.033
1495972725107,-0.004,-0.002,-0.036,-0.016
1495972725123,0.000,0.006,0.002,0.063
1495972725140,0.005,0.007,0.048,0.068
1495972725155,0.001,0.003,0.012,0.027
1495972725188,0.001,0.003,0.007,0.027
1495972725206,-0.002,0.003,-0.024,0.032
1495972725224,-0.004,0.003,-0.039,0.027
1495972725242,0.004,-0.003,0.041,-0.031
1495972725260,0.007,0.001,0.070,0.013
1495972725275,0.003,-0.001,0.029,-0.011
1495972725293,0.002,-0.000,0.019,-0.002
1495972725312,-0.004,-0.001,-0.038,-0.009
1495972725329,-0.003,0.002,-0.029,0.017
1495972725347,0.002,0.003,0.019,0.027
1495972725364,0.006,0.003,0.063,0.032
1495972725382,0.004,0.004,0.036,0.037
1495972725400,0.001,0.000,0.012,0.003
1495972725419,0.000,-0.003,0.005,-0.026
1495972725437,0.001,-0.002,0.014,-0.016
1495972725454,0.002,-0.005,0.024,-0.050
1495972725472,0.004,0.000,0.036,0.003
1495972725490,0.003,0.007,0.029,0.068
1495972725507,0.000,0.004,0.002,0.037
1495972725525,0.002,0.000,0.024,0.001
1495972725542,-0.000,0.001,-0.005,0.013
1495972725560,0.001,0.001,0.010,0.005
1495972725578,0.006,0.001,0.060,0.008
1495972725595,0.001,-0.003,0.012,-0.028
1495972725613,0.002,0.002,0.019,0.020
1495972725630,-0.000,0.003,-0.005,0.027
1495972725648,0.003,0.000,0.034,0.003
1495972725666,0.003,0.004,0.029,0.037
1495972725683,-0.002,-0.003,-0.019,-0.031
1495972725685,0.002,0.005,0.017,0.046
1495972725702,-0.003,0.000,-0.029,0.001
1495972725719,0.002,0.008,0.019,0.075
1495972725738,0.003,0.002,0.034,0.022
1495972725756,0.001,-0.003,0.010,-0.026
1495972725773,-0.003,0.004,-0.034,0.039
1495972725791,-0.000,0.000,-0.005,0.001
1495972725808,0.006,-0.001,0.063,-0.011
1495972725824,0.006,0.000,0.055,0.003
1495972725840,0.002,0.000,0.019,0.003
1495972725857,-0.001,0.001,-0.010,0.008
1495972725889,-0.001,0.003,-0.012,0.032
1495972725905,-0.001,0.004,-0.014,0.039
1495972725923,0.000,0.005,0.005,0.049
1495972725940,0.004,0.004,0.036,0.044
1495972725958,0.003,-0.001,0.026,-0.014
1495972725975,0.002,-0.002,0.017,-0.019
1495972725991,-0.001,-0.002,-0.010,-0.019
1495972726007,-0.003,-0.003,-0.029,-0.026
1495972726023,0.001,0.001,0.012,0.010
1495972726039,-0.001,0.001,-0.007,0.005
1495972726056,0.004,0.002,0.036,0.015
1495972726074,0.004,0.005,0.036,0.049
1495972726092,0.005,0.004,0.053,0.037
1495972726107,0.001,0.007,0.012,0.065
1495972726123,0.002,0.001,0.024,0.013
1495972726138,0.009,-0.002,0.087,-0.021
1495972726156,0.010,0.001,0.094,0.005
1495972726174,-0.001,-0.001,-0.012,-0.009
1495972726191,-0.003,0.004,-0.031,0.044
1495972726209,0.002,0.003,0.019,0.027
1495972726224,0.004,0.005,0.036,0.046
1495972726240,0.004,0.005,0.043,0.046
1495972726273,-0.005,-0.002,-0.053,-0.019
1495972726291,0.001,0.001,0.010,0.008
1495972726306,-0.002,0.004,-0.017,0.037
1495972726323,0.007,-0.001,0.072,-0.007
1495972726339,0.004,0.000,0.043,0.003
1495972726356,0.004,0.004,0.043,0.044
1495972726374,0.007,-0.003,0.065,-0.028
1495972726391,0.003,0.001,0.031,0.008
1495972726409,-0.000,0.004,-0.002,0.039
1495972726426,-0.001,0.003,-0.007,0.034
1495972726443,0.007,0.001,0.065,0.008
1495972726461,0.002,0.003,0.024,0.029
1495972726478,-0.004,0.001,-0.041,0.010
1495972726496,0.001,0.004,0.014,0.041
1495972726514,0.006,0.004,0.055,0.041
1495972726531,0.006,0.002,0.062,0.015
1495972726549,-0.001,0.006,-0.007,0.058
1495972726566,-0.002,0.001,-0.017,0.010
1495972726585,0.002,0.005,0.017,0.054
1495972726618,0.008,0.011,0.082,0.111
1495972726619,-0.013,0.115,-0.129,1.131
1495972726636,-0.009,0.113,-0.087,1.053
1495972726651,0.015,0.092,0.147,0.866
1495972726669,0.013,0.096,0.127,0.909
1495972726687,0.023,0.110,0.227,1.033
1495972726704,0.003,0.076,0.026,0.710
1495972726722,-0.000,0.145,-0.002,1.374
1495972726739,-0.004,0.065,-0.039,0.584
1495972726757,-0.024,0.055,-0.239,0.521
1495972726776,0.030,0.057,0.301,0.543
1495972726793,-0.034,0.068,-0.324,0.648
1495972726811,-0.008,0.039,-0.079,0.368
1495972726828,0.009,0.030,0.087,0.283
1495972726846,-0.044,0.003,-0.432,0.029
1495972726864,-0.022,0.037,-0.225,0.360
1495972726881,0.014,0.028,0.138,0.270
1495972726899,0.012,0.024,0.114,0.229
1495972726916,0.014,0.035,0.141,0.342
1495972726934,-0.001,0.022,-0.007,0.206
1495972726950,0.028,0.026,0.272,0.248
1495972726968,0.001,0.026,0.012,0.247
1495972727001,-0.015,0.037,-0.144,0.357
1495972727003,0.014,0.080,0.137,0.753
1495972727019,-0.008,0.029,-0.078,0.266
1495972727037,-0.009,-0.052,-0.092,-0.499
1495972727054,0.055,0.040,0.550,0.424
1495972727072,0.010,0.011,0.092,0.105
1495972727089,0.017,0.036,0.164,0.354
1495972727107,0.021,0.012,0.200,0.115
1495972727125,0.005,-0.048,0.044,-0.468
1495972727142,0.023,-0.040,0.224,-0.428
1495972727158,0.034,0.054,0.322,0.579
1495972727173,-0.030,0.004,-0.275,0.037
1495972727189,0.008,-0.007,0.080,-0.064
1495972727207,-0.019,-0.036,-0.187,-0.357
1495972727224,0.010,-0.013,0.100,-0.141
1495972727242,0.025,0.019,0.240,0.188
1495972727259,0.000,-0.001,0.000,-0.011
1495972727275,-0.009,-0.021,-0.089,-0.204
1495972727291,0.007,-0.036,0.066,-0.371
1495972727323,-0.038,-0.001,-0.371,-0.010
1495972727340,0.025,-0.023,0.262,-0.228
1495972727358,0.009,-0.030,0.083,-0.307
1495972727376,-0.011,0.033,-0.107,0.341
1495972727393,-0.010,0.014,-0.098,0.130
1495972727409,-0.026,0.037,-0.261,0.362
1495972727426,0.005,0.054,0.047,0.503
1495972727442,0.019,0.000,0.186,0.003
1495972727458,-0.031,-0.033,-0.300,-0.329
1495972727474,-0.009,-0.048,-0.091,-0.505
1495972727490,-0.079,-0.131,-0.789,-1.406
1495972727507,-0.003,-0.083,-0.030,-1.030
1495972727525,0.001,-0.025,0.007,-0.282
1495972727558,0.012,-0.017,0.115,-0.173
1495972727574,-0.012,-0.082,-0.117,-0.824
1495972727589,0.056,0.007,0.557,0.078
1495972727605,0.006,-0.065,0.059,-0.632
1495972727623,0.015,-0.057,0.151,-0.596
1495972727640,0.023,-0.095,0.228,-0.985
1495972727658,0.012,-0.084,0.113,-0.896
1495972727673,0.036,-0.126,0.353,-1.345
1495972727691,-0.006,-0.154,-0.061,-1.676
1495972727709,-0.052,-0.098,-0.520,-1.100
1495972727724,0.048,-0.050,0.490,-0.537
1495972727740,0.017,-0.067,0.158,-0.677
1495972727773,0.018,-0.146,0.179,-1.497
1495972727789,0.003,-0.006,0.029,-0.059
1495972727806,-0.002,0.000,-0.017,0.001
1495972727824,0.000,0.003,0.005,0.025
1495972727841,-0.005,0.008,-0.053,0.078
1495972727859,-0.006,0.009,-0.055,0.092
1495972727877,-0.006,0.008,-0.063,0.077
1495972727892,-0.002,0.007,-0.017,0.070
1495972727908,0.001,0.004,0.010,0.039
1495972727924,0.000,-0.001,0.000,-0.009
1495972727940,-0.004,-0.003,-0.036,-0.033
1495972727958,-0.003,0.004,-0.031,0.039
1495972727975,-0.001,-0.002,-0.012,-0.023
1495972727993,0.005,0.005,0.046,0.051
1495972728024,0.007,0.004,0.070,0.037
1495972728042,-0.001,0.005,-0.007,0.049
1495972728059,-0.005,0.008,-0.048,0.082
1495972728077,-0.005,0.003,-0.051,0.032
1495972728094,0.002,0.008,0.017,0.077
1495972728110,0.002,0.006,0.017,0.056
1495972728129,-0.001,-0.001,-0.010,-0.014
1495972728146,-0.000,-0.003,-0.002,-0.031
1495972728164,-0.001,0.002,-0.012,0.022
1495972728181,-0.002,0.004,-0.017,0.041
1495972728199,0.002,0.007,0.022,0.070
1495972728217,0.001,0.005,0.014,0.053
1495972728232,-0.002,0.002,-0.017,0.015
1495972728257,-0.002,0.004,-0.019,0.039
1495972728258,-0.007,0.007,-0.072,0.068
1495972728273,0.001,0.004,0.007,0.041
1495972728291,0.007,0.004,0.067,0.037
1495972728326,0.003,0.000,0.029,0.001
1495972728344,0.000,-0.002,0.002,-0.016
1495972728361,0.000,-0.000,0.002,-0.004
1495972728379,0.001,0.003,0.010,0.027
1495972728397,0.003,0.000,0.029,0.001
1495972728414,-0.001,0.004,-0.014,0.042
1495972728430,-0.003,0.005,-0.031,0.051
1495972728445,-0.002,-0.000,-0.019,-0.004
1495972728462,-0.002,0.007,-0.017,0.070
1495972728478,0.004,-0.000,0.039,-0.004
1495972728495,-0.000,-0.003,-0.005,-0.033
1495972728513,0.002,0.001,0.022,0.005
1495972728530,0.001,-0.004,0.014,-0.038
1495972728548,0.001,-0.001,0.010,-0.009
1495972728566,-0.001,0.002,-0.010,0.015
1495972728583,-0.001,-0.004,-0.007,-0.040
1495972728601,-0.000,0.003,-0.002,0.032
1495972728618,0.000,0.005,0.000,0.046
1495972728637,-0.001,0.006,-0.010,0.058
1495972728655,-0.002,0.003,-0.024,0.029
1495972728670,-0.001,-0.017,-0.014,-0.170
1495972728688,-0.004,0.067,-0.041,0.663
1495972728705,0.004,-0.003,0.041,-0.027
1495972728724,-0.004,-0.006,-0.036,-0.057
1495972728757,-0.003,0.001,-0.027,0.008
1495972728759,0.000,0.005,0.002,0.046
1495972728775,0.000,0.003,0.000,0.029
1495972728794,0.001,0.000,0.010,0.001
1495972728812,-0.003,0.001,-0.034,0.010
1495972728830,-0.004,-0.006,-0.039,-0.062
1495972728847,-0.007,-0.003,-0.065,-0.028
1495972728865,0.005,-0.000,0.048,-0.002
1495972728882,0.001,-0.004,0.012,-0.035
1495972728900,0.001,0.001,0.010,0.005
1495972728918,0.000,0.004,0.005,0.039
1495972728933,-0.003,0.002,-0.034,0.022
1495972728965,0.001,0.005,0.010,0.053
1495972728981,0.003,-0.000,0.029,-0.004
1495972728998,0.000,0.002,0.005,0.020
1495972729013,-0.001,-0.003,-0.012,-0.026
1495972729031,-0.003,-0.000,-0.026,-0.002
1495972729048,0.001,0.001,0.007,0.010
1495972729066,0.003,0.001,0.026,0.008
1495972729084,-0.001,0.001,-0.007,0.005
1495972729101,0.001,-0.000,0.012,-0.002
1495972729117,0.003,0.003,0.031,0.034
1495972729132,-0.006,0.002,-0.060,0.022
1495972729149,0.003,0.001,0.034,0.010
1495972729165,0.002,0.003,0.024,0.025
1495972729181,0.004,-0.000,0.043,-0.002
1495972729197,0.002,-0.003,0.017,-0.031
1495972729214,-0.006,-0.004,-0.055,-0.040
1495972729232,-0.002,0.002,-0.019,0.017
1495972729250,0.001,0.001,0.010,0.013
1495972729267,0.005,0.003,0.048,0.032
1495972729285,-0.002,0.000,-0.024,0.001
1495972729316,-0.003,-0.002,-0.034,-0.016
1495972729333,-0.003,-0.000,-0.031,-0.002
1495972729348,0.002,0.000,0.017,0.003
1495972729366,0.002,-0.000,0.019,-0.002
1495972729383,0.002,-0.000,0.022,-0.004
1495972729401,0.000,-0.000,0.002,-0.002
1495972729417,-0.003,-0.002,-0.034,-0.021
1495972729432,-0.002,0.003,-0.019,0.027
1495972729449,-0.001,-0.003,-0.014,-0.026
1495972729464,0.001,0.000,0.012,0.001
1495972729482,0.000,-0.000,0.002,-0.004
1495972729500,-0.000,-0.001,-0.002,-0.009
1495972729515,-0.001,0.001,-0.012,0.013
1495972729534,-0.002,0.002,-0.024,0.020
1495972729551,0.003,-0.005,0.029,-0.050
1495972729567,0.003,0.003,0.031,0.032
1495972729585,0.001,-0.003,0.010,-0.033
1495972729600,-0.001,-0.004,-0.014,-0.040
1495972729632,-0.003,-0.003,-0.026,-0.031
1495972729648,-0.016,0.003,-0.159,0.034
1495972729665,0.010,0.007,0.099,0.073
1495972729680,0.022,0.020,0.215,0.197
1495972729698,-0.005,0.000,-0.048,0.001
1495972729715,-0.017,-0.007,-0.164,-0.072
1495972729733,-0.011,-0.009,-0.114,-0.094
1495972729751,0.005,0.001,0.053,0.013
1495972729766,0.008,0.004,0.079,0.044
1495972729782,0.001,-0.002,0.012,-0.019
1495972729797,-0.006,-0.006,-0.055,-0.057
1495972729815,0.000,-0.000,0.005,-0.004
1495972729850,-0.002,0.003,-0.022,0.034
1495972729868,-0.000,0.002,-0.005,0.017
1495972729883,-0.009,-0.034,-0.089,-0.338
1495972729899,-0.004,-0.023,-0.044,-0.232
1495972729916,0.000,-0.014,0.005,-0.141
1495972729931,0.010,0.006,0.096,0.064
1495972729949,0.009,-0.002,0.091,-0.021
1495972729966,0.010,0.002,0.098,0.015
1495972729985,-0.012,-0.005,-0.122,-0.052
1495972730003,-0.005,-0.003,-0.048,-0.033
1495972730018,-0.004,-0.005,-0.039,-0.050
1495972730036,0.014,0.010,0.142,0.100
1495972730053,0.006,0.011,0.055,0.106
1495972730071,0.013,0.002,0.130,0.015
1495972730089,-0.010,-0.006,-0.096,-0.062
1495972730106,-0.023,-0.023,-0.230,-0.224
1495972730124,-0.010,-0.007,-0.095,-0.072
1495972730141,0.010,0.013,0.104,0.129
1495972730159,0.012,0.004,0.115,0.036
1495972730178,0.004,-0.008,0.041,-0.074
1495972730195,0.005,-0.002,0.053,-0.016
1495972730213,-0.000,0.015,-0.002,0.147
1495972730230,-0.009,0.016,-0.091,0.153
1495972730248,-0.019,0.016,-0.184,0.158
1495972730266,-0.034,0.005,-0.342,0.053
1495972730283,-0.010,-0.004,-0.095,-0.043
1495972730301,0.024,0.001,0.237,0.005
1495972730318,0.054,-0.033,0.530,-0.329
1495972730334,0.006,-0.036,0.054,-0.356
1495972730350,0.002,-0.018,0.017,-0.183
1495972730382,-0.011,-0.015,-0.111,-0.152
1495972730399,0.013,-0.012,0.131,-0.116
1495972730417,0.015,0.005,0.143,0.047
1495972730435,0.013,0.013,0.124,0.128
1495972730450,-0.013,0.010,-0.129,0.101
1495972730466,-0.027,0.026,-0.269,0.259
1495972730482,-0.043,0.024,-0.427,0.233
1495972730498,-0.033,0.000,-0.329,0.003
1495972730516,-0.008,-0.020,-0.081,-0.194
1495972730533,0.021,-0.025,0.203,-0.252
1495972730552,0.022,-0.023,0.219,-0.226
1495972730569,0.021,-0.003,0.210,-0.029
1495972730585,0.008,0.005,0.074,0.049
1495972730603,-0.002,0.013,-0.022,0.133
1495972730620,-0.009,0.013,-0.089,0.127
1495972730638,-0.014,0.007,-0.138,0.065
1495972730655,-0.008,0.008,-0.082,0.082
1495972730674,0.005,0.005,0.051,0.049
1495972730692,0.009,0.011,0.086,0.106
1495972730709,0.002,-0.004,0.022,-0.038
1495972730728,-0.008,-0.016,-0.075,-0.158
1495972730745,-0.016,-0.019,-0.162,-0.189
1495972730765,0.004,-0.017,0.041,-0.169
1495972730782,0.018,0.009,0.178,0.090
1495972730797,0.012,0.008,0.117,0.082
1495972730815,0.004,0.007,0.041,0.073
1495972730832,-0.006,0.009,-0.055,0.085
1495972730850,-0.005,0.007,-0.051,0.070
1495972730868,-0.009,0.003,-0.092,0.025
1495972730883,-0.005,-0.003,-0.051,-0.033
1495972730899,-0.003,-0.006,-0.027,-0.057
1495972730916,0.005,-0.006,0.046,-0.057
1495972730934,0.007,-0.004,0.070,-0.036
1495972730952,0.000,0.002,0.002,0.022
1495972730967,-0.011,0.002,-0.108,0.022
1495972730999,-0.015,-0.002,-0.145,-0.021
1495972731015,-0.005,0.001,-0.051,0.005
1495972731033,0.009,0.010,0.092,0.099
1495972731048,0.018,0.012,0.177,0.116
1495972731066,0.010,-0.004,0.100,-0.040
1495972731083,-0.003,-0.010,-0.034,-0.098
1495972731101,-0.008,-0.014,-0.075,-0.135
1495972731117,-0.003,-0.009,-0.027,-0.087
1495972731132,-0.000,-0.003,-0.005,-0.028
1495972731149,0.003,-0.001,0.031,-0.007
1495972731164,-0.008,0.003,-0.082,0.032
1495972731200,-0.013,0.003,-0.126,0.029
1495972731217,-0.008,0.003,-0.077,0.029
1495972731235,-0.000,-0.000,-0.005,-0.002
1495972731250,0.007,-0.008,0.070,-0.074
1495972731266,0.008,-0.003,0.082,-0.031
1495972731283,0.008,0.001,0.079,0.005
1495972731298,0.002,-0.003,0.017,-0.031
1495972731316,0.002,0.003,0.024,0.025
1495972731333,-0.008,-0.004,-0.079,-0.043
1495972731351,-0.011,-0.003,-0.114,-0.033
1495972731367,-0.013,0.002,-0.131,0.017
1495972731382,-0.009,0.008,-0.085,0.080
1495972731400,-0.002,0.005,-0.024,0.046
1495972731418,0.007,0.002,0.070,0.017
1495972731436,0.008,-0.002,0.082,-0.021
1495972731454,0.004,-0.008,0.041,-0.076
1495972731471,0.008,-0.007,0.077,-0.072
1495972731489,0.001,-0.004,0.010,-0.043
1495972731525,0.005,0.004,0.048,0.039
1495972731543,0.001,0.003,0.012,0.025
1495972731558,-0.008,0.003,-0.075,0.029
1495972731576,-0.013,-0.001,-0.130,-0.014
1495972731593,-0.018,-0.004,-0.177,-0.036
1495972731595,-0.007,-0.001,-0.068,-0.007
1495972731611,-0.001,-0.001,-0.007,-0.014
1495972731629,0.009,-0.000,0.091,-0.004
1495972731647,0.013,-0.003,0.127,-0.028
1495972731665,0.012,-0.003,0.122,-0.031
1495972731698,0.004,-0.006,0.038,-0.057
1495972731716,-0.002,0.000,-0.017,0.003
1495972731733,0.003,-0.001,0.031,-0.009
1495972731751,-0.001,0.003,-0.010,0.032
1495972731768,-0.002,0.007,-0.017,0.065
1495972731784,-0.007,0.003,-0.070,0.032
1495972731800,-0.006,-0.003,-0.058,-0.028
1495972731816,-0.006,-0.008,-0.063,-0.076
1495972731832,-0.001,-0.004,-0.014,-0.040
1495972731849,0.000,-0.004,0.002,-0.038
1495972731867,0.004,0.001,0.041,0.008
1495972731885,0.011,0.003,0.113,0.027
1495972731900,0.005,0.001,0.053,0.005
1495972731916,0.005,-0.002,0.048,-0.016
1495972731932,-0.005,-0.003,-0.046,-0.026
