1495974118784,0.006,0.000,0.001,0.000
1495974118800,-0.002,0.001,-0.000,0.000
1495974118816,0.003,-0.000,0.001,-0.000
1495974118831,0.008,0.002,0.002,0.000
1495974118849,0.005,0.000,0.001,0.000
1495974118866,0.007,-0.000,0.002,-0.000
1495974118884,0.002,0.000,0.001,0.000
1495974118902,-0.002,-0.001,-0.001,-0.000
1495974118917,0.005,-0.004,0.001,-0.001
1495974118933,0.003,0.001,0.001,0.000
1495974118950,0.006,-0.001,0.002,-0.000
1495974118968,-0.000,-0.002,-0.000,-0.001
1495974118986,-0.000,-0.004,-0.000,-0.001
1495974119017,0.000,0.001,0.000,0.000
1495974119033,0.007,0.000,0.002,0.000
1495974119049,0.004,0.001,0.001,0.000
1495974119067,0.010,-0.002,0.003,-0.001
1495974119084,0.003,-0.003,0.001,-0.001
1495974119102,0.005,0.001,0.002,0.000
1495974119117,0.004,0.001,0.002,0.000
1495974119133,0.010,-0.002,0.004,-0.001
1495974119150,0.006,-0.002,0.002,-0.001
1495974119165,0.006,-0.002,0.002,-0.001
1495974119183,-0.001,-0.003,-0.000,-0.001
1495974119200,-0.001,0.001,-0.001,0.001
1495974119218,0.005,-0.000,0.002,-0.000
1495974119234,0.003,0.001,0.001,0.001
1495974119249,0.004,0.001,0.002,0.001
1495974119280,0.003,0.001,0.002,0.000
1495974119298,0.001,0.001,0.001,0.001
1495974119316,0.001,-0.002,0.001,-0.001
1495974119333,0.004,0.002,0.002,0.001
1495974119352,0.004,-0.001,0.002,-0.001
1495974119369,0.005,-0.004,0.003,-0.002
1495974119385,0.004,-0.003,0.002,-0.001
1495974119403,-0.002,0.004,-0.001,0.002
1495974119420,0.003,-0.004,0.002,-0.002
1495974119438,0.005,-0.003,0.002,-0.001
1495974119453,0.004,0.005,0.002,0.002
1495974119471,0.003,0.005,0.002,0.002
1495974119489,0.004,0.000,0.002,0.000
1495974119506,0.002,0.003,0.001,0.002
1495974119524,0.007,-0.001,0.004,-0.000
1495974119541,0.007,-0.001,0.004,-0.000
1495974119560,0.006,-0.001,0.003,-0.001
1495974119578,0.003,-0.000,0.002,-0.000
1495974119594,0.000,-0.003,0.000,-0.001
1495974119613,0.000,-0.000,0.000,-0.000
1495974119630,0.006,0.000,0.003,0.000
1495974119648,0.003,-0.002,0.001,-0.001
1495974119667,0.003,0.001,0.002,0.001
1495974119684,0.000,0.001,0.000,0.001
1495974119700,0.002,0.000,0.001,0.000
1495974119716,0.004,-0.001,0.002,-0.001
1495974119732,0.003,0.001,0.002,0.001
1495974119750,0.008,-0.002,0.005,-0.001
1495974119767,0.007,-0.000,0.004,-0.000
1495974119785,0.005,-0.003,0.003,-0.002
1495974119802,0.002,-0.001,0.001,-0.001
1495974119818,0.005,0.000,0.003,0.000
1495974119850,0.006,-0.005,0.004,-0.003
1495974119866,0.002,-0.004,0.001,-0.002
1495974119883,0.000,-0.004,0.000,-0.003
1495974119901,-0.000,-0.001,-0.000,-0.001
1495974119919,0.006,-0.002,0.003,-0.001
1495974119934,0.003,0.000,0.002,0.000
1495974119950,0.001,-0.003,0.001,-0.002
1495974119967,0.004,-0.008,0.002,-0.005
1495974119983,0.004,0.003,0.002,0.002
1495974120001,0.009,0.002,0.006,0.001
1495974120018,0.004,0.002,0.003,0.001
1495974120036,0.006,0.003,0.004,0.002
1495974120053,-0.004,0.000,-0.002,0.000
1495974120069,0.000,0.002,0.000,0.001
1495974120085,0.002,-0.001,0.001,-0.000
1495974120101,0.002,0.001,0.001,0.001
1495974120118,0.004,-0.001,0.003,-0.001
1495974120135,0.000,-0.004,0.000,-0.002
1495974120151,0.004,-0.001,0.003,-0.000
1495974120168,0.001,-0.003,0.001,-0.002
1495974120201,0.004,-0.000,0.003,-0.000
1495974120218,0.004,0.003,0.003,0.002
1495974120236,0.005,-0.001,0.004,-0.001
1495974120254,0.001,-0.000,0.001,-0.000
1495974120271,0.005,-0.001,0.003,-0.001
1495974120289,-0.005,-0.003,-0.003,-0.002
1495974120307,0.000,0.001,0.000,0.000
1495974120325,0.002,-0.003,0.001,-0.002
1495974120343,0.006,0.002,0.004,0.001
1495974120360,0.001,-0.000,0.001,-0.000
1495974120378,-0.003,-0.001,-0.002,-0.001
1495974120380,0.004,-0.000,0.003,-0.000
1495974120396,0.003,-0.003,0.002,-0.002
1495974120414,0.009,0.000,0.006,0.000
1495974120432,0.011,0.005,0.008,0.003
1495974120449,0.000,-0.000,0.000,-0.000
1495974120484,0.002,0.000,0.002,0.000
1495974120502,0.004,-0.001,0.003,-0.001
1495974120520,0.004,0.003,0.003,0.002
1495974120535,0.002,-0.003,0.001,-0.002
1495974120551,0.003,0.002,0.002,0.001
1495974120568,0.002,-0.000,0.001,-0.000
1495974120586,0.001,-0.001,0.001,-0.001
1495974120602,0.002,-0.002,0.001,-0.001
1495974120617,0.008,0.002,0.006,0.001
1495974120633,0.005,-0.001,0.003,-0.001
1495974120650,0.001,0.000,0.001,0.000
1495974120668,0.004,-0.000,0.003,-0.000
1495974120686,0.002,0.001,0.001,0.001
1495974120703,0.003,-0.004,0.002,-0.003
1495974120719,0.004,0.000,0.003,0.000
1495974120734,0.003,-0.004,0.003,-0.003
1495974120751,0.004,0.004,0.003,0.003
1495974120784,0.001,0.015,0.001,0.011
1495974120803,0.002,0.004,0.001,0.003
1495974120820,0.006,0.003,0.004,0.002
1495974120836,0.011,0.005,0.008,0.003
1495974120854,0.005,-0.008,0.004,-0.006
1495974120871,0.008,-0.154,0.006,-0.118
1495974120889,0.057,-0.002,0.045,-0.001
1495974120906,-0.003,-0.191,-0.003,-0.138
1495974120924,0.004,-0.148,0.002,-0.076
1495974120942,-0.025,-0.080,-0.017,-0.047
1495974120960,0.029,-0.189,0.008,-0.062
1495974120978,0.085,-0.118,-0.228,-0.145
1495974120993,0.087,0.019,-0.407,0.106
1495974121012,-0.017,-0.106,-0.113,2.697
1495974121030,0.013,-0.109,0.050,-0.220
1495974121030,0.045,-0.067,0.165,1.108
1495974121066,-0.008,-0.056,-0.034,-0.359
1495974121083,0.028,-0.130,0.108,-0.375
1495974121101,0.022,-0.090,0.097,-0.355
1495974121120,-0.031,-0.052,-0.132,-0.198
1495974121137,-0.036,-0.040,-0.141,-0.155
1495974121153,-0.133,-0.035,-0.504,-0.129
1495974121169,-0.017,0.080,-0.055,0.283
1495974121185,0.013,0.049,0.042,0.172
1495974121203,0.005,-0.018,0.016,-0.069
1495974121220,-0.049,-0.065,-0.162,-0.201
1495974121238,0.009,-0.075,0.027,-0.226
1495974121253,0.088,-0.012,0.288,-0.033
1495974121269,0.020,0.019,0.071,0.054
1495974121287,0.047,0.040,0.152,0.128
1495974121304,0.032,0.013,0.111,0.045
1495974121322,-0.043,0.063,-0.148,0.208
1495974121337,-0.019,-0.047,-0.057,-0.169
1495974121353,-0.049,-0.047,-0.155,-0.139
1495974121370,-0.108,0.106,-0.338,0.331
1495974121385,0.064,0.104,0.179,0.353
1495974121420,-0.008,-0.003,-0.025,-0.013
1495974121438,-0.010,0.004,-0.031,0.013
1495974121454,0.005,0.014,0.017,0.046
1495974121469,0.012,0.033,0.040,0.110
1495974121485,-0.003,0.020,-0.010,0.068
1495974121500,-0.011,-0.035,-0.037,-0.121
1495974121518,0.039,0.096,0.129,0.307
1495974121537,0.028,0.077,0.099,0.288
1495974121554,-0.001,-0.001,-0.002,-0.004
1495974121570,-0.008,0.004,-0.030,0.015
1495974121585,0.035,-0.012,0.126,-0.043
1495974121601,0.004,-0.032,0.015,-0.114
1495974121636,-0.018,-0.103,-0.063,-0.361
1495974121654,-0.034,-0.094,-0.119,-0.310
1495974121671,0.007,0.182,0.025,0.594
1495974121687,-0.011,0.076,-0.036,0.294
1495974121703,0.001,0.043,0.002,0.171
1495974121720,0.037,0.061,0.129,0.229
1495974121738,0.002,0.010,0.007,0.040
1495974121755,0.031,-0.072,0.112,-0.265
1495974121771,0.003,0.040,0.013,0.137
1495974121789,0.023,0.078,0.087,0.294
1495974121804,0.085,0.143,0.315,0.559
1495974121822,0.100,0.175,0.398,0.749
1495974121837,-0.025,-0.025,-0.103,-0.114
1495974121853,-0.026,-0.075,-0.098,-0.293
1495974121871,0.003,-0.128,0.014,-0.493
1495974121888,-0.007,-0.053,-0.027,-0.197
1495974121904,0.002,0.120,0.006,0.456
1495974121919,0.047,0.127,0.181,0.516
1495974121935,0.027,-0.004,0.106,-0.017
1495974121968,-0.014,0.022,-0.055,0.086
1495974121986,-0.019,-0.012,-0.074,-0.048
1495974122003,-0.026,0.021,-0.102,0.083
1495974122021,-0.032,0.049,-0.126,0.195
1495974122039,0.018,0.177,0.070,0.720
1495974122054,-0.002,0.101,-0.009,0.440
1495974122070,-0.003,0.181,-0.010,0.775
1495974122087,0.011,-0.004,0.046,-0.020
1495974122105,0.013,0.002,0.052,0.009
1495974122121,0.006,0.011,0.026,0.048
1495974122136,0.002,0.005,0.007,0.022
1495974122153,0.004,-0.000,0.016,-0.001
1495974122168,0.002,-0.003,0.010,-0.013
1495974122186,0.009,-0.001,0.037,-0.005
1495974122204,0.007,0.005,0.029,0.019
1495974122222,0.005,0.002,0.023,0.008
1495974122240,0.001,-0.004,0.002,-0.017
1495974122255,0.003,-0.002,0.014,-0.010
1495974122273,0.007,0.001,0.029,0.006
1495974122291,0.012,0.007,0.050,0.029
1495974122308,0.006,0.001,0.025,0.005
1495974122326,-0.006,0.001,-0.024,0.004
1495974122343,0.005,-0.003,0.022,-0.011
1495974122362,0.004,0.003,0.016,0.012
1495974122380,0.012,0.008,0.052,0.034
1495974122399,0.008,0.002,0.035,0.008
1495974122417,0.002,-0.001,0.006,-0.003
1495974122434,-0.006,-0.000,-0.025,-0.001
1495974122452,0.008,-0.001,0.035,-0.004
1495974122470,0.012,-0.001,0.052,-0.002
1495974122487,0.009,0.001,0.037,0.006
1495974122506,-0.003,0.002,-0.011,0.009
1495974122523,0.001,-0.001,0.002,-0.002
1495974122540,0.004,-0.002,0.018,-0.006
1495974122558,0.014,-0.000,0.059,-0.001
1495974122573,0.012,-0.003,0.049,-0.012
1495974122591,0.006,-0.001,0.027,-0.003
1495974122608,0.000,-0.001,0.000,-0.004
1495974122626,0.003,-0.000,0.011,-0.000
1495974122645,0.005,-0.002,0.023,-0.007
1495974122678,0.011,-0.002,0.045,-0.010
1495974122695,0.006,-0.003,0.024,-0.014
1495974122713,0.003,-0.001,0.011,-0.005
1495974122715,-0.002,0.004,-0.009,0.015
1495974122732,0.002,0.002,0.008,0.009
1495974122749,0.012,-0.001,0.053,-0.005
1495974122768,0.009,-0.003,0.040,-0.011
1495974122800,0.005,-0.003,0.023,-0.011
1495974122816,-0.001,-0.003,-0.005,-0.013
1495974122838,0.005,0.001,0.022,0.005
1495974122857,0.007,-0.002,0.030,-0.008
1495974122874,0.007,0.002,0.029,0.010
1495974122890,0.004,-0.001,0.016,-0.006
1495974122908,-0.002,0.002,-0.008,0.009
1495974122925,0.000,-0.002,0.001,-0.007
1495974122943,0.004,0.004,0.017,0.019
1495974122960,0.005,0.000,0.023,0.002
1495974122978,0.007,0.001,0.031,0.004
1495974122994,0.007,-0.002,0.030,-0.008
1495974123009,0.005,-0.001,0.022,-0.003
1495974123026,0.004,0.005,0.017,0.021
1495974123041,0.005,0.006,0.021,0.027
1495974123059,0.003,0.003,0.014,0.012
1495974123077,0.005,-0.003,0.021,-0.011
1495974123094,0.006,0.000,0.025,0.002
1495974123112,0.003,0.001,0.013,0.005
1495974123127,0.001,-0.001,0.004,-0.002
1495974123143,0.005,0.004,0.023,0.019
1495974123160,0.005,0.003,0.024,0.015
1495974123175,0.011,-0.001,0.048,-0.002
1495974123193,0.013,-0.004,0.054,-0.017
1495974123210,0.008,0.003,0.036,0.012
1495974123228,0.004,0.000,0.016,0.001
1495974123244,0.006,-0.001,0.025,-0.006
1495974123259,0.005,0.002,0.024,0.010
1495974123276,-0.003,0.009,-0.014,0.039
1495974123309,-0.023,-0.002,-0.100,-0.008
1495974123327,0.028,0.013,0.121,0.057
1495974123344,0.026,0.014,0.113,0.060
1495974123362,0.003,0.002,0.012,0.007
1495974123377,0.006,0.002,0.028,0.007
1495974123393,0.010,0.006,0.042,0.027
1495974123410,0.009,0.005,0.039,0.021
1495974123425,0.010,0.003,0.042,0.013
1495974123442,0.006,0.003,0.025,0.012
1495974123457,0.006,0.007,0.027,0.029
1495974123475,0.009,0.004,0.039,0.018
1495974123493,-0.053,-0.025,-0.235,-0.109
1495974123510,-0.013,-0.001,-0.057,-0.005
1495974123529,0.033,0.019,0.146,0.083
1495974123546,0.003,0.003,0.012,0.014
1495974123562,0.008,0.002,0.033,0.010
1495974123580,0.004,0.002,0.016,0.007
1495974123597,0.000,0.002,0.000,0.007
1495974123615,0.003,0.003,0.012,0.014
1495974123631,-0.003,0.007,-0.012,0.031
1495974123649,-0.003,-0.002,-0.012,-0.009
1495974123665,0.028,0.011,0.121,0.050
1495974123682,0.005,-0.001,0.021,-0.004
1495974123700,0.003,0.002,0.011,0.008
1495974123717,0.003,0.003,0.013,0.012
1495974123735,0.008,0.003,0.034,0.014
1495974123753,0.003,0.004,0.014,0.016
1495974123771,0.007,0.003,0.033,0.012
1495974123804,-0.001,0.004,-0.006,0.017
1495974123805,0.003,0.009,0.013,0.039
1495974123822,0.005,0.007,0.022,0.030
1495974123839,0.004,0.005,0.017,0.022
1495974123856,0.006,0.005,0.027,0.022
1495974123874,0.007,0.001,0.032,0.004
1495974123891,0.006,0.003,0.026,0.013
1495974123909,0.005,0.002,0.023,0.011
1495974123927,0.004,0.003,0.019,0.013
1495974123944,0.002,0.006,0.007,0.028
1495974123962,0.008,0.007,0.036,0.030
1495974123979,0.007,0.002,0.031,0.010
1495974123995,-0.001,-0.001,-0.003,-0.005
1495974124011,-0.005,0.008,-0.023,0.037
1495974124027,-0.045,-0.012,-0.200,-0.054
1495974124044,-0.013,0.018,-0.059,0.078
1495974124061,0.022,0.013,0.098,0.060
1495974124077,0.015,-0.010,0.067,-0.045
1495974124094,0.025,0.015,0.114,0.067
1495974124109,0.015,-0.003,0.068,-0.016
1495974124144,0.012,-0.003,0.054,-0.012
1495974124162,-0.017,-0.001,-0.076,-0.006
1495974124180,0.015,0.006,0.067,0.026
1495974124195,0.014,0.007,0.064,0.029
1495974124211,0.003,0.003,0.012,0.014
1495974124227,0.003,-0.000,0.011,-0.000
1495974124243,0.005,-0.001,0.023,-0.002
1495974124261,0.011,0.005,0.051,0.021
1495974124278,0.007,0.001,0.032,0.003
1495974124296,0.004,-0.001,0.020,-0.005
1495974124311,0.003,0.000,0.015,0.001
1495974124327,0.005,-0.001,0.021,-0.004
1495974124344,0.006,0.001,0.028,0.004
1495974124359,0.014,0.005,0.064,0.024
1495974124378,0.009,-0.002,0.042,-0.007
1495974124395,-0.001,0.002,-0.005,0.007
1495974124411,0.001,-0.000,0.004,-0.000
1495974124442,0.003,-0.004,0.012,-0.018
1495974124460,0.013,-0.001,0.059,-0.002
1495974124477,0.011,-0.001,0.051,-0.002
1495974124495,0.003,0.002,0.014,0.007
1495974124513,0.006,0.003,0.027,0.015
1495974124528,0.007,0.001,0.032,0.003
1495974124544,0.007,0.003,0.032,0.012
1495974124560,0.006,-0.001,0.028,-0.002
1495974124576,0.008,0.004,0.038,0.017
1495974124594,0.005,0.001,0.024,0.004
1495974124611,0.004,-0.003,0.018,-0.011
1495974124629,0.006,0.001,0.027,0.006
1495974124646,0.010,0.001,0.045,0.004
1495974124662,0.006,0.003,0.028,0.015
1495974124678,0.001,-0.000,0.006,-0.001
1495974124694,-0.001,-0.000,-0.005,-0.000
1495974124710,0.007,0.004,0.031,0.016
1495974124727,0.009,-0.002,0.039,-0.008
1495974124745,0.009,-0.000,0.040,-0.001
1495974124763,0.003,-0.005,0.016,-0.021
1495974124809,0.008,-0.006,0.038,-0.027
1495974124825,0.009,-0.007,0.039,-0.030
1495974124854,0.010,-0.007,0.046,-0.030
1495974124872,0.007,-0.018,0.033,-0.084
1495974124891,0.019,0.121,0.086,0.550
1495974124908,0.006,0.045,0.027,0.210
1495974124926,0.001,0.048,0.003,0.224
1495974124944,-0.069,0.034,-0.316,0.158
1495974124959,-0.040,0.126,-0.182,0.588
1495974124975,-0.056,0.115,-0.256,0.546
1495974124992,-0.027,-0.009,-0.121,-0.041
1495974125010,0.092,0.016,0.421,0.072
1495974125028,0.025,-0.051,0.121,-0.236
1495974125043,0.015,0.026,0.069,0.120
1495974125059,-0.016,-0.086,-0.074,-0.402
1495974125075,0.067,-0.072,0.310,-0.331
1495974125091,0.028,-0.076,0.131,-0.350
1495974125109,-0.008,-0.053,-0.039,-0.244
1495974125127,-0.000,0.037,-0.002,0.171
1495974125145,-0.017,-0.045,-0.079,-0.211
1495974125160,-0.006,0.028,-0.027,0.127
1495974125178,0.032,0.037,0.146,0.173
1495974125196,-0.021,0.007,-0.097,0.033
1495974125213,0.084,0.037,0.385,0.171
1495974125231,0.091,0.048,0.429,0.223
1495974125248,-0.010,-0.008,-0.046,-0.036
1495974125266,-0.061,-0.014,-0.284,-0.068
1495974125284,0.031,-0.038,0.143,-0.178
1495974125301,0.083,-0.027,0.391,-0.124
1495974125319,0.054,-0.067,0.255,-0.313
1495974125321,0.019,-0.011,0.092,-0.049
1495974125336,-0.028,-0.007,-0.130,-0.035
1495974125354,-0.018,-0.017,-0.083,-0.078
1495974125372,0.012,-0.076,0.055,-0.354
1495974125389,0.033,-0.041,0.156,-0.187
1495974125407,0.031,-0.018,0.146,-0.081
1495974125424,-0.023,0.038,-0.106,0.175
1495974125442,0.024,-0.021,0.112,-0.098
1495974125460,0.004,-0.028,0.021,-0.131
1495974125477,0.016,-0.058,0.073,-0.270
1495974125493,-0.019,-0.065,-0.091,-0.296
1495974125508,0.008,-0.049,0.036,-0.225
1495974125525,-0.010,-0.063,-0.047,-0.289
1495974125559,-0.013,-0.105,-0.062,-0.475
1495974125577,0.011,-0.091,0.048,-0.409
1495974125592,0.025,-0.053,0.115,-0.237
1495974125609,-0.009,-0.093,-0.043,-0.414
1495974125625,0.031,-0.072,0.139,-0.316
1495974125640,0.014,-0.029,0.065,-0.127
1495974125658,-0.014,-0.029,-0.063,-0.129
1495974125675,-0.033,-0.125,-0.148,-0.553
1495974125693,-0.022,-0.066,-0.098,-0.284
1495974125711,0.027,-0.076,0.119,-0.331
1495974125726,0.013,-0.034,0.058,-0.144
1495974125742,-0.032,-0.053,-0.141,-0.228
1495974125774,-0.019,-0.095,-0.081,-0.403
1495974125792,0.038,-0.080,0.163,-0.333
1495974125809,0.024,-0.086,0.106,-0.359
1495974125827,0.033,-0.165,0.139,-0.682
1495974125844,0.047,-0.115,0.203,-0.459
1495974125862,0.010,-0.138,0.041,-0.554
1495974125880,-0.029,-0.228,-0.119,-0.899
1495974125897,0.022,-0.202,0.091,-0.762
1495974125915,0.023,-0.215,0.096,-0.796
1495974125930,0.016,-0.151,0.063,-0.535
1495974125948,-0.001,-0.141,-0.005,-0.490
1495974125966,0.024,0.026,0.087,0.086
1495974125983,-0.011,-0.098,-0.039,-0.342
1495974126001,0.008,-0.055,0.025,-0.173
1495974126018,0.007,-0.055,0.024,-0.178
1495974126037,0.004,-0.055,0.014,-0.175
1495974126056,0.000,-0.051,0.001,-0.160
1495974126073,-0.001,-0.044,-0.005,-0.136
1495974126089,0.005,-0.042,0.016,-0.127
1495974126106,0.006,-0.046,0.020,-0.138
1495974126124,0.008,-0.045,0.025,-0.132
1495974126142,0.004,-0.046,0.013,-0.131
1495974126159,0.002,-0.048,0.005,-0.135
1495974126177,0.003,-0.041,0.009,-0.112
1495974126194,0.002,-0.046,0.006,-0.125
1495974126226,0.003,-0.047,0.007,-0.123
1495974126242,-0.001,-0.044,-0.002,-0.114
1495974126258,-0.005,-0.047,-0.012,-0.118
1495974126275,0.004,-0.045,0.010,-0.108
1495974126293,0.004,-0.041,0.009,-0.093
1495974126311,0.006,-0.039,0.015,-0.085
1495974126326,0.005,-0.039,0.012,-0.080
1495974126342,0.005,-0.040,0.012,-0.078
1495974126374,-0.001,-0.039,-0.002,-0.072
1495974126392,0.001,-0.041,0.002,-0.072
1495974126409,0.007,-0.044,0.013,-0.069
1495974126427,0.008,-0.042,0.013,-0.057
1495974126442,0.001,-0.041,0.002,-0.049
1495974126458,0.003,-0.038,0.003,-0.037
1495974126474,-0.001,-0.036,-0.001,-0.023
1495974126491,0.004,-0.034,0.000,-0.007
1495974126509,0.004,-0.037,-0.006,0.006
1495974126526,0.005,-0.036,-0.067,-0.077
1495974126544,0.005,-0.039,0.020,-0.240
1495974126575,-0.001,-0.037,-0.003,-0.259
1495974126593,0.006,-0.035,0.021,-0.373
1495974126612,0.005,-0.041,0.018,-0.464
1495974126628,0.004,-0.041,0.015,-0.521
1495974126644,0.004,-0.039,0.014,-0.413
1495974126661,0.005,-0.036,0.020,-0.223
1495974126677,0.002,-0.041,0.007,-0.183
1495974126692,0.001,-0.037,0.003,-0.164
1495974126710,0.003,-0.031,0.014,-0.136
1495974126728,0.002,-0.036,0.010,-0.158
1495974126743,0.003,-0.036,0.011,-0.160
1495974126759,0.001,-0.039,0.006,-0.175
1495974126807,0.002,-0.037,0.009,-0.170
1495974126822,0.005,-0.037,0.021,-0.171
1495974126846,0.002,-0.038,0.007,-0.176
1495974126863,0.003,-0.037,0.015,-0.170
1495974126881,-0.003,-0.039,-0.012,-0.179
1495974126897,0.000,-0.038,0.001,-0.176
1495974126914,0.006,-0.037,0.028,-0.176
1495974126932,0.005,-0.038,0.025,-0.181
1495974126949,0.005,-0.039,0.025,-0.183
1495974126967,0.001,-0.036,0.004,-0.174
1495974126985,-0.003,-0.044,-0.012,-0.209
1495974127002,0.004,-0.043,0.017,-0.209
1495974127018,0.008,-0.044,0.037,-0.214
1495974127033,0.004,-0.020,0.018,-0.099
1495974127050,0.005,-0.069,0.026,-0.336
1495974127066,-0.001,-0.041,-0.007,-0.204
1495974127083,0.001,-0.038,0.004,-0.186
1495974127101,0.004,-0.040,0.018,-0.200
1495974127118,0.006,-0.044,0.030,-0.217
1495974127136,0.003,-0.045,0.016,-0.224
1495974127152,-0.001,-0.040,-0.004,-0.202
1495974127167,0.002,-0.046,0.008,-0.231
1495974127185,0.004,-0.039,0.022,-0.196
1495974127202,0.011,-0.038,0.056,-0.195
1495974127218,0.005,-0.038,0.023,-0.196
1495974127234,0.001,-0.038,0.005,-0.197
1495974127250,0.002,-0.037,0.009,-0.190
1495974127266,-0.005,-0.044,-0.026,-0.224
1495974127283,0.008,-0.041,0.040,-0.210
1495974127301,0.008,-0.045,0.043,-0.236
1495974127319,0.003,-0.045,0.018,-0.237
1495974127336,0.003,-0.041,0.013,-0.213
1495974127352,-0.000,-0.039,-0.002,-0.205
1495974127367,0.004,-0.037,0.023,-0.194
1495974127400,0.006,-0.041,0.029,-0.215
1495974127417,0.005,-0.037,0.026,-0.197
1495974127435,0.004,-0.042,0.019,-0.222
1495974127452,0.003,-0.040,0.017,-0.211
1495974127468,0.004,-0.035,0.020,-0.189
1495974127484,0.009,-0.041,0.048,-0.219
1495974127500,0.005,-0.044,0.027,-0.234
1495974127516,-0.002,-0.041,-0.011,-0.218
1495974127533,-0.004,-0.042,-0.019,-0.224
1495974127551,-0.000,-0.043,-0.002,-0.233
1495974127569,0.004,-0.041,0.023,-0.223
1495974127586,0.003,-0.041,0.017,-0.221
1495974127602,0.007,-0.043,0.038,-0.235
1495974127635,0.003,-0.042,0.017,-0.227
1495974127653,0.005,-0.040,0.028,-0.220
1495974127668,0.007,-0.044,0.039,-0.242
1495974127684,0.008,-0.039,0.043,-0.213
1495974127700,0.003,-0.043,0.019,-0.237
1495974127716,0.001,-0.042,0.003,-0.234
1495974127733,-0.002,-0.041,-0.013,-0.229
1495974127748,0.003,-0.036,0.019,-0.203
1495974127766,0.003,-0.040,0.019,-0.222
1495974127783,0.005,-0.044,0.030,-0.243
1495974127801,0.005,-0.045,0.026,-0.251
1495974127819,-0.004,-0.039,-0.023,-0.218
1495974127836,0.005,-0.040,0.027,-0.222
1495974127867,0.004,-0.040,0.021,-0.227
1495974127884,0.008,-0.041,0.047,-0.233
1495974127900,0.009,-0.043,0.049,-0.243
1495974127917,-0.001,-0.042,-0.006,-0.237
1495974127935,-0.003,-0.043,-0.019,-0.246
1495974127952,-0.000,-0.042,-0.001,-0.237
1495974127968,0.005,-0.042,0.031,-0.237
1495974127984,0.006,-0.043,0.035,-0.247
1495974128001,0.006,-0.041,0.033,-0.232
1495974128019,0.002,-0.044,0.009,-0.252
1495974128036,0.001,-0.047,0.005,-0.273
1495974128052,0.004,-0.046,0.021,-0.266
1495974128085,0.006,-0.040,0.035,-0.232
1495974128103,0.005,-0.042,0.031,-0.244
1495974128118,0.003,-0.041,0.019,-0.235
1495974128134,0.001,-0.044,0.007,-0.255
1495974128151,0.003,-0.046,0.014,-0.270
1495974128166,0.007,-0.035,0.041,-0.202
1495974128184,0.010,-0.040,0.058,-0.231
1495974128199,0.003,-0.041,0.020,-0.240
1495974128217,0.003,-0.042,0.019,-0.243
1495974128252,-0.001,-0.044,-0.008,-0.259
1495974128270,0.003,-0.043,0.020,-0.253
1495974128285,0.003,-0.042,0.020,-0.249
1495974128301,0.006,-0.039,0.037,-0.228
1495974128318,0.000,-0.044,0.002,-0.257
1495974128333,0.002,-0.039,0.010,-0.231
1495974128351,0.004,-0.044,0.023,-0.259
1495974128368,0.006,-0.040,0.033,-0.238
1495974128386,0.007,-0.041,0.039,-0.242
1495974128402,0.001,-0.043,0.005,-0.253
1495974128417,0.000,-0.039,0.002,-0.233
1495974128449,0.003,-0.041,0.021,-0.246
1495974128468,0.002,-0.046,0.013,-0.273
1495974128486,0.007,-0.040,0.039,-0.237
1495974128501,0.004,-0.042,0.025,-0.252
1495974128517,0.002,-0.041,0.013,-0.248
1495974128532,0.004,-0.043,0.025,-0.260
1495974128550,0.005,-0.044,0.032,-0.265
1495974128568,0.004,-0.046,0.024,-0.276
1495974128585,0.005,-0.043,0.032,-0.261
1495974128603,0.005,-0.045,0.030,-0.275
1495974128618,0.002,-0.043,0.009,-0.262
1495974128634,0.004,-0.039,0.022,-0.236
1495974128666,0.007,-0.040,0.042,-0.240
1495974128684,0.004,-0.046,0.025,-0.279
1495974128699,0.002,-0.045,0.011,-0.272
1495974128717,-0.003,-0.042,-0.020,-0.253
1495974128735,-0.000,-0.040,-0.003,-0.246
1495974128752,0.003,-0.040,0.020,-0.246
1495974128801,0.001,-0.043,0.005,-0.260
1495974128817,0.002,-0.042,0.012,-0.258
1495974128849,0.003,-0.040,0.018,-0.247
1495974128864,-0.001,-0.042,-0.004,-0.257
1495974128880,0.001,-0.045,0.003,-0.280
1495974128898,-0.001,-0.044,-0.006,-0.270
1495974128915,0.003,-0.042,0.018,-0.261
1495974128934,0.003,-0.040,0.017,-0.246
1495974128951,-0.003,-0.040,-0.018,-0.246
1495974128967,-0.000,-0.040,-0.001,-0.248
1495974128985,0.007,-0.042,0.041,-0.258
1495974129002,0.005,-0.043,0.032,-0.266
1495974129004,0.003,-0.042,0.017,-0.263
1495974129020,0.003,-0.046,0.017,-0.286
1495974129038,0.001,-0.042,0.003,-0.261
1495974129057,0.002,-0.038,0.014,-0.238
1495974129075,0.004,-0.041,0.023,-0.253
1495974129090,0.007,-0.042,0.044,-0.263
1495974129108,0.003,-0.045,0.022,-0.283
1495974129125,0.002,-0.042,0.014,-0.262
1495974129143,0.001,-0.041,0.003,-0.259
1495974129161,0.003,-0.040,0.017,-0.249
1495974129176,0.002,-0.040,0.010,-0.253
1495974129192,-0.001,-0.044,-0.006,-0.275
1495974129209,0.002,-0.042,0.013,-0.262
1495974129227,0.004,-0.042,0.023,-0.262
1495974129243,0.005,-0.045,0.029,-0.286
1495974129258,0.005,-0.041,0.031,-0.261
1495974129275,0.006,-0.045,0.036,-0.286
1495974129290,0.003,-0.039,0.019,-0.248
1495974129307,0.002,-0.041,0.013,-0.260
1495974129323,0.002,-0.039,0.010,-0.250
1495974129340,0.007,-0.044,0.042,-0.276
1495974129358,0.006,-0.041,0.039,-0.260
1495974129394,0.002,-0.046,0.011,-0.292
1495974129412,-0.003,-0.043,-0.020,-0.273
1495974129427,-0.000,-0.044,-0.003,-0.282
1495974129445,0.004,-0.043,0.025,-0.272
1495974129462,0.007,-0.042,0.047,-0.266
1495974129480,0.004,-0.041,0.027,-0.264
1495974129498,-0.002,-0.037,-0.010,-0.240
1495974129513,0.001,-0.039,0.008,-0.251
1495974129531,0.000,-0.041,0.000,-0.260
1495974129548,0.008,-0.040,0.053,-0.258
1495974129566,0.003,-0.041,0.019,-0.264
1495974129584,0.002,-0.045,0.010,-0.288
1495974129601,0.001,-0.042,0.008,-0.269
1495974129619,0.003,-0.044,0.022,-0.282
1495974129637,0.003,-0.042,0.018,-0.270
1495974129655,0.004,-0.044,0.024,-0.283
1495974129671,0.005,-0.041,0.032,-0.267
1495974129688,0.003,-0.040,0.021,-0.261
1495974129706,0.001,-0.045,0.007,-0.291
1495974129723,0.003,-0.042,0.018,-0.270
1495974129741,0.006,-0.041,0.037,-0.268
1495974129759,0.006,-0.045,0.041,-0.294
1495974129776,0.006,-0.042,0.040,-0.273
1495974129794,-0.002,-0.041,-0.011,-0.264
1495974129809,0.003,-0.039,0.018,-0.252
1495974129825,0.001,-0.044,0.007,-0.288
1495974129842,0.007,-0.044,0.043,-0.289
1495974129857,0.004,-0.043,0.029,-0.283
1495974129875,0.001,-0.041,0.008,-0.265
1495974129910,0.003,-0.044,0.021,-0.286
1495974129928,0.004,-0.044,0.026,-0.287
1495974129943,-0.000,-0.043,-0.003,-0.284
1495974129959,0.002,-0.043,0.013,-0.282
1495974129976,0.005,-0.044,0.032,-0.292
1495974129994,-0.002,-0.041,-0.012,-0.268
1495974130010,-0.002,-0.042,-0.012,-0.278
1495974130025,0.003,-0.042,0.016,-0.277
1495974130057,0.009,-0.046,0.060,-0.304
1495974130075,0.004,-0.043,0.028,-0.285
1495974130093,0.003,-0.043,0.016,-0.282
1495974130110,0.003,-0.042,0.021,-0.276
1495974130128,0.001,-0.036,0.008,-0.241
1495974130145,0.006,-0.038,0.039,-0.254
1495974130163,0.004,-0.040,0.028,-0.267
1495974130181,0.001,-0.042,0.008,-0.275
1495974130198,0.001,-0.042,0.005,-0.280
1495974130216,-0.003,-0.043,-0.017,-0.285
1495974130232,0.002,-0.042,0.013,-0.278
1495974130250,0.006,-0.046,0.039,-0.305
1495974130269,0.005,-0.045,0.034,-0.299
1495974130287,-0.001,-0.038,-0.008,-0.252
1495974130305,0.001,-0.046,0.007,-0.306
1495974130322,0.003,-0.040,0.018,-0.267
1495974130340,0.001,-0.045,0.009,-0.300
1495974130358,0.002,-0.040,0.013,-0.269
1495974130375,0.002,-0.039,0.015,-0.261
1495974130393,0.001,-0.045,0.004,-0.301
1495974130410,0.006,-0.044,0.038,-0.291
1495974130426,0.007,-0.042,0.046,-0.278
1495974130442,0.004,-0.048,0.025,-0.319
1495974130459,0.003,-0.039,0.023,-0.261
1495974130477,0.001,-0.042,0.005,-0.282
1495974130508,0.001,-0.040,0.007,-0.266
1495974130526,0.002,-0.042,0.015,-0.279
1495974130543,0.003,-0.039,0.022,-0.263
1495974130559,0.006,-0.040,0.041,-0.267
1495974130574,0.002,-0.041,0.015,-0.278
1495974130591,0.000,-0.038,0.000,-0.255
1495974130609,0.003,-0.041,0.020,-0.275
1495974130626,0.007,-0.043,0.048,-0.292
1495974130644,0.004,-0.038,0.028,-0.259
1495974130659,-0.004,-0.041,-0.029,-0.279
1495974130675,0.001,-0.044,0.004,-0.298
1495974130692,0.005,-0.037,0.033,-0.252
1495974130726,0.000,-0.043,0.002,-0.291
1495974130744,0.007,-0.045,0.045,-0.305
1495974130762,0.004,-0.039,0.028,-0.264
1495974130811,-0.001,-0.046,-0.006,-0.312
1495974130826,0.002,-0.041,0.010,-0.279
1495974130852,0.005,-0.043,0.033,-0.294
1495974130870,0.004,-0.044,0.025,-0.303
1495974130887,0.001,-0.041,0.007,-0.276
1495974130906,0.005,-0.042,0.034,-0.285
1495974130923,-0.003,-0.042,-0.023,-0.287
1495974130941,0.004,-0.039,0.030,-0.263
1495974130959,0.008,-0.041,0.053,-0.277
1495974130974,0.008,-0.044,0.052,-0.299
1495974130990,0.002,-0.042,0.014,-0.284
1495974131006,0.003,-0.042,0.017,-0.284
1495974131022,-0.002,-0.040,-0.015,-0.274
1495974131040,0.003,-0.043,0.020,-0.296
1495974131057,0.005,-0.042,0.037,-0.288
1495974131075,0.009,-0.045,0.064,-0.307
1495974131092,0.000,-0.037,0.000,-0.252
1495974131108,-0.000,-0.042,-0.003,-0.290
1495974131124,0.000,-0.041,0.000,-0.279
1495974131140,0.007,-0.042,0.046,-0.289
1495974131156,0.007,-0.038,0.047,-0.259
1495974131173,0.006,-0.042,0.041,-0.287
1495974131191,0.002,-0.042,0.015,-0.288
1495974131209,-0.001,-0.040,-0.005,-0.278
1495974131224,0.003,-0.037,0.022,-0.256
1495974131241,0.003,-0.044,0.017,-0.303
1495974131256,0.006,-0.043,0.042,-0.297
1495974131272,-0.000,-0.037,-0.001,-0.253
1495974131290,-0.002,-0.042,-0.016,-0.287
1495974131307,0.000,-0.043,0.002,-0.299
1495974131325,0.004,-0.043,0.029,-0.294
1495974131342,0.009,-0.040,0.061,-0.279
1495974131358,-0.001,-0.039,-0.005,-0.272
1495974131374,-0.003,-0.041,-0.021,-0.283
1495974131390,-0.000,-0.042,-0.001,-0.293
1495974131406,0.003,-0.042,0.022,-0.293
1495974131423,0.003,-0.043,0.021,-0.300
1495974131441,0.005,-0.042,0.034,-0.294
1495974131459,0.003,-0.042,0.024,-0.294
1495974131474,-0.001,-0.040,-0.010,-0.277
1495974131490,0.002,-0.043,0.014,-0.298
1495974131506,0.006,-0.036,0.043,-0.254
1495974131522,0.004,-0.043,0.031,-0.296
1495974131540,0.003,-0.037,0.017,-0.257
1495974131558,0.001,-0.046,0.006,-0.322
1495974131576,0.002,-0.041,0.014,-0.288
1495974131593,0.002,-0.040,0.014,-0.278
1495974131611,0.002,-0.043,0.011,-0.299
1495974131629,0.002,-0.043,0.012,-0.299
1495974131646,0.003,-0.042,0.017,-0.296
1495974131681,0.001,-0.044,0.007,-0.308
1495974131699,0.006,-0.045,0.045,-0.318
1495974131717,0.006,-0.045,0.043,-0.313
1495974131719,0.006,-0.044,0.045,-0.305
1495974131735,0.005,-0.044,0.036,-0.310
1495974131770,0.002,-0.042,0.011,-0.295
1495974131789,0.002,-0.044,0.011,-0.305
1495974131807,0.006,-0.039,0.041,-0.271
1495974131822,0.006,-0.042,0.045,-0.297
1495974131840,-0.002,-0.043,-0.013,-0.304
1495974131857,0.001,-0.040,0.004,-0.282
1495974131875,-0.001,-0.041,-0.006,-0.286
1495974131891,0.004,-0.044,0.031,-0.308
1495974131906,0.001,-0.039,0.007,-0.274
