1495556871145,-0.001,0.000,-0.001,0.000
1495556871162,0.002,0.004,0.002,0.004
1495556871179,0.002,0.004,0.002,0.004
1495556871195,0.003,0.002,0.003,0.002
1495556871212,0.001,-0.001,0.001,-0.001
1495556871229,0.003,-0.003,0.003,-0.003
1495556871245,-0.001,0.000,-0.001,0.000
1495556871262,0.004,0.003,0.004,0.003
1495556871279,0.000,0.001,0.000,0.001
1495556871295,0.000,0.004,0.000,0.004
1495556871312,-0.000,0.001,-0.000,0.001
1495556871329,-0.003,0.003,-0.003,0.003
1495556871345,-0.001,0.001,-0.001,0.001
1495556871362,-0.001,0.000,-0.001,0.000
1495556871379,0.001,0.000,0.001,0.000
1495556871395,0.004,0.002,0.004,0.002
1495556871412,0.002,-0.005,0.002,-0.005
1495556871428,0.004,0.000,0.004,0.000
1495556871445,-0.001,-0.001,-0.001,-0.001
1495556871462,-0.003,0.000,-0.003,0.000
1495556871479,0.004,0.002,0.004,0.002
1495556871495,0.000,0.000,0.000,0.000
1495556871512,-0.002,0.004,-0.002,0.004
1495556871529,-0.002,0.000,-0.002,0.000
1495556871545,-0.003,-0.001,-0.003,-0.001
1495556871562,-0.001,-0.002,-0.001,-0.002
1495556871579,-0.002,-0.001,-0.002,-0.001
1495556871595,0.003,0.001,0.003,0.001
1495556871612,-0.001,-0.001,-0.001,-0.001
1495556871628,0.003,0.004,0.003,0.004
1495556871645,0.000,0.004,0.000,0.004
1495556871662,0.000,-0.001,0.000,-0.001
1495556871679,-0.001,0.001,-0.001,0.001
1495556871695,-0.000,0.004,-0.000,0.004
1495556871712,-0.001,-0.000,-0.001,-0.000
1495556871729,-0.002,-0.001,-0.002,-0.001
1495556871745,-0.001,0.000,-0.001,0.000
1495556871762,-0.004,0.000,-0.004,0.000
1495556871778,0.004,-0.000,0.004,-0.000
1495556871795,-0.002,0.000,-0.002,0.000
1495556871812,0.005,0.004,0.005,0.004
1495556871829,0.001,0.000,0.001,0.000
1495556871845,0.000,0.001,0.000,0.001
1495556871862,0.000,0.003,0.000,0.003
1495556871879,0.000,-0.001,0.000,-0.001
1495556871895,0.000,0.001,0.000,0.001
1495556871912,-0.000,0.002,-0.000,0.002
1495556871928,0.004,0.001,0.004,0.001
1495556871945,-0.002,0.003,-0.002,0.003
1495556871962,0.001,-0.001,0.001,-0.001
1495556871979,-0.001,0.001,-0.001,0.001
1495556871995,-0.001,0.000,-0.001,0.000
1495556872012,-0.001,0.005,-0.001,0.005
1495556872029,-0.004,0.003,-0.004,0.003
1495556872045,0.000,0.004,0.000,0.004
1495556872062,0.000,-0.000,0.000,-0.000
1495556872079,-0.001,-0.002,-0.001,-0.002
1495556872095,-0.001,0.003,-0.001,0.003
1495556872112,-0.001,-0.001,-0.001,-0.001
1495556872129,0.000,0.001,0.000,0.001
1495556872145,0.000,-0.002,0.000,-0.002
1495556872162,-0.004,-0.001,-0.004,-0.001
1495556872178,0.003,0.007,0.003,0.007
1495556872195,0.003,0.003,0.003,0.003
1495556872212,0.000,0.003,0.000,0.003
1495556872229,0.003,0.000,0.003,0.000
1495556872245,0.002,0.002,0.002,0.002
1495556872262,-0.000,0.003,-0.000,0.003
1495556872279,-0.001,0.001,-0.001,0.001
1495556872295,-0.002,0.000,-0.002,0.000
1495556872312,0.000,0.002,0.000,0.002
1495556872329,-0.001,0.001,-0.001,0.001
1495556872345,-0.002,-0.001,-0.002,-0.001
1495556872362,0.000,-0.003,0.000,-0.003
1495556872379,0.000,-0.001,0.000,-0.001
1495556872395,0.001,0.001,0.001,0.001
1495556872412,-0.002,0.003,-0.002,0.003
1495556872429,-0.001,0.003,-0.001,0.003
1495556872445,0.000,0.003,0.000,0.003
1495556872462,-0.000,0.000,-0.000,0.000
1495556872479,-0.003,0.001,-0.003,0.001
1495556872495,0.001,-0.001,0.001,-0.001
1495556872512,0.000,0.001,0.000,0.001
1495556872529,0.001,-0.001,0.001,-0.001
1495556872545,0.004,-0.001,0.004,-0.001
1495556872562,0.000,0.002,0.000,0.002
1495556872579,-0.001,-0.000,-0.001,-0.000
1495556872595,0.000,0.004,0.000,0.004
1495556872612,0.001,0.002,0.001,0.002
1495556872628,0.002,0.001,0.002,0.001
1495556872645,0.001,0.001,0.001,0.001
1495556872662,0.001,-0.001,0.001,-0.001
1495556872679,0.001,0.002,0.001,0.002
1495556872695,0.006,-0.000,0.006,-0.000
1495556872712,0.002,0.002,0.002,0.002
1495556872729,0.004,0.000,0.004,0.000
1495556872745,-0.002,0.002,-0.002,0.002
1495556872762,0.000,0.003,0.000,0.003
1495556872779,0.001,0.001,0.001,0.001
1495556872795,0.001,0.001,0.001,0.001
1495556872812,0.001,-0.002,0.001,-0.002
1495556872829,0.004,-0.003,0.004,-0.003
1495556872845,-0.002,0.002,-0.002,0.002
1495556872862,-0.001,-0.002,-0.001,-0.002
1495556872879,0.002,-0.001,0.002,-0.001
1495556872895,0.001,0.002,0.001,0.002
1495556872912,0.000,0.001,0.000,0.001
1495556872929,0.001,0.000,0.001,0.000
1495556872945,0.003,0.003,0.003,0.003
1495556872962,0.001,-0.002,0.001,-0.002
1495556872979,-0.000,0.000,-0.000,0.000
1495556872995,0.002,-0.001,0.002,-0.001
1495556873012,0.001,0.005,0.001,0.005
1495556873029,0.001,0.001,0.001,0.001
1495556873045,0.001,0.002,0.001,0.002
1495556873062,0.003,0.002,0.003,0.002
1495556873079,0.004,0.004,0.004,0.004
1495556873095,0.004,0.002,0.004,0.002
1495556873112,0.002,0.002,0.002,0.002
1495556873129,0.000,0.001,0.000,0.001
1495556873145,0.003,0.001,0.003,0.001
1495556873162,-0.003,0.000,-0.003,0.000
1495556873179,0.001,0.002,0.001,0.002
1495556873195,0.006,-0.000,0.006,-0.000
1495556873212,0.002,-0.001,0.002,-0.001
1495556873229,-0.002,-0.000,-0.002,-0.000
1495556873245,-0.004,0.001,-0.004,0.001
1495556873262,-0.000,-0.001,-0.000,-0.001
1495556873278,0.003,0.003,0.003,0.003
1495556873295,0.002,0.000,0.002,0.000
1495556873312,0.000,0.002,0.000,0.002
1495556873329,-0.002,0.004,-0.002,0.004
1495556873345,-0.000,0.001,-0.000,0.001
1495556873362,-0.001,0.002,-0.001,0.002
1495556873379,0.000,-0.002,0.000,-0.002
1495556873395,0.000,0.000,0.000,0.000
1495556873412,0.000,0.002,0.000,0.002
1495556873429,-0.003,-0.001,-0.003,-0.001
1495556873445,-0.001,-0.005,-0.001,-0.005
1495556873462,0.003,-0.001,0.003,-0.001
1495556873479,0.001,-0.000,0.001,-0.000
1495556873495,-0.001,0.001,-0.001,0.001
1495556873512,0.001,-0.001,0.001,-0.001
1495556873529,-0.004,-0.001,-0.004,-0.001
1495556873545,0.005,-0.000,0.005,-0.000
1495556873562,0.002,0.002,0.002,0.002
1495556873579,-0.001,-0.002,-0.001,-0.002
1495556873595,-0.001,-0.002,-0.001,-0.002
1495556873612,0.002,-0.002,0.002,-0.002
1495556873629,0.001,-0.000,0.001,-0.000
1495556873645,-0.000,0.001,-0.000,0.001
1495556873662,0.004,-0.000,0.004,-0.000
1495556873679,-0.001,-0.002,-0.001,-0.002
1495556873695,0.001,0.002,0.001,0.002
1495556873712,0.003,-0.000,0.003,-0.000
1495556873729,0.000,-0.004,0.000,-0.004
1495556873745,-0.001,0.003,-0.001,0.003
1495556873762,0.006,0.004,0.006,0.004
1495556873779,0.001,-0.001,0.001,-0.001
1495556873795,0.001,0.004,0.001,0.004
1495556873812,0.001,0.003,0.001,0.003
1495556873829,0.003,0.005,0.003,0.005
1495556873845,0.000,0.003,0.000,0.003
1495556873862,-0.005,-0.000,-0.005,-0.000
1495556873879,-0.000,-0.000,-0.000,-0.000
1495556873895,0.002,0.005,0.002,0.005
1495556873912,0.002,0.001,0.002,0.001
1495556873928,0.001,0.003,0.001,0.003
1495556873945,-0.000,0.005,-0.000,0.005
1495556873962,0.002,0.002,0.002,0.002
1495556873979,0.001,0.001,0.001,0.001
1495556873995,-0.000,0.002,-0.000,0.002
1495556874012,0.000,-0.000,0.000,-0.000
1495556874029,0.000,0.002,0.000,0.002
1495556874045,-0.002,0.001,-0.002,0.001
1495556874062,-0.002,0.002,-0.002,0.002
1495556874079,0.004,0.000,0.004,0.000
1495556874095,0.001,-0.001,0.001,-0.001
1495556874112,0.000,-0.001,0.000,-0.001
1495556874129,-0.003,0.002,-0.003,0.002
1495556874145,0.000,0.001,0.000,0.001
1495556874162,-0.002,0.001,-0.002,0.001
1495556874179,0.000,-0.001,0.000,-0.001
1495556874195,0.000,0.001,0.000,0.001
1495556874212,-0.001,0.000,-0.001,0.000
1495556874229,-0.000,-0.001,-0.000,-0.001
1495556874245,0.004,-0.002,0.004,-0.002
1495556874262,0.000,-0.003,0.000,-0.003
1495556874279,0.000,-0.004,0.000,-0.004
1495556874295,-0.003,-0.003,-0.003,-0.003
1495556874312,0.000,0.002,0.000,0.002
1495556874329,0.002,0.000,0.002,0.000
1495556874345,0.002,0.001,0.002,0.001
1495556874362,0.003,0.001,0.003,0.001
1495556874379,0.001,-0.001,0.001,-0.001
1495556874395,-0.001,-0.004,-0.001,-0.004
1495556874412,-0.002,-0.001,-0.002,-0.001
1495556874429,0.004,-0.001,0.004,-0.001
1495556874445,-0.003,-0.004,-0.003,-0.004
1495556874462,-0.008,-0.000,-0.008,-0.000
1495556874479,0.000,-0.002,0.000,-0.002
1495556874495,0.000,0.004,0.000,0.004
1495556874512,0.002,-0.001,0.002,-0.001
1495556874529,0.000,-0.000,0.000,-0.000
1495556874545,0.003,0.006,0.003,0.006
1495556874562,0.002,0.003,0.002,0.003
1495556874579,0.001,0.004,0.001,0.004
1495556874595,-0.000,0.006,-0.000,0.006
1495556874612,-0.002,-0.001,-0.002,-0.001
1495556874629,0.003,0.003,0.003,0.003
1495556874645,-0.001,0.006,-0.001,0.006
1495556874662,0.003,0.003,0.003,0.003
1495556874678,0.000,0.003,0.000,0.003
1495556874695,-0.003,0.003,-0.003,0.003
1495556874712,0.002,0.003,0.002,0.003
1495556874729,-0.001,-0.007,-0.001,-0.007
1495556874745,-0.001,0.001,-0.001,0.001
1495556874762,0.002,0.000,0.002,0.000
1495556874779,0.002,0.000,0.002,0.000
1495556874795,0.000,-0.000,0.000,-0.000
1495556874812,-0.001,0.000,-0.001,0.000
1495556874829,0.000,0.001,0.000,0.001
1495556874845,-0.001,-0.004,-0.001,-0.004
1495556874862,0.002,0.003,0.002,0.003
1495556874879,0.001,0.000,0.001,0.000
1495556874895,-0.003,-0.002,-0.003,-0.002
1495556874912,-0.005,-0.001,-0.005,-0.001
1495556874929,-0.001,0.002,-0.001,0.002
1495556874945,-0.000,0.002,-0.000,0.002
1495556874962,0.005,-0.001,0.005,-0.001
1495556874979,0.003,0.000,0.003,0.000
1495556874995,0.001,0.001,0.001,0.001
1495556875012,-0.001,-0.000,-0.001,-0.000
1495556875029,0.001,0.001,0.001,0.001
1495556875045,-0.000,0.002,-0.000,0.002
1495556875062,-0.001,-0.001,-0.001,-0.001
1495556875079,0.001,0.003,0.001,0.003
1495556875095,0.002,0.000,0.002,0.000
1495556875112,0.002,0.000,0.002,0.000
1495556875129,0.004,0.000,0.004,0.000
1495556875145,0.000,-0.000,0.000,-0.000
1495556875162,-0.001,0.006,-0.001,0.006
1495556875179,0.001,-0.000,0.001,-0.000
1495556875195,0.002,0.001,0.002,0.001
1495556875212,-0.001,0.001,-0.001,0.001
1495556875229,-0.002,0.001,-0.002,0.001
1495556875245,0.002,0.000,0.002,0.000
1495556875262,-0.002,0.002,-0.002,0.002
1495556875279,-0.001,-0.000,-0.001,-0.000
1495556875295,0.001,0.004,0.001,0.004
1495556875312,0.003,0.001,0.003,0.001
1495556875329,-0.004,0.000,-0.004,0.000
1495556875345,0.000,0.003,0.000,0.003
1495556875362,-0.004,-0.001,-0.004,-0.001
1495556875379,0.001,-0.002,0.001,-0.002
1495556875395,0.001,-0.002,0.001,-0.002
1495556875412,0.002,-0.001,0.002,-0.001
1495556875429,0.001,0.001,0.001,0.001
1495556875445,0.003,0.001,0.003,0.001
1495556875462,0.002,0.000,0.002,0.000
1495556875479,-0.003,0.002,-0.003,0.002
1495556875495,-0.001,0.000,-0.001,0.000
1495556875512,-0.001,-0.001,-0.001,-0.001
1495556875529,0.000,0.001,0.000,0.001
1495556875545,-0.002,0.002,-0.002,0.002
1495556875562,0.000,-0.002,0.000,-0.002
1495556875579,0.003,-0.001,0.003,-0.001
1495556875595,-0.002,0.001,-0.002,0.001
1495556875612,0.001,0.000,0.001,0.000
1495556875629,0.005,0.002,0.005,0.002
1495556875645,0.000,0.003,0.000,0.003
1495556875662,0.001,0.003,0.001,0.003
1495556875679,0.002,0.000,0.002,0.000
1495556875695,0.000,0.002,0.000,0.002
1495556875712,0.001,-0.001,0.001,-0.001
1495556875729,-0.001,0.002,-0.001,0.002
1495556875745,0.002,0.000,0.002,0.000
1495556875762,-0.004,0.002,-0.004,0.002
1495556875779,0.003,0.001,0.003,0.001
1495556875795,-0.000,0.003,-0.000,0.003
1495556875812,0.002,0.001,0.002,0.001
1495556875829,0.000,0.000,0.000,0.000
1495556875845,-0.003,0.001,-0.003,0.001
1495556875862,-0.000,0.003,-0.000,0.003
1495556875879,0.000,0.000,0.000,0.000
1495556875895,0.003,-0.000,0.003,-0.000
1495556875912,-0.001,-0.001,-0.001,-0.001
1495556875929,0.000,0.003,0.000,0.003
1495556875945,0.002,0.002,0.002,0.002
1495556875962,-0.002,0.002,-0.002,0.002
1495556875979,-0.002,0.000,-0.002,0.000
1495556875995,0.001,0.000,0.001,0.000
1495556876012,0.003,0.002,0.003,0.002
1495556876028,0.001,-0.002,0.001,-0.002
1495556876045,0.002,0.000,0.002,0.000
1495556876062,-0.000,0.001,-0.000,0.001
1495556876079,0.003,0.003,0.003,0.003
1495556876095,0.004,-0.000,0.004,-0.000
1495556876112,0.000,-0.002,0.000,-0.002
1495556876129,0.001,0.000,0.001,0.000
1495556876145,0.003,0.002,0.003,0.002
1495556876162,-0.001,0.000,-0.001,0.000
1495556876179,-0.001,0.000,-0.001,0.000
1495556876195,-0.002,0.000,-0.002,0.000
1495556876212,-0.000,0.000,-0.000,0.000
1495556876229,-0.001,0.003,-0.001,0.003
1495556876245,0.002,0.002,0.002,0.002
1495556876262,-0.003,-0.001,-0.003,-0.001
1495556876279,0.001,0.000,0.001,0.000
1495556876295,-0.000,0.001,-0.000,0.001
1495556876312,0.003,-0.001,0.003,-0.001
1495556876329,0.001,0.001,0.001,0.001
1495556876345,-0.001,0.000,-0.001,0.000
1495556876362,0.003,-0.002,0.003,-0.002
1495556876379,-0.002,-0.002,-0.002,-0.002
1495556876395,0.000,0.003,0.000,0.003
1495556876412,-0.002,0.001,-0.002,0.001
1495556876429,0.001,-0.001,0.001,-0.001
1495556876445,0.002,0.000,0.002,0.000
1495556876462,0.000,0.001,0.000,0.001
1495556876479,0.001,-0.001,0.001,-0.001
1495556876495,0.003,-0.002,0.003,-0.002
1495556876512,0.003,0.000,0.003,0.000
1495556876529,0.001,0.003,0.001,0.003
1495556876545,-0.002,-0.002,-0.002,-0.002
1495556876562,-0.002,0.001,-0.002,0.001
1495556876579,0.002,-0.000,0.002,-0.000
1495556876595,0.003,0.002,0.003,0.002
1495556876612,-0.000,-0.000,-0.000,-0.000
1495556876629,-0.002,-0.002,-0.002,-0.002
1495556876645,-0.003,0.001,-0.003,0.001
1495556876662,0.000,-0.000,0.000,-0.000
1495556876679,0.004,0.001,0.004,0.001
1495556876695,0.003,0.006,0.003,0.006
1495556876712,0.000,0.001,0.000,0.001
1495556876729,0.003,0.001,0.003,0.001
1495556876745,0.006,0.002,0.006,0.002
1495556876762,0.004,0.000,0.004,0.000
1495556876807,-0.004,0.001,-0.004,0.001
1495556876823,0.001,0.001,0.001,0.001
1495556876840,-0.004,0.000,-0.004,0.000
1495556876857,-0.003,0.002,-0.003,0.002
1495556876874,0.002,0.002,0.002,0.002
1495556876890,0.000,-0.005,0.000,-0.005
1495556876907,-0.002,0.001,-0.002,0.001
1495556876923,0.000,0.002,0.000,0.002
1495556876940,-0.001,0.003,-0.001,0.003
1495556876957,0.003,0.002,0.003,0.002
1495556876974,0.002,-0.003,0.002,-0.003
1495556876990,-0.001,0.001,-0.001,0.001
1495556877007,0.001,0.002,0.001,0.002
1495556877023,-0.001,0.004,-0.001,0.004
1495556877040,-0.001,-0.001,-0.001,-0.001
1495556877057,-0.000,0.001,-0.000,0.001
1495556877074,0.003,-0.000,0.003,-0.000
1495556877090,0.003,0.001,0.003,0.001
1495556877107,-0.002,0.002,-0.002,0.002
1495556877124,-0.001,0.002,-0.001,0.002
1495556877140,0.000,0.003,0.000,0.003
1495556877157,-0.002,0.000,-0.002,0.000
1495556877173,-0.002,0.002,-0.002,0.002
1495556877190,0.004,0.004,0.004,0.004
1495556877207,0.004,0.001,0.004,0.001
1495556877224,0.000,0.001,0.000,0.001
1495556877240,0.001,0.000,0.001,0.000
1495556877257,0.004,0.000,0.004,0.000
1495556877274,-0.004,0.001,-0.004,0.001
1495556877290,-0.001,0.004,-0.001,0.004
1495556877307,0.002,0.002,0.002,0.002
1495556877324,-0.003,0.002,-0.003,0.002
1495556877340,0.004,-0.002,0.004,-0.002
1495556877357,-0.003,-0.002,-0.003,-0.002
1495556877374,0.002,0.001,0.002,0.001
1495556877390,0.005,-0.000,0.005,-0.000
1495556877407,-0.003,0.000,-0.003,0.000
1495556877424,-0.002,0.002,-0.002,0.002
1495556877440,0.004,0.004,0.004,0.004
1495556877457,-0.000,0.002,-0.000,0.002
1495556877474,0.002,0.001,0.002,0.001
1495556877490,-0.002,0.002,-0.002,0.002
1495556877507,0.001,0.001,0.001,0.001
1495556877524,-0.002,0.001,-0.002,0.001
1495556877540,0.004,-0.001,0.004,-0.001
1495556877557,-0.001,-0.000,-0.001,-0.000
1495556877574,0.001,-0.002,0.001,-0.002
1495556877590,0.005,-0.000,0.005,-0.000
1495556877607,-0.005,-0.002,-0.005,-0.002
1495556877624,0.003,-0.003,0.003,-0.003
1495556877640,0.004,-0.002,0.004,-0.002
1495556877657,-0.003,0.002,-0.003,0.002
1495556877674,-0.001,0.002,-0.001,0.002
1495556877690,-0.002,0.001,-0.002,0.001
1495556877707,0.000,0.000,0.000,0.000
1495556877724,-0.001,-0.003,-0.001,-0.003
1495556877740,0.003,0.001,0.003,0.001
1495556877757,0.001,-0.002,0.001,-0.002
1495556877774,0.004,0.001,0.004,0.001
1495556877790,0.000,-0.001,0.000,-0.001
1495556877807,0.000,-0.002,0.000,-0.002
1495556877824,0.002,-0.004,0.002,-0.004
1495556877840,-0.000,0.003,-0.000,0.003
1495556877857,0.002,0.003,0.002,0.003
1495556877874,-0.000,0.006,-0.000,0.006
1495556877890,-0.000,0.001,-0.000,0.001
1495556877907,-0.000,-0.000,-0.000,-0.000
1495556877924,-0.003,-0.001,-0.003,-0.001
1495556877940,-0.000,0.001,-0.000,0.001
1495556877957,0.003,0.002,0.003,0.002
1495556877974,-0.000,0.003,-0.000,0.003
1495556877990,0.003,0.002,0.003,0.002
1495556878007,-0.002,0.002,-0.002,0.002
1495556878023,0.003,0.001,0.003,0.001
1495556878040,-0.002,0.003,-0.002,0.003
1495556878057,0.002,0.003,0.002,0.003
1495556878074,-0.001,0.002,-0.001,0.002
1495556878090,0.000,-0.000,0.000,-0.000
1495556878107,-0.004,-0.001,-0.004,-0.001
1495556878124,0.002,0.001,0.002,0.001
1495556878140,0.000,0.004,0.000,0.004
1495556878157,0.002,-0.001,0.002,-0.001
1495556878173,0.005,-0.000,0.005,-0.000
1495556878190,0.001,0.002,0.001,0.002
1495556878207,-0.000,0.003,-0.000,0.003
1495556878224,-0.003,-0.001,-0.003,-0.001
1495556878240,0.000,0.006,0.000,0.006
1495556878257,0.004,0.002,0.004,0.002
1495556878274,0.003,0.001,0.003,0.001
1495556878290,-0.001,-0.001,-0.001,-0.001
1495556878307,0.001,0.001,0.001,0.001
1495556878324,0.000,0.004,0.000,0.004
1495556878340,0.001,0.000,0.001,0.000
1495556878357,0.002,0.003,0.002,0.003
1495556878374,-0.000,-0.001,-0.000,-0.001
1495556878390,0.000,0.004,0.000,0.004
1495556878407,0.001,0.003,0.001,0.003
1495556878423,0.002,0.003,0.002,0.003
1495556878440,0.004,-0.002,0.004,-0.002
1495556878457,0.000,-0.000,0.000,-0.000
1495556878474,0.004,0.003,0.004,0.003
1495556878490,-0.003,0.002,-0.003,0.002
1495556878507,0.002,-0.000,0.002,-0.000
1495556878524,-0.001,0.001,-0.001,0.001
1495556878540,0.004,0.001,0.004,0.001
1495556878557,0.001,-0.001,0.001,-0.001
1495556878574,0.001,-0.000,0.001,-0.000
1495556878590,0.001,0.002,0.001,0.002
1495556878607,-0.000,0.001,-0.000,0.001
1495556878624,0.002,-0.001,0.002,-0.001
1495556878640,0.001,0.001,0.001,0.001
1495556878657,0.003,0.004,0.003,0.004
1495556878674,0.001,-0.003,0.001,-0.003
1495556878690,0.002,0.001,0.002,0.001
1495556878707,-0.000,0.001,-0.000,0.001
1495556878724,0.002,0.003,0.002,0.003
1495556878740,-0.000,0.005,-0.000,0.005
1495556878757,0.003,-0.001,0.003,-0.001
1495556878774,-0.000,-0.002,-0.000,-0.002
1495556878790,0.003,0.001,0.003,0.001
1495556878807,0.000,0.004,0.000,0.004
1495556878824,0.002,0.001,0.002,0.001
1495556878840,0.002,0.002,0.002,0.002
1495556878857,0.004,0.003,0.004,0.003
1495556878874,0.004,-0.003,0.004,-0.003
1495556878890,0.003,0.003,0.003,0.003
1495556878907,-0.002,-0.002,-0.002,-0.002
1495556878924,0.002,0.000,0.002,0.000
1495556878940,-0.004,-0.004,-0.004,-0.004
1495556878957,0.000,0.004,0.000,0.004
1495556878974,-0.001,0.000,-0.001,0.000
1495556878990,-0.001,0.000,-0.001,0.000
1495556879007,-0.000,-0.001,-0.000,-0.001
1495556879024,-0.003,-0.004,-0.003,-0.004
1495556879040,0.001,0.003,0.001,0.003
1495556879057,0.002,0.000,0.002,0.000
1495556879074,0.004,0.004,0.004,0.004
1495556879090,0.005,-0.004,0.005,-0.004
1495556879107,0.000,-0.000,0.000,-0.000
1495556879124,-0.001,0.000,-0.001,0.000
1495556879140,-0.000,-0.001,-0.000,-0.001
1495556879157,0.001,0.000,0.001,0.000
1495556879174,0.003,0.001,0.003,0.001
1495556879190,-0.002,0.004,-0.002,0.004
1495556879207,-0.003,0.004,-0.003,0.004
1495556879224,-0.007,0.005,-0.007,0.005
1495556879240,-0.000,0.004,-0.000,0.004
1495556879257,-0.000,-0.003,-0.000,-0.003
1495556879274,0.004,0.002,0.004,0.002
1495556879290,0.001,0.000,0.001,0.000
1495556879307,0.002,0.003,0.002,0.003
1495556879324,0.003,-0.004,0.003,-0.004
1495556879340,0.003,0.002,0.003,0.002
1495556879357,0.005,-0.002,0.005,-0.002
1495556879374,-0.001,0.000,-0.001,0.000
1495556879390,-0.000,-0.000,-0.000,-0.000
1495556879407,0.002,0.004,0.002,0.004
1495556879424,0.000,0.002,0.000,0.002
1495556879440,0.001,0.003,0.001,0.003
1495556879457,0.003,0.004,0.003,0.004
1495556879474,0.003,0.001,0.003,0.001
1495556879490,-0.000,-0.002,-0.000,-0.002
1495556879507,-0.003,0.000,-0.003,0.000
1495556879524,-0.002,0.001,-0.002,0.001
1495556879540,0.003,-0.000,0.003,-0.000
1495556879557,0.001,-0.001,0.001,-0.001
1495556879574,0.001,0.002,0.001,0.002
1495556879590,0.003,0.000,0.003,0.000
1495556879607,0.003,-0.003,0.003,-0.003
1495556879624,0.004,0.002,0.004,0.002
1495556879640,-0.000,-0.001,-0.000,-0.001
1495556879657,-0.000,0.001,-0.000,0.001
1495556879674,0.002,0.004,0.002,0.004
1495556879690,-0.004,0.000,-0.004,0.000
1495556879707,0.004,0.000,0.004,0.000
1495556879724,0.001,0.002,0.001,0.002
1495556879740,-0.002,0.002,-0.002,0.002
1495556879757,0.002,0.001,0.002,0.001
1495556879774,0.000,0.006,0.000,0.006
1495556879790,-0.000,-0.001,-0.000,-0.001
1495556879807,0.003,0.001,0.003,0.001
1495556879824,0.001,0.001,0.001,0.001
1495556879840,-0.002,0.004,-0.002,0.004
1495556879857,0.001,-0.002,0.001,-0.002
1495556879874,-0.002,-0.001,-0.002,-0.001
1495556879890,0.000,0.001,0.000,0.001
1495556879907,0.004,0.001,0.004,0.001
1495556879924,0.001,0.000,0.001,0.000
1495556879940,0.003,0.001,0.003,0.001
1495556879957,-0.001,0.002,-0.001,0.002
1495556879974,-0.003,-0.000,-0.003,-0.000
1495556879990,0.001,0.002,0.001,0.002
1495556880007,0.003,0.002,0.003,0.002
1495556880024,-0.003,-0.005,-0.003,-0.005
1495556880040,-0.002,0.001,-0.002,0.001
1495556880057,-0.002,-0.001,-0.002,-0.001
1495556880074,0.003,0.000,0.003,0.000
1495556880090,0.005,0.001,0.005,0.001
1495556880107,-0.000,0.000,-0.000,0.000
1495556880124,0.001,0.000,0.001,0.000
1495556880140,0.002,0.006,0.002,0.006
1495556880157,0.003,-0.003,0.003,-0.003
1495556880174,0.002,0.002,0.002,0.002
1495556880190,0.000,0.004,0.000,0.004
1495556880207,-0.001,0.002,-0.001,0.002
1495556880224,-0.001,0.001,-0.001,0.001
1495556880240,-0.002,-0.003,-0.002,-0.003
1495556880257,-0.001,-0.000,-0.001,-0.000
1495556880274,0.000,0.002,0.000,0.002
1495556880290,-0.002,-0.002,-0.002,-0.002
1495556880307,0.003,0.002,0.003,0.002
1495556880324,0.001,0.000,0.001,0.000
1495556880340,0.002,0.006,0.002,0.006
1495556880357,0.002,0.000,0.002,0.000
1495556880374,-0.002,0.000,-0.002,0.000
1495556880390,0.004,0.001,0.004,0.001
1495556880407,0.000,0.002,0.000,0.002
1495556880424,-0.001,-0.002,-0.001,-0.002
1495556880440,0.005,0.003,0.005,0.003
1495556880457,0.001,0.002,0.001,0.002
1495556880474,0.001,-0.003,0.001,-0.003
1495556880490,0.000,-0.001,0.000,-0.001
1495556880507,0.000,0.002,0.000,0.002
1495556880524,0.001,0.000,0.001,0.000
1495556880540,0.003,0.000,0.003,0.000
1495556880557,0.001,-0.002,0.001,-0.002
1495556880574,-0.001,-0.001,-0.001,-0.001
1495556880590,-0.002,0.002,-0.002,0.002
1495556880607,0.002,0.003,0.002,0.003
1495556880624,0.000,-0.000,0.000,-0.000
1495556880640,0.002,-0.002,0.002,-0.002
1495556880657,0.003,0.000,0.003,0.000
1495556880674,0.003,0.000,0.003,0.000
1495556880691,0.001,0.000,0.001,0.000
1495556880708,-0.001,0.004,-0.001,0.004
1495556880725,-0.003,-0.001,-0.003,-0.001
1495556880741,0.002,0.004,0.002,0.004
1495556880758,0.002,0.002,0.002,0.002
1495556880775,0.002,0.002,0.002,0.002
1495556880791,-0.001,0.001,-0.001,0.001
1495556880808,-0.000,-0.003,-0.000,-0.003
1495556880825,0.000,0.000,0.000,0.000
1495556880841,-0.002,0.005,-0.002,0.005
1495556880858,0.004,0.001,0.004,0.001
1495556880875,0.000,0.000,0.000,0.000
1495556880891,0.003,0.001,0.003,0.001
1495556880908,-0.000,0.000,-0.000,0.000
1495556880925,0.003,0.005,0.003,0.005
1495556880941,0.000,0.001,0.000,0.001
1495556880958,0.003,-0.001,0.003,-0.001
1495556880975,0.001,0.001,0.001,0.001
1495556880991,0.002,0.002,0.002,0.002
1495556881008,0.001,0.003,0.001,0.003
1495556881025,0.003,0.002,0.003,0.002
1495556881041,-0.004,0.003,-0.004,0.003
1495556881058,0.002,-0.002,0.002,-0.002
1495556881075,-0.004,0.004,-0.004,0.004
1495556881091,0.000,0.004,0.000,0.004
1495556881108,0.002,-0.001,0.002,-0.001
1495556881125,0.002,0.000,0.002,0.000
1495556881141,0.004,0.001,0.004,0.001
1495556881158,0.002,-0.002,0.002,-0.002
1495556881175,0.001,0.003,0.001,0.003
1495556881192,0.001,0.000,0.001,0.000
1495556881208,0.002,0.002,0.002,0.002
1495556881225,-0.001,0.001,-0.001,0.001
1495556881242,0.003,-0.001,0.003,-0.001
1495556881258,-0.001,0.002,-0.001,0.002
1495556881275,0.001,-0.001,0.001,-0.001
1495556881291,-0.002,0.000,-0.002,0.000
1495556881308,0.000,-0.002,0.000,-0.002
1495556881325,0.001,0.003,0.001,0.003
1495556881342,-0.002,0.002,-0.002,0.002
1495556881358,0.003,-0.002,0.003,-0.002
1495556881375,0.002,0.000,0.002,0.000
1495556881391,0.000,-0.001,0.000,-0.001
1495556881408,-0.001,0.000,-0.001,0.000
1495556881425,-0.001,-0.002,-0.001,-0.002
1495556881441,-0.002,0.002,-0.002,0.002
1495556881458,0.001,-0.000,0.001,-0.000
1495556881475,-0.001,-0.002,-0.001,-0.002
1495556881491,0.001,0.001,0.001,0.001
1495556881508,-0.002,0.001,-0.002,0.001
1495556881525,0.004,0.001,0.004,0.001
1495556881541,-0.000,-0.000,-0.000,-0.000
1495556881558,0.001,0.004,0.001,0.004
1495556881575,-0.001,-0.000,-0.001,-0.000
1495556881591,0.000,0.004,0.000,0.004
1495556881608,0.000,-0.000,0.000,-0.000
1495556881625,0.000,0.000,0.000,0.000
1495556881641,0.002,-0.002,0.002,-0.002
1495556881658,0.001,-0.003,0.001,-0.003
1495556881675,0.002,0.003,0.002,0.003
1495556881691,0.001,0.003,0.001,0.003
1495556881708,0.000,-0.003,0.000,-0.003
1495556881725,0.001,0.001,0.001,0.001
1495556881741,0.002,0.001,0.002,0.001
1495556881758,0.001,0.002,0.001,0.002
1495556881775,0.002,-0.002,0.002,-0.002
1495556881791,0.001,0.000,0.001,0.000
1495556881808,0.002,0.003,0.002,0.003
1495556881825,0.003,0.002,0.003,0.002
1495556881842,-0.001,-0.003,-0.001,-0.003
1495556881858,-0.002,-0.002,-0.002,-0.002
1495556881875,-0.002,0.002,-0.002,0.002
1495556881891,0.002,-0.003,0.002,-0.003
1495556881908,-0.001,-0.001,-0.001,-0.001
1495556881925,0.001,0.004,0.001,0.004
1495556881941,0.001,0.001,0.001,0.001
1495556881958,0.001,0.000,0.001,0.000
1495556881975,0.002,0.000,0.002,0.000
1495556881991,0.001,-0.000,0.001,-0.000
1495556882008,0.004,0.003,0.004,0.003
1495556882025,-0.001,-0.002,-0.001,-0.002
1495556882041,0.000,-0.002,0.000,-0.002
1495556882058,-0.001,0.002,-0.001,0.002
1495556882075,0.004,0.002,0.004,0.002
1495556882092,0.002,-0.000,0.002,-0.000
1495556882108,-0.002,0.005,-0.002,0.005
1495556882125,0.002,0.000,0.002,0.000
1495556882141,0.001,0.001,0.001,0.001
1495556882158,0.005,-0.000,0.005,-0.000
1495556882175,-0.004,0.003,-0.004,0.003
1495556882191,0.003,0.000,0.003,0.000
1495556882208,0.002,0.000,0.002,0.000
1495556882225,-0.001,0.002,-0.001,0.002
1495556882241,-0.001,0.002,-0.001,0.002
1495556882258,-0.002,0.004,-0.002,0.004
1495556882275,0.000,0.001,0.000,0.001
1495556882291,0.002,-0.001,0.002,-0.001
1495556882308,0.000,0.000,0.000,0.000
1495556882325,0.002,-0.004,0.002,-0.004
1495556882342,0.002,-0.000,0.002,-0.000
1495556882358,-0.000,0.000,-0.000,0.000
1495556882375,0.002,-0.000,0.002,-0.000
1495556882392,0.005,0.001,0.005,0.001
1495556882408,0.000,0.001,0.000,0.001
1495556882425,-0.002,0.000,-0.002,0.000
1495556882442,-0.002,-0.001,-0.002,-0.001
1495556882458,0.000,0.000,0.000,0.000
1495556882475,0.001,0.000,0.001,0.000
1495556882492,-0.001,0.001,-0.001,0.001
1495556882508,0.002,0.003,0.002,0.003
1495556882525,0.002,0.003,0.002,0.003
1495556882542,0.000,0.004,0.000,0.004
1495556882558,-0.001,-0.003,-0.001,-0.003
1495556882575,-0.000,-0.000,-0.000,-0.000
1495556882592,0.000,-0.005,0.000,-0.005
1495556882608,-0.004,-0.000,-0.004,-0.000
1495556882625,-0.002,0.006,-0.002,0.006
1495556882642,0.001,-0.000,0.001,-0.000
1495556882658,0.003,0.000,0.003,0.000
1495556882675,-0.002,0.003,-0.002,0.003
1495556882692,0.000,0.004,0.000,0.004
1495556882708,0.001,-0.000,0.001,-0.000
1495556882725,0.000,0.002,0.000,0.002
1495556882742,0.002,0.000,0.002,0.000
1495556882758,-0.002,0.001,-0.002,0.001
1495556882775,-0.003,0.000,-0.003,0.000
1495556882791,0.001,-0.001,0.001,-0.001
1495556882808,0.001,0.001,0.001,0.001
1495556882825,-0.001,0.005,-0.001,0.005
1495556882842,-0.004,0.003,-0.004,0.003
1495556882858,-0.003,0.005,-0.003,0.005
1495556882875,0.000,-0.001,0.000,-0.001
1495556882891,0.000,-0.000,0.000,-0.000
1495556882908,-0.002,-0.001,-0.002,-0.001
1495556882925,0.005,-0.002,0.005,-0.002
1495556882942,0.002,-0.001,0.002,-0.001
1495556882958,0.002,-0.001,0.002,-0.001
1495556882975,-0.003,-0.003,-0.003,-0.003
1495556882992,0.000,0.001,0.000,0.001
1495556883008,-0.005,-0.003,-0.005,-0.003
1495556883025,-0.002,-0.002,-0.002,-0.002
1495556883041,-0.006,0.001,-0.006,0.001
1495556883058,-0.001,0.002,-0.001,0.002
1495556883075,0.000,-0.000,0.000,-0.000
1495556883092,0.003,0.001,0.003,0.001
1495556883108,-0.000,0.004,-0.000,0.004
1495556883125,0.001,0.003,0.001,0.003
1495556883142,-0.000,0.002,-0.000,0.002
1495556883158,-0.003,0.001,-0.003,0.001
1495556883175,0.002,0.003,0.002,0.003
1495556883191,-0.006,0.001,-0.006,0.001
1495556883208,-0.003,-0.000,-0.003,-0.000
1495556883225,0.001,-0.002,0.001,-0.002
1495556883242,0.005,0.001,0.005,0.001
1495556883258,-0.001,-0.001,-0.001,-0.001
1495556883275,0.003,0.002,0.003,0.002
1495556883292,0.003,-0.002,0.003,-0.002
1495556883308,0.001,0.003,0.001,0.003
1495556883325,-0.001,0.001,-0.001,0.001
1495556883342,-0.002,0.004,-0.002,0.004
1495556883358,0.000,-0.001,0.000,-0.001
1495556883375,0.002,-0.000,0.002,-0.000
1495556883392,-0.003,0.003,-0.003,0.003
1495556883408,0.003,0.003,0.003,0.003
1495556883425,0.001,0.002,0.001,0.002
1495556883441,-0.003,0.002,-0.003,0.002
1495556883458,-0.000,0.000,-0.000,0.000
1495556883475,-0.000,0.002,-0.000,0.002
1495556883492,0.000,0.002,0.000,0.002
1495556883508,0.001,0.001,0.001,0.001
1495556883525,0.002,0.001,0.002,0.001
1495556883542,-0.003,-0.000,-0.003,-0.000
1495556883558,0.003,0.000,0.003,0.000
1495556883575,0.000,0.001,0.000,0.001
1495556883591,-0.001,0.001,-0.001,0.001
1495556883608,-0.002,0.003,-0.002,0.003
1495556883625,0.000,0.000,0.000,0.000
1495556883642,0.005,0.003,0.005,0.003
1495556883658,-0.002,-0.002,-0.002,-0.002
1495556883675,0.003,0.004,0.003,0.004
1495556883692,-0.002,-0.002,-0.002,-0.002
1495556883708,0.001,0.004,0.001,0.004
1495556883725,0.000,0.000,0.000,0.000
1495556883742,0.001,0.001,0.001,0.001
1495556883758,0.003,-0.000,0.003,-0.000
1495556883775,-0.001,0.002,-0.001,0.002
1495556883792,-0.001,0.000,-0.001,0.000
1495556883808,0.002,0.001,0.002,0.001
1495556883825,-0.000,-0.001,-0.000,-0.001
1495556883842,0.001,-0.001,0.001,-0.001
1495556883858,-0.001,0.000,-0.001,0.000
1495556883875,0.002,0.001,0.002,0.001
1495556883892,0.002,-0.001,0.002,-0.001
1495556883908,-0.001,0.003,-0.001,0.003
1495556883925,-0.000,0.002,-0.000,0.002
1495556883942,-0.003,0.002,-0.003,0.002
1495556883958,-0.001,-0.002,-0.001,-0.002
1495556883975,-0.000,0.004,-0.000,0.004
1495556883992,0.005,0.001,0.005,0.001
1495556884008,0.000,0.001,0.000,0.001
1495556884025,-0.000,-0.000,-0.000,-0.000
1495556884042,0.001,0.001,0.001,0.001
1495556884058,-0.001,0.003,-0.001,0.003
1495556884075,-0.001,-0.003,-0.001,-0.003
1495556884092,0.001,0.001,0.001,0.001
1495556884108,0.001,0.002,0.001,0.002
1495556884125,0.000,0.007,0.000,0.007
1495556884141,-0.002,0.003,-0.002,0.003
1495556884158,-0.000,-0.002,-0.000,-0.002
1495556884175,-0.001,-0.003,-0.001,-0.003
1495556884191,-0.003,0.002,-0.003,0.002
1495556884208,0.006,-0.001,0.006,-0.001
1495556884225,-0.001,-0.001,-0.001,-0.001
1495556884241,-0.001,0.003,-0.001,0.003
1495556884258,0.000,-0.003,0.000,-0.003
1495556884275,0.000,0.001,0.000,0.001
1495556884291,0.001,0.002,0.001,0.002
1495556884308,-0.001,0.003,-0.001,0.003
1495556884325,0.002,-0.000,0.002,-0.000
1495556884342,-0.002,0.000,-0.002,0.000
1495556884358,0.001,-0.001,0.001,-0.001
1495556884375,-0.001,0.002,-0.001,0.002
1495556884392,-0.001,0.002,-0.001,0.002
1495556884408,0.001,-0.000,0.001,-0.000
1495556884425,-0.003,0.002,-0.003,0.002
1495556884442,-0.000,0.003,-0.000,0.003
1495556884458,0.003,0.003,0.003,0.003
1495556884475,0.000,0.004,0.000,0.004
1495556884492,-0.003,0.001,-0.003,0.001
1495556884508,0.000,-0.003,0.000,-0.003
1495556884525,0.000,0.001,0.000,0.001
1495556884542,-0.000,0.002,-0.000,0.002
1495556884558,0.003,0.001,0.003,0.001
1495556884575,0.002,-0.002,0.002,-0.002
1495556884592,-0.002,-0.001,-0.002,-0.001
1495556884608,0.001,0.000,0.001,0.000
1495556884625,-0.002,-0.000,-0.002,-0.000
1495556884642,-0.003,0.002,-0.003,0.002
1495556884658,0.002,0.002,0.002,0.002
1495556884675,-0.002,0.000,-0.002,0.000
1495556884692,0.001,0.002,0.001,0.002
1495556884708,0.002,0.003,0.002,0.003
1495556884725,0.003,-0.002,0.003,-0.002
1495556884742,-0.001,0.002,-0.001,0.002
1495556884758,0.004,0.000,0.004,0.000
1495556884776,-0.001,0.001,-0.001,0.001
1495556884792,-0.000,0.003,-0.000,0.003
1495556884808,-0.003,-0.002,-0.003,-0.002
1495556884825,0.004,-0.001,0.004,-0.001
1495556884842,-0.005,0.001,-0.005,0.001
1495556884858,0.003,-0.002,0.003,-0.002
1495556884875,0.001,0.002,0.001,0.002
1495556884892,-0.002,0.000,-0.002,0.000
1495556884908,0.001,0.001,0.001,0.001
1495556884925,0.003,0.005,0.003,0.005
1495556884942,0.003,0.001,0.003,0.001
1495556884958,-0.003,-0.000,-0.003,-0.000
1495556884975,0.005,0.000,0.005,0.000
1495556884992,0.003,0.001,0.003,0.001
1495556885008,0.001,0.000,0.001,0.000
1495556885025,0.002,0.000,0.002,0.000
1495556885042,0.003,0.001,0.003,0.001
1495556885058,0.001,0.000,0.001,0.000
1495556885075,0.002,-0.001,0.002,-0.001
1495556885092,-0.001,0.001,-0.001,0.001
1495556885108,0.000,0.002,0.000,0.002
1495556885125,-0.001,-0.002,-0.001,-0.002
1495556885142,0.003,0.003,0.003,0.003
1495556885158,-0.000,-0.000,-0.000,-0.000
1495556885175,-0.002,0.000,-0.002,0.000
1495556885192,-0.000,0.003,-0.000,0.003
1495556885208,0.003,0.000,0.003,0.000
1495556885225,0.000,0.000,0.000,0.000
1495556885242,-0.001,0.000,-0.001,0.000
1495556885258,0.003,-0.000,0.003,-0.000
1495556885275,-0.001,0.002,-0.001,0.002
1495556885292,0.001,0.002,0.001,0.002
1495556885308,0.000,0.001,0.000,0.001
1495556885325,0.002,0.001,0.002,0.001
1495556885342,0.004,0.001,0.004,0.001
1495556885358,0.002,-0.003,0.002,-0.003
1495556885375,0.003,0.001,0.003,0.001
1495556885392,-0.003,-0.001,-0.003,-0.001
1495556885408,-0.000,-0.002,-0.000,-0.002
1495556885425,-0.004,0.001,-0.004,0.001
1495556885442,0.003,0.003,0.003,0.003
1495556885458,0.001,0.002,0.001,0.002
1495556885475,-0.003,0.002,-0.003,0.002
1495556885492,0.003,0.004,0.003,0.004
1495556885508,-0.000,0.001,-0.000,0.001
1495556885525,-0.002,0.003,-0.002,0.003
1495556885542,0.004,0.003,0.004,0.003
1495556885558,0.005,0.000,0.005,0.000
1495556885575,0.000,0.002,0.000,0.002
1495556885592,-0.000,-0.002,-0.000,-0.002
1495556885608,0.001,0.000,0.001,0.000
1495556885625,0.001,-0.000,0.001,-0.000
1495556885642,-0.001,0.003,-0.001,0.003
1495556885658,0.002,0.000,0.002,0.000
1495556885675,-0.004,-0.000,-0.004,-0.000
1495556885692,-0.001,-0.002,-0.001,-0.002
1495556885708,0.000,0.004,0.000,0.004
1495556885725,0.003,-0.003,0.003,-0.003
1495556885742,0.002,0.003,0.002,0.003
1495556885758,0.000,-0.000,0.000,-0.000
1495556885775,0.000,-0.000,0.000,-0.000
1495556885792,0.001,0.003,0.001,0.003
1495556885808,0.000,0.000,0.000,0.000
1495556885825,0.001,0.007,0.001,0.007
1495556885842,0.000,0.001,0.000,0.001
1495556885858,-0.004,0.000,-0.004,0.000
1495556885875,0.001,-0.000,0.001,-0.000
1495556885892,-0.002,0.000,-0.002,0.000
1495556885908,-0.002,-0.002,-0.002,-0.002
1495556885925,0.002,0.001,0.002,0.001
1495556885942,-0.002,0.001,-0.002,0.001
1495556885958,0.000,-0.000,0.000,-0.000
1495556885975,-0.000,-0.001,-0.000,-0.001
1495556885992,-0.001,-0.001,-0.001,-0.001
1495556886008,0.000,0.000,0.000,0.000
1495556886025,-0.001,0.003,-0.001,0.003
1495556886042,-0.003,0.002,-0.003,0.002
1495556886058,0.001,0.000,0.001,0.000
1495556886075,-0.002,0.001,-0.002,0.001
1495556886092,-0.001,-0.003,-0.001,-0.003
1495556886108,0.000,0.004,0.000,0.004
1495556886125,0.001,-0.003,0.001,-0.003
1495556886142,0.002,0.002,0.002,0.002
1495556886158,0.001,0.001,0.001,0.001
1495556886175,0.001,0.000,0.001,0.000
1495556886192,0.002,0.000,0.002,0.000
1495556886208,0.002,-0.001,0.002,-0.001
1495556886225,0.001,-0.000,0.001,-0.000
1495556886242,0.001,-0.002,0.001,-0.002
1495556886258,-0.000,0.001,-0.000,0.001
1495556886275,-0.000,0.002,-0.000,0.002
1495556886292,0.001,0.004,0.001,0.004
1495556886308,0.005,0.004,0.005,0.004
1495556886325,-0.003,-0.001,-0.003,-0.001
1495556886342,-0.001,0.001,-0.001,0.001
1495556886358,0.002,0.001,0.002,0.001
1495556886375,0.002,0.001,0.002,0.001
1495556886392,0.002,0.003,0.002,0.003
1495556886408,0.003,0.000,0.003,0.000
1495556886425,0.005,0.006,0.005,0.006
1495556886442,0.000,-0.000,0.000,-0.000
1495556886458,0.001,-0.000,0.001,-0.000
1495556886475,-0.003,-0.000,-0.003,-0.000
1495556886492,0.001,0.003,0.001,0.003
1495556886508,-0.002,-0.002,-0.002,-0.002
1495556886525,0.000,0.005,0.000,0.005
1495556886542,-0.001,-0.000,-0.001,-0.000
1495556886558,0.002,0.002,0.002,0.002
1495556886575,0.001,0.005,0.001,0.005
1495556886592,0.001,0.002,0.001,0.002
1495556886608,0.001,0.003,0.001,0.003
1495556886625,-0.000,0.001,-0.000,0.001
1495556886642,0.005,0.002,0.005,0.002
1495556886658,0.001,0.002,0.001,0.002
1495556886675,0.003,-0.000,0.003,-0.000
1495556886692,-0.000,0.005,-0.000,0.005
1495556886708,0.003,-0.003,0.003,-0.003
1495556886725,0.004,0.002,0.004,0.002
1495556886742,0.004,0.003,0.004,0.003
1495556886758,-0.005,0.004,-0.005,0.004
1495556886775,0.000,0.002,0.000,0.002
1495556886792,0.001,-0.005,0.001,-0.005
1495556886808,0.001,0.001,0.001,0.001
1495556886825,-0.001,0.001,-0.001,0.001
1495556886842,0.004,0.005,0.004,0.005
1495556886858,0.005,-0.002,0.005,-0.002
1495556886875,-0.001,0.003,-0.001,0.003
1495556886892,-0.000,0.002,-0.000,0.002
1495556886908,0.000,-0.000,0.000,-0.000
1495556886925,0.000,-0.000,0.000,-0.000
1495556886942,0.000,0.000,0.000,0.000
1495556886958,0.005,-0.002,0.005,-0.002
1495556886975,0.002,0.003,0.002,0.003
1495556886991,0.000,-0.003,0.000,-0.003
1495556887008,-0.001,0.002,-0.001,0.002
1495556887025,-0.000,-0.000,-0.000,-0.000
1495556887042,0.004,0.001,0.004,0.001
1495556887058,0.000,0.003,0.000,0.003
1495556887075,0.002,0.001,0.002,0.001
1495556887092,0.001,0.003,0.001,0.003
1495556887108,0.003,0.001,0.003,0.001
1495556887125,0.003,-0.002,0.003,-0.002
1495556887142,-0.003,-0.001,-0.003,-0.001
1495556887158,0.001,-0.002,0.001,-0.002
1495556887175,0.002,0.001,0.002,0.001
1495556887192,0.003,0.001,0.003,0.001
1495556887208,-0.001,0.002,-0.001,0.002
1495556887225,-0.001,0.004,-0.001,0.004
1495556887242,0.001,0.000,0.001,0.000
1495556887258,-0.000,0.005,-0.000,0.005
1495556887275,0.000,0.002,0.000,0.002
1495556887292,-0.002,0.001,-0.002,0.001
1495556887308,0.001,0.001,0.001,0.001
1495556887325,0.003,0.002,0.003,0.002
1495556887342,0.001,0.005,0.001,0.005
1495556887358,0.001,0.002,0.001,0.002
1495556887375,0.001,0.001,0.001,0.001
1495556887392,-0.002,-0.005,-0.002,-0.005
1495556887408,0.001,-0.002,0.001,-0.002
1495556887425,-0.003,0.005,-0.003,0.005
1495556887442,0.003,0.005,0.003,0.005
1495556887458,0.000,0.005,0.000,0.005
1495556887475,-0.001,0.004,-0.001,0.004
1495556887492,0.002,0.002,0.002,0.002
1495556887508,0.002,0.001,0.002,0.001
1495556887525,0.003,0.004,0.003,0.004
1495556887542,0.004,0.001,0.004,0.001
1495556887558,0.000,0.000,0.000,0.000
1495556887575,-0.002,-0.000,-0.002,-0.000
1495556887592,0.005,0.001,0.005,0.001
1495556887608,0.002,0.003,0.002,0.003
1495556887625,-0.003,0.001,-0.003,0.001
1495556887642,-0.001,0.004,-0.001,0.004
1495556887658,-0.001,0.002,-0.001,0.002
1495556887675,0.000,0.002,0.000,0.002
1495556887692,-0.000,0.000,-0.000,0.000
1495556887708,0.001,0.003,0.001,0.003
1495556887725,0.001,-0.001,0.001,-0.001
1495556887742,0.002,-0.000,0.002,-0.000
1495556887758,0.008,-0.002,0.008,-0.002
1495556887775,-0.001,-0.002,-0.001,-0.002
1495556887792,-0.000,0.002,-0.000,0.002
1495556887808,0.000,0.006,0.000,0.006
1495556887825,-0.004,0.002,-0.004,0.002
1495556887842,0.000,0.002,0.000,0.002
1495556887858,0.000,0.001,0.000,0.001
1495556887875,0.000,0.002,0.000,0.002
1495556887892,0.005,0.000,0.005,0.000
1495556887908,-0.000,0.002,-0.000,0.002
1495556887925,0.001,-0.003,0.001,-0.003
1495556887942,-0.004,-0.000,-0.004,-0.000
1495556887958,-0.000,0.000,-0.000,0.000
1495556887975,0.003,0.005,0.003,0.005
1495556887992,-0.001,0.003,-0.001,0.003
1495556888008,-0.003,-0.001,-0.003,-0.001
1495556888025,-0.003,0.003,-0.003,0.003
1495556888042,-0.004,0.000,-0.004,0.000
1495556888058,-0.003,0.001,-0.003,0.001
1495556888075,0.001,-0.002,0.001,-0.002
1495556888092,0.003,0.000,0.003,0.000
1495556888108,0.000,0.002,0.000,0.002
1495556888125,0.003,0.001,0.003,0.001
1495556888142,0.003,0.000,0.003,0.000
1495556888158,0.000,0.002,0.000,0.002
1495556888175,-0.007,0.002,-0.007,0.002
1495556888192,-0.007,0.001,-0.007,0.001
1495556888208,-0.002,0.003,-0.002,0.003
1495556888225,-0.001,-0.001,-0.001,-0.001
1495556888242,0.004,0.004,0.004,0.004
1495556888258,0.003,0.003,0.003,0.003
1495556888275,-0.000,-0.001,-0.000,-0.001
